<?xml version="1.0" encoding="UTF-8"?>
<svg xmlns="http://www.w3.org/2000/svg" xmlns:xlink="http://www.w3.org/1999/xlink" width="900pt" height="521pt" viewBox="0 0 900 521" version="1.1">
<defs>
<g>
<symbol overflow="visible" id="glyph0-0">
<path style="stroke:none;" d="M 0.453125 1.59375 L 0.453125 -6.34375 L 4.953125 -6.34375 L 4.953125 1.59375 Z M 0.953125 1.09375 L 4.453125 1.09375 L 4.453125 -5.84375 L 0.953125 -5.84375 Z M 0.953125 1.09375 "/>
</symbol>
<symbol overflow="visible" id="glyph0-1">
<path style="stroke:none;" d="M 2.859375 -5.984375 C 2.398438 -5.984375 2.054688 -5.753906 1.828125 -5.296875 C 1.597656 -4.847656 1.484375 -4.175781 1.484375 -3.28125 C 1.484375 -2.375 1.597656 -1.695312 1.828125 -1.25 C 2.054688 -0.800781 2.398438 -0.578125 2.859375 -0.578125 C 3.316406 -0.578125 3.660156 -0.800781 3.890625 -1.25 C 4.117188 -1.695312 4.234375 -2.375 4.234375 -3.28125 C 4.234375 -4.175781 4.117188 -4.847656 3.890625 -5.296875 C 3.660156 -5.753906 3.316406 -5.984375 2.859375 -5.984375 Z M 2.859375 -6.6875 C 3.597656 -6.6875 4.160156 -6.394531 4.546875 -5.8125 C 4.929688 -5.226562 5.125 -4.382812 5.125 -3.28125 C 5.125 -2.175781 4.929688 -1.332031 4.546875 -0.75 C 4.160156 -0.164062 3.597656 0.125 2.859375 0.125 C 2.128906 0.125 1.566406 -0.164062 1.171875 -0.75 C 0.785156 -1.332031 0.59375 -2.175781 0.59375 -3.28125 C 0.59375 -4.382812 0.785156 -5.226562 1.171875 -5.8125 C 1.566406 -6.394531 2.128906 -6.6875 2.859375 -6.6875 Z M 2.859375 -6.6875 "/>
</symbol>
<symbol overflow="visible" id="glyph0-2">
<path style="stroke:none;" d="M 0.96875 -1.109375 L 1.890625 -1.109375 L 1.890625 0 L 0.96875 0 Z M 0.96875 -1.109375 "/>
</symbol>
<symbol overflow="visible" id="glyph0-3">
<path style="stroke:none;" d="M 1.734375 -0.75 L 4.828125 -0.75 L 4.828125 0 L 0.65625 0 L 0.65625 -0.75 C 1 -1.09375 1.457031 -1.554688 2.03125 -2.140625 C 2.613281 -2.734375 2.984375 -3.113281 3.140625 -3.28125 C 3.421875 -3.601562 3.613281 -3.875 3.71875 -4.09375 C 3.832031 -4.320312 3.890625 -4.539062 3.890625 -4.75 C 3.890625 -5.101562 3.769531 -5.390625 3.53125 -5.609375 C 3.289062 -5.828125 2.972656 -5.9375 2.578125 -5.9375 C 2.296875 -5.9375 2 -5.882812 1.6875 -5.78125 C 1.382812 -5.6875 1.054688 -5.539062 0.703125 -5.34375 L 0.703125 -6.25 C 1.054688 -6.382812 1.390625 -6.488281 1.703125 -6.5625 C 2.015625 -6.644531 2.300781 -6.6875 2.5625 -6.6875 C 3.238281 -6.6875 3.78125 -6.515625 4.1875 -6.171875 C 4.59375 -5.828125 4.796875 -5.375 4.796875 -4.8125 C 4.796875 -4.539062 4.742188 -4.28125 4.640625 -4.03125 C 4.535156 -3.789062 4.351562 -3.507812 4.09375 -3.1875 C 4.019531 -3.101562 3.785156 -2.859375 3.390625 -2.453125 C 2.992188 -2.046875 2.441406 -1.476562 1.734375 -0.75 Z M 1.734375 -0.75 "/>
</symbol>
<symbol overflow="visible" id="glyph0-4">
<path style="stroke:none;" d="M 3.40625 -5.78125 L 1.15625 -2.28125 L 3.40625 -2.28125 Z M 3.171875 -6.5625 L 4.28125 -6.5625 L 4.28125 -2.28125 L 5.21875 -2.28125 L 5.21875 -1.546875 L 4.28125 -1.546875 L 4.28125 0 L 3.40625 0 L 3.40625 -1.546875 L 0.4375 -1.546875 L 0.4375 -2.40625 Z M 3.171875 -6.5625 "/>
</symbol>
<symbol overflow="visible" id="glyph0-5">
<path style="stroke:none;" d="M 2.96875 -3.640625 C 2.570312 -3.640625 2.253906 -3.5 2.015625 -3.21875 C 1.785156 -2.945312 1.671875 -2.578125 1.671875 -2.109375 C 1.671875 -1.628906 1.785156 -1.253906 2.015625 -0.984375 C 2.253906 -0.710938 2.570312 -0.578125 2.96875 -0.578125 C 3.363281 -0.578125 3.675781 -0.710938 3.90625 -0.984375 C 4.144531 -1.253906 4.265625 -1.628906 4.265625 -2.109375 C 4.265625 -2.578125 4.144531 -2.945312 3.90625 -3.21875 C 3.675781 -3.5 3.363281 -3.640625 2.96875 -3.640625 Z M 4.734375 -6.421875 L 4.734375 -5.609375 C 4.515625 -5.710938 4.289062 -5.789062 4.0625 -5.84375 C 3.832031 -5.90625 3.609375 -5.9375 3.390625 -5.9375 C 2.796875 -5.9375 2.34375 -5.738281 2.03125 -5.34375 C 1.726562 -4.945312 1.554688 -4.347656 1.515625 -3.546875 C 1.679688 -3.796875 1.894531 -3.988281 2.15625 -4.125 C 2.414062 -4.269531 2.707031 -4.34375 3.03125 -4.34375 C 3.6875 -4.34375 4.203125 -4.140625 4.578125 -3.734375 C 4.960938 -3.335938 5.15625 -2.796875 5.15625 -2.109375 C 5.15625 -1.429688 4.957031 -0.890625 4.5625 -0.484375 C 4.164062 -0.078125 3.632812 0.125 2.96875 0.125 C 2.207031 0.125 1.625 -0.164062 1.21875 -0.75 C 0.820312 -1.332031 0.625 -2.175781 0.625 -3.28125 C 0.625 -4.3125 0.867188 -5.132812 1.359375 -5.75 C 1.859375 -6.375 2.519531 -6.6875 3.34375 -6.6875 C 3.570312 -6.6875 3.796875 -6.660156 4.015625 -6.609375 C 4.242188 -6.566406 4.484375 -6.503906 4.734375 -6.421875 Z M 4.734375 -6.421875 "/>
</symbol>
<symbol overflow="visible" id="glyph0-6">
<path style="stroke:none;" d="M 2.859375 -3.109375 C 2.441406 -3.109375 2.109375 -2.992188 1.859375 -2.765625 C 1.617188 -2.546875 1.5 -2.238281 1.5 -1.84375 C 1.5 -1.445312 1.617188 -1.132812 1.859375 -0.90625 C 2.109375 -0.6875 2.441406 -0.578125 2.859375 -0.578125 C 3.285156 -0.578125 3.617188 -0.6875 3.859375 -0.90625 C 4.097656 -1.132812 4.21875 -1.445312 4.21875 -1.84375 C 4.21875 -2.238281 4.097656 -2.546875 3.859375 -2.765625 C 3.617188 -2.992188 3.285156 -3.109375 2.859375 -3.109375 Z M 1.96875 -3.5 C 1.59375 -3.59375 1.296875 -3.769531 1.078125 -4.03125 C 0.867188 -4.289062 0.765625 -4.609375 0.765625 -4.984375 C 0.765625 -5.503906 0.953125 -5.914062 1.328125 -6.21875 C 1.703125 -6.53125 2.210938 -6.6875 2.859375 -6.6875 C 3.515625 -6.6875 4.023438 -6.53125 4.390625 -6.21875 C 4.765625 -5.914062 4.953125 -5.503906 4.953125 -4.984375 C 4.953125 -4.609375 4.84375 -4.289062 4.625 -4.03125 C 4.414062 -3.769531 4.125 -3.59375 3.75 -3.5 C 4.175781 -3.394531 4.507812 -3.195312 4.75 -2.90625 C 4.988281 -2.613281 5.109375 -2.257812 5.109375 -1.84375 C 5.109375 -1.207031 4.914062 -0.71875 4.53125 -0.375 C 4.144531 -0.0390625 3.585938 0.125 2.859375 0.125 C 2.140625 0.125 1.582031 -0.0390625 1.1875 -0.375 C 0.800781 -0.71875 0.609375 -1.207031 0.609375 -1.84375 C 0.609375 -2.257812 0.726562 -2.613281 0.96875 -2.90625 C 1.207031 -3.195312 1.539062 -3.394531 1.96875 -3.5 Z M 1.640625 -4.890625 C 1.640625 -4.554688 1.742188 -4.289062 1.953125 -4.09375 C 2.171875 -3.90625 2.472656 -3.8125 2.859375 -3.8125 C 3.242188 -3.8125 3.539062 -3.90625 3.75 -4.09375 C 3.96875 -4.289062 4.078125 -4.554688 4.078125 -4.890625 C 4.078125 -5.234375 3.96875 -5.5 3.75 -5.6875 C 3.539062 -5.882812 3.242188 -5.984375 2.859375 -5.984375 C 2.472656 -5.984375 2.171875 -5.882812 1.953125 -5.6875 C 1.742188 -5.5 1.640625 -5.234375 1.640625 -4.890625 Z M 1.640625 -4.890625 "/>
</symbol>
<symbol overflow="visible" id="glyph1-0">
<path style="stroke:none;" d="M 0.546875 1.9375 L 0.546875 -7.75 L 6.046875 -7.75 L 6.046875 1.9375 Z M 1.171875 1.328125 L 5.4375 1.328125 L 5.4375 -7.140625 L 1.171875 -7.140625 Z M 1.171875 1.328125 "/>
</symbol>
<symbol overflow="visible" id="glyph1-1">
<path style="stroke:none;" d="M 6.03125 -6.015625 L 3.859375 -3.09375 L 6.15625 0 L 4.984375 0 L 3.234375 -2.359375 L 1.484375 0 L 0.3125 0 L 2.65625 -3.140625 L 0.515625 -6.015625 L 1.6875 -6.015625 L 3.28125 -3.875 L 4.875 -6.015625 Z M 6.03125 -6.015625 "/>
</symbol>
<symbol overflow="visible" id="glyph1-2">
<path style="stroke:none;" d="M 1.171875 -5 L 8.046875 -5 L 8.046875 -4.09375 L 1.171875 -4.09375 Z M 1.171875 -2.796875 L 8.046875 -2.796875 L 8.046875 -1.890625 L 1.171875 -1.890625 Z M 1.171875 -2.796875 "/>
</symbol>
<symbol overflow="visible" id="glyph1-3">
<path style="stroke:none;" d="M 1.03125 -6.015625 L 2.03125 -6.015625 L 2.03125 0 L 1.03125 0 Z M 1.03125 -8.359375 L 2.03125 -8.359375 L 2.03125 -7.109375 L 1.03125 -7.109375 Z M 1.03125 -8.359375 "/>
</symbol>
<symbol overflow="visible" id="glyph1-4">
<path style="stroke:none;" d="M 1.03125 -6.015625 L 2.03125 -6.015625 L 2.03125 0.109375 C 2.03125 0.867188 1.882812 1.421875 1.59375 1.765625 C 1.300781 2.109375 0.828125 2.28125 0.171875 2.28125 L -0.203125 2.28125 L -0.203125 1.453125 L 0.0625 1.453125 C 0.4375 1.453125 0.691406 1.363281 0.828125 1.1875 C 0.960938 1.007812 1.03125 0.648438 1.03125 0.109375 Z M 1.03125 -8.359375 L 2.03125 -8.359375 L 2.03125 -7.109375 L 1.03125 -7.109375 Z M 1.03125 -8.359375 "/>
</symbol>
<symbol overflow="visible" id="glyph1-5">
<path style="stroke:none;" d="M 3.375 -5.328125 C 2.84375 -5.328125 2.421875 -5.117188 2.109375 -4.703125 C 1.804688 -4.285156 1.65625 -3.71875 1.65625 -3 C 1.65625 -2.28125 1.804688 -1.710938 2.109375 -1.296875 C 2.410156 -0.890625 2.832031 -0.6875 3.375 -0.6875 C 3.894531 -0.6875 4.304688 -0.890625 4.609375 -1.296875 C 4.921875 -1.710938 5.078125 -2.28125 5.078125 -3 C 5.078125 -3.71875 4.921875 -4.285156 4.609375 -4.703125 C 4.304688 -5.117188 3.894531 -5.328125 3.375 -5.328125 Z M 3.375 -6.15625 C 4.226562 -6.15625 4.898438 -5.875 5.390625 -5.3125 C 5.878906 -4.757812 6.125 -3.988281 6.125 -3 C 6.125 -2.019531 5.878906 -1.25 5.390625 -0.6875 C 4.898438 -0.125 4.226562 0.15625 3.375 0.15625 C 2.507812 0.15625 1.832031 -0.125 1.34375 -0.6875 C 0.851562 -1.25 0.609375 -2.019531 0.609375 -3 C 0.609375 -3.988281 0.851562 -4.757812 1.34375 -5.3125 C 1.832031 -5.875 2.507812 -6.15625 3.375 -6.15625 Z M 3.375 -6.15625 "/>
</symbol>
<symbol overflow="visible" id="glyph2-0">
<path style="stroke:none;" d="M 0.546875 1.9375 L 0.546875 -7.75 L 6.046875 -7.75 L 6.046875 1.9375 Z M 1.171875 1.328125 L 5.4375 1.328125 L 5.4375 -7.140625 L 1.171875 -7.140625 Z M 1.171875 1.328125 "/>
</symbol>
<symbol overflow="visible" id="glyph2-1">
<path style="stroke:none;" d="M 7.375 -0.4375 C 6.988281 -0.238281 6.585938 -0.09375 6.171875 0 C 5.765625 0.101562 5.335938 0.15625 4.890625 0.15625 C 3.554688 0.15625 2.5 -0.210938 1.71875 -0.953125 C 0.9375 -1.703125 0.546875 -2.71875 0.546875 -4 C 0.546875 -5.28125 0.9375 -6.296875 1.71875 -7.046875 C 2.5 -7.796875 3.554688 -8.171875 4.890625 -8.171875 C 5.335938 -8.171875 5.765625 -8.117188 6.171875 -8.015625 C 6.585938 -7.910156 6.988281 -7.757812 7.375 -7.5625 L 7.375 -5.90625 C 6.988281 -6.164062 6.609375 -6.359375 6.234375 -6.484375 C 5.859375 -6.609375 5.46875 -6.671875 5.0625 -6.671875 C 4.320312 -6.671875 3.738281 -6.429688 3.3125 -5.953125 C 2.894531 -5.484375 2.6875 -4.832031 2.6875 -4 C 2.6875 -3.175781 2.894531 -2.523438 3.3125 -2.046875 C 3.738281 -1.578125 4.320312 -1.34375 5.0625 -1.34375 C 5.46875 -1.34375 5.859375 -1.398438 6.234375 -1.515625 C 6.609375 -1.640625 6.988281 -1.832031 7.375 -2.09375 Z M 7.375 -0.4375 "/>
</symbol>
<symbol overflow="visible" id="glyph2-2">
<path style="stroke:none;" d="M 0.921875 -8.359375 L 2.84375 -8.359375 L 2.84375 0 L 0.921875 0 Z M 0.921875 -8.359375 "/>
</symbol>
<symbol overflow="visible" id="glyph2-3">
<path style="stroke:none;" d="M 3.625 -2.703125 C 3.21875 -2.703125 2.910156 -2.632812 2.703125 -2.5 C 2.503906 -2.363281 2.40625 -2.164062 2.40625 -1.90625 C 2.40625 -1.65625 2.488281 -1.460938 2.65625 -1.328125 C 2.820312 -1.191406 3.046875 -1.125 3.328125 -1.125 C 3.691406 -1.125 4 -1.253906 4.25 -1.515625 C 4.5 -1.773438 4.625 -2.097656 4.625 -2.484375 L 4.625 -2.703125 Z M 6.5625 -3.4375 L 6.5625 0 L 4.625 0 L 4.625 -0.890625 C 4.363281 -0.523438 4.070312 -0.257812 3.75 -0.09375 C 3.425781 0.0703125 3.035156 0.15625 2.578125 0.15625 C 1.953125 0.15625 1.441406 -0.0234375 1.046875 -0.390625 C 0.660156 -0.753906 0.46875 -1.226562 0.46875 -1.8125 C 0.46875 -2.507812 0.707031 -3.019531 1.1875 -3.34375 C 1.675781 -3.675781 2.441406 -3.84375 3.484375 -3.84375 L 4.625 -3.84375 L 4.625 -4 C 4.625 -4.300781 4.503906 -4.519531 4.265625 -4.65625 C 4.023438 -4.800781 3.648438 -4.875 3.140625 -4.875 C 2.722656 -4.875 2.335938 -4.832031 1.984375 -4.75 C 1.628906 -4.675781 1.300781 -4.554688 1 -4.390625 L 1 -5.859375 C 1.40625 -5.953125 1.816406 -6.023438 2.234375 -6.078125 C 2.648438 -6.128906 3.066406 -6.15625 3.484375 -6.15625 C 4.566406 -6.15625 5.347656 -5.941406 5.828125 -5.515625 C 6.316406 -5.085938 6.5625 -4.394531 6.5625 -3.4375 Z M 6.5625 -3.4375 "/>
</symbol>
<symbol overflow="visible" id="glyph2-4">
<path style="stroke:none;" d="M 5.625 -5.828125 L 5.625 -4.359375 C 5.207031 -4.535156 4.804688 -4.664062 4.421875 -4.75 C 4.046875 -4.832031 3.6875 -4.875 3.34375 -4.875 C 2.976562 -4.875 2.707031 -4.828125 2.53125 -4.734375 C 2.351562 -4.648438 2.265625 -4.515625 2.265625 -4.328125 C 2.265625 -4.171875 2.332031 -4.050781 2.46875 -3.96875 C 2.601562 -3.882812 2.84375 -3.820312 3.1875 -3.78125 L 3.53125 -3.734375 C 4.507812 -3.609375 5.171875 -3.398438 5.515625 -3.109375 C 5.859375 -2.828125 6.03125 -2.378906 6.03125 -1.765625 C 6.03125 -1.128906 5.789062 -0.648438 5.3125 -0.328125 C 4.84375 -0.00390625 4.140625 0.15625 3.203125 0.15625 C 2.804688 0.15625 2.394531 0.125 1.96875 0.0625 C 1.539062 0 1.101562 -0.09375 0.65625 -0.21875 L 0.65625 -1.6875 C 1.039062 -1.5 1.429688 -1.359375 1.828125 -1.265625 C 2.234375 -1.171875 2.644531 -1.125 3.0625 -1.125 C 3.4375 -1.125 3.71875 -1.175781 3.90625 -1.28125 C 4.101562 -1.382812 4.203125 -1.535156 4.203125 -1.734375 C 4.203125 -1.910156 4.132812 -2.039062 4 -2.125 C 3.875 -2.207031 3.613281 -2.273438 3.21875 -2.328125 L 2.890625 -2.359375 C 2.023438 -2.472656 1.421875 -2.671875 1.078125 -2.953125 C 0.734375 -3.242188 0.5625 -3.6875 0.5625 -4.28125 C 0.5625 -4.914062 0.78125 -5.382812 1.21875 -5.6875 C 1.65625 -6 2.328125 -6.15625 3.234375 -6.15625 C 3.585938 -6.15625 3.957031 -6.128906 4.34375 -6.078125 C 4.738281 -6.023438 5.164062 -5.941406 5.625 -5.828125 Z M 5.625 -5.828125 "/>
</symbol>
<symbol overflow="visible" id="glyph2-5">
<path style="stroke:none;" d=""/>
</symbol>
<symbol overflow="visible" id="glyph2-6">
<path style="stroke:none;" d="M 5.78125 -5.828125 L 5.78125 -4.265625 C 5.519531 -4.441406 5.257812 -4.570312 5 -4.65625 C 4.738281 -4.738281 4.460938 -4.78125 4.171875 -4.78125 C 3.640625 -4.78125 3.222656 -4.625 2.921875 -4.3125 C 2.617188 -4 2.46875 -3.5625 2.46875 -3 C 2.46875 -2.4375 2.617188 -2 2.921875 -1.6875 C 3.222656 -1.375 3.640625 -1.21875 4.171875 -1.21875 C 4.472656 -1.21875 4.757812 -1.257812 5.03125 -1.34375 C 5.300781 -1.4375 5.550781 -1.570312 5.78125 -1.75 L 5.78125 -0.171875 C 5.476562 -0.0664062 5.171875 0.0078125 4.859375 0.0625 C 4.554688 0.125 4.25 0.15625 3.9375 0.15625 C 2.851562 0.15625 2.003906 -0.117188 1.390625 -0.671875 C 0.773438 -1.234375 0.46875 -2.007812 0.46875 -3 C 0.46875 -3.988281 0.773438 -4.757812 1.390625 -5.3125 C 2.003906 -5.875 2.851562 -6.15625 3.9375 -6.15625 C 4.25 -6.15625 4.554688 -6.128906 4.859375 -6.078125 C 5.171875 -6.023438 5.476562 -5.941406 5.78125 -5.828125 Z M 5.78125 -5.828125 "/>
</symbol>
<symbol overflow="visible" id="glyph2-7">
<path style="stroke:none;" d="M 3.78125 -4.78125 C 3.351562 -4.78125 3.023438 -4.628906 2.796875 -4.328125 C 2.578125 -4.023438 2.46875 -3.582031 2.46875 -3 C 2.46875 -2.425781 2.578125 -1.984375 2.796875 -1.671875 C 3.023438 -1.367188 3.351562 -1.21875 3.78125 -1.21875 C 4.207031 -1.21875 4.53125 -1.367188 4.75 -1.671875 C 4.96875 -1.984375 5.078125 -2.425781 5.078125 -3 C 5.078125 -3.582031 4.96875 -4.023438 4.75 -4.328125 C 4.53125 -4.628906 4.207031 -4.78125 3.78125 -4.78125 Z M 3.78125 -6.15625 C 4.820312 -6.15625 5.628906 -5.875 6.203125 -5.3125 C 6.785156 -4.757812 7.078125 -3.988281 7.078125 -3 C 7.078125 -2.007812 6.785156 -1.234375 6.203125 -0.671875 C 5.628906 -0.117188 4.820312 0.15625 3.78125 0.15625 C 2.75 0.15625 1.9375 -0.117188 1.34375 -0.671875 C 0.757812 -1.234375 0.46875 -2.007812 0.46875 -3 C 0.46875 -3.988281 0.757812 -4.757812 1.34375 -5.3125 C 1.9375 -5.875 2.75 -6.15625 3.78125 -6.15625 Z M 3.78125 -6.15625 "/>
</symbol>
<symbol overflow="visible" id="glyph2-8">
<path style="stroke:none;" d="M 5.015625 -5.140625 L 5.015625 -8.359375 L 6.953125 -8.359375 L 6.953125 0 L 5.015625 0 L 5.015625 -0.875 C 4.753906 -0.519531 4.460938 -0.257812 4.140625 -0.09375 C 3.816406 0.0703125 3.445312 0.15625 3.03125 0.15625 C 2.289062 0.15625 1.679688 -0.132812 1.203125 -0.71875 C 0.734375 -1.3125 0.5 -2.070312 0.5 -3 C 0.5 -3.925781 0.734375 -4.679688 1.203125 -5.265625 C 1.679688 -5.859375 2.289062 -6.15625 3.03125 -6.15625 C 3.445312 -6.15625 3.816406 -6.070312 4.140625 -5.90625 C 4.460938 -5.738281 4.753906 -5.484375 5.015625 -5.140625 Z M 3.75 -1.234375 C 4.15625 -1.234375 4.46875 -1.382812 4.6875 -1.6875 C 4.90625 -1.988281 5.015625 -2.425781 5.015625 -3 C 5.015625 -3.570312 4.90625 -4.007812 4.6875 -4.3125 C 4.46875 -4.613281 4.15625 -4.765625 3.75 -4.765625 C 3.34375 -4.765625 3.03125 -4.613281 2.8125 -4.3125 C 2.59375 -4.007812 2.484375 -3.570312 2.484375 -3 C 2.484375 -2.425781 2.59375 -1.988281 2.8125 -1.6875 C 3.03125 -1.382812 3.34375 -1.234375 3.75 -1.234375 Z M 3.75 -1.234375 "/>
</symbol>
<symbol overflow="visible" id="glyph2-9">
<path style="stroke:none;" d="M 6.921875 -3.03125 L 6.921875 -2.46875 L 2.4375 -2.46875 C 2.476562 -2.019531 2.640625 -1.679688 2.921875 -1.453125 C 3.203125 -1.234375 3.59375 -1.125 4.09375 -1.125 C 4.5 -1.125 4.910156 -1.179688 5.328125 -1.296875 C 5.753906 -1.421875 6.191406 -1.601562 6.640625 -1.84375 L 6.640625 -0.359375 C 6.191406 -0.191406 5.738281 -0.0664062 5.28125 0.015625 C 4.820312 0.109375 4.367188 0.15625 3.921875 0.15625 C 2.828125 0.15625 1.976562 -0.117188 1.375 -0.671875 C 0.769531 -1.222656 0.46875 -2 0.46875 -3 C 0.46875 -3.976562 0.765625 -4.75 1.359375 -5.3125 C 1.953125 -5.875 2.769531 -6.15625 3.8125 -6.15625 C 4.75 -6.15625 5.5 -5.867188 6.0625 -5.296875 C 6.632812 -4.734375 6.921875 -3.976562 6.921875 -3.03125 Z M 4.953125 -3.65625 C 4.953125 -4.03125 4.84375 -4.328125 4.625 -4.546875 C 4.414062 -4.765625 4.140625 -4.875 3.796875 -4.875 C 3.421875 -4.875 3.117188 -4.769531 2.890625 -4.5625 C 2.660156 -4.351562 2.515625 -4.050781 2.453125 -3.65625 Z M 4.953125 -3.65625 "/>
</symbol>
<symbol overflow="visible" id="glyph3-0">
<path style="stroke:none;" d="M 1.9375 -0.546875 L -7.75 -0.546875 L -7.75 -6.046875 L 1.9375 -6.046875 Z M 1.328125 -1.171875 L 1.328125 -5.4375 L -7.140625 -5.4375 L -7.140625 -1.171875 Z M 1.328125 -1.171875 "/>
</symbol>
<symbol overflow="visible" id="glyph3-1">
<path style="stroke:none;" d="M -8.015625 -1.015625 L -8.015625 -4.4375 C -8.015625 -5.457031 -7.785156 -6.238281 -7.328125 -6.78125 C -6.878906 -7.332031 -6.238281 -7.609375 -5.40625 -7.609375 C -4.5625 -7.609375 -3.910156 -7.332031 -3.453125 -6.78125 C -3.003906 -6.238281 -2.78125 -5.457031 -2.78125 -4.4375 L -2.78125 -3.078125 L 0 -3.078125 L 0 -1.015625 Z M -6.515625 -3.078125 L -4.28125 -3.078125 L -4.28125 -4.21875 C -4.28125 -4.625 -4.375 -4.9375 -4.5625 -5.15625 C -4.757812 -5.375 -5.039062 -5.484375 -5.40625 -5.484375 C -5.757812 -5.484375 -6.03125 -5.375 -6.21875 -5.15625 C -6.414062 -4.9375 -6.515625 -4.625 -6.515625 -4.21875 Z M -6.515625 -3.078125 "/>
</symbol>
<symbol overflow="visible" id="glyph3-2">
<path style="stroke:none;" d="M -3.65625 -6.96875 L 0 -6.96875 L 0 -5.03125 L -2.796875 -5.03125 C -3.316406 -5.03125 -3.675781 -5.019531 -3.875 -5 C -4.070312 -4.976562 -4.21875 -4.9375 -4.3125 -4.875 C -4.4375 -4.800781 -4.53125 -4.703125 -4.59375 -4.578125 C -4.664062 -4.453125 -4.703125 -4.304688 -4.703125 -4.140625 C -4.703125 -3.734375 -4.546875 -3.414062 -4.234375 -3.1875 C -3.929688 -2.957031 -3.503906 -2.84375 -2.953125 -2.84375 L 0 -2.84375 L 0 -0.921875 L -8.359375 -0.921875 L -8.359375 -2.84375 L -5.140625 -2.84375 C -5.484375 -3.132812 -5.738281 -3.441406 -5.90625 -3.765625 C -6.070312 -4.097656 -6.15625 -4.457031 -6.15625 -4.84375 C -6.15625 -5.539062 -5.941406 -6.066406 -5.515625 -6.421875 C -5.085938 -6.785156 -4.46875 -6.96875 -3.65625 -6.96875 Z M -3.65625 -6.96875 "/>
</symbol>
<symbol overflow="visible" id="glyph3-3">
<path style="stroke:none;" d="M -2.703125 -3.625 C -2.703125 -3.21875 -2.632812 -2.910156 -2.5 -2.703125 C -2.363281 -2.503906 -2.164062 -2.40625 -1.90625 -2.40625 C -1.65625 -2.40625 -1.460938 -2.488281 -1.328125 -2.65625 C -1.191406 -2.820312 -1.125 -3.046875 -1.125 -3.328125 C -1.125 -3.691406 -1.253906 -4 -1.515625 -4.25 C -1.773438 -4.5 -2.097656 -4.625 -2.484375 -4.625 L -2.703125 -4.625 Z M -3.4375 -6.5625 L 0 -6.5625 L 0 -4.625 L -0.890625 -4.625 C -0.523438 -4.363281 -0.257812 -4.070312 -0.09375 -3.75 C 0.0703125 -3.425781 0.15625 -3.035156 0.15625 -2.578125 C 0.15625 -1.953125 -0.0234375 -1.441406 -0.390625 -1.046875 C -0.753906 -0.660156 -1.226562 -0.46875 -1.8125 -0.46875 C -2.507812 -0.46875 -3.019531 -0.707031 -3.34375 -1.1875 C -3.675781 -1.675781 -3.84375 -2.441406 -3.84375 -3.484375 L -3.84375 -4.625 L -4 -4.625 C -4.300781 -4.625 -4.519531 -4.503906 -4.65625 -4.265625 C -4.800781 -4.023438 -4.875 -3.648438 -4.875 -3.140625 C -4.875 -2.722656 -4.832031 -2.335938 -4.75 -1.984375 C -4.675781 -1.628906 -4.554688 -1.300781 -4.390625 -1 L -5.859375 -1 C -5.953125 -1.40625 -6.023438 -1.816406 -6.078125 -2.234375 C -6.128906 -2.648438 -6.15625 -3.066406 -6.15625 -3.484375 C -6.15625 -4.566406 -5.941406 -5.347656 -5.515625 -5.828125 C -5.085938 -6.316406 -4.394531 -6.5625 -3.4375 -6.5625 Z M -3.4375 -6.5625 "/>
</symbol>
<symbol overflow="visible" id="glyph3-4">
<path style="stroke:none;" d="M -5.828125 -5.625 L -4.359375 -5.625 C -4.535156 -5.207031 -4.664062 -4.804688 -4.75 -4.421875 C -4.832031 -4.046875 -4.875 -3.6875 -4.875 -3.34375 C -4.875 -2.976562 -4.828125 -2.707031 -4.734375 -2.53125 C -4.648438 -2.351562 -4.515625 -2.265625 -4.328125 -2.265625 C -4.171875 -2.265625 -4.050781 -2.332031 -3.96875 -2.46875 C -3.882812 -2.601562 -3.820312 -2.84375 -3.78125 -3.1875 L -3.734375 -3.53125 C -3.609375 -4.507812 -3.398438 -5.171875 -3.109375 -5.515625 C -2.828125 -5.859375 -2.378906 -6.03125 -1.765625 -6.03125 C -1.128906 -6.03125 -0.648438 -5.789062 -0.328125 -5.3125 C -0.00390625 -4.84375 0.15625 -4.140625 0.15625 -3.203125 C 0.15625 -2.804688 0.125 -2.394531 0.0625 -1.96875 C 0 -1.539062 -0.09375 -1.101562 -0.21875 -0.65625 L -1.6875 -0.65625 C -1.5 -1.039062 -1.359375 -1.429688 -1.265625 -1.828125 C -1.171875 -2.234375 -1.125 -2.644531 -1.125 -3.0625 C -1.125 -3.4375 -1.175781 -3.71875 -1.28125 -3.90625 C -1.382812 -4.101562 -1.535156 -4.203125 -1.734375 -4.203125 C -1.910156 -4.203125 -2.039062 -4.132812 -2.125 -4 C -2.207031 -3.875 -2.273438 -3.613281 -2.328125 -3.21875 L -2.359375 -2.890625 C -2.472656 -2.023438 -2.671875 -1.421875 -2.953125 -1.078125 C -3.242188 -0.734375 -3.6875 -0.5625 -4.28125 -0.5625 C -4.914062 -0.5625 -5.382812 -0.78125 -5.6875 -1.21875 C -6 -1.65625 -6.15625 -2.328125 -6.15625 -3.234375 C -6.15625 -3.585938 -6.128906 -3.957031 -6.078125 -4.34375 C -6.023438 -4.738281 -5.941406 -5.164062 -5.828125 -5.625 Z M -5.828125 -5.625 "/>
</symbol>
<symbol overflow="visible" id="glyph3-5">
<path style="stroke:none;" d="M -7.71875 -3.03125 L -6.015625 -3.03125 L -6.015625 -5 L -4.640625 -5 L -4.640625 -3.03125 L -2.09375 -3.03125 C -1.8125 -3.03125 -1.617188 -3.082031 -1.515625 -3.1875 C -1.421875 -3.300781 -1.375 -3.519531 -1.375 -3.84375 L -1.375 -4.84375 L 0 -4.84375 L 0 -3.1875 C 0 -2.425781 -0.15625 -1.882812 -0.46875 -1.5625 C -0.789062 -1.25 -1.332031 -1.09375 -2.09375 -1.09375 L -4.640625 -1.09375 L -4.640625 -0.140625 L -6.015625 -0.140625 L -6.015625 -1.09375 L -7.71875 -1.09375 Z M -7.71875 -3.03125 "/>
</symbol>
<symbol overflow="visible" id="glyph3-6">
<path style="stroke:none;" d="M -0.4375 -7.375 C -0.238281 -6.988281 -0.09375 -6.585938 0 -6.171875 C 0.101562 -5.765625 0.15625 -5.335938 0.15625 -4.890625 C 0.15625 -3.554688 -0.210938 -2.5 -0.953125 -1.71875 C -1.703125 -0.9375 -2.71875 -0.546875 -4 -0.546875 C -5.28125 -0.546875 -6.296875 -0.9375 -7.046875 -1.71875 C -7.796875 -2.5 -8.171875 -3.554688 -8.171875 -4.890625 C -8.171875 -5.335938 -8.117188 -5.765625 -8.015625 -6.171875 C -7.910156 -6.585938 -7.757812 -6.988281 -7.5625 -7.375 L -5.90625 -7.375 C -6.164062 -6.988281 -6.359375 -6.609375 -6.484375 -6.234375 C -6.609375 -5.859375 -6.671875 -5.46875 -6.671875 -5.0625 C -6.671875 -4.320312 -6.429688 -3.738281 -5.953125 -3.3125 C -5.484375 -2.894531 -4.832031 -2.6875 -4 -2.6875 C -3.175781 -2.6875 -2.523438 -2.894531 -2.046875 -3.3125 C -1.578125 -3.738281 -1.34375 -4.320312 -1.34375 -5.0625 C -1.34375 -5.46875 -1.398438 -5.859375 -1.515625 -6.234375 C -1.640625 -6.609375 -1.832031 -6.988281 -2.09375 -7.375 Z M -0.4375 -7.375 "/>
</symbol>
<symbol overflow="visible" id="glyph3-7">
<path style="stroke:none;" d="M -4.78125 -3.78125 C -4.78125 -3.351562 -4.628906 -3.023438 -4.328125 -2.796875 C -4.023438 -2.578125 -3.582031 -2.46875 -3 -2.46875 C -2.425781 -2.46875 -1.984375 -2.578125 -1.671875 -2.796875 C -1.367188 -3.023438 -1.21875 -3.351562 -1.21875 -3.78125 C -1.21875 -4.207031 -1.367188 -4.53125 -1.671875 -4.75 C -1.984375 -4.96875 -2.425781 -5.078125 -3 -5.078125 C -3.582031 -5.078125 -4.023438 -4.96875 -4.328125 -4.75 C -4.628906 -4.53125 -4.78125 -4.207031 -4.78125 -3.78125 Z M -6.15625 -3.78125 C -6.15625 -4.820312 -5.875 -5.628906 -5.3125 -6.203125 C -4.757812 -6.785156 -3.988281 -7.078125 -3 -7.078125 C -2.007812 -7.078125 -1.234375 -6.785156 -0.671875 -6.203125 C -0.117188 -5.628906 0.15625 -4.820312 0.15625 -3.78125 C 0.15625 -2.75 -0.117188 -1.9375 -0.671875 -1.34375 C -1.234375 -0.757812 -2.007812 -0.46875 -3 -0.46875 C -3.988281 -0.46875 -4.757812 -0.757812 -5.3125 -1.34375 C -5.875 -1.9375 -6.15625 -2.75 -6.15625 -3.78125 Z M -6.15625 -3.78125 "/>
</symbol>
<symbol overflow="visible" id="glyph3-8">
<path style="stroke:none;" d="M -3.65625 -6.96875 L 0 -6.96875 L 0 -5.03125 L -2.796875 -5.03125 C -3.316406 -5.03125 -3.675781 -5.019531 -3.875 -5 C -4.070312 -4.976562 -4.21875 -4.9375 -4.3125 -4.875 C -4.4375 -4.800781 -4.53125 -4.703125 -4.59375 -4.578125 C -4.664062 -4.453125 -4.703125 -4.304688 -4.703125 -4.140625 C -4.703125 -3.734375 -4.546875 -3.414062 -4.234375 -3.1875 C -3.929688 -2.957031 -3.503906 -2.84375 -2.953125 -2.84375 L 0 -2.84375 L 0 -0.921875 L -6.015625 -0.921875 L -6.015625 -2.84375 L -5.140625 -2.84375 C -5.484375 -3.132812 -5.738281 -3.441406 -5.90625 -3.765625 C -6.070312 -4.097656 -6.15625 -4.457031 -6.15625 -4.84375 C -6.15625 -5.539062 -5.941406 -6.066406 -5.515625 -6.421875 C -5.085938 -6.785156 -4.46875 -6.96875 -3.65625 -6.96875 Z M -3.65625 -6.96875 "/>
</symbol>
<symbol overflow="visible" id="glyph4-0">
<path style="stroke:none;" d="M 0.59375 2.125 L 0.59375 -8.46875 L 6.59375 -8.46875 L 6.59375 2.125 Z M 1.265625 1.453125 L 5.9375 1.453125 L 5.9375 -7.78125 L 1.265625 -7.78125 Z M 1.265625 1.453125 "/>
</symbol>
<symbol overflow="visible" id="glyph4-1">
<path style="stroke:none;" d="M 3.953125 -2.953125 C 3.515625 -2.953125 3.179688 -2.878906 2.953125 -2.734375 C 2.734375 -2.585938 2.625 -2.367188 2.625 -2.078125 C 2.625 -1.804688 2.710938 -1.59375 2.890625 -1.4375 C 3.078125 -1.289062 3.328125 -1.21875 3.640625 -1.21875 C 4.035156 -1.21875 4.367188 -1.359375 4.640625 -1.640625 C 4.910156 -1.929688 5.046875 -2.289062 5.046875 -2.71875 L 5.046875 -2.953125 Z M 7.15625 -3.75 L 7.15625 0 L 5.046875 0 L 5.046875 -0.96875 C 4.765625 -0.570312 4.445312 -0.28125 4.09375 -0.09375 C 3.738281 0.0820312 3.3125 0.171875 2.8125 0.171875 C 2.125 0.171875 1.566406 -0.0234375 1.140625 -0.421875 C 0.722656 -0.816406 0.515625 -1.332031 0.515625 -1.96875 C 0.515625 -2.738281 0.78125 -3.300781 1.3125 -3.65625 C 1.84375 -4.019531 2.671875 -4.203125 3.796875 -4.203125 L 5.046875 -4.203125 L 5.046875 -4.359375 C 5.046875 -4.691406 4.910156 -4.9375 4.640625 -5.09375 C 4.378906 -5.25 3.972656 -5.328125 3.421875 -5.328125 C 2.972656 -5.328125 2.554688 -5.28125 2.171875 -5.1875 C 1.785156 -5.101562 1.425781 -4.96875 1.09375 -4.78125 L 1.09375 -6.390625 C 1.539062 -6.492188 1.988281 -6.570312 2.4375 -6.625 C 2.894531 -6.6875 3.347656 -6.71875 3.796875 -6.71875 C 4.984375 -6.71875 5.835938 -6.484375 6.359375 -6.015625 C 6.890625 -5.554688 7.15625 -4.800781 7.15625 -3.75 Z M 7.15625 -3.75 "/>
</symbol>
<symbol overflow="visible" id="glyph4-2">
<path style="stroke:none;" d="M 7.609375 -4 L 7.609375 0 L 5.5 0 L 5.5 -3.0625 C 5.5 -3.625 5.484375 -4.007812 5.453125 -4.21875 C 5.429688 -4.4375 5.390625 -4.597656 5.328125 -4.703125 C 5.242188 -4.835938 5.128906 -4.941406 4.984375 -5.015625 C 4.847656 -5.097656 4.691406 -5.140625 4.515625 -5.140625 C 4.078125 -5.140625 3.734375 -4.96875 3.484375 -4.625 C 3.234375 -4.289062 3.109375 -3.828125 3.109375 -3.234375 L 3.109375 0 L 1.015625 0 L 1.015625 -6.5625 L 3.109375 -6.5625 L 3.109375 -5.609375 C 3.421875 -5.984375 3.753906 -6.257812 4.109375 -6.4375 C 4.460938 -6.625 4.859375 -6.71875 5.296875 -6.71875 C 6.046875 -6.71875 6.617188 -6.484375 7.015625 -6.015625 C 7.410156 -5.554688 7.609375 -4.882812 7.609375 -4 Z M 7.609375 -4 "/>
</symbol>
<symbol overflow="visible" id="glyph4-3">
<path style="stroke:none;" d="M 3.296875 -8.421875 L 3.296875 -6.5625 L 5.46875 -6.5625 L 5.46875 -5.0625 L 3.296875 -5.0625 L 3.296875 -2.28125 C 3.296875 -1.976562 3.351562 -1.769531 3.46875 -1.65625 C 3.59375 -1.550781 3.835938 -1.5 4.203125 -1.5 L 5.28125 -1.5 L 5.28125 0 L 3.484375 0 C 2.648438 0 2.0625 -0.171875 1.71875 -0.515625 C 1.375 -0.859375 1.203125 -1.445312 1.203125 -2.28125 L 1.203125 -5.0625 L 0.15625 -5.0625 L 0.15625 -6.5625 L 1.203125 -6.5625 L 1.203125 -8.421875 Z M 3.296875 -8.421875 "/>
</symbol>
<symbol overflow="visible" id="glyph4-4">
<path style="stroke:none;" d="M 1.015625 -6.5625 L 3.109375 -6.5625 L 3.109375 0 L 1.015625 0 Z M 1.015625 -9.125 L 3.109375 -9.125 L 3.109375 -7.40625 L 1.015625 -7.40625 Z M 1.015625 -9.125 "/>
</symbol>
<symbol overflow="visible" id="glyph4-5">
<path style="stroke:none;" d="M 6.140625 -6.359375 L 6.140625 -4.765625 C 5.691406 -4.953125 5.253906 -5.09375 4.828125 -5.1875 C 4.410156 -5.28125 4.019531 -5.328125 3.65625 -5.328125 C 3.25 -5.328125 2.945312 -5.273438 2.75 -5.171875 C 2.5625 -5.078125 2.46875 -4.925781 2.46875 -4.71875 C 2.46875 -4.550781 2.539062 -4.421875 2.6875 -4.328125 C 2.832031 -4.242188 3.097656 -4.175781 3.484375 -4.125 L 3.84375 -4.078125 C 4.925781 -3.941406 5.648438 -3.71875 6.015625 -3.40625 C 6.390625 -3.09375 6.578125 -2.601562 6.578125 -1.9375 C 6.578125 -1.238281 6.316406 -0.710938 5.796875 -0.359375 C 5.285156 -0.00390625 4.519531 0.171875 3.5 0.171875 C 3.0625 0.171875 2.609375 0.132812 2.140625 0.0625 C 1.679688 0 1.207031 -0.0976562 0.71875 -0.234375 L 0.71875 -1.828125 C 1.132812 -1.628906 1.5625 -1.476562 2 -1.375 C 2.445312 -1.269531 2.894531 -1.21875 3.34375 -1.21875 C 3.757812 -1.21875 4.066406 -1.273438 4.265625 -1.390625 C 4.472656 -1.503906 4.578125 -1.675781 4.578125 -1.90625 C 4.578125 -2.09375 4.503906 -2.226562 4.359375 -2.3125 C 4.222656 -2.40625 3.941406 -2.476562 3.515625 -2.53125 L 3.140625 -2.578125 C 2.210938 -2.691406 1.5625 -2.90625 1.1875 -3.21875 C 0.8125 -3.539062 0.625 -4.023438 0.625 -4.671875 C 0.625 -5.367188 0.859375 -5.882812 1.328125 -6.21875 C 1.804688 -6.550781 2.539062 -6.71875 3.53125 -6.71875 C 3.914062 -6.71875 4.320312 -6.6875 4.75 -6.625 C 5.175781 -6.570312 5.640625 -6.484375 6.140625 -6.359375 Z M 6.140625 -6.359375 "/>
</symbol>
<symbol overflow="visible" id="glyph4-6">
<path style="stroke:none;" d="M 7.5625 -3.296875 L 7.5625 -2.703125 L 2.65625 -2.703125 C 2.707031 -2.210938 2.882812 -1.84375 3.1875 -1.59375 C 3.488281 -1.34375 3.914062 -1.21875 4.46875 -1.21875 C 4.90625 -1.21875 5.351562 -1.285156 5.8125 -1.421875 C 6.28125 -1.554688 6.757812 -1.753906 7.25 -2.015625 L 7.25 -0.40625 C 6.75 -0.21875 6.25 -0.078125 5.75 0.015625 C 5.257812 0.117188 4.765625 0.171875 4.265625 0.171875 C 3.078125 0.171875 2.15625 -0.128906 1.5 -0.734375 C 0.84375 -1.335938 0.515625 -2.1875 0.515625 -3.28125 C 0.515625 -4.34375 0.835938 -5.179688 1.484375 -5.796875 C 2.128906 -6.410156 3.019531 -6.71875 4.15625 -6.71875 C 5.1875 -6.71875 6.007812 -6.40625 6.625 -5.78125 C 7.25 -5.164062 7.5625 -4.335938 7.5625 -3.296875 Z M 5.40625 -4 C 5.40625 -4.394531 5.285156 -4.710938 5.046875 -4.953125 C 4.816406 -5.203125 4.515625 -5.328125 4.140625 -5.328125 C 3.734375 -5.328125 3.398438 -5.210938 3.140625 -4.984375 C 2.890625 -4.753906 2.734375 -4.425781 2.671875 -4 Z M 5.40625 -4 "/>
</symbol>
<symbol overflow="visible" id="glyph4-7">
<path style="stroke:none;" d="M 1.34375 -6.5625 L 3.453125 -6.5625 L 3.453125 -4.296875 L 1.34375 -4.296875 Z M 1.34375 -2.265625 L 3.453125 -2.265625 L 3.453125 0 L 1.34375 0 Z M 1.34375 -2.265625 "/>
</symbol>
<symbol overflow="visible" id="glyph4-8">
<path style="stroke:none;" d="M 1.109375 -8.75 L 4.84375 -8.75 C 5.957031 -8.75 6.8125 -8.5 7.40625 -8 C 8 -7.507812 8.296875 -6.804688 8.296875 -5.890625 C 8.296875 -4.972656 8 -4.265625 7.40625 -3.765625 C 6.8125 -3.273438 5.957031 -3.03125 4.84375 -3.03125 L 3.359375 -3.03125 L 3.359375 0 L 1.109375 0 Z M 3.359375 -7.109375 L 3.359375 -4.671875 L 4.609375 -4.671875 C 5.046875 -4.671875 5.382812 -4.773438 5.625 -4.984375 C 5.863281 -5.203125 5.984375 -5.503906 5.984375 -5.890625 C 5.984375 -6.285156 5.863281 -6.585938 5.625 -6.796875 C 5.382812 -7.003906 5.046875 -7.109375 4.609375 -7.109375 Z M 3.359375 -7.109375 "/>
</symbol>
<symbol overflow="visible" id="glyph4-9">
<path style="stroke:none;" d="M 7.609375 -4 L 7.609375 0 L 5.5 0 L 5.5 -3.046875 C 5.5 -3.617188 5.484375 -4.007812 5.453125 -4.21875 C 5.429688 -4.4375 5.390625 -4.597656 5.328125 -4.703125 C 5.242188 -4.835938 5.128906 -4.941406 4.984375 -5.015625 C 4.847656 -5.097656 4.691406 -5.140625 4.515625 -5.140625 C 4.078125 -5.140625 3.734375 -4.96875 3.484375 -4.625 C 3.234375 -4.289062 3.109375 -3.828125 3.109375 -3.234375 L 3.109375 0 L 1.015625 0 L 1.015625 -9.125 L 3.109375 -9.125 L 3.109375 -5.609375 C 3.421875 -5.984375 3.753906 -6.257812 4.109375 -6.4375 C 4.460938 -6.625 4.859375 -6.71875 5.296875 -6.71875 C 6.046875 -6.71875 6.617188 -6.484375 7.015625 -6.015625 C 7.410156 -5.554688 7.609375 -4.882812 7.609375 -4 Z M 7.609375 -4 "/>
</symbol>
<symbol overflow="visible" id="glyph4-10">
<path style="stroke:none;" d="M 8.046875 -0.484375 C 7.628906 -0.265625 7.195312 -0.101562 6.75 0 C 6.300781 0.113281 5.832031 0.171875 5.34375 0.171875 C 3.882812 0.171875 2.726562 -0.234375 1.875 -1.046875 C 1.019531 -1.867188 0.59375 -2.972656 0.59375 -4.359375 C 0.59375 -5.765625 1.019531 -6.875 1.875 -7.6875 C 2.726562 -8.5 3.882812 -8.90625 5.34375 -8.90625 C 5.832031 -8.90625 6.300781 -8.847656 6.75 -8.734375 C 7.195312 -8.628906 7.628906 -8.46875 8.046875 -8.25 L 8.046875 -6.453125 C 7.617188 -6.734375 7.203125 -6.9375 6.796875 -7.0625 C 6.390625 -7.195312 5.960938 -7.265625 5.515625 -7.265625 C 4.710938 -7.265625 4.082031 -7.003906 3.625 -6.484375 C 3.164062 -5.972656 2.9375 -5.265625 2.9375 -4.359375 C 2.9375 -3.460938 3.164062 -2.753906 3.625 -2.234375 C 4.082031 -1.722656 4.710938 -1.46875 5.515625 -1.46875 C 5.960938 -1.46875 6.390625 -1.53125 6.796875 -1.65625 C 7.203125 -1.789062 7.617188 -2.003906 8.046875 -2.296875 Z M 8.046875 -0.484375 "/>
</symbol>
<symbol overflow="visible" id="glyph4-11">
<path style="stroke:none;" d="M 4.125 -5.21875 C 3.664062 -5.21875 3.3125 -5.050781 3.0625 -4.71875 C 2.820312 -4.382812 2.703125 -3.90625 2.703125 -3.28125 C 2.703125 -2.644531 2.820312 -2.160156 3.0625 -1.828125 C 3.3125 -1.492188 3.664062 -1.328125 4.125 -1.328125 C 4.582031 -1.328125 4.929688 -1.492188 5.171875 -1.828125 C 5.421875 -2.160156 5.546875 -2.644531 5.546875 -3.28125 C 5.546875 -3.90625 5.421875 -4.382812 5.171875 -4.71875 C 4.929688 -5.050781 4.582031 -5.21875 4.125 -5.21875 Z M 4.125 -6.71875 C 5.257812 -6.71875 6.144531 -6.410156 6.78125 -5.796875 C 7.414062 -5.191406 7.734375 -4.351562 7.734375 -3.28125 C 7.734375 -2.195312 7.414062 -1.347656 6.78125 -0.734375 C 6.144531 -0.128906 5.257812 0.171875 4.125 0.171875 C 3 0.171875 2.113281 -0.128906 1.46875 -0.734375 C 0.832031 -1.347656 0.515625 -2.195312 0.515625 -3.28125 C 0.515625 -4.351562 0.832031 -5.191406 1.46875 -5.796875 C 2.113281 -6.410156 3 -6.71875 4.125 -6.71875 Z M 4.125 -6.71875 "/>
</symbol>
<symbol overflow="visible" id="glyph4-12">
<path style="stroke:none;" d="M 6.3125 -6.359375 L 6.3125 -4.640625 C 6.03125 -4.835938 5.742188 -4.984375 5.453125 -5.078125 C 5.160156 -5.171875 4.863281 -5.21875 4.5625 -5.21875 C 3.976562 -5.21875 3.519531 -5.046875 3.1875 -4.703125 C 2.863281 -4.367188 2.703125 -3.894531 2.703125 -3.28125 C 2.703125 -2.664062 2.863281 -2.1875 3.1875 -1.84375 C 3.519531 -1.5 3.976562 -1.328125 4.5625 -1.328125 C 4.882812 -1.328125 5.191406 -1.375 5.484375 -1.46875 C 5.785156 -1.570312 6.0625 -1.71875 6.3125 -1.90625 L 6.3125 -0.1875 C 5.976562 -0.0703125 5.644531 0.015625 5.3125 0.078125 C 4.976562 0.140625 4.640625 0.171875 4.296875 0.171875 C 3.109375 0.171875 2.179688 -0.128906 1.515625 -0.734375 C 0.847656 -1.347656 0.515625 -2.195312 0.515625 -3.28125 C 0.515625 -4.363281 0.847656 -5.207031 1.515625 -5.8125 C 2.179688 -6.414062 3.109375 -6.71875 4.296875 -6.71875 C 4.640625 -6.71875 4.976562 -6.6875 5.3125 -6.625 C 5.644531 -6.570312 5.976562 -6.484375 6.3125 -6.359375 Z M 6.3125 -6.359375 "/>
</symbol>
<symbol overflow="visible" id="glyph4-13">
<path style="stroke:none;" d="M 1.015625 -9.125 L 3.109375 -9.125 L 3.109375 0 L 1.015625 0 Z M 1.015625 -9.125 "/>
</symbol>
<symbol overflow="visible" id="glyph4-14">
<path style="stroke:none;" d="M 1.21875 -2.265625 L 3.328125 -2.265625 L 3.328125 0 L 1.21875 0 Z M 1.21875 -2.265625 "/>
</symbol>
<symbol overflow="visible" id="glyph4-15">
<path style="stroke:none;" d="M 5.46875 -5.609375 L 5.46875 -9.125 L 7.578125 -9.125 L 7.578125 0 L 5.46875 0 L 5.46875 -0.953125 C 5.1875 -0.566406 4.867188 -0.28125 4.515625 -0.09375 C 4.171875 0.0820312 3.769531 0.171875 3.3125 0.171875 C 2.5 0.171875 1.832031 -0.148438 1.3125 -0.796875 C 0.800781 -1.441406 0.546875 -2.269531 0.546875 -3.28125 C 0.546875 -4.289062 0.800781 -5.113281 1.3125 -5.75 C 1.832031 -6.394531 2.5 -6.71875 3.3125 -6.71875 C 3.757812 -6.71875 4.160156 -6.625 4.515625 -6.4375 C 4.867188 -6.257812 5.1875 -5.984375 5.46875 -5.609375 Z M 4.09375 -1.359375 C 4.539062 -1.359375 4.878906 -1.519531 5.109375 -1.84375 C 5.347656 -2.175781 5.46875 -2.65625 5.46875 -3.28125 C 5.46875 -3.90625 5.347656 -4.378906 5.109375 -4.703125 C 4.878906 -5.035156 4.539062 -5.203125 4.09375 -5.203125 C 3.644531 -5.203125 3.300781 -5.035156 3.0625 -4.703125 C 2.832031 -4.378906 2.71875 -3.90625 2.71875 -3.28125 C 2.71875 -2.65625 2.832031 -2.175781 3.0625 -1.84375 C 3.300781 -1.519531 3.644531 -1.359375 4.09375 -1.359375 Z M 4.09375 -1.359375 "/>
</symbol>
</g>
<clipPath id="clip1">
  <path d="M 39.890625 21.054688 L 895 21.054688 L 895 488 L 39.890625 488 Z M 39.890625 21.054688 "/>
</clipPath>
<clipPath id="clip2">
  <path d="M 39.890625 411 L 895 411 L 895 413 L 39.890625 413 Z M 39.890625 411 "/>
</clipPath>
<clipPath id="clip3">
  <path d="M 39.890625 304 L 895 304 L 895 305 L 39.890625 305 Z M 39.890625 304 "/>
</clipPath>
<clipPath id="clip4">
  <path d="M 39.890625 196 L 895 196 L 895 197 L 39.890625 197 Z M 39.890625 196 "/>
</clipPath>
<clipPath id="clip5">
  <path d="M 39.890625 88 L 895 88 L 895 90 L 39.890625 90 Z M 39.890625 88 "/>
</clipPath>
<clipPath id="clip6">
  <path d="M 39.890625 465 L 895.519531 465 L 895.519531 467 L 39.890625 467 Z M 39.890625 465 "/>
</clipPath>
<clipPath id="clip7">
  <path d="M 39.890625 357 L 895.519531 357 L 895.519531 359 L 39.890625 359 Z M 39.890625 357 "/>
</clipPath>
<clipPath id="clip8">
  <path d="M 39.890625 250 L 895.519531 250 L 895.519531 252 L 39.890625 252 Z M 39.890625 250 "/>
</clipPath>
<clipPath id="clip9">
  <path d="M 39.890625 142 L 895.519531 142 L 895.519531 144 L 39.890625 144 Z M 39.890625 142 "/>
</clipPath>
<clipPath id="clip10">
  <path d="M 39.890625 34 L 895.519531 34 L 895.519531 36 L 39.890625 36 Z M 39.890625 34 "/>
</clipPath>
<clipPath id="clip11">
  <path d="M 137 21.054688 L 140 21.054688 L 140 488 L 137 488 Z M 137 21.054688 "/>
</clipPath>
<clipPath id="clip12">
  <path d="M 302 21.054688 L 304 21.054688 L 304 488 L 302 488 Z M 302 21.054688 "/>
</clipPath>
<clipPath id="clip13">
  <path d="M 466 21.054688 L 468 21.054688 L 468 488 L 466 488 Z M 466 21.054688 "/>
</clipPath>
<clipPath id="clip14">
  <path d="M 631 21.054688 L 633 21.054688 L 633 488 L 631 488 Z M 631 21.054688 "/>
</clipPath>
<clipPath id="clip15">
  <path d="M 795 21.054688 L 797 21.054688 L 797 488 L 795 488 Z M 795 21.054688 "/>
</clipPath>
</defs>
<g id="surface6612">
<rect x="0" y="0" width="900" height="521" style="fill:rgb(100%,100%,100%);fill-opacity:1;stroke:none;"/>
<rect x="0" y="0" width="900" height="521" style="fill:rgb(100%,100%,100%);fill-opacity:1;stroke:none;"/>
<path style="fill:none;stroke-width:1.066978;stroke-linecap:round;stroke-linejoin:round;stroke:rgb(100%,100%,100%);stroke-opacity:1;stroke-miterlimit:10;" d="M 0 521 L 900 521 L 900 0 L 0 0 Z M 0 521 "/>
<g clip-path="url(#clip1)" clip-rule="nonzero">
<path style=" stroke:none;fill-rule:nonzero;fill:rgb(92.156863%,92.156863%,92.156863%);fill-opacity:1;" d="M 39.890625 487.109375 L 894.519531 487.109375 L 894.519531 21.054688 L 39.890625 21.054688 Z M 39.890625 487.109375 "/>
</g>
<g clip-path="url(#clip2)" clip-rule="nonzero">
<path style="fill:none;stroke-width:0.533489;stroke-linecap:butt;stroke-linejoin:round;stroke:rgb(100%,100%,100%);stroke-opacity:1;stroke-miterlimit:10;" d="M 39.890625 412.148438 L 894.519531 412.148438 "/>
</g>
<g clip-path="url(#clip3)" clip-rule="nonzero">
<path style="fill:none;stroke-width:0.533489;stroke-linecap:butt;stroke-linejoin:round;stroke:rgb(100%,100%,100%);stroke-opacity:1;stroke-miterlimit:10;" d="M 39.890625 304.40625 L 894.519531 304.40625 "/>
</g>
<g clip-path="url(#clip4)" clip-rule="nonzero">
<path style="fill:none;stroke-width:0.533489;stroke-linecap:butt;stroke-linejoin:round;stroke:rgb(100%,100%,100%);stroke-opacity:1;stroke-miterlimit:10;" d="M 39.890625 196.667969 L 894.519531 196.667969 "/>
</g>
<g clip-path="url(#clip5)" clip-rule="nonzero">
<path style="fill:none;stroke-width:0.533489;stroke-linecap:butt;stroke-linejoin:round;stroke:rgb(100%,100%,100%);stroke-opacity:1;stroke-miterlimit:10;" d="M 39.890625 88.925781 L 894.519531 88.925781 "/>
</g>
<g clip-path="url(#clip6)" clip-rule="nonzero">
<path style="fill:none;stroke-width:1.066978;stroke-linecap:butt;stroke-linejoin:round;stroke:rgb(100%,100%,100%);stroke-opacity:1;stroke-miterlimit:10;" d="M 39.890625 466.019531 L 894.519531 466.019531 "/>
</g>
<g clip-path="url(#clip7)" clip-rule="nonzero">
<path style="fill:none;stroke-width:1.066978;stroke-linecap:butt;stroke-linejoin:round;stroke:rgb(100%,100%,100%);stroke-opacity:1;stroke-miterlimit:10;" d="M 39.890625 358.277344 L 894.519531 358.277344 "/>
</g>
<g clip-path="url(#clip8)" clip-rule="nonzero">
<path style="fill:none;stroke-width:1.066978;stroke-linecap:butt;stroke-linejoin:round;stroke:rgb(100%,100%,100%);stroke-opacity:1;stroke-miterlimit:10;" d="M 39.890625 250.539062 L 894.519531 250.539062 "/>
</g>
<g clip-path="url(#clip9)" clip-rule="nonzero">
<path style="fill:none;stroke-width:1.066978;stroke-linecap:butt;stroke-linejoin:round;stroke:rgb(100%,100%,100%);stroke-opacity:1;stroke-miterlimit:10;" d="M 39.890625 142.796875 L 894.519531 142.796875 "/>
</g>
<g clip-path="url(#clip10)" clip-rule="nonzero">
<path style="fill:none;stroke-width:1.066978;stroke-linecap:butt;stroke-linejoin:round;stroke:rgb(100%,100%,100%);stroke-opacity:1;stroke-miterlimit:10;" d="M 39.890625 35.054688 L 894.519531 35.054688 "/>
</g>
<g clip-path="url(#clip11)" clip-rule="nonzero">
<path style="fill:none;stroke-width:1.066978;stroke-linecap:butt;stroke-linejoin:round;stroke:rgb(100%,100%,100%);stroke-opacity:1;stroke-miterlimit:10;" d="M 138.5 487.109375 L 138.5 21.054688 "/>
</g>
<g clip-path="url(#clip12)" clip-rule="nonzero">
<path style="fill:none;stroke-width:1.066978;stroke-linecap:butt;stroke-linejoin:round;stroke:rgb(100%,100%,100%);stroke-opacity:1;stroke-miterlimit:10;" d="M 302.855469 487.109375 L 302.855469 21.054688 "/>
</g>
<g clip-path="url(#clip13)" clip-rule="nonzero">
<path style="fill:none;stroke-width:1.066978;stroke-linecap:butt;stroke-linejoin:round;stroke:rgb(100%,100%,100%);stroke-opacity:1;stroke-miterlimit:10;" d="M 467.207031 487.109375 L 467.207031 21.054688 "/>
</g>
<g clip-path="url(#clip14)" clip-rule="nonzero">
<path style="fill:none;stroke-width:1.066978;stroke-linecap:butt;stroke-linejoin:round;stroke:rgb(100%,100%,100%);stroke-opacity:1;stroke-miterlimit:10;" d="M 631.558594 487.109375 L 631.558594 21.054688 "/>
</g>
<g clip-path="url(#clip15)" clip-rule="nonzero">
<path style="fill:none;stroke-width:1.066978;stroke-linecap:butt;stroke-linejoin:round;stroke:rgb(100%,100%,100%);stroke-opacity:1;stroke-miterlimit:10;" d="M 795.910156 487.109375 L 795.910156 21.054688 "/>
</g>
<path style="fill-rule:nonzero;fill:rgb(20%,20%,20%);fill-opacity:0.301961;stroke-width:0.708661;stroke-linecap:round;stroke-linejoin:round;stroke:rgb(20%,20%,20%);stroke-opacity:0.301961;stroke-miterlimit:10;" d="M 140.457031 455.652344 C 140.457031 458.257812 136.546875 458.257812 136.546875 455.652344 C 136.546875 453.046875 140.457031 453.046875 140.457031 455.652344 "/>
<path style="fill-rule:nonzero;fill:rgb(20%,20%,20%);fill-opacity:0.301961;stroke-width:0.708661;stroke-linecap:round;stroke-linejoin:round;stroke:rgb(20%,20%,20%);stroke-opacity:0.301961;stroke-miterlimit:10;" d="M 140.457031 458.21875 C 140.457031 460.824219 136.546875 460.824219 136.546875 458.21875 C 136.546875 455.613281 140.457031 455.613281 140.457031 458.21875 "/>
<path style="fill-rule:nonzero;fill:rgb(20%,20%,20%);fill-opacity:0.301961;stroke-width:0.708661;stroke-linecap:round;stroke-linejoin:round;stroke:rgb(20%,20%,20%);stroke-opacity:0.301961;stroke-miterlimit:10;" d="M 140.457031 383.679688 C 140.457031 386.285156 136.546875 386.285156 136.546875 383.679688 C 136.546875 381.074219 140.457031 381.074219 140.457031 383.679688 "/>
<path style="fill:none;stroke-width:1.066978;stroke-linecap:butt;stroke-linejoin:round;stroke:rgb(20%,20%,20%);stroke-opacity:1;stroke-miterlimit:10;" d="M 138.5 409.664062 L 138.5 406.574219 "/>
<path style="fill:none;stroke-width:1.066978;stroke-linecap:butt;stroke-linejoin:round;stroke:rgb(20%,20%,20%);stroke-opacity:1;stroke-miterlimit:10;" d="M 138.5 424.8125 L 138.5 424.8125 "/>
<path style="fill-rule:nonzero;fill:rgb(90.588235%,41.960784%,95.294118%);fill-opacity:0.301961;stroke-width:1.066978;stroke-linecap:round;stroke-linejoin:round;stroke:rgb(20%,20%,20%);stroke-opacity:1;stroke-miterlimit:10;" d="M 76.871094 409.664062 L 76.871094 424.8125 L 200.132812 424.8125 L 200.132812 409.664062 Z M 76.871094 409.664062 "/>
<path style="fill:none;stroke-width:2.133957;stroke-linecap:butt;stroke-linejoin:round;stroke:rgb(20%,20%,20%);stroke-opacity:1;stroke-miterlimit:10;" d="M 76.871094 421.660156 L 200.132812 421.660156 "/>
<path style="fill-rule:nonzero;fill:rgb(20%,20%,20%);fill-opacity:0.301961;stroke-width:0.708661;stroke-linecap:round;stroke-linejoin:round;stroke:rgb(20%,20%,20%);stroke-opacity:0.301961;stroke-miterlimit:10;" d="M 304.808594 126.320312 C 304.808594 128.925781 300.898438 128.925781 300.898438 126.320312 C 300.898438 123.710938 304.808594 123.710938 304.808594 126.320312 "/>
<path style="fill-rule:nonzero;fill:rgb(20%,20%,20%);fill-opacity:0.301961;stroke-width:0.708661;stroke-linecap:round;stroke-linejoin:round;stroke:rgb(20%,20%,20%);stroke-opacity:0.301961;stroke-miterlimit:10;" d="M 304.808594 280.378906 C 304.808594 282.984375 300.898438 282.984375 300.898438 280.378906 C 300.898438 277.769531 304.808594 277.769531 304.808594 280.378906 "/>
<path style="fill-rule:nonzero;fill:rgb(20%,20%,20%);fill-opacity:0.301961;stroke-width:0.708661;stroke-linecap:round;stroke-linejoin:round;stroke:rgb(20%,20%,20%);stroke-opacity:0.301961;stroke-miterlimit:10;" d="M 304.808594 245.621094 C 304.808594 248.226562 300.898438 248.226562 300.898438 245.621094 C 300.898438 243.015625 304.808594 243.015625 304.808594 245.621094 "/>
<path style="fill-rule:nonzero;fill:rgb(20%,20%,20%);fill-opacity:0.301961;stroke-width:0.708661;stroke-linecap:round;stroke-linejoin:round;stroke:rgb(20%,20%,20%);stroke-opacity:0.301961;stroke-miterlimit:10;" d="M 304.808594 156.589844 C 304.808594 159.195312 300.898438 159.195312 300.898438 156.589844 C 300.898438 153.984375 304.808594 153.984375 304.808594 156.589844 "/>
<path style="fill-rule:nonzero;fill:rgb(20%,20%,20%);fill-opacity:0.301961;stroke-width:0.708661;stroke-linecap:round;stroke-linejoin:round;stroke:rgb(20%,20%,20%);stroke-opacity:0.301961;stroke-miterlimit:10;" d="M 304.808594 77.664062 C 304.808594 80.269531 300.898438 80.269531 300.898438 77.664062 C 300.898438 75.054688 304.808594 75.054688 304.808594 77.664062 "/>
<path style="fill-rule:nonzero;fill:rgb(20%,20%,20%);fill-opacity:0.301961;stroke-width:0.708661;stroke-linecap:round;stroke-linejoin:round;stroke:rgb(20%,20%,20%);stroke-opacity:0.301961;stroke-miterlimit:10;" d="M 304.808594 42.238281 C 304.808594 44.84375 300.898438 44.84375 300.898438 42.238281 C 300.898438 39.632812 304.808594 39.632812 304.808594 42.238281 "/>
<path style="fill-rule:nonzero;fill:rgb(20%,20%,20%);fill-opacity:0.301961;stroke-width:0.708661;stroke-linecap:round;stroke-linejoin:round;stroke:rgb(20%,20%,20%);stroke-opacity:0.301961;stroke-miterlimit:10;" d="M 304.808594 225.042969 C 304.808594 227.648438 300.898438 227.648438 300.898438 225.042969 C 300.898438 222.4375 304.808594 222.4375 304.808594 225.042969 "/>
<path style="fill-rule:nonzero;fill:rgb(20%,20%,20%);fill-opacity:0.301961;stroke-width:0.708661;stroke-linecap:round;stroke-linejoin:round;stroke:rgb(20%,20%,20%);stroke-opacity:0.301961;stroke-miterlimit:10;" d="M 304.808594 210.039062 C 304.808594 212.644531 300.898438 212.644531 300.898438 210.039062 C 300.898438 207.433594 304.808594 207.433594 304.808594 210.039062 "/>
<path style="fill-rule:nonzero;fill:rgb(20%,20%,20%);fill-opacity:0.301961;stroke-width:0.708661;stroke-linecap:round;stroke-linejoin:round;stroke:rgb(20%,20%,20%);stroke-opacity:0.301961;stroke-miterlimit:10;" d="M 304.808594 226.089844 C 304.808594 228.699219 300.898438 228.699219 300.898438 226.089844 C 300.898438 223.484375 304.808594 223.484375 304.808594 226.089844 "/>
<path style="fill-rule:nonzero;fill:rgb(20%,20%,20%);fill-opacity:0.301961;stroke-width:0.708661;stroke-linecap:round;stroke-linejoin:round;stroke:rgb(20%,20%,20%);stroke-opacity:0.301961;stroke-miterlimit:10;" d="M 304.808594 224.824219 C 304.808594 227.429688 300.898438 227.429688 300.898438 224.824219 C 300.898438 222.21875 304.808594 222.21875 304.808594 224.824219 "/>
<path style="fill-rule:nonzero;fill:rgb(20%,20%,20%);fill-opacity:0.301961;stroke-width:0.708661;stroke-linecap:round;stroke-linejoin:round;stroke:rgb(20%,20%,20%);stroke-opacity:0.301961;stroke-miterlimit:10;" d="M 304.808594 276.585938 C 304.808594 279.191406 300.898438 279.191406 300.898438 276.585938 C 300.898438 273.976562 304.808594 273.976562 304.808594 276.585938 "/>
<path style="fill-rule:nonzero;fill:rgb(20%,20%,20%);fill-opacity:0.301961;stroke-width:0.708661;stroke-linecap:round;stroke-linejoin:round;stroke:rgb(20%,20%,20%);stroke-opacity:0.301961;stroke-miterlimit:10;" d="M 304.808594 255.496094 C 304.808594 258.105469 300.898438 258.105469 300.898438 255.496094 C 300.898438 252.890625 304.808594 252.890625 304.808594 255.496094 "/>
<path style="fill-rule:nonzero;fill:rgb(20%,20%,20%);fill-opacity:0.301961;stroke-width:0.708661;stroke-linecap:round;stroke-linejoin:round;stroke:rgb(20%,20%,20%);stroke-opacity:0.301961;stroke-miterlimit:10;" d="M 304.808594 132.855469 C 304.808594 135.460938 300.898438 135.460938 300.898438 132.855469 C 300.898438 130.25 304.808594 130.25 304.808594 132.855469 "/>
<path style="fill-rule:nonzero;fill:rgb(20%,20%,20%);fill-opacity:0.301961;stroke-width:0.708661;stroke-linecap:round;stroke-linejoin:round;stroke:rgb(20%,20%,20%);stroke-opacity:0.301961;stroke-miterlimit:10;" d="M 304.808594 267.292969 C 304.808594 269.902344 300.898438 269.902344 300.898438 267.292969 C 300.898438 264.6875 304.808594 264.6875 304.808594 267.292969 "/>
<path style="fill-rule:nonzero;fill:rgb(20%,20%,20%);fill-opacity:0.301961;stroke-width:0.708661;stroke-linecap:round;stroke-linejoin:round;stroke:rgb(20%,20%,20%);stroke-opacity:0.301961;stroke-miterlimit:10;" d="M 304.808594 291.070312 C 304.808594 293.675781 300.898438 293.675781 300.898438 291.070312 C 300.898438 288.464844 304.808594 288.464844 304.808594 291.070312 "/>
<path style="fill-rule:nonzero;fill:rgb(20%,20%,20%);fill-opacity:0.301961;stroke-width:0.708661;stroke-linecap:round;stroke-linejoin:round;stroke:rgb(20%,20%,20%);stroke-opacity:0.301961;stroke-miterlimit:10;" d="M 304.808594 199.199219 C 304.808594 201.804688 300.898438 201.804688 300.898438 199.199219 C 300.898438 196.589844 304.808594 196.589844 304.808594 199.199219 "/>
<path style="fill-rule:nonzero;fill:rgb(20%,20%,20%);fill-opacity:0.301961;stroke-width:0.708661;stroke-linecap:round;stroke-linejoin:round;stroke:rgb(20%,20%,20%);stroke-opacity:0.301961;stroke-miterlimit:10;" d="M 304.808594 189.46875 C 304.808594 192.074219 300.898438 192.074219 300.898438 189.46875 C 300.898438 186.863281 304.808594 186.863281 304.808594 189.46875 "/>
<path style="fill-rule:nonzero;fill:rgb(20%,20%,20%);fill-opacity:0.301961;stroke-width:0.708661;stroke-linecap:round;stroke-linejoin:round;stroke:rgb(20%,20%,20%);stroke-opacity:0.301961;stroke-miterlimit:10;" d="M 304.808594 264.367188 C 304.808594 266.976562 300.898438 266.976562 300.898438 264.367188 C 300.898438 261.761719 304.808594 261.761719 304.808594 264.367188 "/>
<path style="fill-rule:nonzero;fill:rgb(20%,20%,20%);fill-opacity:0.301961;stroke-width:0.708661;stroke-linecap:round;stroke-linejoin:round;stroke:rgb(20%,20%,20%);stroke-opacity:0.301961;stroke-miterlimit:10;" d="M 304.808594 242.257812 C 304.808594 244.863281 300.898438 244.863281 300.898438 242.257812 C 300.898438 239.648438 304.808594 239.648438 304.808594 242.257812 "/>
<path style="fill-rule:nonzero;fill:rgb(20%,20%,20%);fill-opacity:0.301961;stroke-width:0.708661;stroke-linecap:round;stroke-linejoin:round;stroke:rgb(20%,20%,20%);stroke-opacity:0.301961;stroke-miterlimit:10;" d="M 304.808594 235.019531 C 304.808594 237.625 300.898438 237.625 300.898438 235.019531 C 300.898438 232.414062 304.808594 232.414062 304.808594 235.019531 "/>
<path style="fill-rule:nonzero;fill:rgb(20%,20%,20%);fill-opacity:0.301961;stroke-width:0.708661;stroke-linecap:round;stroke-linejoin:round;stroke:rgb(20%,20%,20%);stroke-opacity:0.301961;stroke-miterlimit:10;" d="M 304.808594 155.792969 C 304.808594 158.398438 300.898438 158.398438 300.898438 155.792969 C 300.898438 153.1875 304.808594 153.1875 304.808594 155.792969 "/>
<path style="fill-rule:nonzero;fill:rgb(20%,20%,20%);fill-opacity:0.301961;stroke-width:0.708661;stroke-linecap:round;stroke-linejoin:round;stroke:rgb(20%,20%,20%);stroke-opacity:0.301961;stroke-miterlimit:10;" d="M 304.808594 233.953125 C 304.808594 236.558594 300.898438 236.558594 300.898438 233.953125 C 300.898438 231.34375 304.808594 231.34375 304.808594 233.953125 "/>
<path style="fill-rule:nonzero;fill:rgb(20%,20%,20%);fill-opacity:0.301961;stroke-width:0.708661;stroke-linecap:round;stroke-linejoin:round;stroke:rgb(20%,20%,20%);stroke-opacity:0.301961;stroke-miterlimit:10;" d="M 304.808594 245.570312 C 304.808594 248.175781 300.898438 248.175781 300.898438 245.570312 C 300.898438 242.964844 304.808594 242.964844 304.808594 245.570312 "/>
<path style="fill-rule:nonzero;fill:rgb(20%,20%,20%);fill-opacity:0.301961;stroke-width:0.708661;stroke-linecap:round;stroke-linejoin:round;stroke:rgb(20%,20%,20%);stroke-opacity:0.301961;stroke-miterlimit:10;" d="M 304.808594 233.0625 C 304.808594 235.671875 300.898438 235.671875 300.898438 233.0625 C 300.898438 230.457031 304.808594 230.457031 304.808594 233.0625 "/>
<path style="fill-rule:nonzero;fill:rgb(20%,20%,20%);fill-opacity:0.301961;stroke-width:0.708661;stroke-linecap:round;stroke-linejoin:round;stroke:rgb(20%,20%,20%);stroke-opacity:0.301961;stroke-miterlimit:10;" d="M 304.808594 234.808594 C 304.808594 237.417969 300.898438 237.417969 300.898438 234.808594 C 300.898438 232.203125 304.808594 232.203125 304.808594 234.808594 "/>
<path style="fill-rule:nonzero;fill:rgb(20%,20%,20%);fill-opacity:0.301961;stroke-width:0.708661;stroke-linecap:round;stroke-linejoin:round;stroke:rgb(20%,20%,20%);stroke-opacity:0.301961;stroke-miterlimit:10;" d="M 304.808594 289.050781 C 304.808594 291.65625 300.898438 291.65625 300.898438 289.050781 C 300.898438 286.445312 304.808594 286.445312 304.808594 289.050781 "/>
<path style="fill-rule:nonzero;fill:rgb(20%,20%,20%);fill-opacity:0.301961;stroke-width:0.708661;stroke-linecap:round;stroke-linejoin:round;stroke:rgb(20%,20%,20%);stroke-opacity:0.301961;stroke-miterlimit:10;" d="M 304.808594 274.535156 C 304.808594 277.144531 300.898438 277.144531 300.898438 274.535156 C 300.898438 271.929688 304.808594 271.929688 304.808594 274.535156 "/>
<path style="fill-rule:nonzero;fill:rgb(20%,20%,20%);fill-opacity:0.301961;stroke-width:0.708661;stroke-linecap:round;stroke-linejoin:round;stroke:rgb(20%,20%,20%);stroke-opacity:0.301961;stroke-miterlimit:10;" d="M 304.808594 291.285156 C 304.808594 293.890625 300.898438 293.890625 300.898438 291.285156 C 300.898438 288.675781 304.808594 288.675781 304.808594 291.285156 "/>
<path style="fill-rule:nonzero;fill:rgb(20%,20%,20%);fill-opacity:0.301961;stroke-width:0.708661;stroke-linecap:round;stroke-linejoin:round;stroke:rgb(20%,20%,20%);stroke-opacity:0.301961;stroke-miterlimit:10;" d="M 304.808594 174.976562 C 304.808594 177.582031 300.898438 177.582031 300.898438 174.976562 C 300.898438 172.367188 304.808594 172.367188 304.808594 174.976562 "/>
<path style="fill-rule:nonzero;fill:rgb(20%,20%,20%);fill-opacity:0.301961;stroke-width:0.708661;stroke-linecap:round;stroke-linejoin:round;stroke:rgb(20%,20%,20%);stroke-opacity:0.301961;stroke-miterlimit:10;" d="M 304.808594 274.3125 C 304.808594 276.921875 300.898438 276.921875 300.898438 274.3125 C 300.898438 271.707031 304.808594 271.707031 304.808594 274.3125 "/>
<path style="fill-rule:nonzero;fill:rgb(20%,20%,20%);fill-opacity:0.301961;stroke-width:0.708661;stroke-linecap:round;stroke-linejoin:round;stroke:rgb(20%,20%,20%);stroke-opacity:0.301961;stroke-miterlimit:10;" d="M 304.808594 208.859375 C 304.808594 211.464844 300.898438 211.464844 300.898438 208.859375 C 300.898438 206.253906 304.808594 206.253906 304.808594 208.859375 "/>
<path style="fill-rule:nonzero;fill:rgb(20%,20%,20%);fill-opacity:0.301961;stroke-width:0.708661;stroke-linecap:round;stroke-linejoin:round;stroke:rgb(20%,20%,20%);stroke-opacity:0.301961;stroke-miterlimit:10;" d="M 304.808594 124.769531 C 304.808594 127.378906 300.898438 127.378906 300.898438 124.769531 C 300.898438 122.164062 304.808594 122.164062 304.808594 124.769531 "/>
<path style="fill-rule:nonzero;fill:rgb(20%,20%,20%);fill-opacity:0.301961;stroke-width:0.708661;stroke-linecap:round;stroke-linejoin:round;stroke:rgb(20%,20%,20%);stroke-opacity:0.301961;stroke-miterlimit:10;" d="M 304.808594 125.578125 C 304.808594 128.183594 300.898438 128.183594 300.898438 125.578125 C 300.898438 122.972656 304.808594 122.972656 304.808594 125.578125 "/>
<path style="fill-rule:nonzero;fill:rgb(20%,20%,20%);fill-opacity:0.301961;stroke-width:0.708661;stroke-linecap:round;stroke-linejoin:round;stroke:rgb(20%,20%,20%);stroke-opacity:0.301961;stroke-miterlimit:10;" d="M 304.808594 258.347656 C 304.808594 260.953125 300.898438 260.953125 300.898438 258.347656 C 300.898438 255.738281 304.808594 255.738281 304.808594 258.347656 "/>
<path style="fill-rule:nonzero;fill:rgb(20%,20%,20%);fill-opacity:0.301961;stroke-width:0.708661;stroke-linecap:round;stroke-linejoin:round;stroke:rgb(20%,20%,20%);stroke-opacity:0.301961;stroke-miterlimit:10;" d="M 304.808594 248.792969 C 304.808594 251.402344 300.898438 251.402344 300.898438 248.792969 C 300.898438 246.1875 304.808594 246.1875 304.808594 248.792969 "/>
<path style="fill-rule:nonzero;fill:rgb(20%,20%,20%);fill-opacity:0.301961;stroke-width:0.708661;stroke-linecap:round;stroke-linejoin:round;stroke:rgb(20%,20%,20%);stroke-opacity:0.301961;stroke-miterlimit:10;" d="M 304.808594 270.269531 C 304.808594 272.878906 300.898438 272.878906 300.898438 270.269531 C 300.898438 267.664062 304.808594 267.664062 304.808594 270.269531 "/>
<path style="fill-rule:nonzero;fill:rgb(20%,20%,20%);fill-opacity:0.301961;stroke-width:0.708661;stroke-linecap:round;stroke-linejoin:round;stroke:rgb(20%,20%,20%);stroke-opacity:0.301961;stroke-miterlimit:10;" d="M 304.808594 249.523438 C 304.808594 252.128906 300.898438 252.128906 300.898438 249.523438 C 300.898438 246.917969 304.808594 246.917969 304.808594 249.523438 "/>
<path style="fill-rule:nonzero;fill:rgb(20%,20%,20%);fill-opacity:0.301961;stroke-width:0.708661;stroke-linecap:round;stroke-linejoin:round;stroke:rgb(20%,20%,20%);stroke-opacity:0.301961;stroke-miterlimit:10;" d="M 304.808594 238.53125 C 304.808594 241.136719 300.898438 241.136719 300.898438 238.53125 C 300.898438 235.925781 304.808594 235.925781 304.808594 238.53125 "/>
<path style="fill-rule:nonzero;fill:rgb(20%,20%,20%);fill-opacity:0.301961;stroke-width:0.708661;stroke-linecap:round;stroke-linejoin:round;stroke:rgb(20%,20%,20%);stroke-opacity:0.301961;stroke-miterlimit:10;" d="M 304.808594 226.363281 C 304.808594 228.96875 300.898438 228.96875 300.898438 226.363281 C 300.898438 223.753906 304.808594 223.753906 304.808594 226.363281 "/>
<path style="fill-rule:nonzero;fill:rgb(20%,20%,20%);fill-opacity:0.301961;stroke-width:0.708661;stroke-linecap:round;stroke-linejoin:round;stroke:rgb(20%,20%,20%);stroke-opacity:0.301961;stroke-miterlimit:10;" d="M 304.808594 282.570312 C 304.808594 285.179688 300.898438 285.179688 300.898438 282.570312 C 300.898438 279.964844 304.808594 279.964844 304.808594 282.570312 "/>
<path style="fill-rule:nonzero;fill:rgb(20%,20%,20%);fill-opacity:0.301961;stroke-width:0.708661;stroke-linecap:round;stroke-linejoin:round;stroke:rgb(20%,20%,20%);stroke-opacity:0.301961;stroke-miterlimit:10;" d="M 304.808594 251.707031 C 304.808594 254.3125 300.898438 254.3125 300.898438 251.707031 C 300.898438 249.101562 304.808594 249.101562 304.808594 251.707031 "/>
<path style="fill-rule:nonzero;fill:rgb(20%,20%,20%);fill-opacity:0.301961;stroke-width:0.708661;stroke-linecap:round;stroke-linejoin:round;stroke:rgb(20%,20%,20%);stroke-opacity:0.301961;stroke-miterlimit:10;" d="M 304.808594 263.726562 C 304.808594 266.332031 300.898438 266.332031 300.898438 263.726562 C 300.898438 261.121094 304.808594 261.121094 304.808594 263.726562 "/>
<path style="fill-rule:nonzero;fill:rgb(20%,20%,20%);fill-opacity:0.301961;stroke-width:0.708661;stroke-linecap:round;stroke-linejoin:round;stroke:rgb(20%,20%,20%);stroke-opacity:0.301961;stroke-miterlimit:10;" d="M 304.808594 279.367188 C 304.808594 281.972656 300.898438 281.972656 300.898438 279.367188 C 300.898438 276.761719 304.808594 276.761719 304.808594 279.367188 "/>
<path style="fill-rule:nonzero;fill:rgb(20%,20%,20%);fill-opacity:0.301961;stroke-width:0.708661;stroke-linecap:round;stroke-linejoin:round;stroke:rgb(20%,20%,20%);stroke-opacity:0.301961;stroke-miterlimit:10;" d="M 304.808594 282.84375 C 304.808594 285.449219 300.898438 285.449219 300.898438 282.84375 C 300.898438 280.238281 304.808594 280.238281 304.808594 282.84375 "/>
<path style="fill-rule:nonzero;fill:rgb(20%,20%,20%);fill-opacity:0.301961;stroke-width:0.708661;stroke-linecap:round;stroke-linejoin:round;stroke:rgb(20%,20%,20%);stroke-opacity:0.301961;stroke-miterlimit:10;" d="M 304.808594 271.292969 C 304.808594 273.898438 300.898438 273.898438 300.898438 271.292969 C 300.898438 268.683594 304.808594 268.683594 304.808594 271.292969 "/>
<path style="fill-rule:nonzero;fill:rgb(20%,20%,20%);fill-opacity:0.301961;stroke-width:0.708661;stroke-linecap:round;stroke-linejoin:round;stroke:rgb(20%,20%,20%);stroke-opacity:0.301961;stroke-miterlimit:10;" d="M 304.808594 231.089844 C 304.808594 233.695312 300.898438 233.695312 300.898438 231.089844 C 300.898438 228.484375 304.808594 228.484375 304.808594 231.089844 "/>
<path style="fill-rule:nonzero;fill:rgb(20%,20%,20%);fill-opacity:0.301961;stroke-width:0.708661;stroke-linecap:round;stroke-linejoin:round;stroke:rgb(20%,20%,20%);stroke-opacity:0.301961;stroke-miterlimit:10;" d="M 304.808594 183.125 C 304.808594 185.730469 300.898438 185.730469 300.898438 183.125 C 300.898438 180.519531 304.808594 180.519531 304.808594 183.125 "/>
<path style="fill-rule:nonzero;fill:rgb(20%,20%,20%);fill-opacity:0.301961;stroke-width:0.708661;stroke-linecap:round;stroke-linejoin:round;stroke:rgb(20%,20%,20%);stroke-opacity:0.301961;stroke-miterlimit:10;" d="M 304.808594 228.960938 C 304.808594 231.566406 300.898438 231.566406 300.898438 228.960938 C 300.898438 226.351562 304.808594 226.351562 304.808594 228.960938 "/>
<path style="fill-rule:nonzero;fill:rgb(20%,20%,20%);fill-opacity:0.301961;stroke-width:0.708661;stroke-linecap:round;stroke-linejoin:round;stroke:rgb(20%,20%,20%);stroke-opacity:0.301961;stroke-miterlimit:10;" d="M 304.808594 196.054688 C 304.808594 198.664062 300.898438 198.664062 300.898438 196.054688 C 300.898438 193.449219 304.808594 193.449219 304.808594 196.054688 "/>
<path style="fill-rule:nonzero;fill:rgb(20%,20%,20%);fill-opacity:0.301961;stroke-width:0.708661;stroke-linecap:round;stroke-linejoin:round;stroke:rgb(20%,20%,20%);stroke-opacity:0.301961;stroke-miterlimit:10;" d="M 304.808594 195.085938 C 304.808594 197.691406 300.898438 197.691406 300.898438 195.085938 C 300.898438 192.476562 304.808594 192.476562 304.808594 195.085938 "/>
<path style="fill-rule:nonzero;fill:rgb(20%,20%,20%);fill-opacity:0.301961;stroke-width:0.708661;stroke-linecap:round;stroke-linejoin:round;stroke:rgb(20%,20%,20%);stroke-opacity:0.301961;stroke-miterlimit:10;" d="M 304.808594 234.167969 C 304.808594 236.773438 300.898438 236.773438 300.898438 234.167969 C 300.898438 231.558594 304.808594 231.558594 304.808594 234.167969 "/>
<path style="fill-rule:nonzero;fill:rgb(20%,20%,20%);fill-opacity:0.301961;stroke-width:0.708661;stroke-linecap:round;stroke-linejoin:round;stroke:rgb(20%,20%,20%);stroke-opacity:0.301961;stroke-miterlimit:10;" d="M 304.808594 162.828125 C 304.808594 165.433594 300.898438 165.433594 300.898438 162.828125 C 300.898438 160.21875 304.808594 160.21875 304.808594 162.828125 "/>
<path style="fill-rule:nonzero;fill:rgb(20%,20%,20%);fill-opacity:0.301961;stroke-width:0.708661;stroke-linecap:round;stroke-linejoin:round;stroke:rgb(20%,20%,20%);stroke-opacity:0.301961;stroke-miterlimit:10;" d="M 304.808594 81.652344 C 304.808594 84.257812 300.898438 84.257812 300.898438 81.652344 C 300.898438 79.046875 304.808594 79.046875 304.808594 81.652344 "/>
<path style="fill-rule:nonzero;fill:rgb(20%,20%,20%);fill-opacity:0.301961;stroke-width:0.708661;stroke-linecap:round;stroke-linejoin:round;stroke:rgb(20%,20%,20%);stroke-opacity:0.301961;stroke-miterlimit:10;" d="M 304.808594 162.660156 C 304.808594 165.265625 300.898438 165.265625 300.898438 162.660156 C 300.898438 160.050781 304.808594 160.050781 304.808594 162.660156 "/>
<path style="fill-rule:nonzero;fill:rgb(20%,20%,20%);fill-opacity:0.301961;stroke-width:0.708661;stroke-linecap:round;stroke-linejoin:round;stroke:rgb(20%,20%,20%);stroke-opacity:0.301961;stroke-miterlimit:10;" d="M 304.808594 197.242188 C 304.808594 199.847656 300.898438 199.847656 300.898438 197.242188 C 300.898438 194.636719 304.808594 194.636719 304.808594 197.242188 "/>
<path style="fill-rule:nonzero;fill:rgb(20%,20%,20%);fill-opacity:0.301961;stroke-width:0.708661;stroke-linecap:round;stroke-linejoin:round;stroke:rgb(20%,20%,20%);stroke-opacity:0.301961;stroke-miterlimit:10;" d="M 304.808594 132.992188 C 304.808594 135.597656 300.898438 135.597656 300.898438 132.992188 C 300.898438 130.386719 304.808594 130.386719 304.808594 132.992188 "/>
<path style="fill-rule:nonzero;fill:rgb(20%,20%,20%);fill-opacity:0.301961;stroke-width:0.708661;stroke-linecap:round;stroke-linejoin:round;stroke:rgb(20%,20%,20%);stroke-opacity:0.301961;stroke-miterlimit:10;" d="M 304.808594 282.789062 C 304.808594 285.394531 300.898438 285.394531 300.898438 282.789062 C 300.898438 280.183594 304.808594 280.183594 304.808594 282.789062 "/>
<path style="fill-rule:nonzero;fill:rgb(20%,20%,20%);fill-opacity:0.301961;stroke-width:0.708661;stroke-linecap:round;stroke-linejoin:round;stroke:rgb(20%,20%,20%);stroke-opacity:0.301961;stroke-miterlimit:10;" d="M 304.808594 190.238281 C 304.808594 192.84375 300.898438 192.84375 300.898438 190.238281 C 300.898438 187.628906 304.808594 187.628906 304.808594 190.238281 "/>
<path style="fill-rule:nonzero;fill:rgb(20%,20%,20%);fill-opacity:0.301961;stroke-width:0.708661;stroke-linecap:round;stroke-linejoin:round;stroke:rgb(20%,20%,20%);stroke-opacity:0.301961;stroke-miterlimit:10;" d="M 304.808594 155.976562 C 304.808594 158.582031 300.898438 158.582031 300.898438 155.976562 C 300.898438 153.371094 304.808594 153.371094 304.808594 155.976562 "/>
<path style="fill-rule:nonzero;fill:rgb(20%,20%,20%);fill-opacity:0.301961;stroke-width:0.708661;stroke-linecap:round;stroke-linejoin:round;stroke:rgb(20%,20%,20%);stroke-opacity:0.301961;stroke-miterlimit:10;" d="M 304.808594 201.90625 C 304.808594 204.515625 300.898438 204.515625 300.898438 201.90625 C 300.898438 199.300781 304.808594 199.300781 304.808594 201.90625 "/>
<path style="fill-rule:nonzero;fill:rgb(20%,20%,20%);fill-opacity:0.301961;stroke-width:0.708661;stroke-linecap:round;stroke-linejoin:round;stroke:rgb(20%,20%,20%);stroke-opacity:0.301961;stroke-miterlimit:10;" d="M 304.808594 292.0625 C 304.808594 294.667969 300.898438 294.667969 300.898438 292.0625 C 300.898438 289.457031 304.808594 289.457031 304.808594 292.0625 "/>
<path style="fill-rule:nonzero;fill:rgb(20%,20%,20%);fill-opacity:0.301961;stroke-width:0.708661;stroke-linecap:round;stroke-linejoin:round;stroke:rgb(20%,20%,20%);stroke-opacity:0.301961;stroke-miterlimit:10;" d="M 304.808594 266.824219 C 304.808594 269.429688 300.898438 269.429688 300.898438 266.824219 C 300.898438 264.21875 304.808594 264.21875 304.808594 266.824219 "/>
<path style="fill-rule:nonzero;fill:rgb(20%,20%,20%);fill-opacity:0.301961;stroke-width:0.708661;stroke-linecap:round;stroke-linejoin:round;stroke:rgb(20%,20%,20%);stroke-opacity:0.301961;stroke-miterlimit:10;" d="M 304.808594 284.730469 C 304.808594 287.339844 300.898438 287.339844 300.898438 284.730469 C 300.898438 282.125 304.808594 282.125 304.808594 284.730469 "/>
<path style="fill-rule:nonzero;fill:rgb(20%,20%,20%);fill-opacity:0.301961;stroke-width:0.708661;stroke-linecap:round;stroke-linejoin:round;stroke:rgb(20%,20%,20%);stroke-opacity:0.301961;stroke-miterlimit:10;" d="M 304.808594 278.691406 C 304.808594 281.300781 300.898438 281.300781 300.898438 278.691406 C 300.898438 276.085938 304.808594 276.085938 304.808594 278.691406 "/>
<path style="fill-rule:nonzero;fill:rgb(20%,20%,20%);fill-opacity:0.301961;stroke-width:0.708661;stroke-linecap:round;stroke-linejoin:round;stroke:rgb(20%,20%,20%);stroke-opacity:0.301961;stroke-miterlimit:10;" d="M 304.808594 151.691406 C 304.808594 154.296875 300.898438 154.296875 300.898438 151.691406 C 300.898438 149.085938 304.808594 149.085938 304.808594 151.691406 "/>
<path style="fill-rule:nonzero;fill:rgb(20%,20%,20%);fill-opacity:0.301961;stroke-width:0.708661;stroke-linecap:round;stroke-linejoin:round;stroke:rgb(20%,20%,20%);stroke-opacity:0.301961;stroke-miterlimit:10;" d="M 304.808594 199.6875 C 304.808594 202.296875 300.898438 202.296875 300.898438 199.6875 C 300.898438 197.082031 304.808594 197.082031 304.808594 199.6875 "/>
<path style="fill-rule:nonzero;fill:rgb(20%,20%,20%);fill-opacity:0.301961;stroke-width:0.708661;stroke-linecap:round;stroke-linejoin:round;stroke:rgb(20%,20%,20%);stroke-opacity:0.301961;stroke-miterlimit:10;" d="M 304.808594 198.328125 C 304.808594 200.933594 300.898438 200.933594 300.898438 198.328125 C 300.898438 195.722656 304.808594 195.722656 304.808594 198.328125 "/>
<path style="fill-rule:nonzero;fill:rgb(20%,20%,20%);fill-opacity:0.301961;stroke-width:0.708661;stroke-linecap:round;stroke-linejoin:round;stroke:rgb(20%,20%,20%);stroke-opacity:0.301961;stroke-miterlimit:10;" d="M 304.808594 241.976562 C 304.808594 244.582031 300.898438 244.582031 300.898438 241.976562 C 300.898438 239.367188 304.808594 239.367188 304.808594 241.976562 "/>
<path style="fill-rule:nonzero;fill:rgb(20%,20%,20%);fill-opacity:0.301961;stroke-width:0.708661;stroke-linecap:round;stroke-linejoin:round;stroke:rgb(20%,20%,20%);stroke-opacity:0.301961;stroke-miterlimit:10;" d="M 304.808594 260.859375 C 304.808594 263.464844 300.898438 263.464844 300.898438 260.859375 C 300.898438 258.25 304.808594 258.25 304.808594 260.859375 "/>
<path style="fill-rule:nonzero;fill:rgb(20%,20%,20%);fill-opacity:0.301961;stroke-width:0.708661;stroke-linecap:round;stroke-linejoin:round;stroke:rgb(20%,20%,20%);stroke-opacity:0.301961;stroke-miterlimit:10;" d="M 304.808594 278.460938 C 304.808594 281.066406 300.898438 281.066406 300.898438 278.460938 C 300.898438 275.855469 304.808594 275.855469 304.808594 278.460938 "/>
<path style="fill-rule:nonzero;fill:rgb(20%,20%,20%);fill-opacity:0.301961;stroke-width:0.708661;stroke-linecap:round;stroke-linejoin:round;stroke:rgb(20%,20%,20%);stroke-opacity:0.301961;stroke-miterlimit:10;" d="M 304.808594 220.050781 C 304.808594 222.65625 300.898438 222.65625 300.898438 220.050781 C 300.898438 217.445312 304.808594 217.445312 304.808594 220.050781 "/>
<path style="fill-rule:nonzero;fill:rgb(20%,20%,20%);fill-opacity:0.301961;stroke-width:0.708661;stroke-linecap:round;stroke-linejoin:round;stroke:rgb(20%,20%,20%);stroke-opacity:0.301961;stroke-miterlimit:10;" d="M 304.808594 240.824219 C 304.808594 243.433594 300.898438 243.433594 300.898438 240.824219 C 300.898438 238.21875 304.808594 238.21875 304.808594 240.824219 "/>
<path style="fill-rule:nonzero;fill:rgb(20%,20%,20%);fill-opacity:0.301961;stroke-width:0.708661;stroke-linecap:round;stroke-linejoin:round;stroke:rgb(20%,20%,20%);stroke-opacity:0.301961;stroke-miterlimit:10;" d="M 304.808594 126.355469 C 304.808594 128.960938 300.898438 128.960938 300.898438 126.355469 C 300.898438 123.746094 304.808594 123.746094 304.808594 126.355469 "/>
<path style="fill-rule:nonzero;fill:rgb(20%,20%,20%);fill-opacity:0.301961;stroke-width:0.708661;stroke-linecap:round;stroke-linejoin:round;stroke:rgb(20%,20%,20%);stroke-opacity:0.301961;stroke-miterlimit:10;" d="M 304.808594 250.5625 C 304.808594 253.167969 300.898438 253.167969 300.898438 250.5625 C 300.898438 247.957031 304.808594 247.957031 304.808594 250.5625 "/>
<path style="fill-rule:nonzero;fill:rgb(20%,20%,20%);fill-opacity:0.301961;stroke-width:0.708661;stroke-linecap:round;stroke-linejoin:round;stroke:rgb(20%,20%,20%);stroke-opacity:0.301961;stroke-miterlimit:10;" d="M 304.808594 147.105469 C 304.808594 149.710938 300.898438 149.710938 300.898438 147.105469 C 300.898438 144.5 304.808594 144.5 304.808594 147.105469 "/>
<path style="fill-rule:nonzero;fill:rgb(20%,20%,20%);fill-opacity:0.301961;stroke-width:0.708661;stroke-linecap:round;stroke-linejoin:round;stroke:rgb(20%,20%,20%);stroke-opacity:0.301961;stroke-miterlimit:10;" d="M 304.808594 266.367188 C 304.808594 268.972656 300.898438 268.972656 300.898438 266.367188 C 300.898438 263.761719 304.808594 263.761719 304.808594 266.367188 "/>
<path style="fill-rule:nonzero;fill:rgb(20%,20%,20%);fill-opacity:0.301961;stroke-width:0.708661;stroke-linecap:round;stroke-linejoin:round;stroke:rgb(20%,20%,20%);stroke-opacity:0.301961;stroke-miterlimit:10;" d="M 304.808594 256.332031 C 304.808594 258.9375 300.898438 258.9375 300.898438 256.332031 C 300.898438 253.726562 304.808594 253.726562 304.808594 256.332031 "/>
<path style="fill:none;stroke-width:1.066978;stroke-linecap:butt;stroke-linejoin:round;stroke:rgb(20%,20%,20%);stroke-opacity:1;stroke-miterlimit:10;" d="M 302.855469 380.515625 L 302.855469 293.640625 "/>
<path style="fill:none;stroke-width:1.066978;stroke-linecap:butt;stroke-linejoin:round;stroke:rgb(20%,20%,20%);stroke-opacity:1;stroke-miterlimit:10;" d="M 302.855469 439.238281 L 302.855469 465.925781 "/>
<path style="fill-rule:nonzero;fill:rgb(97.254902%,46.27451%,42.745098%);fill-opacity:0.301961;stroke-width:1.066978;stroke-linecap:round;stroke-linejoin:round;stroke:rgb(20%,20%,20%);stroke-opacity:1;stroke-miterlimit:10;" d="M 241.222656 380.515625 L 241.222656 439.238281 L 364.484375 439.238281 L 364.484375 380.515625 Z M 241.222656 380.515625 "/>
<path style="fill:none;stroke-width:2.133957;stroke-linecap:butt;stroke-linejoin:round;stroke:rgb(20%,20%,20%);stroke-opacity:1;stroke-miterlimit:10;" d="M 241.222656 415.539062 L 364.484375 415.539062 "/>
<path style="fill-rule:nonzero;fill:rgb(20%,20%,20%);fill-opacity:0.301961;stroke-width:0.708661;stroke-linecap:round;stroke-linejoin:round;stroke:rgb(20%,20%,20%);stroke-opacity:0.301961;stroke-miterlimit:10;" d="M 469.160156 370.78125 C 469.160156 373.386719 465.25 373.386719 465.25 370.78125 C 465.25 368.171875 469.160156 368.171875 469.160156 370.78125 "/>
<path style="fill-rule:nonzero;fill:rgb(20%,20%,20%);fill-opacity:0.301961;stroke-width:0.708661;stroke-linecap:round;stroke-linejoin:round;stroke:rgb(20%,20%,20%);stroke-opacity:0.301961;stroke-miterlimit:10;" d="M 469.160156 456.605469 C 469.160156 459.210938 465.25 459.210938 465.25 456.605469 C 465.25 453.996094 469.160156 453.996094 469.160156 456.605469 "/>
<path style="fill-rule:nonzero;fill:rgb(20%,20%,20%);fill-opacity:0.301961;stroke-width:0.708661;stroke-linecap:round;stroke-linejoin:round;stroke:rgb(20%,20%,20%);stroke-opacity:0.301961;stroke-miterlimit:10;" d="M 469.160156 394.214844 C 469.160156 396.820312 465.25 396.820312 465.25 394.214844 C 465.25 391.609375 469.160156 391.609375 469.160156 394.214844 "/>
<path style="fill:none;stroke-width:1.066978;stroke-linecap:butt;stroke-linejoin:round;stroke:rgb(20%,20%,20%);stroke-opacity:1;stroke-miterlimit:10;" d="M 467.207031 417.386719 L 467.207031 413.484375 "/>
<path style="fill:none;stroke-width:1.066978;stroke-linecap:butt;stroke-linejoin:round;stroke:rgb(20%,20%,20%);stroke-opacity:1;stroke-miterlimit:10;" d="M 467.207031 429.515625 L 467.207031 446.132812 "/>
<path style="fill-rule:nonzero;fill:rgb(63.921569%,64.705882%,0%);fill-opacity:0.301961;stroke-width:1.066978;stroke-linecap:round;stroke-linejoin:round;stroke:rgb(20%,20%,20%);stroke-opacity:1;stroke-miterlimit:10;" d="M 405.574219 417.386719 L 405.574219 429.515625 L 528.835938 429.515625 L 528.835938 417.386719 Z M 405.574219 417.386719 "/>
<path style="fill:none;stroke-width:2.133957;stroke-linecap:butt;stroke-linejoin:round;stroke:rgb(20%,20%,20%);stroke-opacity:1;stroke-miterlimit:10;" d="M 405.574219 422.222656 L 528.835938 422.222656 "/>
<path style="fill-rule:nonzero;fill:rgb(20%,20%,20%);fill-opacity:0.301961;stroke-width:0.708661;stroke-linecap:round;stroke-linejoin:round;stroke:rgb(20%,20%,20%);stroke-opacity:0.301961;stroke-miterlimit:10;" d="M 633.511719 280.960938 C 633.511719 283.566406 629.601562 283.566406 629.601562 280.960938 C 629.601562 278.355469 633.511719 278.355469 633.511719 280.960938 "/>
<path style="fill-rule:nonzero;fill:rgb(20%,20%,20%);fill-opacity:0.301961;stroke-width:0.708661;stroke-linecap:round;stroke-linejoin:round;stroke:rgb(20%,20%,20%);stroke-opacity:0.301961;stroke-miterlimit:10;" d="M 633.511719 327.320312 C 633.511719 329.929688 629.601562 329.929688 629.601562 327.320312 C 629.601562 324.714844 633.511719 324.714844 633.511719 327.320312 "/>
<path style="fill-rule:nonzero;fill:rgb(20%,20%,20%);fill-opacity:0.301961;stroke-width:0.708661;stroke-linecap:round;stroke-linejoin:round;stroke:rgb(20%,20%,20%);stroke-opacity:0.301961;stroke-miterlimit:10;" d="M 633.511719 334.496094 C 633.511719 337.101562 629.601562 337.101562 629.601562 334.496094 C 629.601562 331.890625 633.511719 331.890625 633.511719 334.496094 "/>
<path style="fill-rule:nonzero;fill:rgb(20%,20%,20%);fill-opacity:0.301961;stroke-width:0.708661;stroke-linecap:round;stroke-linejoin:round;stroke:rgb(20%,20%,20%);stroke-opacity:0.301961;stroke-miterlimit:10;" d="M 633.511719 205.066406 C 633.511719 207.671875 629.601562 207.671875 629.601562 205.066406 C 629.601562 202.457031 633.511719 202.457031 633.511719 205.066406 "/>
<path style="fill-rule:nonzero;fill:rgb(20%,20%,20%);fill-opacity:0.301961;stroke-width:0.708661;stroke-linecap:round;stroke-linejoin:round;stroke:rgb(20%,20%,20%);stroke-opacity:0.301961;stroke-miterlimit:10;" d="M 633.511719 262.347656 C 633.511719 264.957031 629.601562 264.957031 629.601562 262.347656 C 629.601562 259.742188 633.511719 259.742188 633.511719 262.347656 "/>
<path style="fill-rule:nonzero;fill:rgb(20%,20%,20%);fill-opacity:0.301961;stroke-width:0.708661;stroke-linecap:round;stroke-linejoin:round;stroke:rgb(20%,20%,20%);stroke-opacity:0.301961;stroke-miterlimit:10;" d="M 633.511719 162.605469 C 633.511719 165.210938 629.601562 165.210938 629.601562 162.605469 C 629.601562 160 633.511719 160 633.511719 162.605469 "/>
<path style="fill:none;stroke-width:1.066978;stroke-linecap:butt;stroke-linejoin:round;stroke:rgb(20%,20%,20%);stroke-opacity:1;stroke-miterlimit:10;" d="M 631.558594 391.984375 L 631.558594 374.476562 "/>
<path style="fill:none;stroke-width:1.066978;stroke-linecap:butt;stroke-linejoin:round;stroke:rgb(20%,20%,20%);stroke-opacity:1;stroke-miterlimit:10;" d="M 631.558594 429.574219 L 631.558594 464.054688 "/>
<path style="fill-rule:nonzero;fill:rgb(0%,74.901961%,49.019608%);fill-opacity:0.301961;stroke-width:1.066978;stroke-linecap:round;stroke-linejoin:round;stroke:rgb(20%,20%,20%);stroke-opacity:1;stroke-miterlimit:10;" d="M 569.925781 391.984375 L 569.925781 429.574219 L 693.1875 429.574219 L 693.1875 391.984375 Z M 569.925781 391.984375 "/>
<path style="fill:none;stroke-width:2.133957;stroke-linecap:butt;stroke-linejoin:round;stroke:rgb(20%,20%,20%);stroke-opacity:1;stroke-miterlimit:10;" d="M 569.925781 407.878906 L 693.1875 407.878906 "/>
<path style="fill-rule:nonzero;fill:rgb(20%,20%,20%);fill-opacity:0.301961;stroke-width:0.708661;stroke-linecap:round;stroke-linejoin:round;stroke:rgb(20%,20%,20%);stroke-opacity:0.301961;stroke-miterlimit:10;" d="M 797.863281 142.71875 C 797.863281 145.324219 793.953125 145.324219 793.953125 142.71875 C 793.953125 140.113281 797.863281 140.113281 797.863281 142.71875 "/>
<path style="fill-rule:nonzero;fill:rgb(20%,20%,20%);fill-opacity:0.301961;stroke-width:0.708661;stroke-linecap:round;stroke-linejoin:round;stroke:rgb(20%,20%,20%);stroke-opacity:0.301961;stroke-miterlimit:10;" d="M 797.863281 76.46875 C 797.863281 79.078125 793.953125 79.078125 793.953125 76.46875 C 793.953125 73.863281 797.863281 73.863281 797.863281 76.46875 "/>
<path style="fill-rule:nonzero;fill:rgb(20%,20%,20%);fill-opacity:0.301961;stroke-width:0.708661;stroke-linecap:round;stroke-linejoin:round;stroke:rgb(20%,20%,20%);stroke-opacity:0.301961;stroke-miterlimit:10;" d="M 797.863281 325.957031 C 797.863281 328.5625 793.953125 328.5625 793.953125 325.957031 C 793.953125 323.347656 797.863281 323.347656 797.863281 325.957031 "/>
<path style="fill-rule:nonzero;fill:rgb(20%,20%,20%);fill-opacity:0.301961;stroke-width:0.708661;stroke-linecap:round;stroke-linejoin:round;stroke:rgb(20%,20%,20%);stroke-opacity:0.301961;stroke-miterlimit:10;" d="M 797.863281 325.101562 C 797.863281 327.707031 793.953125 327.707031 793.953125 325.101562 C 793.953125 322.496094 797.863281 322.496094 797.863281 325.101562 "/>
<path style="fill:none;stroke-width:1.066978;stroke-linecap:butt;stroke-linejoin:round;stroke:rgb(20%,20%,20%);stroke-opacity:1;stroke-miterlimit:10;" d="M 795.910156 390.882812 L 795.910156 342.910156 "/>
<path style="fill:none;stroke-width:1.066978;stroke-linecap:butt;stroke-linejoin:round;stroke:rgb(20%,20%,20%);stroke-opacity:1;stroke-miterlimit:10;" d="M 795.910156 430.511719 L 795.910156 444.28125 "/>
<path style="fill-rule:nonzero;fill:rgb(0%,69.019608%,96.470588%);fill-opacity:0.301961;stroke-width:1.066978;stroke-linecap:round;stroke-linejoin:round;stroke:rgb(20%,20%,20%);stroke-opacity:1;stroke-miterlimit:10;" d="M 734.277344 390.882812 L 734.277344 430.511719 L 857.542969 430.511719 L 857.542969 390.882812 Z M 734.277344 390.882812 "/>
<path style="fill:none;stroke-width:2.133957;stroke-linecap:butt;stroke-linejoin:round;stroke:rgb(20%,20%,20%);stroke-opacity:1;stroke-miterlimit:10;" d="M 734.277344 410.320312 L 857.542969 410.320312 "/>
<g style="fill:rgb(30.196078%,30.196078%,30.196078%);fill-opacity:1;">
  <use xlink:href="#glyph0-1" x="19.957031" y="468.6875"/>
  <use xlink:href="#glyph0-2" x="25.683594" y="468.6875"/>
  <use xlink:href="#glyph0-1" x="28.544922" y="468.6875"/>
</g>
<g style="fill:rgb(30.196078%,30.196078%,30.196078%);fill-opacity:1;">
  <use xlink:href="#glyph0-1" x="19.957031" y="360.945312"/>
  <use xlink:href="#glyph0-2" x="25.683594" y="360.945312"/>
  <use xlink:href="#glyph0-3" x="28.544922" y="360.945312"/>
</g>
<g style="fill:rgb(30.196078%,30.196078%,30.196078%);fill-opacity:1;">
  <use xlink:href="#glyph0-1" x="19.957031" y="253.207031"/>
  <use xlink:href="#glyph0-2" x="25.683594" y="253.207031"/>
  <use xlink:href="#glyph0-4" x="28.544922" y="253.207031"/>
</g>
<g style="fill:rgb(30.196078%,30.196078%,30.196078%);fill-opacity:1;">
  <use xlink:href="#glyph0-1" x="19.957031" y="145.464844"/>
  <use xlink:href="#glyph0-2" x="25.683594" y="145.464844"/>
  <use xlink:href="#glyph0-5" x="28.544922" y="145.464844"/>
</g>
<g style="fill:rgb(30.196078%,30.196078%,30.196078%);fill-opacity:1;">
  <use xlink:href="#glyph0-1" x="19.957031" y="37.722656"/>
  <use xlink:href="#glyph0-2" x="25.683594" y="37.722656"/>
  <use xlink:href="#glyph0-6" x="28.544922" y="37.722656"/>
</g>
<path style="fill:none;stroke-width:1.066978;stroke-linecap:butt;stroke-linejoin:round;stroke:rgb(20%,20%,20%);stroke-opacity:1;stroke-miterlimit:10;" d="M 37.152344 466.019531 L 39.890625 466.019531 "/>
<path style="fill:none;stroke-width:1.066978;stroke-linecap:butt;stroke-linejoin:round;stroke:rgb(20%,20%,20%);stroke-opacity:1;stroke-miterlimit:10;" d="M 37.152344 358.277344 L 39.890625 358.277344 "/>
<path style="fill:none;stroke-width:1.066978;stroke-linecap:butt;stroke-linejoin:round;stroke:rgb(20%,20%,20%);stroke-opacity:1;stroke-miterlimit:10;" d="M 37.152344 250.539062 L 39.890625 250.539062 "/>
<path style="fill:none;stroke-width:1.066978;stroke-linecap:butt;stroke-linejoin:round;stroke:rgb(20%,20%,20%);stroke-opacity:1;stroke-miterlimit:10;" d="M 37.152344 142.796875 L 39.890625 142.796875 "/>
<path style="fill:none;stroke-width:1.066978;stroke-linecap:butt;stroke-linejoin:round;stroke:rgb(20%,20%,20%);stroke-opacity:1;stroke-miterlimit:10;" d="M 37.152344 35.054688 L 39.890625 35.054688 "/>
<path style="fill:none;stroke-width:1.066978;stroke-linecap:butt;stroke-linejoin:round;stroke:rgb(20%,20%,20%);stroke-opacity:1;stroke-miterlimit:10;" d="M 138.5 489.847656 L 138.5 487.109375 "/>
<path style="fill:none;stroke-width:1.066978;stroke-linecap:butt;stroke-linejoin:round;stroke:rgb(20%,20%,20%);stroke-opacity:1;stroke-miterlimit:10;" d="M 302.855469 489.847656 L 302.855469 487.109375 "/>
<path style="fill:none;stroke-width:1.066978;stroke-linecap:butt;stroke-linejoin:round;stroke:rgb(20%,20%,20%);stroke-opacity:1;stroke-miterlimit:10;" d="M 467.207031 489.847656 L 467.207031 487.109375 "/>
<path style="fill:none;stroke-width:1.066978;stroke-linecap:butt;stroke-linejoin:round;stroke:rgb(20%,20%,20%);stroke-opacity:1;stroke-miterlimit:10;" d="M 631.558594 489.847656 L 631.558594 487.109375 "/>
<path style="fill:none;stroke-width:1.066978;stroke-linecap:butt;stroke-linejoin:round;stroke:rgb(20%,20%,20%);stroke-opacity:1;stroke-miterlimit:10;" d="M 795.910156 489.847656 L 795.910156 487.109375 "/>
<g style="fill:rgb(30.196078%,30.196078%,30.196078%);fill-opacity:1;">
  <use xlink:href="#glyph1-1" x="135" y="500.253906"/>
</g>
<g style="fill:rgb(30.196078%,30.196078%,30.196078%);fill-opacity:1;">
  <use xlink:href="#glyph1-2" x="297.855469" y="500.253906"/>
</g>
<g style="fill:rgb(30.196078%,30.196078%,30.196078%);fill-opacity:1;">
  <use xlink:href="#glyph1-3" x="465.207031" y="500.253906"/>
</g>
<g style="fill:rgb(30.196078%,30.196078%,30.196078%);fill-opacity:1;">
  <use xlink:href="#glyph1-4" x="629.558594" y="500.253906"/>
</g>
<g style="fill:rgb(30.196078%,30.196078%,30.196078%);fill-opacity:1;">
  <use xlink:href="#glyph1-5" x="792.410156" y="500.253906"/>
</g>
<g style="fill:rgb(0%,0%,0%);fill-opacity:1;">
  <use xlink:href="#glyph2-1" x="430.707031" y="514.730469"/>
  <use xlink:href="#glyph2-2" x="438.780273" y="514.730469"/>
  <use xlink:href="#glyph2-3" x="442.550781" y="514.730469"/>
  <use xlink:href="#glyph2-4" x="449.973633" y="514.730469"/>
  <use xlink:href="#glyph2-4" x="456.521484" y="514.730469"/>
  <use xlink:href="#glyph2-5" x="463.069336" y="514.730469"/>
  <use xlink:href="#glyph2-6" x="466.899414" y="514.730469"/>
  <use xlink:href="#glyph2-7" x="473.419922" y="514.730469"/>
  <use xlink:href="#glyph2-8" x="480.977539" y="514.730469"/>
  <use xlink:href="#glyph2-9" x="488.851562" y="514.730469"/>
  <use xlink:href="#glyph2-4" x="496.3125" y="514.730469"/>
</g>
<g style="fill:rgb(0%,0%,0%);fill-opacity:1;">
  <use xlink:href="#glyph3-1" x="13.691406" y="287.082031"/>
  <use xlink:href="#glyph3-2" x="13.691406" y="279.019531"/>
  <use xlink:href="#glyph3-3" x="13.691406" y="271.188477"/>
  <use xlink:href="#glyph3-4" x="13.691406" y="263.765625"/>
  <use xlink:href="#glyph3-5" x="13.691406" y="257.217773"/>
  <use xlink:href="#glyph3-6" x="13.691406" y="251.958984"/>
  <use xlink:href="#glyph3-7" x="13.691406" y="243.885742"/>
  <use xlink:href="#glyph3-8" x="13.691406" y="236.328125"/>
  <use xlink:href="#glyph3-4" x="13.691406" y="228.49707"/>
</g>
<g style="fill:rgb(0%,0%,0%);fill-opacity:1;">
  <use xlink:href="#glyph4-1" x="39.890625" y="13.619141"/>
  <use xlink:href="#glyph4-2" x="47.988281" y="13.619141"/>
  <use xlink:href="#glyph4-3" x="56.53125" y="13.619141"/>
  <use xlink:href="#glyph4-4" x="62.267578" y="13.619141"/>
  <use xlink:href="#glyph4-5" x="66.380859" y="13.619141"/>
  <use xlink:href="#glyph4-6" x="73.523438" y="13.619141"/>
  <use xlink:href="#glyph4-2" x="81.662109" y="13.619141"/>
  <use xlink:href="#glyph4-5" x="90.205078" y="13.619141"/>
  <use xlink:href="#glyph4-6" x="97.347656" y="13.619141"/>
  <use xlink:href="#glyph4-7" x="105.486328" y="13.619141"/>
  <use xlink:href="#glyph4-8" x="110.285156" y="13.619141"/>
  <use xlink:href="#glyph4-9" x="119.080078" y="13.619141"/>
  <use xlink:href="#glyph4-1" x="127.623047" y="13.619141"/>
  <use xlink:href="#glyph4-5" x="135.720703" y="13.619141"/>
  <use xlink:href="#glyph4-3" x="142.863281" y="13.619141"/>
  <use xlink:href="#glyph4-10" x="148.599609" y="13.619141"/>
  <use xlink:href="#glyph4-11" x="157.40625" y="13.619141"/>
  <use xlink:href="#glyph4-2" x="165.650391" y="13.619141"/>
  <use xlink:href="#glyph4-5" x="174.193359" y="13.619141"/>
  <use xlink:href="#glyph4-7" x="181.335938" y="13.619141"/>
  <use xlink:href="#glyph4-12" x="186.134766" y="13.619141"/>
  <use xlink:href="#glyph4-13" x="193.248047" y="13.619141"/>
  <use xlink:href="#glyph4-1" x="197.361328" y="13.619141"/>
  <use xlink:href="#glyph4-5" x="205.458984" y="13.619141"/>
  <use xlink:href="#glyph4-5" x="212.601562" y="13.619141"/>
  <use xlink:href="#glyph4-14" x="219.744141" y="13.619141"/>
  <use xlink:href="#glyph4-12" x="224.302734" y="13.619141"/>
  <use xlink:href="#glyph4-11" x="231.416016" y="13.619141"/>
  <use xlink:href="#glyph4-15" x="239.660156" y="13.619141"/>
  <use xlink:href="#glyph4-6" x="248.25" y="13.619141"/>
  <use xlink:href="#glyph4-5" x="256.388672" y="13.619141"/>
</g>
</g>
</svg>
