<?xml version='1.0' encoding='utf-8'?>
<svg xmlns:xlink="http://www.w3.org/1999/xlink" xmlns="http://www.w3.org/2000/svg" id="chart-e9374e48-c3e7-4ca2-904a-9a5aaa0edb92" class="pygal-chart" viewBox="0 0 800 600"><!--Generated with pygal 2.3.0 (lxml) ©Kozea 2012-2016 on 2017-06-02--><!--http://pygal.org--><!--http://github.com/Kozea/pygal--><defs><style type="text/css">#chart-e9374e48-c3e7-4ca2-904a-9a5aaa0edb92{-webkit-user-select:none;-webkit-font-smoothing:antialiased;font-family:Consolas,"Liberation Mono",Menlo,Courier,monospace}#chart-e9374e48-c3e7-4ca2-904a-9a5aaa0edb92 .title{font-family:Consolas,"Liberation Mono",Menlo,Courier,monospace;font-size:16px}#chart-e9374e48-c3e7-4ca2-904a-9a5aaa0edb92 .legends .legend text{font-family:Consolas,"Liberation Mono",Menlo,Courier,monospace;font-size:14px}#chart-e9374e48-c3e7-4ca2-904a-9a5aaa0edb92 .axis text{font-family:Consolas,"Liberation Mono",Menlo,Courier,monospace;font-size:10px}#chart-e9374e48-c3e7-4ca2-904a-9a5aaa0edb92 .axis text.major{font-family:Consolas,"Liberation Mono",Menlo,Courier,monospace;font-size:10px}#chart-e9374e48-c3e7-4ca2-904a-9a5aaa0edb92 .text-overlay text.value{font-family:Consolas,"Liberation Mono",Menlo,Courier,monospace;font-size:16px}#chart-e9374e48-c3e7-4ca2-904a-9a5aaa0edb92 .text-overlay text.label{font-family:Consolas,"Liberation Mono",Menlo,Courier,monospace;font-size:10px}#chart-e9374e48-c3e7-4ca2-904a-9a5aaa0edb92 .tooltip{font-family:Consolas,"Liberation Mono",Menlo,Courier,monospace;font-size:14px}#chart-e9374e48-c3e7-4ca2-904a-9a5aaa0edb92 text.no_data{font-family:Consolas,"Liberation Mono",Menlo,Courier,monospace;font-size:64px}
#chart-e9374e48-c3e7-4ca2-904a-9a5aaa0edb92{background-color:rgba(249,249,249,1)}#chart-e9374e48-c3e7-4ca2-904a-9a5aaa0edb92 path,#chart-e9374e48-c3e7-4ca2-904a-9a5aaa0edb92 line,#chart-e9374e48-c3e7-4ca2-904a-9a5aaa0edb92 rect,#chart-e9374e48-c3e7-4ca2-904a-9a5aaa0edb92 circle{-webkit-transition:150ms;-moz-transition:150ms;transition:150ms}#chart-e9374e48-c3e7-4ca2-904a-9a5aaa0edb92 .graph &gt; .background{fill:rgba(249,249,249,1)}#chart-e9374e48-c3e7-4ca2-904a-9a5aaa0edb92 .plot &gt; .background{fill:rgba(255,255,255,1)}#chart-e9374e48-c3e7-4ca2-904a-9a5aaa0edb92 .graph{fill:rgba(0,0,0,.87)}#chart-e9374e48-c3e7-4ca2-904a-9a5aaa0edb92 text.no_data{fill:rgba(0,0,0,1)}#chart-e9374e48-c3e7-4ca2-904a-9a5aaa0edb92 .title{fill:rgba(0,0,0,1)}#chart-e9374e48-c3e7-4ca2-904a-9a5aaa0edb92 .legends .legend text{fill:rgba(0,0,0,.87)}#chart-e9374e48-c3e7-4ca2-904a-9a5aaa0edb92 .legends .legend:hover text{fill:rgba(0,0,0,1)}#chart-e9374e48-c3e7-4ca2-904a-9a5aaa0edb92 .axis .line{stroke:rgba(0,0,0,1)}#chart-e9374e48-c3e7-4ca2-904a-9a5aaa0edb92 .axis .guide.line{stroke:rgba(0,0,0,.54)}#chart-e9374e48-c3e7-4ca2-904a-9a5aaa0edb92 .axis .major.line{stroke:rgba(0,0,0,.87)}#chart-e9374e48-c3e7-4ca2-904a-9a5aaa0edb92 .axis text.major{fill:rgba(0,0,0,1)}#chart-e9374e48-c3e7-4ca2-904a-9a5aaa0edb92 .axis.y .guides:hover .guide.line,#chart-e9374e48-c3e7-4ca2-904a-9a5aaa0edb92 .line-graph .axis.x .guides:hover .guide.line,#chart-e9374e48-c3e7-4ca2-904a-9a5aaa0edb92 .stackedline-graph .axis.x .guides:hover .guide.line,#chart-e9374e48-c3e7-4ca2-904a-9a5aaa0edb92 .xy-graph .axis.x .guides:hover .guide.line{stroke:rgba(0,0,0,1)}#chart-e9374e48-c3e7-4ca2-904a-9a5aaa0edb92 .axis .guides:hover text{fill:rgba(0,0,0,1)}#chart-e9374e48-c3e7-4ca2-904a-9a5aaa0edb92 .reactive{fill-opacity:.7;stroke-opacity:.8}#chart-e9374e48-c3e7-4ca2-904a-9a5aaa0edb92 .ci{stroke:rgba(0,0,0,.87)}#chart-e9374e48-c3e7-4ca2-904a-9a5aaa0edb92 .reactive.active,#chart-e9374e48-c3e7-4ca2-904a-9a5aaa0edb92 .active .reactive{fill-opacity:.8;stroke-opacity:.9;stroke-width:4}#chart-e9374e48-c3e7-4ca2-904a-9a5aaa0edb92 .ci .reactive.active{stroke-width:1.5}#chart-e9374e48-c3e7-4ca2-904a-9a5aaa0edb92 .series text{fill:rgba(0,0,0,1)}#chart-e9374e48-c3e7-4ca2-904a-9a5aaa0edb92 .tooltip rect{fill:rgba(255,255,255,1);stroke:rgba(0,0,0,1);-webkit-transition:opacity 150ms;-moz-transition:opacity 150ms;transition:opacity 150ms}#chart-e9374e48-c3e7-4ca2-904a-9a5aaa0edb92 .tooltip .label{fill:rgba(0,0,0,.87)}#chart-e9374e48-c3e7-4ca2-904a-9a5aaa0edb92 .tooltip .label{fill:rgba(0,0,0,.87)}#chart-e9374e48-c3e7-4ca2-904a-9a5aaa0edb92 .tooltip .legend{font-size:.8em;fill:rgba(0,0,0,.54)}#chart-e9374e48-c3e7-4ca2-904a-9a5aaa0edb92 .tooltip .x_label{font-size:.6em;fill:rgba(0,0,0,1)}#chart-e9374e48-c3e7-4ca2-904a-9a5aaa0edb92 .tooltip .xlink{font-size:.5em;text-decoration:underline}#chart-e9374e48-c3e7-4ca2-904a-9a5aaa0edb92 .tooltip .value{font-size:1.5em}#chart-e9374e48-c3e7-4ca2-904a-9a5aaa0edb92 .bound{font-size:.5em}#chart-e9374e48-c3e7-4ca2-904a-9a5aaa0edb92 .max-value{font-size:.75em;fill:rgba(0,0,0,.54)}#chart-e9374e48-c3e7-4ca2-904a-9a5aaa0edb92 .map-element{fill:rgba(255,255,255,1);stroke:rgba(0,0,0,.54) !important}#chart-e9374e48-c3e7-4ca2-904a-9a5aaa0edb92 .map-element .reactive{fill-opacity:inherit;stroke-opacity:inherit}#chart-e9374e48-c3e7-4ca2-904a-9a5aaa0edb92 .color-0,#chart-e9374e48-c3e7-4ca2-904a-9a5aaa0edb92 .color-0 a:visited{stroke:#f44336;fill:#f44336}#chart-e9374e48-c3e7-4ca2-904a-9a5aaa0edb92 .color-1,#chart-e9374e48-c3e7-4ca2-904a-9a5aaa0edb92 .color-1 a:visited{stroke:#3f51b5;fill:#3f51b5}#chart-e9374e48-c3e7-4ca2-904a-9a5aaa0edb92 .color-2,#chart-e9374e48-c3e7-4ca2-904a-9a5aaa0edb92 .color-2 a:visited{stroke:#009688;fill:#009688}#chart-e9374e48-c3e7-4ca2-904a-9a5aaa0edb92 .color-3,#chart-e9374e48-c3e7-4ca2-904a-9a5aaa0edb92 .color-3 a:visited{stroke:#ffc107;fill:#ffc107}#chart-e9374e48-c3e7-4ca2-904a-9a5aaa0edb92 .color-4,#chart-e9374e48-c3e7-4ca2-904a-9a5aaa0edb92 .color-4 a:visited{stroke:#ff5722;fill:#ff5722}#chart-e9374e48-c3e7-4ca2-904a-9a5aaa0edb92 .color-5,#chart-e9374e48-c3e7-4ca2-904a-9a5aaa0edb92 .color-5 a:visited{stroke:#9c27b0;fill:#9c27b0}#chart-e9374e48-c3e7-4ca2-904a-9a5aaa0edb92 .color-6,#chart-e9374e48-c3e7-4ca2-904a-9a5aaa0edb92 .color-6 a:visited{stroke:#03a9f4;fill:#03a9f4}#chart-e9374e48-c3e7-4ca2-904a-9a5aaa0edb92 .color-7,#chart-e9374e48-c3e7-4ca2-904a-9a5aaa0edb92 .color-7 a:visited{stroke:#8bc34a;fill:#8bc34a}#chart-e9374e48-c3e7-4ca2-904a-9a5aaa0edb92 .color-8,#chart-e9374e48-c3e7-4ca2-904a-9a5aaa0edb92 .color-8 a:visited{stroke:#ff9800;fill:#ff9800}#chart-e9374e48-c3e7-4ca2-904a-9a5aaa0edb92 .color-9,#chart-e9374e48-c3e7-4ca2-904a-9a5aaa0edb92 .color-9 a:visited{stroke:#e91e63;fill:#e91e63}#chart-e9374e48-c3e7-4ca2-904a-9a5aaa0edb92 .color-10,#chart-e9374e48-c3e7-4ca2-904a-9a5aaa0edb92 .color-10 a:visited{stroke:#2196f3;fill:#2196f3}#chart-e9374e48-c3e7-4ca2-904a-9a5aaa0edb92 .color-11,#chart-e9374e48-c3e7-4ca2-904a-9a5aaa0edb92 .color-11 a:visited{stroke:#4caf50;fill:#4caf50}#chart-e9374e48-c3e7-4ca2-904a-9a5aaa0edb92 .color-12,#chart-e9374e48-c3e7-4ca2-904a-9a5aaa0edb92 .color-12 a:visited{stroke:#ffeb3b;fill:#ffeb3b}#chart-e9374e48-c3e7-4ca2-904a-9a5aaa0edb92 .color-13,#chart-e9374e48-c3e7-4ca2-904a-9a5aaa0edb92 .color-13 a:visited{stroke:#673ab7;fill:#673ab7}#chart-e9374e48-c3e7-4ca2-904a-9a5aaa0edb92 .color-14,#chart-e9374e48-c3e7-4ca2-904a-9a5aaa0edb92 .color-14 a:visited{stroke:#00bcd4;fill:#00bcd4}#chart-e9374e48-c3e7-4ca2-904a-9a5aaa0edb92 .color-15,#chart-e9374e48-c3e7-4ca2-904a-9a5aaa0edb92 .color-15 a:visited{stroke:#cddc39;fill:#cddc39}#chart-e9374e48-c3e7-4ca2-904a-9a5aaa0edb92 .color-16,#chart-e9374e48-c3e7-4ca2-904a-9a5aaa0edb92 .color-16 a:visited{stroke:#9e9e9e;fill:#9e9e9e}#chart-e9374e48-c3e7-4ca2-904a-9a5aaa0edb92 .color-17,#chart-e9374e48-c3e7-4ca2-904a-9a5aaa0edb92 .color-17 a:visited{stroke:#607d8b;fill:#607d8b}#chart-e9374e48-c3e7-4ca2-904a-9a5aaa0edb92 .color-18,#chart-e9374e48-c3e7-4ca2-904a-9a5aaa0edb92 .color-18 a:visited{stroke:#7b0f07;fill:#7b0f07}#chart-e9374e48-c3e7-4ca2-904a-9a5aaa0edb92 .color-19,#chart-e9374e48-c3e7-4ca2-904a-9a5aaa0edb92 .color-19 a:visited{stroke:#141938;fill:#141938}#chart-e9374e48-c3e7-4ca2-904a-9a5aaa0edb92 .text-overlay .color-0 text{fill:black}#chart-e9374e48-c3e7-4ca2-904a-9a5aaa0edb92 .text-overlay .color-1 text{fill:black}#chart-e9374e48-c3e7-4ca2-904a-9a5aaa0edb92 .text-overlay .color-2 text{fill:black}#chart-e9374e48-c3e7-4ca2-904a-9a5aaa0edb92 .text-overlay .color-3 text{fill:black}#chart-e9374e48-c3e7-4ca2-904a-9a5aaa0edb92 .text-overlay .color-4 text{fill:black}#chart-e9374e48-c3e7-4ca2-904a-9a5aaa0edb92 .text-overlay .color-5 text{fill:black}#chart-e9374e48-c3e7-4ca2-904a-9a5aaa0edb92 .text-overlay .color-6 text{fill:black}#chart-e9374e48-c3e7-4ca2-904a-9a5aaa0edb92 .text-overlay .color-7 text{fill:black}#chart-e9374e48-c3e7-4ca2-904a-9a5aaa0edb92 .text-overlay .color-8 text{fill:black}#chart-e9374e48-c3e7-4ca2-904a-9a5aaa0edb92 .text-overlay .color-9 text{fill:black}#chart-e9374e48-c3e7-4ca2-904a-9a5aaa0edb92 .text-overlay .color-10 text{fill:black}#chart-e9374e48-c3e7-4ca2-904a-9a5aaa0edb92 .text-overlay .color-11 text{fill:black}#chart-e9374e48-c3e7-4ca2-904a-9a5aaa0edb92 .text-overlay .color-12 text{fill:black}#chart-e9374e48-c3e7-4ca2-904a-9a5aaa0edb92 .text-overlay .color-13 text{fill:black}#chart-e9374e48-c3e7-4ca2-904a-9a5aaa0edb92 .text-overlay .color-14 text{fill:black}#chart-e9374e48-c3e7-4ca2-904a-9a5aaa0edb92 .text-overlay .color-15 text{fill:black}#chart-e9374e48-c3e7-4ca2-904a-9a5aaa0edb92 .text-overlay .color-16 text{fill:black}#chart-e9374e48-c3e7-4ca2-904a-9a5aaa0edb92 .text-overlay .color-17 text{fill:black}#chart-e9374e48-c3e7-4ca2-904a-9a5aaa0edb92 .text-overlay .color-18 text{fill:black}#chart-e9374e48-c3e7-4ca2-904a-9a5aaa0edb92 .text-overlay .color-19 text{fill:white}
#chart-e9374e48-c3e7-4ca2-904a-9a5aaa0edb92 text.no_data{text-anchor:middle}#chart-e9374e48-c3e7-4ca2-904a-9a5aaa0edb92 .guide.line{fill:none}#chart-e9374e48-c3e7-4ca2-904a-9a5aaa0edb92 .centered{text-anchor:middle}#chart-e9374e48-c3e7-4ca2-904a-9a5aaa0edb92 .title{text-anchor:middle}#chart-e9374e48-c3e7-4ca2-904a-9a5aaa0edb92 .legends .legend text{fill-opacity:1}#chart-e9374e48-c3e7-4ca2-904a-9a5aaa0edb92 .axis.x text{text-anchor:middle}#chart-e9374e48-c3e7-4ca2-904a-9a5aaa0edb92 .axis.x:not(.web) text[transform]{text-anchor:start}#chart-e9374e48-c3e7-4ca2-904a-9a5aaa0edb92 .axis.x:not(.web) text[transform].backwards{text-anchor:end}#chart-e9374e48-c3e7-4ca2-904a-9a5aaa0edb92 .axis.y text{text-anchor:end}#chart-e9374e48-c3e7-4ca2-904a-9a5aaa0edb92 .axis.y text[transform].backwards{text-anchor:start}#chart-e9374e48-c3e7-4ca2-904a-9a5aaa0edb92 .axis.y2 text{text-anchor:start}#chart-e9374e48-c3e7-4ca2-904a-9a5aaa0edb92 .axis.y2 text[transform].backwards{text-anchor:end}#chart-e9374e48-c3e7-4ca2-904a-9a5aaa0edb92 .axis .guide.line{stroke-dasharray:4,4}#chart-e9374e48-c3e7-4ca2-904a-9a5aaa0edb92 .axis .major.guide.line{stroke-dasharray:6,6}#chart-e9374e48-c3e7-4ca2-904a-9a5aaa0edb92 .horizontal .axis.y .guide.line,#chart-e9374e48-c3e7-4ca2-904a-9a5aaa0edb92 .horizontal .axis.y2 .guide.line,#chart-e9374e48-c3e7-4ca2-904a-9a5aaa0edb92 .vertical .axis.x .guide.line{opacity:0}#chart-e9374e48-c3e7-4ca2-904a-9a5aaa0edb92 .horizontal .axis.always_show .guide.line,#chart-e9374e48-c3e7-4ca2-904a-9a5aaa0edb92 .vertical .axis.always_show .guide.line{opacity:1 !important}#chart-e9374e48-c3e7-4ca2-904a-9a5aaa0edb92 .axis.y .guides:hover .guide.line,#chart-e9374e48-c3e7-4ca2-904a-9a5aaa0edb92 .axis.y2 .guides:hover .guide.line,#chart-e9374e48-c3e7-4ca2-904a-9a5aaa0edb92 .axis.x .guides:hover .guide.line{opacity:1}#chart-e9374e48-c3e7-4ca2-904a-9a5aaa0edb92 .axis .guides:hover text{opacity:1}#chart-e9374e48-c3e7-4ca2-904a-9a5aaa0edb92 .nofill{fill:none}#chart-e9374e48-c3e7-4ca2-904a-9a5aaa0edb92 .subtle-fill{fill-opacity:.2}#chart-e9374e48-c3e7-4ca2-904a-9a5aaa0edb92 .dot{stroke-width:1px;fill-opacity:1}#chart-e9374e48-c3e7-4ca2-904a-9a5aaa0edb92 .dot.active{stroke-width:5px}#chart-e9374e48-c3e7-4ca2-904a-9a5aaa0edb92 .dot.negative{fill:transparent}#chart-e9374e48-c3e7-4ca2-904a-9a5aaa0edb92 text,#chart-e9374e48-c3e7-4ca2-904a-9a5aaa0edb92 tspan{stroke:none !important}#chart-e9374e48-c3e7-4ca2-904a-9a5aaa0edb92 .series text.active{opacity:1}#chart-e9374e48-c3e7-4ca2-904a-9a5aaa0edb92 .tooltip rect{fill-opacity:.95;stroke-width:.5}#chart-e9374e48-c3e7-4ca2-904a-9a5aaa0edb92 .tooltip text{fill-opacity:1}#chart-e9374e48-c3e7-4ca2-904a-9a5aaa0edb92 .showable{visibility:hidden}#chart-e9374e48-c3e7-4ca2-904a-9a5aaa0edb92 .showable.shown{visibility:visible}#chart-e9374e48-c3e7-4ca2-904a-9a5aaa0edb92 .gauge-background{fill:rgba(229,229,229,1);stroke:none}#chart-e9374e48-c3e7-4ca2-904a-9a5aaa0edb92 .bg-lines{stroke:rgba(249,249,249,1);stroke-width:2px}</style><script type="text/javascript">window.pygal = window.pygal || {};window.pygal.config = window.pygal.config || {};window.pygal.config['e9374e48-c3e7-4ca2-904a-9a5aaa0edb92'] = {"dynamic_print_values": false, "truncate_label": null, "inner_radius": 0, "print_values": true, "xrange": null, "box_mode": "extremes", "title": "Human lncRNA transcript biotypes in percents from source for the same group", "legend_at_bottom_columns": null, "height": 600, "legend_at_bottom": false, "show_legend": true, "show_dots": true, "explicit_size": false, "y_labels_major": null, "show_minor_x_labels": true, "width": 800, "force_uri_protocol": "https", "half_pie": false, "style": {"major_label_font_family": "Consolas, \"Liberation Mono\", Menlo, Courier, monospace", "title_font_family": "Consolas, \"Liberation Mono\", Menlo, Courier, monospace", "stroke_opacity": ".8", "legend_font_family": "Consolas, \"Liberation Mono\", Menlo, Courier, monospace", "colors": ["#F44336", "#3F51B5", "#009688", "#FFC107", "#FF5722", "#9C27B0", "#03A9F4", "#8BC34A", "#FF9800", "#E91E63", "#2196F3", "#4CAF50", "#FFEB3B", "#673AB7", "#00BCD4", "#CDDC39", "#9E9E9E", "#607D8B"], "legend_font_size": 14, "no_data_font_family": "Consolas, \"Liberation Mono\", Menlo, Courier, monospace", "major_label_font_size": 10, "value_background": "rgba(229, 229, 229, 1)", "ci_colors": [], "label_font_family": "Consolas, \"Liberation Mono\", Menlo, Courier, monospace", "label_font_size": 10, "tooltip_font_size": 14, "value_font_size": 16, "font_family": "Consolas, \"Liberation Mono\", Menlo, Courier, monospace", "opacity": ".7", "foreground": "rgba(0, 0, 0, .87)", "plot_background": "rgba(255, 255, 255, 1)", "value_label_font_size": 10, "value_label_font_family": "Consolas, \"Liberation Mono\", Menlo, Courier, monospace", "background": "rgba(249, 249, 249, 1)", "no_data_font_size": 64, "value_colors": [], "guide_stroke_dasharray": "4,4", "transition": "150ms", "foreground_subtle": "rgba(0, 0, 0, .54)", "value_font_family": "Consolas, \"Liberation Mono\", Menlo, Courier, monospace", "tooltip_font_family": "Consolas, \"Liberation Mono\", Menlo, Courier, monospace", "title_font_size": 16, "stroke_opacity_hover": ".9", "major_guide_stroke_dasharray": "6,6", "opacity_hover": ".8", "foreground_strong": "rgba(0, 0, 0, 1)"}, "x_label_rotation": 0, "fill": false, "missing_value_fill_truncation": "x", "zero": 0, "margin_right": null, "interpolation_parameters": {}, "x_labels_major": null, "rounded_bars": null, "show_y_labels": true, "dots_size": 2.5, "show_y_guides": true, "show_minor_y_labels": true, "x_labels": null, "y_title": null, "order_min": null, "formatter": null, "disable_xml_declaration": false, "strict": false, "css": ["file://style.css", "file://graph.css"], "tooltip_fancy_mode": true, "defs": [], "show_only_major_dots": false, "y_label_rotation": 0, "show_x_labels": true, "min_scale": 4, "show_x_guides": false, "spacing": 10, "x_labels_major_count": null, "pretty_print": false, "tooltip_border_radius": 0, "interpolate": null, "js": ["//kozea.github.io/pygal.js/2.0.x/pygal-tooltips.min.js"], "y_labels": null, "stroke_style": null, "print_labels": false, "interpolation_precision": 250, "x_title": null, "y_labels_major_every": null, "logarithmic": false, "legends": ["\"\"", "\"3prime_overlapping_ncrna\"", "\"antisense\"", "\"lincRNA\"", "\"miRNA\"", "\"misc_RNA\"", "\"nonsense_mediated_decay\"", "\"processed_pseudogene\"", "\"processed_transcript\"", "\"protein_coding\"", "\"pseudogene\"", "\"retained_intron\"", "\"rRNA\"", "\"sense_intronic\"", "\"sense_overlapping\"", "\"snRNA\"", "\"transcribed_processed_pseudogene\"", "\"transcribed_unprocessed_pseudogene\"", "\"unitary_pseudogene\"", "\"unprocessed_pseudogene\""], "max_scale": 16, "print_zeroes": true, "no_data_text": "No data", "truncate_legend": null, "x_labels_major_every": null, "secondary_range": null, "legend_box_size": 12, "no_prefix": false, "stroke": true, "stack_from_top": false, "include_x_axis": false, "range": null, "classes": ["pygal-chart"], "margin_top": null, "margin_left": null, "y_labels_major_count": null, "margin_bottom": null, "inverse_y_axis": false, "margin": 20, "allow_interruptions": false, "print_values_position": "top"}</script><script type="text/javascript" xlink:href="https://kozea.github.io/pygal.js/2.0.x/pygal-tooltips.min.js"/></defs><title>Human lncRNA transcript biotypes in percents from source for the same group</title><g class="graph bar-graph vertical"><rect class="background" height="600" width="800" x="0" y="0"/><g class="plot" transform="translate(196, 46)"><rect class="background" height="534" width="584.0" x="0" y="0"/><g class="axis y"><g class="guides"><path class="axis major line" d="M0.000000 523.730769 h584.000000"/><text class="major" x="-5" y="527.230769231">0</text><title>0</title></g><g class="guides"><path class="guide line" d="M0.000000 474.022926 h584.000000"/><text class="" x="-5" y="477.522926312">10</text><title>10</title></g><g class="guides"><path class="guide line" d="M0.000000 424.315083 h584.000000"/><text class="" x="-5" y="427.815083394">20</text><title>20</title></g><g class="guides"><path class="guide line" d="M0.000000 374.607240 h584.000000"/><text class="" x="-5" y="378.107240475">30</text><title>30</title></g><g class="guides"><path class="guide line" d="M0.000000 324.899398 h584.000000"/><text class="" x="-5" y="328.399397557">40</text><title>40</title></g><g class="guides"><path class="major guide line" d="M0.000000 275.191555 h584.000000"/><text class="major" x="-5" y="278.691554638">50</text><title>50</title></g><g class="guides"><path class="guide line" d="M0.000000 225.483712 h584.000000"/><text class="" x="-5" y="228.98371172">60</text><title>60</title></g><g class="guides"><path class="guide line" d="M0.000000 175.775869 h584.000000"/><text class="" x="-5" y="179.275868801">70</text><title>70</title></g><g class="guides"><path class="guide line" d="M0.000000 126.068026 h584.000000"/><text class="" x="-5" y="129.568025883">80</text><title>80</title></g><g class="guides"><path class="guide line" d="M0.000000 76.360183 h584.000000"/><text class="" x="-5" y="79.8601829642">90</text><title>90</title></g><g class="guides"><path class="major guide line" d="M0.000000 26.652340 h584.000000"/><text class="major" x="-5" y="30.1523400457">100</text><title>100</title></g></g><g class="series serie-0 color-0"><g class="bars"><g class="bar"><rect class="rect reactive tooltip-trigger" height="402.63352764" rx="0" ry="0" width="21.7427692308" x="46.4055384615" y="121.097241591"/><desc class="value">81</desc><desc class="x centered">57.2769230769</desc><desc class="y centered">322.414005411</desc></g></g></g><g class="series serie-1 color-1"><g class="bars"><g class="bar"><rect class="rect reactive tooltip-trigger" height="248.539214593" rx="0" ry="0" width="21.7427692308" x="71.1132307692" y="275.191554638"/><desc class="value">50</desc><desc class="x centered">81.9846153846</desc><desc class="y centered">399.461161935</desc></g></g></g><g class="series serie-2 color-2"><g class="bars"><g class="bar"><rect class="rect reactive tooltip-trigger" height="442.399801975" rx="0" ry="0" width="21.7427692308" x="95.8209230769" y="81.3309672561"/><desc class="value">89</desc><desc class="x centered">106.692307692</desc><desc class="y centered">302.530868243</desc></g></g></g><g class="series serie-3 color-3"><g class="bars"><g class="bar"><rect class="rect reactive tooltip-trigger" height="442.399801975" rx="0" ry="0" width="21.7427692308" x="120.528615385" y="81.3309672561"/><desc class="value">89</desc><desc class="x centered">131.4</desc><desc class="y centered">302.530868243</desc></g></g></g><g class="series serie-4 color-4"><g class="bars"><g class="bar"><rect class="rect reactive tooltip-trigger" height="0.0" rx="0" ry="0" width="21.7427692308" x="145.236307692" y="523.730769231"/><desc class="value">0</desc><desc class="x centered">156.107692308</desc><desc class="y centered">523.730769231</desc></g></g></g><g class="series serie-5 color-5"><g class="bars"><g class="bar"><rect class="rect reactive tooltip-trigger" height="497.078429185" rx="0" ry="0" width="21.7427692308" x="169.944" y="26.6523400457"/><desc class="value">100</desc><desc class="x centered">180.815384615</desc><desc class="y centered">275.191554638</desc></g></g></g><g class="series serie-6 color-6"><g class="bars"><g class="bar"><rect class="rect reactive tooltip-trigger" height="447.370586267" rx="0" ry="0" width="21.7427692308" x="194.651692308" y="76.3601829642"/><desc class="value">90</desc><desc class="x centered">205.523076923</desc><desc class="y centered">300.045476098</desc></g></g></g><g class="series serie-7 color-7"><g class="bars"><g class="bar"><rect class="rect reactive tooltip-trigger" height="452.341370558" rx="0" ry="0" width="21.7427692308" x="219.359384615" y="71.3893986724"/><desc class="value">91</desc><desc class="x centered">230.230769231</desc><desc class="y centered">297.560083952</desc></g></g></g><g class="series serie-8 color-8"><g class="bars"><g class="bar"><rect class="rect reactive tooltip-trigger" height="427.487449099" rx="0" ry="0" width="21.7427692308" x="244.067076923" y="96.2433201316"/><desc class="value">86</desc><desc class="x centered">254.938461538</desc><desc class="y centered">309.987044681</desc></g></g></g><g class="series serie-9 color-9"><g class="bars"><g class="bar"><rect class="rect reactive tooltip-trigger" height="422.516664807" rx="0" ry="0" width="21.7427692308" x="268.774769231" y="101.214104423"/><desc class="value">85</desc><desc class="x centered">279.646153846</desc><desc class="y centered">312.472436827</desc></g></g></g><g class="series serie-10 color-10"><g class="bars"><g class="bar"><rect class="rect reactive tooltip-trigger" height="497.078429185" rx="0" ry="0" width="21.7427692308" x="293.482461538" y="26.6523400457"/><desc class="value">100</desc><desc class="x centered">304.353846154</desc><desc class="y centered">275.191554638</desc></g></g></g><g class="series serie-11 color-11"><g class="bars"><g class="bar"><rect class="rect reactive tooltip-trigger" height="427.487449099" rx="0" ry="0" width="21.7427692308" x="318.190153846" y="96.2433201316"/><desc class="value">86</desc><desc class="x centered">329.061538462</desc><desc class="y centered">309.987044681</desc></g></g></g><g class="series serie-12 color-12"><g class="bars"><g class="bar"><rect class="rect reactive tooltip-trigger" height="497.078429185" rx="0" ry="0" width="21.7427692308" x="342.897846154" y="26.6523400457"/><desc class="value">100</desc><desc class="x centered">353.769230769</desc><desc class="y centered">275.191554638</desc></g></g></g><g class="series serie-13 color-13"><g class="bars"><g class="bar"><rect class="rect reactive tooltip-trigger" height="437.429017683" rx="0" ry="0" width="21.7427692308" x="367.605538462" y="86.3017515479"/><desc class="value">88</desc><desc class="x centered">378.476923077</desc><desc class="y centered">305.016260389</desc></g></g></g><g class="series serie-14 color-14"><g class="bars"><g class="bar"><rect class="rect reactive tooltip-trigger" height="387.721174764" rx="0" ry="0" width="21.7427692308" x="392.313230769" y="136.009594466"/><desc class="value">78</desc><desc class="x centered">403.184615385</desc><desc class="y centered">329.870181849</desc></g></g></g><g class="series serie-15 color-15"><g class="bars"><g class="bar"><rect class="rect reactive tooltip-trigger" height="497.078429185" rx="0" ry="0" width="21.7427692308" x="417.020923077" y="26.6523400457"/><desc class="value">100</desc><desc class="x centered">427.892307692</desc><desc class="y centered">275.191554638</desc></g></g></g><g class="series serie-16 color-16"><g class="bars"><g class="bar"><rect class="rect reactive tooltip-trigger" height="248.539214593" rx="0" ry="0" width="21.7427692308" x="441.728615385" y="275.191554638"/><desc class="value">50</desc><desc class="x centered">452.6</desc><desc class="y centered">399.461161935</desc></g></g></g><g class="series serie-17 color-17"><g class="bars"><g class="bar"><rect class="rect reactive tooltip-trigger" height="248.539214593" rx="0" ry="0" width="21.7427692308" x="466.436307692" y="275.191554638"/><desc class="value">50</desc><desc class="x centered">477.307692308</desc><desc class="y centered">399.461161935</desc></g></g></g><g class="series serie-18 color-18"><g class="bars"><g class="bar"><rect class="rect reactive tooltip-trigger" height="328.071763262" rx="0" ry="0" width="21.7427692308" x="491.144" y="195.659005969"/><desc class="value">66</desc><desc class="x centered">502.015384615</desc><desc class="y centered">359.6948876</desc></g></g></g><g class="series serie-19 color-19"><g class="bars"><g class="bar"><rect class="rect reactive tooltip-trigger" height="407.604311932" rx="0" ry="0" width="21.7427692308" x="515.851692308" y="116.126457299"/><desc class="value">82</desc><desc class="x centered">526.723076923</desc><desc class="y centered">319.928613265</desc></g></g></g></g><g class="titles"><text class="title plot_title" x="400.0" y="26">Human lncRNA transcript biotypes in percents from source for the same group</text></g><g class="plot overlay" transform="translate(196, 46)"><g class="series serie-0 color-0"/><g class="series serie-1 color-1"/><g class="series serie-2 color-2"/><g class="series serie-3 color-3"/><g class="series serie-4 color-4"/><g class="series serie-5 color-5"/><g class="series serie-6 color-6"/><g class="series serie-7 color-7"/><g class="series serie-8 color-8"/><g class="series serie-9 color-9"/><g class="series serie-10 color-10"/><g class="series serie-11 color-11"/><g class="series serie-12 color-12"/><g class="series serie-13 color-13"/><g class="series serie-14 color-14"/><g class="series serie-15 color-15"/><g class="series serie-16 color-16"/><g class="series serie-17 color-17"/><g class="series serie-18 color-18"/><g class="series serie-19 color-19"/></g><g class="plot text-overlay" transform="translate(196, 46)"><g class="series serie-0 color-0"><text class="value" text-anchor="middle" x="57.2769230769" y="118.430574924">81</text></g><g class="series serie-1 color-1"><text class="value" text-anchor="middle" x="81.9846153846" y="272.524887972">50</text></g><g class="series serie-2 color-2"><text class="value" text-anchor="middle" x="106.692307692" y="78.6643005894">89</text></g><g class="series serie-3 color-3"><text class="value" text-anchor="middle" x="131.4" y="78.6643005894">89</text></g><g class="series serie-4 color-4"><text class="value" text-anchor="middle" x="156.107692308" y="521.064102564">0</text></g><g class="series serie-5 color-5"><text class="value" text-anchor="middle" x="180.815384615" y="23.9856733791">100</text></g><g class="series serie-6 color-6"><text class="value" text-anchor="middle" x="205.523076923" y="73.6935162976">90</text></g><g class="series serie-7 color-7"><text class="value" text-anchor="middle" x="230.230769231" y="68.7227320057">91</text></g><g class="series serie-8 color-8"><text class="value" text-anchor="middle" x="254.938461538" y="93.576653465">86</text></g><g class="series serie-9 color-9"><text class="value" text-anchor="middle" x="279.646153846" y="98.5474377568">85</text></g><g class="series serie-10 color-10"><text class="value" text-anchor="middle" x="304.353846154" y="23.9856733791">100</text></g><g class="series serie-11 color-11"><text class="value" text-anchor="middle" x="329.061538462" y="93.576653465">86</text></g><g class="series serie-12 color-12"><text class="value" text-anchor="middle" x="353.769230769" y="23.9856733791">100</text></g><g class="series serie-13 color-13"><text class="value" text-anchor="middle" x="378.476923077" y="83.6350848813">88</text></g><g class="series serie-14 color-14"><text class="value" text-anchor="middle" x="403.184615385" y="133.3429278">78</text></g><g class="series serie-15 color-15"><text class="value" text-anchor="middle" x="427.892307692" y="23.9856733791">100</text></g><g class="series serie-16 color-16"><text class="value" text-anchor="middle" x="452.6" y="272.524887972">50</text></g><g class="series serie-17 color-17"><text class="value" text-anchor="middle" x="477.307692308" y="272.524887972">50</text></g><g class="series serie-18 color-18"><text class="value" text-anchor="middle" x="502.015384615" y="192.992339302">66</text></g><g class="series serie-19 color-19"><text class="value" text-anchor="middle" x="526.723076923" y="113.459790632">82</text></g></g><g class="plot tooltip-overlay" transform="translate(196, 46)"><g class="tooltip" style="opacity: 0" transform="translate(0 0)"><rect class="tooltip-box" height="0" rx="0" ry="0" width="0"/><g class="text"/></g></g><g class="legends" transform="translate(10, 56)"><g class="legend reactive activate-serie" id="activate-serie-0"><rect class="color-0 reactive" height="12" width="12" x="0.0" y="1.0"/><text x="17.0" y="11.2">""</text></g><g class="legend reactive activate-serie" id="activate-serie-1"><rect class="color-1 reactive" height="12" width="12" x="0.0" y="22.0"/><text x="17.0" y="32.2">"3prime_overla…</text><title>"3prime_overlapping_ncrna"</title></g><g class="legend reactive activate-serie" id="activate-serie-2"><rect class="color-2 reactive" height="12" width="12" x="0.0" y="43.0"/><text x="17.0" y="53.2">"antisense"</text></g><g class="legend reactive activate-serie" id="activate-serie-3"><rect class="color-3 reactive" height="12" width="12" x="0.0" y="64.0"/><text x="17.0" y="74.2">"lincRNA"</text></g><g class="legend reactive activate-serie" id="activate-serie-4"><rect class="color-4 reactive" height="12" width="12" x="0.0" y="85.0"/><text x="17.0" y="95.2">"miRNA"</text></g><g class="legend reactive activate-serie" id="activate-serie-5"><rect class="color-5 reactive" height="12" width="12" x="0.0" y="106.0"/><text x="17.0" y="116.2">"misc_RNA"</text></g><g class="legend reactive activate-serie" id="activate-serie-6"><rect class="color-6 reactive" height="12" width="12" x="0.0" y="127.0"/><text x="17.0" y="137.2">"nonsense_medi…</text><title>"nonsense_mediated_decay"</title></g><g class="legend reactive activate-serie" id="activate-serie-7"><rect class="color-7 reactive" height="12" width="12" x="0.0" y="148.0"/><text x="17.0" y="158.2">"processed_pse…</text><title>"processed_pseudogene"</title></g><g class="legend reactive activate-serie" id="activate-serie-8"><rect class="color-8 reactive" height="12" width="12" x="0.0" y="169.0"/><text x="17.0" y="179.2">"processed_tra…</text><title>"processed_transcript"</title></g><g class="legend reactive activate-serie" id="activate-serie-9"><rect class="color-9 reactive" height="12" width="12" x="0.0" y="190.0"/><text x="17.0" y="200.2">"protein_codin…</text><title>"protein_coding"</title></g><g class="legend reactive activate-serie" id="activate-serie-10"><rect class="color-10 reactive" height="12" width="12" x="0.0" y="211.0"/><text x="17.0" y="221.2">"pseudogene"</text></g><g class="legend reactive activate-serie" id="activate-serie-11"><rect class="color-11 reactive" height="12" width="12" x="0.0" y="232.0"/><text x="17.0" y="242.2">"retained_intr…</text><title>"retained_intron"</title></g><g class="legend reactive activate-serie" id="activate-serie-12"><rect class="color-12 reactive" height="12" width="12" x="0.0" y="253.0"/><text x="17.0" y="263.2">"rRNA"</text></g><g class="legend reactive activate-serie" id="activate-serie-13"><rect class="color-13 reactive" height="12" width="12" x="0.0" y="274.0"/><text x="17.0" y="284.2">"sense_introni…</text><title>"sense_intronic"</title></g><g class="legend reactive activate-serie" id="activate-serie-14"><rect class="color-14 reactive" height="12" width="12" x="0.0" y="295.0"/><text x="17.0" y="305.2">"sense_overlap…</text><title>"sense_overlapping"</title></g><g class="legend reactive activate-serie" id="activate-serie-15"><rect class="color-15 reactive" height="12" width="12" x="0.0" y="316.0"/><text x="17.0" y="326.2">"snRNA"</text></g><g class="legend reactive activate-serie" id="activate-serie-16"><rect class="color-16 reactive" height="12" width="12" x="0.0" y="337.0"/><text x="17.0" y="347.2">"transcribed_p…</text><title>"transcribed_processed_pseudogene"</title></g><g class="legend reactive activate-serie" id="activate-serie-17"><rect class="color-17 reactive" height="12" width="12" x="0.0" y="358.0"/><text x="17.0" y="368.2">"transcribed_u…</text><title>"transcribed_unprocessed_pseudogene"</title></g><g class="legend reactive activate-serie" id="activate-serie-18"><rect class="color-0 reactive" height="12" width="12" x="0.0" y="379.0"/><text x="17.0" y="389.2">"unitary_pseud…</text><title>"unitary_pseudogene"</title></g><g class="legend reactive activate-serie" id="activate-serie-19"><rect class="color-1 reactive" height="12" width="12" x="0.0" y="400.0"/><text x="17.0" y="410.2">"unprocessed_p…</text><title>"unprocessed_pseudogene"</title></g></g><g class="legends" transform="translate(790, 56)"/></g></svg>