<?xml version='1.0' encoding='utf-8'?>
<svg xmlns:xlink="http://www.w3.org/1999/xlink" xmlns="http://www.w3.org/2000/svg" id="chart-8b2b61b4-a4e6-4167-979b-0622e5562247" class="pygal-chart" viewBox="0 0 800 600"><!--Generated with pygal 2.3.0 (lxml) ©Kozea 2012-2016 on 2017-05-23--><!--http://pygal.org--><!--http://github.com/Kozea/pygal--><defs><style type="text/css">#chart-8b2b61b4-a4e6-4167-979b-0622e5562247{-webkit-user-select:none;-webkit-font-smoothing:antialiased;font-family:Consolas,"Liberation Mono",Menlo,Courier,monospace}#chart-8b2b61b4-a4e6-4167-979b-0622e5562247 .title{font-family:Consolas,"Liberation Mono",Menlo,Courier,monospace;font-size:16px}#chart-8b2b61b4-a4e6-4167-979b-0622e5562247 .legends .legend text{font-family:Consolas,"Liberation Mono",Menlo,Courier,monospace;font-size:14px}#chart-8b2b61b4-a4e6-4167-979b-0622e5562247 .axis text{font-family:Consolas,"Liberation Mono",Menlo,Courier,monospace;font-size:10px}#chart-8b2b61b4-a4e6-4167-979b-0622e5562247 .axis text.major{font-family:Consolas,"Liberation Mono",Menlo,Courier,monospace;font-size:10px}#chart-8b2b61b4-a4e6-4167-979b-0622e5562247 .text-overlay text.value{font-family:Consolas,"Liberation Mono",Menlo,Courier,monospace;font-size:16px}#chart-8b2b61b4-a4e6-4167-979b-0622e5562247 .text-overlay text.label{font-family:Consolas,"Liberation Mono",Menlo,Courier,monospace;font-size:10px}#chart-8b2b61b4-a4e6-4167-979b-0622e5562247 .tooltip{font-family:Consolas,"Liberation Mono",Menlo,Courier,monospace;font-size:14px}#chart-8b2b61b4-a4e6-4167-979b-0622e5562247 text.no_data{font-family:Consolas,"Liberation Mono",Menlo,Courier,monospace;font-size:64px}
#chart-8b2b61b4-a4e6-4167-979b-0622e5562247{background-color:rgba(249,249,249,1)}#chart-8b2b61b4-a4e6-4167-979b-0622e5562247 path,#chart-8b2b61b4-a4e6-4167-979b-0622e5562247 line,#chart-8b2b61b4-a4e6-4167-979b-0622e5562247 rect,#chart-8b2b61b4-a4e6-4167-979b-0622e5562247 circle{-webkit-transition:150ms;-moz-transition:150ms;transition:150ms}#chart-8b2b61b4-a4e6-4167-979b-0622e5562247 .graph &gt; .background{fill:rgba(249,249,249,1)}#chart-8b2b61b4-a4e6-4167-979b-0622e5562247 .plot &gt; .background{fill:rgba(255,255,255,1)}#chart-8b2b61b4-a4e6-4167-979b-0622e5562247 .graph{fill:rgba(0,0,0,.87)}#chart-8b2b61b4-a4e6-4167-979b-0622e5562247 text.no_data{fill:rgba(0,0,0,1)}#chart-8b2b61b4-a4e6-4167-979b-0622e5562247 .title{fill:rgba(0,0,0,1)}#chart-8b2b61b4-a4e6-4167-979b-0622e5562247 .legends .legend text{fill:rgba(0,0,0,.87)}#chart-8b2b61b4-a4e6-4167-979b-0622e5562247 .legends .legend:hover text{fill:rgba(0,0,0,1)}#chart-8b2b61b4-a4e6-4167-979b-0622e5562247 .axis .line{stroke:rgba(0,0,0,1)}#chart-8b2b61b4-a4e6-4167-979b-0622e5562247 .axis .guide.line{stroke:rgba(0,0,0,.54)}#chart-8b2b61b4-a4e6-4167-979b-0622e5562247 .axis .major.line{stroke:rgba(0,0,0,.87)}#chart-8b2b61b4-a4e6-4167-979b-0622e5562247 .axis text.major{fill:rgba(0,0,0,1)}#chart-8b2b61b4-a4e6-4167-979b-0622e5562247 .axis.y .guides:hover .guide.line,#chart-8b2b61b4-a4e6-4167-979b-0622e5562247 .line-graph .axis.x .guides:hover .guide.line,#chart-8b2b61b4-a4e6-4167-979b-0622e5562247 .stackedline-graph .axis.x .guides:hover .guide.line,#chart-8b2b61b4-a4e6-4167-979b-0622e5562247 .xy-graph .axis.x .guides:hover .guide.line{stroke:rgba(0,0,0,1)}#chart-8b2b61b4-a4e6-4167-979b-0622e5562247 .axis .guides:hover text{fill:rgba(0,0,0,1)}#chart-8b2b61b4-a4e6-4167-979b-0622e5562247 .reactive{fill-opacity:.7;stroke-opacity:.8}#chart-8b2b61b4-a4e6-4167-979b-0622e5562247 .ci{stroke:rgba(0,0,0,.87)}#chart-8b2b61b4-a4e6-4167-979b-0622e5562247 .reactive.active,#chart-8b2b61b4-a4e6-4167-979b-0622e5562247 .active .reactive{fill-opacity:.8;stroke-opacity:.9;stroke-width:4}#chart-8b2b61b4-a4e6-4167-979b-0622e5562247 .ci .reactive.active{stroke-width:1.5}#chart-8b2b61b4-a4e6-4167-979b-0622e5562247 .series text{fill:rgba(0,0,0,1)}#chart-8b2b61b4-a4e6-4167-979b-0622e5562247 .tooltip rect{fill:rgba(255,255,255,1);stroke:rgba(0,0,0,1);-webkit-transition:opacity 150ms;-moz-transition:opacity 150ms;transition:opacity 150ms}#chart-8b2b61b4-a4e6-4167-979b-0622e5562247 .tooltip .label{fill:rgba(0,0,0,.87)}#chart-8b2b61b4-a4e6-4167-979b-0622e5562247 .tooltip .label{fill:rgba(0,0,0,.87)}#chart-8b2b61b4-a4e6-4167-979b-0622e5562247 .tooltip .legend{font-size:.8em;fill:rgba(0,0,0,.54)}#chart-8b2b61b4-a4e6-4167-979b-0622e5562247 .tooltip .x_label{font-size:.6em;fill:rgba(0,0,0,1)}#chart-8b2b61b4-a4e6-4167-979b-0622e5562247 .tooltip .xlink{font-size:.5em;text-decoration:underline}#chart-8b2b61b4-a4e6-4167-979b-0622e5562247 .tooltip .value{font-size:1.5em}#chart-8b2b61b4-a4e6-4167-979b-0622e5562247 .bound{font-size:.5em}#chart-8b2b61b4-a4e6-4167-979b-0622e5562247 .max-value{font-size:.75em;fill:rgba(0,0,0,.54)}#chart-8b2b61b4-a4e6-4167-979b-0622e5562247 .map-element{fill:rgba(255,255,255,1);stroke:rgba(0,0,0,.54) !important}#chart-8b2b61b4-a4e6-4167-979b-0622e5562247 .map-element .reactive{fill-opacity:inherit;stroke-opacity:inherit}#chart-8b2b61b4-a4e6-4167-979b-0622e5562247 .color-0,#chart-8b2b61b4-a4e6-4167-979b-0622e5562247 .color-0 a:visited{stroke:#F44336;fill:#F44336}#chart-8b2b61b4-a4e6-4167-979b-0622e5562247 .color-1,#chart-8b2b61b4-a4e6-4167-979b-0622e5562247 .color-1 a:visited{stroke:#3F51B5;fill:#3F51B5}#chart-8b2b61b4-a4e6-4167-979b-0622e5562247 .color-2,#chart-8b2b61b4-a4e6-4167-979b-0622e5562247 .color-2 a:visited{stroke:#009688;fill:#009688}#chart-8b2b61b4-a4e6-4167-979b-0622e5562247 .color-3,#chart-8b2b61b4-a4e6-4167-979b-0622e5562247 .color-3 a:visited{stroke:#FFC107;fill:#FFC107}#chart-8b2b61b4-a4e6-4167-979b-0622e5562247 .color-4,#chart-8b2b61b4-a4e6-4167-979b-0622e5562247 .color-4 a:visited{stroke:#FF5722;fill:#FF5722}#chart-8b2b61b4-a4e6-4167-979b-0622e5562247 .color-5,#chart-8b2b61b4-a4e6-4167-979b-0622e5562247 .color-5 a:visited{stroke:#9C27B0;fill:#9C27B0}#chart-8b2b61b4-a4e6-4167-979b-0622e5562247 .color-6,#chart-8b2b61b4-a4e6-4167-979b-0622e5562247 .color-6 a:visited{stroke:#03A9F4;fill:#03A9F4}#chart-8b2b61b4-a4e6-4167-979b-0622e5562247 .color-7,#chart-8b2b61b4-a4e6-4167-979b-0622e5562247 .color-7 a:visited{stroke:#8BC34A;fill:#8BC34A}#chart-8b2b61b4-a4e6-4167-979b-0622e5562247 .color-8,#chart-8b2b61b4-a4e6-4167-979b-0622e5562247 .color-8 a:visited{stroke:#FF9800;fill:#FF9800}#chart-8b2b61b4-a4e6-4167-979b-0622e5562247 .color-9,#chart-8b2b61b4-a4e6-4167-979b-0622e5562247 .color-9 a:visited{stroke:#E91E63;fill:#E91E63}#chart-8b2b61b4-a4e6-4167-979b-0622e5562247 .color-10,#chart-8b2b61b4-a4e6-4167-979b-0622e5562247 .color-10 a:visited{stroke:#2196F3;fill:#2196F3}#chart-8b2b61b4-a4e6-4167-979b-0622e5562247 .text-overlay .color-0 text{fill:black}#chart-8b2b61b4-a4e6-4167-979b-0622e5562247 .text-overlay .color-1 text{fill:black}#chart-8b2b61b4-a4e6-4167-979b-0622e5562247 .text-overlay .color-2 text{fill:black}#chart-8b2b61b4-a4e6-4167-979b-0622e5562247 .text-overlay .color-3 text{fill:black}#chart-8b2b61b4-a4e6-4167-979b-0622e5562247 .text-overlay .color-4 text{fill:black}#chart-8b2b61b4-a4e6-4167-979b-0622e5562247 .text-overlay .color-5 text{fill:black}#chart-8b2b61b4-a4e6-4167-979b-0622e5562247 .text-overlay .color-6 text{fill:black}#chart-8b2b61b4-a4e6-4167-979b-0622e5562247 .text-overlay .color-7 text{fill:black}#chart-8b2b61b4-a4e6-4167-979b-0622e5562247 .text-overlay .color-8 text{fill:black}#chart-8b2b61b4-a4e6-4167-979b-0622e5562247 .text-overlay .color-9 text{fill:black}#chart-8b2b61b4-a4e6-4167-979b-0622e5562247 .text-overlay .color-10 text{fill:black}
#chart-8b2b61b4-a4e6-4167-979b-0622e5562247 text.no_data{text-anchor:middle}#chart-8b2b61b4-a4e6-4167-979b-0622e5562247 .guide.line{fill:none}#chart-8b2b61b4-a4e6-4167-979b-0622e5562247 .centered{text-anchor:middle}#chart-8b2b61b4-a4e6-4167-979b-0622e5562247 .title{text-anchor:middle}#chart-8b2b61b4-a4e6-4167-979b-0622e5562247 .legends .legend text{fill-opacity:1}#chart-8b2b61b4-a4e6-4167-979b-0622e5562247 .axis.x text{text-anchor:middle}#chart-8b2b61b4-a4e6-4167-979b-0622e5562247 .axis.x:not(.web) text[transform]{text-anchor:start}#chart-8b2b61b4-a4e6-4167-979b-0622e5562247 .axis.x:not(.web) text[transform].backwards{text-anchor:end}#chart-8b2b61b4-a4e6-4167-979b-0622e5562247 .axis.y text{text-anchor:end}#chart-8b2b61b4-a4e6-4167-979b-0622e5562247 .axis.y text[transform].backwards{text-anchor:start}#chart-8b2b61b4-a4e6-4167-979b-0622e5562247 .axis.y2 text{text-anchor:start}#chart-8b2b61b4-a4e6-4167-979b-0622e5562247 .axis.y2 text[transform].backwards{text-anchor:end}#chart-8b2b61b4-a4e6-4167-979b-0622e5562247 .axis .guide.line{stroke-dasharray:4,4}#chart-8b2b61b4-a4e6-4167-979b-0622e5562247 .axis .major.guide.line{stroke-dasharray:6,6}#chart-8b2b61b4-a4e6-4167-979b-0622e5562247 .horizontal .axis.y .guide.line,#chart-8b2b61b4-a4e6-4167-979b-0622e5562247 .horizontal .axis.y2 .guide.line,#chart-8b2b61b4-a4e6-4167-979b-0622e5562247 .vertical .axis.x .guide.line{opacity:0}#chart-8b2b61b4-a4e6-4167-979b-0622e5562247 .horizontal .axis.always_show .guide.line,#chart-8b2b61b4-a4e6-4167-979b-0622e5562247 .vertical .axis.always_show .guide.line{opacity:1 !important}#chart-8b2b61b4-a4e6-4167-979b-0622e5562247 .axis.y .guides:hover .guide.line,#chart-8b2b61b4-a4e6-4167-979b-0622e5562247 .axis.y2 .guides:hover .guide.line,#chart-8b2b61b4-a4e6-4167-979b-0622e5562247 .axis.x .guides:hover .guide.line{opacity:1}#chart-8b2b61b4-a4e6-4167-979b-0622e5562247 .axis .guides:hover text{opacity:1}#chart-8b2b61b4-a4e6-4167-979b-0622e5562247 .nofill{fill:none}#chart-8b2b61b4-a4e6-4167-979b-0622e5562247 .subtle-fill{fill-opacity:.2}#chart-8b2b61b4-a4e6-4167-979b-0622e5562247 .dot{stroke-width:1px;fill-opacity:1}#chart-8b2b61b4-a4e6-4167-979b-0622e5562247 .dot.active{stroke-width:5px}#chart-8b2b61b4-a4e6-4167-979b-0622e5562247 .dot.negative{fill:transparent}#chart-8b2b61b4-a4e6-4167-979b-0622e5562247 text,#chart-8b2b61b4-a4e6-4167-979b-0622e5562247 tspan{stroke:none !important}#chart-8b2b61b4-a4e6-4167-979b-0622e5562247 .series text.active{opacity:1}#chart-8b2b61b4-a4e6-4167-979b-0622e5562247 .tooltip rect{fill-opacity:.95;stroke-width:.5}#chart-8b2b61b4-a4e6-4167-979b-0622e5562247 .tooltip text{fill-opacity:1}#chart-8b2b61b4-a4e6-4167-979b-0622e5562247 .showable{visibility:hidden}#chart-8b2b61b4-a4e6-4167-979b-0622e5562247 .showable.shown{visibility:visible}#chart-8b2b61b4-a4e6-4167-979b-0622e5562247 .gauge-background{fill:rgba(229,229,229,1);stroke:none}#chart-8b2b61b4-a4e6-4167-979b-0622e5562247 .bg-lines{stroke:rgba(249,249,249,1);stroke-width:2px}</style><script type="text/javascript">window.pygal = window.pygal || {};window.pygal.config = window.pygal.config || {};window.pygal.config['8b2b61b4-a4e6-4167-979b-0622e5562247'] = {"dynamic_print_values": false, "truncate_label": null, "inner_radius": 0, "print_values": false, "xrange": null, "box_mode": "extremes", "title": "Primate lncRNAs annotations vs orthologs (in %)", "legend_at_bottom_columns": null, "height": 600, "legend_at_bottom": false, "show_legend": true, "show_dots": true, "explicit_size": false, "y_labels_major": null, "show_minor_x_labels": true, "width": 800, "force_uri_protocol": "https", "half_pie": false, "style": {"major_label_font_family": "Consolas, \"Liberation Mono\", Menlo, Courier, monospace", "title_font_family": "Consolas, \"Liberation Mono\", Menlo, Courier, monospace", "stroke_opacity": ".8", "legend_font_family": "Consolas, \"Liberation Mono\", Menlo, Courier, monospace", "colors": ["#F44336", "#3F51B5", "#009688", "#FFC107", "#FF5722", "#9C27B0", "#03A9F4", "#8BC34A", "#FF9800", "#E91E63", "#2196F3", "#4CAF50", "#FFEB3B", "#673AB7", "#00BCD4", "#CDDC39", "#9E9E9E", "#607D8B"], "legend_font_size": 14, "no_data_font_family": "Consolas, \"Liberation Mono\", Menlo, Courier, monospace", "major_label_font_size": 10, "value_background": "rgba(229, 229, 229, 1)", "ci_colors": [], "label_font_family": "Consolas, \"Liberation Mono\", Menlo, Courier, monospace", "label_font_size": 10, "tooltip_font_size": 14, "value_font_size": 16, "font_family": "Consolas, \"Liberation Mono\", Menlo, Courier, monospace", "opacity": ".7", "foreground": "rgba(0, 0, 0, .87)", "plot_background": "rgba(255, 255, 255, 1)", "value_label_font_size": 10, "value_label_font_family": "Consolas, \"Liberation Mono\", Menlo, Courier, monospace", "background": "rgba(249, 249, 249, 1)", "no_data_font_size": 64, "value_colors": [], "guide_stroke_dasharray": "4,4", "transition": "150ms", "foreground_subtle": "rgba(0, 0, 0, .54)", "value_font_family": "Consolas, \"Liberation Mono\", Menlo, Courier, monospace", "tooltip_font_family": "Consolas, \"Liberation Mono\", Menlo, Courier, monospace", "title_font_size": 16, "stroke_opacity_hover": ".9", "major_guide_stroke_dasharray": "6,6", "opacity_hover": ".8", "foreground_strong": "rgba(0, 0, 0, 1)"}, "x_label_rotation": 0, "fill": false, "missing_value_fill_truncation": "x", "zero": 0, "margin_right": null, "interpolation_parameters": {}, "x_labels_major": null, "rounded_bars": null, "show_y_labels": true, "dots_size": 2.5, "show_y_guides": true, "show_minor_y_labels": true, "x_labels": null, "y_title": null, "order_min": null, "formatter": null, "disable_xml_declaration": false, "strict": false, "css": ["file://style.css", "file://graph.css"], "tooltip_fancy_mode": true, "defs": [], "show_only_major_dots": false, "y_label_rotation": 0, "show_x_labels": true, "min_scale": 4, "show_x_guides": false, "spacing": 10, "x_labels_major_count": null, "pretty_print": false, "tooltip_border_radius": 0, "interpolate": null, "js": ["//kozea.github.io/pygal.js/2.0.x/pygal-tooltips.min.js"], "y_labels": null, "stroke_style": null, "print_labels": false, "interpolation_precision": 250, "x_title": null, "y_labels_major_every": null, "logarithmic": false, "legends": ["Atys", "Baboon", "Bonobo", "Chimp", "Gorilla", "GreenMonkey", "Lemur", "MacacaFascicularis", "Marmoset", "Orangutan", "Rhesus"], "max_scale": 16, "print_zeroes": true, "no_data_text": "No data", "truncate_legend": null, "x_labels_major_every": null, "secondary_range": null, "legend_box_size": 12, "no_prefix": false, "stroke": true, "stack_from_top": false, "include_x_axis": false, "range": null, "classes": ["pygal-chart"], "margin_top": null, "margin_left": null, "y_labels_major_count": null, "margin_bottom": null, "inverse_y_axis": false, "margin": 20, "allow_interruptions": false, "print_values_position": "center"}</script><script type="text/javascript" xlink:href="https://kozea.github.io/pygal.js/2.0.x/pygal-tooltips.min.js"/></defs><title>Primate lncRNAs annotations vs orthologs (in %)</title><g class="graph horizontalbar-graph horizontal"><rect class="background" height="600" width="800" x="0" y="0"/><g class="plot" transform="translate(168, 46)"><rect class="background" height="514" width="612.0" x="0" y="0"/><g class="axis x"><g class="guides"><path class="axis major line" d="M11.769231 0.000000 v514.000000"/><text class="major" x="11.7692307692" y="529.0">0</text></g><g class="guides"><path class="guide line" d="M145.510490 0.000000 v514.000000"/><text class="" x="145.51048951" y="529.0">10</text></g><g class="guides"><path class="guide line" d="M279.251748 0.000000 v514.000000"/><text class="" x="279.251748252" y="529.0">20</text></g><g class="guides"><path class="guide line" d="M412.993007 0.000000 v514.000000"/><text class="" x="412.993006993" y="529.0">30</text></g><g class="guides"><path class="guide line" d="M546.734266 0.000000 v514.000000"/><text class="" x="546.734265734" y="529.0">40</text></g></g><g class="series serie-10 color-10"><g class="bars"><g class="bar"><rect class="rect reactive tooltip-trigger" height="34.7938461538" rx="0" ry="0" width="254.108391608" x="11.7692307692" y="437.295384615"/><desc class="value">19</desc><desc class="x centered">138.823426573</desc><desc class="y centered">454.692307692</desc></g></g></g><g class="series serie-9 color-9"><g class="bars"><g class="bar"><rect class="rect reactive tooltip-trigger" height="34.7938461538" rx="0" ry="0" width="454.72027972" x="11.7692307692" y="397.756923077"/><desc class="value">34</desc><desc class="x centered">239.129370629</desc><desc class="y centered">415.153846154</desc></g></g></g><g class="series serie-8 color-8"><g class="bars"><g class="bar"><rect class="rect reactive tooltip-trigger" height="34.7938461538" rx="0" ry="0" width="294.230769231" x="11.7692307692" y="358.218461538"/><desc class="value">22</desc><desc class="x centered">158.884615385</desc><desc class="y centered">375.615384615</desc></g></g></g><g class="series serie-7 color-7"><g class="bars"><g class="bar"><rect class="rect reactive tooltip-trigger" height="34.7938461538" rx="0" ry="0" width="280.856643357" x="11.7692307692" y="318.68"/><desc class="value">21</desc><desc class="x centered">152.197552448</desc><desc class="y centered">336.076923077</desc></g></g></g><g class="series serie-6 color-6"><g class="bars"><g class="bar"><rect class="rect reactive tooltip-trigger" height="34.7938461538" rx="0" ry="0" width="93.6188811189" x="11.7692307692" y="279.141538462"/><desc class="value">7</desc><desc class="x centered">58.5786713287</desc><desc class="y centered">296.538461538</desc></g></g></g><g class="series serie-5 color-5"><g class="bars"><g class="bar"><rect class="rect reactive tooltip-trigger" height="34.7938461538" rx="0" ry="0" width="307.604895105" x="11.7692307692" y="239.603076923"/><desc class="value">23</desc><desc class="x centered">165.571678322</desc><desc class="y centered">257.0</desc></g></g></g><g class="series serie-4 color-4"><g class="bars"><g class="bar"><rect class="rect reactive tooltip-trigger" height="34.7938461538" rx="0" ry="0" width="334.353146853" x="11.7692307692" y="200.064615385"/><desc class="value">25</desc><desc class="x centered">178.945804196</desc><desc class="y centered">217.461538462</desc></g></g></g><g class="series serie-3 color-3"><g class="bars"><g class="bar"><rect class="rect reactive tooltip-trigger" height="34.7938461538" rx="0" ry="0" width="267.482517483" x="11.7692307692" y="160.526153846"/><desc class="value">20</desc><desc class="x centered">145.51048951</desc><desc class="y centered">177.923076923</desc></g></g></g><g class="series serie-2 color-2"><g class="bars"><g class="bar"><rect class="rect reactive tooltip-trigger" height="34.7938461538" rx="0" ry="0" width="588.461538462" x="11.7692307692" y="120.987692308"/><desc class="value">44</desc><desc class="x centered">306.0</desc><desc class="y centered">138.384615385</desc></g></g></g><g class="series serie-1 color-1"><g class="bars"><g class="bar"><rect class="rect reactive tooltip-trigger" height="34.7938461538" rx="0" ry="0" width="294.230769231" x="11.7692307692" y="81.4492307692"/><desc class="value">22</desc><desc class="x centered">158.884615385</desc><desc class="y centered">98.8461538462</desc></g></g></g><g class="series serie-0 color-0"><g class="bars"><g class="bar"><rect class="rect reactive tooltip-trigger" height="34.7938461538" rx="0" ry="0" width="320.979020979" x="11.7692307692" y="41.9107692308"/><desc class="value">24</desc><desc class="x centered">172.258741259</desc><desc class="y centered">59.3076923077</desc></g></g></g></g><g class="titles"><text class="title plot_title" x="400.0" y="26">Primate lncRNAs annotations vs orthologs (in %)</text></g><g class="plot overlay" transform="translate(168, 46)"><g class="series serie-10 color-10"/><g class="series serie-9 color-9"/><g class="series serie-8 color-8"/><g class="series serie-7 color-7"/><g class="series serie-6 color-6"/><g class="series serie-5 color-5"/><g class="series serie-4 color-4"/><g class="series serie-3 color-3"/><g class="series serie-2 color-2"/><g class="series serie-1 color-1"/><g class="series serie-0 color-0"/></g><g class="plot text-overlay" transform="translate(168, 46)"><g class="series serie-10 color-10"/><g class="series serie-9 color-9"/><g class="series serie-8 color-8"/><g class="series serie-7 color-7"/><g class="series serie-6 color-6"/><g class="series serie-5 color-5"/><g class="series serie-4 color-4"/><g class="series serie-3 color-3"/><g class="series serie-2 color-2"/><g class="series serie-1 color-1"/><g class="series serie-0 color-0"/></g><g class="plot tooltip-overlay" transform="translate(168, 46)"><g class="tooltip" style="opacity: 0" transform="translate(0 0)"><rect class="tooltip-box" height="0" rx="0" ry="0" width="0"/><g class="text"/></g></g><g class="legends" transform="translate(10, 56)"><g class="legend reactive activate-serie" id="activate-serie-0"><rect class="color-0 reactive" height="12" width="12" x="0.0" y="1.0"/><text x="17.0" y="11.2">Atys</text></g><g class="legend reactive activate-serie" id="activate-serie-1"><rect class="color-1 reactive" height="12" width="12" x="0.0" y="22.0"/><text x="17.0" y="32.2">Baboon</text></g><g class="legend reactive activate-serie" id="activate-serie-2"><rect class="color-2 reactive" height="12" width="12" x="0.0" y="43.0"/><text x="17.0" y="53.2">Bonobo</text></g><g class="legend reactive activate-serie" id="activate-serie-3"><rect class="color-3 reactive" height="12" width="12" x="0.0" y="64.0"/><text x="17.0" y="74.2">Chimp</text></g><g class="legend reactive activate-serie" id="activate-serie-4"><rect class="color-4 reactive" height="12" width="12" x="0.0" y="85.0"/><text x="17.0" y="95.2">Gorilla</text></g><g class="legend reactive activate-serie" id="activate-serie-5"><rect class="color-5 reactive" height="12" width="12" x="0.0" y="106.0"/><text x="17.0" y="116.2">GreenMonkey</text></g><g class="legend reactive activate-serie" id="activate-serie-6"><rect class="color-6 reactive" height="12" width="12" x="0.0" y="127.0"/><text x="17.0" y="137.2">Lemur</text></g><g class="legend reactive activate-serie" id="activate-serie-7"><rect class="color-7 reactive" height="12" width="12" x="0.0" y="148.0"/><text x="17.0" y="158.2">MacacaFascicul…</text><title>MacacaFascicularis</title></g><g class="legend reactive activate-serie" id="activate-serie-8"><rect class="color-8 reactive" height="12" width="12" x="0.0" y="169.0"/><text x="17.0" y="179.2">Marmoset</text></g><g class="legend reactive activate-serie" id="activate-serie-9"><rect class="color-9 reactive" height="12" width="12" x="0.0" y="190.0"/><text x="17.0" y="200.2">Orangutan</text></g><g class="legend reactive activate-serie" id="activate-serie-10"><rect class="color-10 reactive" height="12" width="12" x="0.0" y="211.0"/><text x="17.0" y="221.2">Rhesus</text></g></g><g class="legends" transform="translate(790, 56)"/></g></svg>