<?xml version='1.0' encoding='utf-8'?>
<svg xmlns:xlink="http://www.w3.org/1999/xlink" xmlns="http://www.w3.org/2000/svg" id="chart-54b0b74a-0185-4a9f-af1a-dccd48c09d5f" class="pygal-chart" viewBox="0 0 800 600"><!--Generated with pygal 2.3.0 (lxml) ©Kozea 2012-2016 on 2017-05-23--><!--http://pygal.org--><!--http://github.com/Kozea/pygal--><defs><style type="text/css">#chart-54b0b74a-0185-4a9f-af1a-dccd48c09d5f{-webkit-user-select:none;-webkit-font-smoothing:antialiased;font-family:Consolas,"Liberation Mono",Menlo,Courier,monospace}#chart-54b0b74a-0185-4a9f-af1a-dccd48c09d5f .title{font-family:Consolas,"Liberation Mono",Menlo,Courier,monospace;font-size:16px}#chart-54b0b74a-0185-4a9f-af1a-dccd48c09d5f .legends .legend text{font-family:Consolas,"Liberation Mono",Menlo,Courier,monospace;font-size:14px}#chart-54b0b74a-0185-4a9f-af1a-dccd48c09d5f .axis text{font-family:Consolas,"Liberation Mono",Menlo,Courier,monospace;font-size:10px}#chart-54b0b74a-0185-4a9f-af1a-dccd48c09d5f .axis text.major{font-family:Consolas,"Liberation Mono",Menlo,Courier,monospace;font-size:10px}#chart-54b0b74a-0185-4a9f-af1a-dccd48c09d5f .text-overlay text.value{font-family:Consolas,"Liberation Mono",Menlo,Courier,monospace;font-size:16px}#chart-54b0b74a-0185-4a9f-af1a-dccd48c09d5f .text-overlay text.label{font-family:Consolas,"Liberation Mono",Menlo,Courier,monospace;font-size:10px}#chart-54b0b74a-0185-4a9f-af1a-dccd48c09d5f .tooltip{font-family:Consolas,"Liberation Mono",Menlo,Courier,monospace;font-size:14px}#chart-54b0b74a-0185-4a9f-af1a-dccd48c09d5f text.no_data{font-family:Consolas,"Liberation Mono",Menlo,Courier,monospace;font-size:64px}
#chart-54b0b74a-0185-4a9f-af1a-dccd48c09d5f{background-color:rgba(249,249,249,1)}#chart-54b0b74a-0185-4a9f-af1a-dccd48c09d5f path,#chart-54b0b74a-0185-4a9f-af1a-dccd48c09d5f line,#chart-54b0b74a-0185-4a9f-af1a-dccd48c09d5f rect,#chart-54b0b74a-0185-4a9f-af1a-dccd48c09d5f circle{-webkit-transition:150ms;-moz-transition:150ms;transition:150ms}#chart-54b0b74a-0185-4a9f-af1a-dccd48c09d5f .graph &gt; .background{fill:rgba(249,249,249,1)}#chart-54b0b74a-0185-4a9f-af1a-dccd48c09d5f .plot &gt; .background{fill:rgba(255,255,255,1)}#chart-54b0b74a-0185-4a9f-af1a-dccd48c09d5f .graph{fill:rgba(0,0,0,.87)}#chart-54b0b74a-0185-4a9f-af1a-dccd48c09d5f text.no_data{fill:rgba(0,0,0,1)}#chart-54b0b74a-0185-4a9f-af1a-dccd48c09d5f .title{fill:rgba(0,0,0,1)}#chart-54b0b74a-0185-4a9f-af1a-dccd48c09d5f .legends .legend text{fill:rgba(0,0,0,.87)}#chart-54b0b74a-0185-4a9f-af1a-dccd48c09d5f .legends .legend:hover text{fill:rgba(0,0,0,1)}#chart-54b0b74a-0185-4a9f-af1a-dccd48c09d5f .axis .line{stroke:rgba(0,0,0,1)}#chart-54b0b74a-0185-4a9f-af1a-dccd48c09d5f .axis .guide.line{stroke:rgba(0,0,0,.54)}#chart-54b0b74a-0185-4a9f-af1a-dccd48c09d5f .axis .major.line{stroke:rgba(0,0,0,.87)}#chart-54b0b74a-0185-4a9f-af1a-dccd48c09d5f .axis text.major{fill:rgba(0,0,0,1)}#chart-54b0b74a-0185-4a9f-af1a-dccd48c09d5f .axis.y .guides:hover .guide.line,#chart-54b0b74a-0185-4a9f-af1a-dccd48c09d5f .line-graph .axis.x .guides:hover .guide.line,#chart-54b0b74a-0185-4a9f-af1a-dccd48c09d5f .stackedline-graph .axis.x .guides:hover .guide.line,#chart-54b0b74a-0185-4a9f-af1a-dccd48c09d5f .xy-graph .axis.x .guides:hover .guide.line{stroke:rgba(0,0,0,1)}#chart-54b0b74a-0185-4a9f-af1a-dccd48c09d5f .axis .guides:hover text{fill:rgba(0,0,0,1)}#chart-54b0b74a-0185-4a9f-af1a-dccd48c09d5f .reactive{fill-opacity:.7;stroke-opacity:.8}#chart-54b0b74a-0185-4a9f-af1a-dccd48c09d5f .ci{stroke:rgba(0,0,0,.87)}#chart-54b0b74a-0185-4a9f-af1a-dccd48c09d5f .reactive.active,#chart-54b0b74a-0185-4a9f-af1a-dccd48c09d5f .active .reactive{fill-opacity:.8;stroke-opacity:.9;stroke-width:4}#chart-54b0b74a-0185-4a9f-af1a-dccd48c09d5f .ci .reactive.active{stroke-width:1.5}#chart-54b0b74a-0185-4a9f-af1a-dccd48c09d5f .series text{fill:rgba(0,0,0,1)}#chart-54b0b74a-0185-4a9f-af1a-dccd48c09d5f .tooltip rect{fill:rgba(255,255,255,1);stroke:rgba(0,0,0,1);-webkit-transition:opacity 150ms;-moz-transition:opacity 150ms;transition:opacity 150ms}#chart-54b0b74a-0185-4a9f-af1a-dccd48c09d5f .tooltip .label{fill:rgba(0,0,0,.87)}#chart-54b0b74a-0185-4a9f-af1a-dccd48c09d5f .tooltip .label{fill:rgba(0,0,0,.87)}#chart-54b0b74a-0185-4a9f-af1a-dccd48c09d5f .tooltip .legend{font-size:.8em;fill:rgba(0,0,0,.54)}#chart-54b0b74a-0185-4a9f-af1a-dccd48c09d5f .tooltip .x_label{font-size:.6em;fill:rgba(0,0,0,1)}#chart-54b0b74a-0185-4a9f-af1a-dccd48c09d5f .tooltip .xlink{font-size:.5em;text-decoration:underline}#chart-54b0b74a-0185-4a9f-af1a-dccd48c09d5f .tooltip .value{font-size:1.5em}#chart-54b0b74a-0185-4a9f-af1a-dccd48c09d5f .bound{font-size:.5em}#chart-54b0b74a-0185-4a9f-af1a-dccd48c09d5f .max-value{font-size:.75em;fill:rgba(0,0,0,.54)}#chart-54b0b74a-0185-4a9f-af1a-dccd48c09d5f .map-element{fill:rgba(255,255,255,1);stroke:rgba(0,0,0,.54) !important}#chart-54b0b74a-0185-4a9f-af1a-dccd48c09d5f .map-element .reactive{fill-opacity:inherit;stroke-opacity:inherit}#chart-54b0b74a-0185-4a9f-af1a-dccd48c09d5f .color-0,#chart-54b0b74a-0185-4a9f-af1a-dccd48c09d5f .color-0 a:visited{stroke:#F44336;fill:#F44336}#chart-54b0b74a-0185-4a9f-af1a-dccd48c09d5f .color-1,#chart-54b0b74a-0185-4a9f-af1a-dccd48c09d5f .color-1 a:visited{stroke:#3F51B5;fill:#3F51B5}#chart-54b0b74a-0185-4a9f-af1a-dccd48c09d5f .text-overlay .color-0 text{fill:black}#chart-54b0b74a-0185-4a9f-af1a-dccd48c09d5f .text-overlay .color-1 text{fill:black}
#chart-54b0b74a-0185-4a9f-af1a-dccd48c09d5f text.no_data{text-anchor:middle}#chart-54b0b74a-0185-4a9f-af1a-dccd48c09d5f .guide.line{fill:none}#chart-54b0b74a-0185-4a9f-af1a-dccd48c09d5f .centered{text-anchor:middle}#chart-54b0b74a-0185-4a9f-af1a-dccd48c09d5f .title{text-anchor:middle}#chart-54b0b74a-0185-4a9f-af1a-dccd48c09d5f .legends .legend text{fill-opacity:1}#chart-54b0b74a-0185-4a9f-af1a-dccd48c09d5f .axis.x text{text-anchor:middle}#chart-54b0b74a-0185-4a9f-af1a-dccd48c09d5f .axis.x:not(.web) text[transform]{text-anchor:start}#chart-54b0b74a-0185-4a9f-af1a-dccd48c09d5f .axis.x:not(.web) text[transform].backwards{text-anchor:end}#chart-54b0b74a-0185-4a9f-af1a-dccd48c09d5f .axis.y text{text-anchor:end}#chart-54b0b74a-0185-4a9f-af1a-dccd48c09d5f .axis.y text[transform].backwards{text-anchor:start}#chart-54b0b74a-0185-4a9f-af1a-dccd48c09d5f .axis.y2 text{text-anchor:start}#chart-54b0b74a-0185-4a9f-af1a-dccd48c09d5f .axis.y2 text[transform].backwards{text-anchor:end}#chart-54b0b74a-0185-4a9f-af1a-dccd48c09d5f .axis .guide.line{stroke-dasharray:4,4}#chart-54b0b74a-0185-4a9f-af1a-dccd48c09d5f .axis .major.guide.line{stroke-dasharray:6,6}#chart-54b0b74a-0185-4a9f-af1a-dccd48c09d5f .horizontal .axis.y .guide.line,#chart-54b0b74a-0185-4a9f-af1a-dccd48c09d5f .horizontal .axis.y2 .guide.line,#chart-54b0b74a-0185-4a9f-af1a-dccd48c09d5f .vertical .axis.x .guide.line{opacity:0}#chart-54b0b74a-0185-4a9f-af1a-dccd48c09d5f .horizontal .axis.always_show .guide.line,#chart-54b0b74a-0185-4a9f-af1a-dccd48c09d5f .vertical .axis.always_show .guide.line{opacity:1 !important}#chart-54b0b74a-0185-4a9f-af1a-dccd48c09d5f .axis.y .guides:hover .guide.line,#chart-54b0b74a-0185-4a9f-af1a-dccd48c09d5f .axis.y2 .guides:hover .guide.line,#chart-54b0b74a-0185-4a9f-af1a-dccd48c09d5f .axis.x .guides:hover .guide.line{opacity:1}#chart-54b0b74a-0185-4a9f-af1a-dccd48c09d5f .axis .guides:hover text{opacity:1}#chart-54b0b74a-0185-4a9f-af1a-dccd48c09d5f .nofill{fill:none}#chart-54b0b74a-0185-4a9f-af1a-dccd48c09d5f .subtle-fill{fill-opacity:.2}#chart-54b0b74a-0185-4a9f-af1a-dccd48c09d5f .dot{stroke-width:1px;fill-opacity:1}#chart-54b0b74a-0185-4a9f-af1a-dccd48c09d5f .dot.active{stroke-width:5px}#chart-54b0b74a-0185-4a9f-af1a-dccd48c09d5f .dot.negative{fill:transparent}#chart-54b0b74a-0185-4a9f-af1a-dccd48c09d5f text,#chart-54b0b74a-0185-4a9f-af1a-dccd48c09d5f tspan{stroke:none !important}#chart-54b0b74a-0185-4a9f-af1a-dccd48c09d5f .series text.active{opacity:1}#chart-54b0b74a-0185-4a9f-af1a-dccd48c09d5f .tooltip rect{fill-opacity:.95;stroke-width:.5}#chart-54b0b74a-0185-4a9f-af1a-dccd48c09d5f .tooltip text{fill-opacity:1}#chart-54b0b74a-0185-4a9f-af1a-dccd48c09d5f .showable{visibility:hidden}#chart-54b0b74a-0185-4a9f-af1a-dccd48c09d5f .showable.shown{visibility:visible}#chart-54b0b74a-0185-4a9f-af1a-dccd48c09d5f .gauge-background{fill:rgba(229,229,229,1);stroke:none}#chart-54b0b74a-0185-4a9f-af1a-dccd48c09d5f .bg-lines{stroke:rgba(249,249,249,1);stroke-width:2px}</style><script type="text/javascript">window.pygal = window.pygal || {};window.pygal.config = window.pygal.config || {};window.pygal.config['54b0b74a-0185-4a9f-af1a-dccd48c09d5f'] = {"dynamic_print_values": false, "truncate_label": null, "inner_radius": 0, "print_values": false, "xrange": null, "box_mode": "extremes", "title": "Annotations distribution", "legend_at_bottom_columns": null, "height": 600, "legend_at_bottom": false, "show_legend": true, "show_dots": true, "explicit_size": false, "y_labels_major": null, "show_minor_x_labels": true, "width": 800, "force_uri_protocol": "https", "half_pie": false, "style": {"major_label_font_family": "Consolas, \"Liberation Mono\", Menlo, Courier, monospace", "title_font_family": "Consolas, \"Liberation Mono\", Menlo, Courier, monospace", "stroke_opacity": ".8", "legend_font_family": "Consolas, \"Liberation Mono\", Menlo, Courier, monospace", "colors": ["#F44336", "#3F51B5", "#009688", "#FFC107", "#FF5722", "#9C27B0", "#03A9F4", "#8BC34A", "#FF9800", "#E91E63", "#2196F3", "#4CAF50", "#FFEB3B", "#673AB7", "#00BCD4", "#CDDC39", "#9E9E9E", "#607D8B"], "legend_font_size": 14, "no_data_font_family": "Consolas, \"Liberation Mono\", Menlo, Courier, monospace", "major_label_font_size": 10, "value_background": "rgba(229, 229, 229, 1)", "ci_colors": [], "label_font_family": "Consolas, \"Liberation Mono\", Menlo, Courier, monospace", "label_font_size": 10, "tooltip_font_size": 14, "value_font_size": 16, "font_family": "Consolas, \"Liberation Mono\", Menlo, Courier, monospace", "opacity": ".7", "foreground": "rgba(0, 0, 0, .87)", "plot_background": "rgba(255, 255, 255, 1)", "value_label_font_size": 10, "value_label_font_family": "Consolas, \"Liberation Mono\", Menlo, Courier, monospace", "background": "rgba(249, 249, 249, 1)", "no_data_font_size": 64, "value_colors": [], "guide_stroke_dasharray": "4,4", "transition": "150ms", "foreground_subtle": "rgba(0, 0, 0, .54)", "value_font_family": "Consolas, \"Liberation Mono\", Menlo, Courier, monospace", "tooltip_font_family": "Consolas, \"Liberation Mono\", Menlo, Courier, monospace", "title_font_size": 16, "stroke_opacity_hover": ".9", "major_guide_stroke_dasharray": "6,6", "opacity_hover": ".8", "foreground_strong": "rgba(0, 0, 0, 1)"}, "x_label_rotation": 0, "fill": false, "missing_value_fill_truncation": "x", "zero": 0, "margin_right": null, "interpolation_parameters": {}, "x_labels_major": null, "rounded_bars": null, "show_y_labels": true, "dots_size": 2.5, "show_y_guides": true, "show_minor_y_labels": true, "x_labels": ["Bonobo", "Orangutan", "Rhesus", "GreenMonkey", "Gorilla", "Marmoset", "Lemur", "Atys", "Baboon", "Mouse", "MacacaFascicularis", "Chimp"], "y_title": null, "order_min": null, "formatter": null, "disable_xml_declaration": false, "strict": false, "css": ["file://style.css", "file://graph.css"], "tooltip_fancy_mode": true, "defs": [], "show_only_major_dots": false, "y_label_rotation": 0, "show_x_labels": true, "min_scale": 4, "show_x_guides": false, "spacing": 10, "x_labels_major_count": null, "pretty_print": false, "tooltip_border_radius": 0, "interpolate": null, "js": ["//kozea.github.io/pygal.js/2.0.x/pygal-tooltips.min.js"], "y_labels": null, "stroke_style": null, "print_labels": false, "interpolation_precision": 250, "x_title": null, "y_labels_major_every": null, "logarithmic": false, "legends": ["lncRNAs", "Protein-coding"], "max_scale": 16, "print_zeroes": true, "no_data_text": "No data", "truncate_legend": null, "x_labels_major_every": null, "secondary_range": null, "legend_box_size": 12, "no_prefix": false, "stroke": true, "stack_from_top": false, "include_x_axis": false, "range": null, "classes": ["pygal-chart"], "margin_top": null, "margin_left": null, "y_labels_major_count": null, "margin_bottom": null, "inverse_y_axis": false, "margin": 20, "allow_interruptions": false, "print_values_position": "center"}</script><script type="text/javascript" xlink:href="https://kozea.github.io/pygal.js/2.0.x/pygal-tooltips.min.js"/></defs><title>Annotations distribution</title><g class="graph bar-graph vertical"><rect class="background" height="600" width="800" x="0" y="0"/><g class="plot" transform="translate(199, 46)"><rect class="background" height="514" width="580.4" x="0" y="0"/><g class="axis y"><g class="guides"><path class="axis major line" d="M0.000000 504.115385 h580.400000"/><text class="major" x="-5" y="507.615384615">0</text><title>0</title></g><g class="guides"><path class="guide line" d="M0.000000 427.872266 h580.400000"/><text class="" x="-5" y="431.372265779">10000</text><title>10000</title></g><g class="guides"><path class="guide line" d="M0.000000 351.629147 h580.400000"/><text class="" x="-5" y="355.129146943">20000</text><title>20000</title></g><g class="guides"><path class="guide line" d="M0.000000 275.386028 h580.400000"/><text class="" x="-5" y="278.886028107">30000</text><title>30000</title></g><g class="guides"><path class="guide line" d="M0.000000 199.142909 h580.400000"/><text class="" x="-5" y="202.642909271">40000</text><title>40000</title></g><g class="guides"><path class="major guide line" d="M0.000000 122.899790 h580.400000"/><text class="major" x="-5" y="126.399790435">50000</text><title>50000</title></g><g class="guides"><path class="guide line" d="M0.000000 46.656672 h580.400000"/><text class="" x="-5" y="50.1566715992">60000</text><title>60000</title></g></g><g class="axis x"><path class="line" d="M0.000000 0.000000 v514.000000"/><g class="guides"><path class="guide line" d="M34.414744 0.000000 v514.000000"/><text class="" x="34.4147435897" y="529.0">Bonobo</text></g><g class="guides"><path class="guide line" d="M80.921154 0.000000 v514.000000"/><text class="" x="80.9211538462" y="529.0">Orangu…</text><title>Orangutan</title></g><g class="guides"><path class="guide line" d="M127.427564 0.000000 v514.000000"/><text class="" x="127.427564103" y="529.0">Rhesus</text></g><g class="guides"><path class="guide line" d="M173.933974 0.000000 v514.000000"/><text class="" x="173.933974359" y="529.0">GreenM…</text><title>GreenMonkey</title></g><g class="guides"><path class="guide line" d="M220.440385 0.000000 v514.000000"/><text class="" x="220.440384615" y="529.0">Gorilla</text></g><g class="guides"><path class="guide line" d="M266.946795 0.000000 v514.000000"/><text class="" x="266.946794872" y="529.0">Marmos…</text><title>Marmoset</title></g><g class="guides"><path class="guide line" d="M313.453205 0.000000 v514.000000"/><text class="" x="313.453205128" y="529.0">Lemur</text></g><g class="guides"><path class="guide line" d="M359.959615 0.000000 v514.000000"/><text class="" x="359.959615385" y="529.0">Atys</text></g><g class="guides"><path class="guide line" d="M406.466026 0.000000 v514.000000"/><text class="" x="406.466025641" y="529.0">Baboon</text></g><g class="guides"><path class="guide line" d="M452.972436 0.000000 v514.000000"/><text class="" x="452.972435897" y="529.0">Mouse</text></g><g class="guides"><path class="guide line" d="M499.478846 0.000000 v514.000000"/><text class="" x="499.478846154" y="529.0">Macaca…</text><title>MacacaFascicularis</title></g><g class="guides"><path class="guide line" d="M545.985256 0.000000 v514.000000"/><text class="" x="545.98525641" y="529.0">Chimp</text></g></g><g class="series serie-0 color-0"><g class="bars"><g class="bar"><rect class="rect reactive tooltip-trigger" height="14.8750324849" rx="0" ry="0" width="18.0072820513" x="15.1796923077" y="489.24035213"/><desc class="value">1951</desc><desc class="x centered">24.1833333333</desc><desc class="y centered">496.677868373</desc><desc class="x_label">Bonobo</desc></g><g class="bar"><rect class="rect reactive tooltip-trigger" height="23.7344828937" rx="0" ry="0" width="18.0072820513" x="61.6861025641" y="480.380901722"/><desc class="value">3113</desc><desc class="x centered">70.6897435897</desc><desc class="y centered">492.248143169</desc><desc class="x_label">Orangutan</desc></g><g class="bar"><rect class="rect reactive tooltip-trigger" height="64.3110707382" rx="0" ry="0" width="18.0072820513" x="108.192512821" y="439.804313877"/><desc class="value">8435</desc><desc class="x centered">117.196153846</desc><desc class="y centered">471.959849246</desc><desc class="x_label">Rhesus</desc></g><g class="bar"><rect class="rect reactive tooltip-trigger" height="72.9417917904" rx="0" ry="0" width="18.0072820513" x="154.698923077" y="431.173592825"/><desc class="value">9567</desc><desc class="x centered">163.702564103</desc><desc class="y centered">467.64448872</desc><desc class="x_label">GreenMonkey</desc></g><g class="bar"><rect class="rect reactive tooltip-trigger" height="75.9762679201" rx="0" ry="0" width="18.0072820513" x="201.205333333" y="428.139116695"/><desc class="value">9965</desc><desc class="x centered">210.208974359</desc><desc class="y centered">466.127250655</desc><desc class="x_label">Gorilla</desc></g><g class="bar"><rect class="rect reactive tooltip-trigger" height="82.7466568727" rx="0" ry="0" width="18.0072820513" x="247.71174359" y="421.368727743"/><desc class="value">10853</desc><desc class="x centered">256.715384615</desc><desc class="y centered">462.742056179</desc><desc class="x_label">Marmoset</desc></g><g class="bar"><rect class="rect reactive tooltip-trigger" height="87.0391444632" rx="0" ry="0" width="18.0072820513" x="294.218153846" y="417.076240152"/><desc class="value">11416</desc><desc class="x centered">303.221794872</desc><desc class="y centered">460.595812384</desc><desc class="x_label">Lemur</desc></g><g class="bar"><rect class="rect reactive tooltip-trigger" height="88.7012444538" rx="0" ry="0" width="18.0072820513" x="340.724564103" y="415.414140162"/><desc class="value">11634</desc><desc class="x centered">349.728205128</desc><desc class="y centered">459.764762388</desc><desc class="x_label">Atys</desc></g><g class="bar"><rect class="rect reactive tooltip-trigger" height="103.751636112" rx="0" ry="0" width="18.0072820513" x="387.230974359" y="400.363748503"/><desc class="value">13608</desc><desc class="x centered">396.234615385</desc><desc class="y centered">452.239566559</desc><desc class="x_label">Baboon</desc></g><g class="bar"><rect class="rect reactive tooltip-trigger" height="106.610753068" rx="0" ry="0" width="18.0072820513" x="433.737384615" y="397.504631547"/><desc class="value">13983</desc><desc class="x centered">442.741025641</desc><desc class="y centered">450.810008081</desc><desc class="x_label">Mouse</desc></g><g class="bar"><rect class="rect reactive tooltip-trigger" height="127.531864877" rx="0" ry="0" width="18.0072820513" x="480.243794872" y="376.583519738"/><desc class="value">16727</desc><desc class="x centered">489.247435897</desc><desc class="y centered">440.349452177</desc><desc class="x_label">MacacaFascicularis</desc></g><g class="bar"><rect class="rect reactive tooltip-trigger" height="138.960708391" rx="0" ry="0" width="18.0072820513" x="526.750205128" y="365.154676225"/><desc class="value">18226</desc><desc class="x centered">535.753846154</desc><desc class="y centered">434.63503042</desc><desc class="x_label">Chimp</desc></g></g></g><g class="series serie-1 color-1"><g class="bars"><g class="bar"><rect class="rect reactive tooltip-trigger" height="341.431934771" rx="0" ry="0" width="18.0072820513" x="35.6425128205" y="162.683449844"/><desc class="value">44782</desc><desc class="x centered">44.6461538462</desc><desc class="y centered">333.39941723</desc><desc class="x_label">Bonobo</desc></g><g class="bar"><rect class="rect reactive tooltip-trigger" height="163.267014675" rx="0" ry="0" width="18.0072820513" x="82.1489230769" y="340.84836994"/><desc class="value">21414</desc><desc class="x centered">91.1525641026</desc><desc class="y centered">422.481877278</desc><desc class="x_label">Orangutan</desc></g><g class="bar"><rect class="rect reactive tooltip-trigger" height="277.402963573" rx="0" ry="0" width="18.0072820513" x="128.655333333" y="226.712421042"/><desc class="value">36384</desc><desc class="x centered">137.658974359</desc><desc class="y centered">365.413902829</desc><desc class="x_label">Rhesus</desc></g><g class="bar"><rect class="rect reactive tooltip-trigger" height="459.761255205" rx="0" ry="0" width="18.0072820513" x="175.16174359" y="44.3541294104"/><desc class="value">60302</desc><desc class="x centered">184.165384615</desc><desc class="y centered">274.234757013</desc><desc class="x_label">GreenMonkey</desc></g><g class="bar"><rect class="rect reactive tooltip-trigger" height="209.462720378" rx="0" ry="0" width="18.0072820513" x="221.668153846" y="294.652664237"/><desc class="value">27473</desc><desc class="x centered">230.671794872</desc><desc class="y centered">399.384024426</desc><desc class="x_label">Gorilla</desc></g><g class="bar"><rect class="rect reactive tooltip-trigger" height="333.723755457" rx="0" ry="0" width="18.0072820513" x="268.174564103" y="170.391629158"/><desc class="value">43771</desc><desc class="x centered">277.178205128</desc><desc class="y centered">337.253506887</desc><desc class="x_label">Marmoset</desc></g><g class="bar"><rect class="rect reactive tooltip-trigger" height="124.421145629" rx="0" ry="0" width="18.0072820513" x="314.680974359" y="379.694238987"/><desc class="value">16319</desc><desc class="x centered">323.684615385</desc><desc class="y centered">441.904811801</desc><desc class="x_label">Lemur</desc></g><g class="bar"><rect class="rect reactive tooltip-trigger" height="494.230769231" rx="0" ry="0" width="18.0072820513" x="361.187384615" y="9.88461538462"/><desc class="value">64823</desc><desc class="x centered">370.191025641</desc><desc class="y centered">257.0</desc><desc class="x_label">Atys</desc></g><g class="bar"><rect class="rect reactive tooltip-trigger" height="159.935190382" rx="0" ry="0" width="18.0072820513" x="407.693794872" y="344.180194233"/><desc class="value">20977</desc><desc class="x centered">416.697435897</desc><desc class="y centered">424.147789424</desc><desc class="x_label">Baboon</desc></g><g class="bar"><rect class="rect reactive tooltip-trigger" height="417.797042598" rx="0" ry="0" width="18.0072820513" x="454.200205128" y="86.3183420177"/><desc class="value">54798</desc><desc class="x centered">463.203846154</desc><desc class="y centered">295.216863317</desc><desc class="x_label">Mouse</desc></g><g class="bar"><rect class="rect reactive tooltip-trigger" height="459.181807502" rx="0" ry="0" width="18.0072820513" x="500.706615385" y="44.9335771135"/><desc class="value">60226</desc><desc class="x centered">509.71025641</desc><desc class="y centered">274.524480864</desc><desc class="x_label">MacacaFascicularis</desc></g><g class="bar"><rect class="rect reactive tooltip-trigger" height="151.777176667" rx="0" ry="0" width="18.0072820513" x="547.213025641" y="352.338207949"/><desc class="value">19907</desc><desc class="x centered">556.216666667</desc><desc class="y centered">428.226796282</desc><desc class="x_label">Chimp</desc></g></g></g></g><g class="titles"><text class="title plot_title" x="400.0" y="26">Annotations distribution</text></g><g class="plot overlay" transform="translate(199, 46)"><g class="series serie-0 color-0"/><g class="series serie-1 color-1"/></g><g class="plot text-overlay" transform="translate(199, 46)"><g class="series serie-0 color-0"/><g class="series serie-1 color-1"/></g><g class="plot tooltip-overlay" transform="translate(199, 46)"><g class="tooltip" style="opacity: 0" transform="translate(0 0)"><rect class="tooltip-box" height="0" rx="0" ry="0" width="0"/><g class="text"/></g></g><g class="legends" transform="translate(10, 56)"><g class="legend reactive activate-serie" id="activate-serie-0"><rect class="color-0 reactive" height="12" width="12" x="0.0" y="1.0"/><text x="17.0" y="11.2">lncRNAs</text></g><g class="legend reactive activate-serie" id="activate-serie-1"><rect class="color-1 reactive" height="12" width="12" x="0.0" y="22.0"/><text x="17.0" y="32.2">Protein-coding</text></g></g><g class="legends" transform="translate(790, 56)"/></g></svg>