<?xml version="1.0" encoding="UTF-8"?>
<svg xmlns="http://www.w3.org/2000/svg" xmlns:xlink="http://www.w3.org/1999/xlink" width="900pt" height="521pt" viewBox="0 0 900 521" version="1.1">
<defs>
<g>
<symbol overflow="visible" id="glyph0-0">
<path style="stroke:none;" d="M 0.453125 1.59375 L 0.453125 -6.34375 L 4.953125 -6.34375 L 4.953125 1.59375 Z M 0.953125 1.09375 L 4.453125 1.09375 L 4.453125 -5.84375 L 0.953125 -5.84375 Z M 0.953125 1.09375 "/>
</symbol>
<symbol overflow="visible" id="glyph0-1">
<path style="stroke:none;" d="M 0.4375 -2.828125 L 2.8125 -2.828125 L 2.8125 -2.109375 L 0.4375 -2.109375 Z M 0.4375 -2.828125 "/>
</symbol>
<symbol overflow="visible" id="glyph0-2">
<path style="stroke:none;" d="M 1.109375 -0.75 L 2.5625 -0.75 L 2.5625 -5.75 L 0.984375 -5.4375 L 0.984375 -6.25 L 2.5625 -6.5625 L 3.453125 -6.5625 L 3.453125 -0.75 L 4.890625 -0.75 L 4.890625 0 L 1.109375 0 Z M 1.109375 -0.75 "/>
</symbol>
<symbol overflow="visible" id="glyph0-3">
<path style="stroke:none;" d="M 2.859375 -5.984375 C 2.398438 -5.984375 2.054688 -5.753906 1.828125 -5.296875 C 1.597656 -4.847656 1.484375 -4.175781 1.484375 -3.28125 C 1.484375 -2.375 1.597656 -1.695312 1.828125 -1.25 C 2.054688 -0.800781 2.398438 -0.578125 2.859375 -0.578125 C 3.316406 -0.578125 3.660156 -0.800781 3.890625 -1.25 C 4.117188 -1.695312 4.234375 -2.375 4.234375 -3.28125 C 4.234375 -4.175781 4.117188 -4.847656 3.890625 -5.296875 C 3.660156 -5.753906 3.316406 -5.984375 2.859375 -5.984375 Z M 2.859375 -6.6875 C 3.597656 -6.6875 4.160156 -6.394531 4.546875 -5.8125 C 4.929688 -5.226562 5.125 -4.382812 5.125 -3.28125 C 5.125 -2.175781 4.929688 -1.332031 4.546875 -0.75 C 4.160156 -0.164062 3.597656 0.125 2.859375 0.125 C 2.128906 0.125 1.566406 -0.164062 1.171875 -0.75 C 0.785156 -1.332031 0.59375 -2.175781 0.59375 -3.28125 C 0.59375 -4.382812 0.785156 -5.226562 1.171875 -5.8125 C 1.566406 -6.394531 2.128906 -6.6875 2.859375 -6.6875 Z M 2.859375 -6.6875 "/>
</symbol>
<symbol overflow="visible" id="glyph0-4">
<path style="stroke:none;" d="M 1.734375 -0.75 L 4.828125 -0.75 L 4.828125 0 L 0.65625 0 L 0.65625 -0.75 C 1 -1.09375 1.457031 -1.554688 2.03125 -2.140625 C 2.613281 -2.734375 2.984375 -3.113281 3.140625 -3.28125 C 3.421875 -3.601562 3.613281 -3.875 3.71875 -4.09375 C 3.832031 -4.320312 3.890625 -4.539062 3.890625 -4.75 C 3.890625 -5.101562 3.769531 -5.390625 3.53125 -5.609375 C 3.289062 -5.828125 2.972656 -5.9375 2.578125 -5.9375 C 2.296875 -5.9375 2 -5.882812 1.6875 -5.78125 C 1.382812 -5.6875 1.054688 -5.539062 0.703125 -5.34375 L 0.703125 -6.25 C 1.054688 -6.382812 1.390625 -6.488281 1.703125 -6.5625 C 2.015625 -6.644531 2.300781 -6.6875 2.5625 -6.6875 C 3.238281 -6.6875 3.78125 -6.515625 4.1875 -6.171875 C 4.59375 -5.828125 4.796875 -5.375 4.796875 -4.8125 C 4.796875 -4.539062 4.742188 -4.28125 4.640625 -4.03125 C 4.535156 -3.789062 4.351562 -3.507812 4.09375 -3.1875 C 4.019531 -3.101562 3.785156 -2.859375 3.390625 -2.453125 C 2.992188 -2.046875 2.441406 -1.476562 1.734375 -0.75 Z M 1.734375 -0.75 "/>
</symbol>
<symbol overflow="visible" id="glyph0-5">
<path style="stroke:none;" d="M 3.65625 -3.53125 C 4.082031 -3.445312 4.410156 -3.257812 4.640625 -2.96875 C 4.878906 -2.6875 5 -2.332031 5 -1.90625 C 5 -1.257812 4.773438 -0.757812 4.328125 -0.40625 C 3.890625 -0.0507812 3.257812 0.125 2.4375 0.125 C 2.164062 0.125 1.882812 0.0976562 1.59375 0.046875 C 1.300781 -0.00390625 1 -0.0859375 0.6875 -0.203125 L 0.6875 -1.0625 C 0.9375 -0.914062 1.207031 -0.804688 1.5 -0.734375 C 1.789062 -0.660156 2.09375 -0.625 2.40625 -0.625 C 2.96875 -0.625 3.394531 -0.734375 3.6875 -0.953125 C 3.976562 -1.171875 4.125 -1.488281 4.125 -1.90625 C 4.125 -2.289062 3.988281 -2.59375 3.71875 -2.8125 C 3.445312 -3.03125 3.066406 -3.140625 2.578125 -3.140625 L 1.8125 -3.140625 L 1.8125 -3.875 L 2.625 -3.875 C 3.0625 -3.875 3.394531 -3.957031 3.625 -4.125 C 3.851562 -4.300781 3.96875 -4.554688 3.96875 -4.890625 C 3.96875 -5.222656 3.847656 -5.476562 3.609375 -5.65625 C 3.367188 -5.84375 3.023438 -5.9375 2.578125 -5.9375 C 2.335938 -5.9375 2.078125 -5.910156 1.796875 -5.859375 C 1.523438 -5.804688 1.222656 -5.722656 0.890625 -5.609375 L 0.890625 -6.40625 C 1.222656 -6.5 1.535156 -6.566406 1.828125 -6.609375 C 2.117188 -6.660156 2.394531 -6.6875 2.65625 -6.6875 C 3.332031 -6.6875 3.867188 -6.53125 4.265625 -6.21875 C 4.660156 -5.914062 4.859375 -5.503906 4.859375 -4.984375 C 4.859375 -4.617188 4.753906 -4.3125 4.546875 -4.0625 C 4.335938 -3.8125 4.039062 -3.632812 3.65625 -3.53125 Z M 3.65625 -3.53125 "/>
</symbol>
<symbol overflow="visible" id="glyph0-6">
<path style="stroke:none;" d="M 3.40625 -5.78125 L 1.15625 -2.28125 L 3.40625 -2.28125 Z M 3.171875 -6.5625 L 4.28125 -6.5625 L 4.28125 -2.28125 L 5.21875 -2.28125 L 5.21875 -1.546875 L 4.28125 -1.546875 L 4.28125 0 L 3.40625 0 L 3.40625 -1.546875 L 0.4375 -1.546875 L 0.4375 -2.40625 Z M 3.171875 -6.5625 "/>
</symbol>
<symbol overflow="visible" id="glyph0-7">
<path style="stroke:none;" d="M 0.953125 -4.09375 L 6.59375 -4.09375 L 6.59375 -3.34375 L 0.953125 -3.34375 Z M 0.953125 -2.296875 L 6.59375 -2.296875 L 6.59375 -1.546875 L 0.953125 -1.546875 Z M 0.953125 -2.296875 "/>
</symbol>
<symbol overflow="visible" id="glyph0-8">
<path style="stroke:none;" d="M 0.84375 -4.921875 L 1.65625 -4.921875 L 1.65625 0 L 0.84375 0 Z M 0.84375 -6.84375 L 1.65625 -6.84375 L 1.65625 -5.8125 L 0.84375 -5.8125 Z M 0.84375 -6.84375 "/>
</symbol>
<symbol overflow="visible" id="glyph0-9">
<path style="stroke:none;" d="M 0.84375 -4.921875 L 1.65625 -4.921875 L 1.65625 0.09375 C 1.65625 0.71875 1.535156 1.171875 1.296875 1.453125 C 1.054688 1.734375 0.671875 1.875 0.140625 1.875 L -0.15625 1.875 L -0.15625 1.1875 L 0.046875 1.1875 C 0.359375 1.1875 0.566406 1.113281 0.671875 0.96875 C 0.785156 0.832031 0.84375 0.539062 0.84375 0.09375 Z M 0.84375 -6.84375 L 1.65625 -6.84375 L 1.65625 -5.8125 L 0.84375 -5.8125 Z M 0.84375 -6.84375 "/>
</symbol>
<symbol overflow="visible" id="glyph0-10">
<path style="stroke:none;" d="M 2.75 -4.359375 C 2.320312 -4.359375 1.976562 -4.1875 1.71875 -3.84375 C 1.46875 -3.507812 1.34375 -3.046875 1.34375 -2.453125 C 1.34375 -1.867188 1.46875 -1.40625 1.71875 -1.0625 C 1.96875 -0.726562 2.3125 -0.5625 2.75 -0.5625 C 3.1875 -0.5625 3.53125 -0.726562 3.78125 -1.0625 C 4.03125 -1.40625 4.15625 -1.867188 4.15625 -2.453125 C 4.15625 -3.035156 4.03125 -3.5 3.78125 -3.84375 C 3.53125 -4.1875 3.1875 -4.359375 2.75 -4.359375 Z M 2.75 -5.046875 C 3.457031 -5.046875 4.007812 -4.816406 4.40625 -4.359375 C 4.8125 -3.898438 5.015625 -3.265625 5.015625 -2.453125 C 5.015625 -1.648438 4.8125 -1.019531 4.40625 -0.5625 C 4.007812 -0.101562 3.457031 0.125 2.75 0.125 C 2.050781 0.125 1.5 -0.101562 1.09375 -0.5625 C 0.695312 -1.019531 0.5 -1.648438 0.5 -2.453125 C 0.5 -3.265625 0.695312 -3.898438 1.09375 -4.359375 C 1.5 -4.816406 2.050781 -5.046875 2.75 -5.046875 Z M 2.75 -5.046875 "/>
</symbol>
<symbol overflow="visible" id="glyph0-11">
<path style="stroke:none;" d="M 4.9375 -4.921875 L 3.15625 -2.53125 L 5.03125 0 L 4.078125 0 L 2.640625 -1.9375 L 1.21875 0 L 0.265625 0 L 2.171875 -2.578125 L 0.421875 -4.921875 L 1.375 -4.921875 L 2.6875 -3.171875 L 3.984375 -4.921875 Z M 4.9375 -4.921875 "/>
</symbol>
<symbol overflow="visible" id="glyph1-0">
<path style="stroke:none;" d="M 0.546875 1.9375 L 0.546875 -7.75 L 6.046875 -7.75 L 6.046875 1.9375 Z M 1.171875 1.328125 L 5.4375 1.328125 L 5.4375 -7.140625 L 1.171875 -7.140625 Z M 1.171875 1.328125 "/>
</symbol>
<symbol overflow="visible" id="glyph1-1">
<path style="stroke:none;" d="M 6.03125 -3.625 L 6.03125 0 L 5.046875 0 L 5.046875 -3.59375 C 5.046875 -4.164062 4.9375 -4.59375 4.71875 -4.875 C 4.5 -5.15625 4.164062 -5.296875 3.71875 -5.296875 C 3.1875 -5.296875 2.765625 -5.125 2.453125 -4.78125 C 2.148438 -4.445312 2 -3.988281 2 -3.40625 L 2 0 L 1 0 L 1 -6.015625 L 2 -6.015625 L 2 -5.078125 C 2.226562 -5.441406 2.503906 -5.710938 2.828125 -5.890625 C 3.148438 -6.066406 3.519531 -6.15625 3.9375 -6.15625 C 4.625 -6.15625 5.144531 -5.941406 5.5 -5.515625 C 5.851562 -5.085938 6.03125 -4.457031 6.03125 -3.625 Z M 6.03125 -3.625 "/>
</symbol>
<symbol overflow="visible" id="glyph1-2">
<path style="stroke:none;" d="M 3.375 -5.328125 C 2.84375 -5.328125 2.421875 -5.117188 2.109375 -4.703125 C 1.804688 -4.285156 1.65625 -3.71875 1.65625 -3 C 1.65625 -2.28125 1.804688 -1.710938 2.109375 -1.296875 C 2.410156 -0.890625 2.832031 -0.6875 3.375 -0.6875 C 3.894531 -0.6875 4.304688 -0.890625 4.609375 -1.296875 C 4.921875 -1.710938 5.078125 -2.28125 5.078125 -3 C 5.078125 -3.71875 4.921875 -4.285156 4.609375 -4.703125 C 4.304688 -5.117188 3.894531 -5.328125 3.375 -5.328125 Z M 3.375 -6.15625 C 4.226562 -6.15625 4.898438 -5.875 5.390625 -5.3125 C 5.878906 -4.757812 6.125 -3.988281 6.125 -3 C 6.125 -2.019531 5.878906 -1.25 5.390625 -0.6875 C 4.898438 -0.125 4.226562 0.15625 3.375 0.15625 C 2.507812 0.15625 1.832031 -0.125 1.34375 -0.6875 C 0.851562 -1.25 0.609375 -2.019531 0.609375 -3 C 0.609375 -3.988281 0.851562 -4.757812 1.34375 -5.3125 C 1.832031 -5.875 2.507812 -6.15625 3.375 -6.15625 Z M 3.375 -6.15625 "/>
</symbol>
<symbol overflow="visible" id="glyph1-3">
<path style="stroke:none;" d="M 4.875 -5.84375 L 4.875 -4.90625 C 4.59375 -5.050781 4.300781 -5.15625 4 -5.21875 C 3.695312 -5.289062 3.382812 -5.328125 3.0625 -5.328125 C 2.570312 -5.328125 2.203125 -5.25 1.953125 -5.09375 C 1.710938 -4.945312 1.59375 -4.726562 1.59375 -4.4375 C 1.59375 -4.207031 1.679688 -4.023438 1.859375 -3.890625 C 2.035156 -3.765625 2.390625 -3.640625 2.921875 -3.515625 L 3.25 -3.4375 C 3.957031 -3.289062 4.457031 -3.078125 4.75 -2.796875 C 5.039062 -2.523438 5.1875 -2.144531 5.1875 -1.65625 C 5.1875 -1.101562 4.96875 -0.660156 4.53125 -0.328125 C 4.09375 -0.00390625 3.484375 0.15625 2.703125 0.15625 C 2.378906 0.15625 2.039062 0.125 1.6875 0.0625 C 1.34375 0 0.976562 -0.09375 0.59375 -0.21875 L 0.59375 -1.234375 C 0.957031 -1.046875 1.316406 -0.90625 1.671875 -0.8125 C 2.023438 -0.71875 2.378906 -0.671875 2.734375 -0.671875 C 3.191406 -0.671875 3.546875 -0.75 3.796875 -0.90625 C 4.046875 -1.070312 4.171875 -1.296875 4.171875 -1.578125 C 4.171875 -1.847656 4.082031 -2.054688 3.90625 -2.203125 C 3.726562 -2.347656 3.332031 -2.484375 2.71875 -2.609375 L 2.375 -2.703125 C 1.757812 -2.828125 1.316406 -3.019531 1.046875 -3.28125 C 0.773438 -3.550781 0.640625 -3.921875 0.640625 -4.390625 C 0.640625 -4.953125 0.835938 -5.382812 1.234375 -5.6875 C 1.640625 -6 2.210938 -6.15625 2.953125 -6.15625 C 3.316406 -6.15625 3.660156 -6.128906 3.984375 -6.078125 C 4.304688 -6.023438 4.601562 -5.945312 4.875 -5.84375 Z M 4.875 -5.84375 "/>
</symbol>
<symbol overflow="visible" id="glyph1-4">
<path style="stroke:none;" d="M 6.1875 -3.25 L 6.1875 -2.765625 L 1.640625 -2.765625 C 1.679688 -2.085938 1.882812 -1.570312 2.25 -1.21875 C 2.613281 -0.863281 3.125 -0.6875 3.78125 -0.6875 C 4.164062 -0.6875 4.535156 -0.734375 4.890625 -0.828125 C 5.242188 -0.921875 5.597656 -1.054688 5.953125 -1.234375 L 5.953125 -0.3125 C 5.597656 -0.15625 5.234375 -0.0390625 4.859375 0.03125 C 4.484375 0.113281 4.109375 0.15625 3.734375 0.15625 C 2.765625 0.15625 2 -0.117188 1.4375 -0.671875 C 0.882812 -1.234375 0.609375 -1.992188 0.609375 -2.953125 C 0.609375 -3.929688 0.875 -4.707031 1.40625 -5.28125 C 1.9375 -5.863281 2.65625 -6.15625 3.5625 -6.15625 C 4.363281 -6.15625 5 -5.894531 5.46875 -5.375 C 5.945312 -4.851562 6.1875 -4.144531 6.1875 -3.25 Z M 5.1875 -3.546875 C 5.1875 -4.085938 5.035156 -4.519531 4.734375 -4.84375 C 4.441406 -5.164062 4.050781 -5.328125 3.5625 -5.328125 C 3.007812 -5.328125 2.566406 -5.171875 2.234375 -4.859375 C 1.910156 -4.546875 1.722656 -4.109375 1.671875 -3.546875 Z M 5.1875 -3.546875 "/>
</symbol>
<symbol overflow="visible" id="glyph1-5">
<path style="stroke:none;" d="M 5.609375 1.828125 L 5.609375 2.59375 L -0.109375 2.59375 L -0.109375 1.828125 Z M 5.609375 1.828125 "/>
</symbol>
<symbol overflow="visible" id="glyph1-6">
<path style="stroke:none;" d="M 5.71875 -4.859375 C 5.96875 -5.304688 6.265625 -5.632812 6.609375 -5.84375 C 6.953125 -6.050781 7.359375 -6.15625 7.828125 -6.15625 C 8.453125 -6.15625 8.929688 -5.9375 9.265625 -5.5 C 9.609375 -5.0625 9.78125 -4.4375 9.78125 -3.625 L 9.78125 0 L 8.78125 0 L 8.78125 -3.59375 C 8.78125 -4.175781 8.675781 -4.601562 8.46875 -4.875 C 8.269531 -5.15625 7.960938 -5.296875 7.546875 -5.296875 C 7.035156 -5.296875 6.628906 -5.125 6.328125 -4.78125 C 6.035156 -4.445312 5.890625 -3.988281 5.890625 -3.40625 L 5.890625 0 L 4.890625 0 L 4.890625 -3.59375 C 4.890625 -4.175781 4.785156 -4.601562 4.578125 -4.875 C 4.378906 -5.15625 4.066406 -5.296875 3.640625 -5.296875 C 3.140625 -5.296875 2.738281 -5.125 2.4375 -4.78125 C 2.144531 -4.445312 2 -3.988281 2 -3.40625 L 2 0 L 1 0 L 1 -6.015625 L 2 -6.015625 L 2 -5.078125 C 2.21875 -5.453125 2.484375 -5.722656 2.796875 -5.890625 C 3.117188 -6.066406 3.492188 -6.15625 3.921875 -6.15625 C 4.359375 -6.15625 4.726562 -6.046875 5.03125 -5.828125 C 5.34375 -5.609375 5.570312 -5.285156 5.71875 -4.859375 Z M 5.71875 -4.859375 "/>
</symbol>
<symbol overflow="visible" id="glyph1-7">
<path style="stroke:none;" d="M 5 -5.109375 L 5 -8.359375 L 5.984375 -8.359375 L 5.984375 0 L 5 0 L 5 -0.90625 C 4.789062 -0.539062 4.523438 -0.269531 4.203125 -0.09375 C 3.890625 0.0703125 3.507812 0.15625 3.0625 0.15625 C 2.34375 0.15625 1.753906 -0.128906 1.296875 -0.703125 C 0.835938 -1.285156 0.609375 -2.050781 0.609375 -3 C 0.609375 -3.945312 0.835938 -4.707031 1.296875 -5.28125 C 1.753906 -5.863281 2.34375 -6.15625 3.0625 -6.15625 C 3.507812 -6.15625 3.890625 -6.066406 4.203125 -5.890625 C 4.523438 -5.722656 4.789062 -5.460938 5 -5.109375 Z M 1.625 -3 C 1.625 -2.269531 1.773438 -1.695312 2.078125 -1.28125 C 2.378906 -0.875 2.789062 -0.671875 3.3125 -0.671875 C 3.832031 -0.671875 4.242188 -0.875 4.546875 -1.28125 C 4.847656 -1.695312 5 -2.269531 5 -3 C 5 -3.726562 4.847656 -4.296875 4.546875 -4.703125 C 4.242188 -5.117188 3.832031 -5.328125 3.3125 -5.328125 C 2.789062 -5.328125 2.378906 -5.117188 2.078125 -4.703125 C 1.773438 -4.296875 1.625 -3.726562 1.625 -3 Z M 1.625 -3 "/>
</symbol>
<symbol overflow="visible" id="glyph1-8">
<path style="stroke:none;" d="M 1.03125 -6.015625 L 2.03125 -6.015625 L 2.03125 0 L 1.03125 0 Z M 1.03125 -8.359375 L 2.03125 -8.359375 L 2.03125 -7.109375 L 1.03125 -7.109375 Z M 1.03125 -8.359375 "/>
</symbol>
<symbol overflow="visible" id="glyph1-9">
<path style="stroke:none;" d="M 3.765625 -3.03125 C 2.972656 -3.03125 2.421875 -2.9375 2.109375 -2.75 C 1.804688 -2.5625 1.65625 -2.25 1.65625 -1.8125 C 1.65625 -1.46875 1.769531 -1.191406 2 -0.984375 C 2.226562 -0.773438 2.539062 -0.671875 2.9375 -0.671875 C 3.488281 -0.671875 3.925781 -0.863281 4.25 -1.25 C 4.582031 -1.644531 4.75 -2.160156 4.75 -2.796875 L 4.75 -3.03125 Z M 5.734375 -3.4375 L 5.734375 0 L 4.75 0 L 4.75 -0.90625 C 4.53125 -0.539062 4.25 -0.269531 3.90625 -0.09375 C 3.570312 0.0703125 3.160156 0.15625 2.671875 0.15625 C 2.054688 0.15625 1.566406 -0.015625 1.203125 -0.359375 C 0.835938 -0.703125 0.65625 -1.164062 0.65625 -1.75 C 0.65625 -2.425781 0.878906 -2.9375 1.328125 -3.28125 C 1.785156 -3.625 2.46875 -3.796875 3.375 -3.796875 L 4.75 -3.796875 L 4.75 -3.890625 C 4.75 -4.347656 4.597656 -4.703125 4.296875 -4.953125 C 4.003906 -5.203125 3.585938 -5.328125 3.046875 -5.328125 C 2.703125 -5.328125 2.363281 -5.285156 2.03125 -5.203125 C 1.707031 -5.117188 1.394531 -4.992188 1.09375 -4.828125 L 1.09375 -5.734375 C 1.457031 -5.878906 1.8125 -5.984375 2.15625 -6.046875 C 2.5 -6.117188 2.828125 -6.15625 3.140625 -6.15625 C 4.015625 -6.15625 4.664062 -5.929688 5.09375 -5.484375 C 5.519531 -5.035156 5.734375 -4.351562 5.734375 -3.4375 Z M 5.734375 -3.4375 "/>
</symbol>
<symbol overflow="visible" id="glyph1-10">
<path style="stroke:none;" d="M 2.015625 -7.71875 L 2.015625 -6.015625 L 4.046875 -6.015625 L 4.046875 -5.25 L 2.015625 -5.25 L 2.015625 -1.984375 C 2.015625 -1.492188 2.082031 -1.175781 2.21875 -1.03125 C 2.351562 -0.894531 2.625 -0.828125 3.03125 -0.828125 L 4.046875 -0.828125 L 4.046875 0 L 3.03125 0 C 2.269531 0 1.742188 -0.140625 1.453125 -0.421875 C 1.160156 -0.710938 1.015625 -1.234375 1.015625 -1.984375 L 1.015625 -5.25 L 0.296875 -5.25 L 0.296875 -6.015625 L 1.015625 -6.015625 L 1.015625 -7.71875 Z M 2.015625 -7.71875 "/>
</symbol>
<symbol overflow="visible" id="glyph1-11">
<path style="stroke:none;" d="M 5.359375 -5.78125 L 5.359375 -4.859375 C 5.085938 -5.015625 4.8125 -5.128906 4.53125 -5.203125 C 4.25 -5.285156 3.960938 -5.328125 3.671875 -5.328125 C 3.035156 -5.328125 2.539062 -5.125 2.1875 -4.71875 C 1.832031 -4.3125 1.65625 -3.738281 1.65625 -3 C 1.65625 -2.269531 1.832031 -1.703125 2.1875 -1.296875 C 2.539062 -0.890625 3.035156 -0.6875 3.671875 -0.6875 C 3.960938 -0.6875 4.25 -0.722656 4.53125 -0.796875 C 4.8125 -0.867188 5.085938 -0.984375 5.359375 -1.140625 L 5.359375 -0.234375 C 5.085938 -0.0976562 4.800781 0 4.5 0.0625 C 4.207031 0.125 3.894531 0.15625 3.5625 0.15625 C 2.65625 0.15625 1.9375 -0.125 1.40625 -0.6875 C 0.875 -1.257812 0.609375 -2.03125 0.609375 -3 C 0.609375 -3.976562 0.875 -4.75 1.40625 -5.3125 C 1.945312 -5.875 2.6875 -6.15625 3.625 -6.15625 C 3.9375 -6.15625 4.234375 -6.125 4.515625 -6.0625 C 4.804688 -6 5.085938 -5.90625 5.359375 -5.78125 Z M 5.359375 -5.78125 "/>
</symbol>
<symbol overflow="visible" id="glyph1-12">
<path style="stroke:none;" d="M 3.546875 0.5625 C 3.265625 1.28125 2.988281 1.742188 2.71875 1.953125 C 2.457031 2.171875 2.101562 2.28125 1.65625 2.28125 L 0.875 2.28125 L 0.875 1.46875 L 1.453125 1.46875 C 1.722656 1.46875 1.929688 1.398438 2.078125 1.265625 C 2.234375 1.140625 2.398438 0.835938 2.578125 0.359375 L 2.765625 -0.09375 L 0.328125 -6.015625 L 1.375 -6.015625 L 3.25 -1.3125 L 5.140625 -6.015625 L 6.1875 -6.015625 Z M 3.546875 0.5625 "/>
</symbol>
<symbol overflow="visible" id="glyph1-13">
<path style="stroke:none;" d="M 4.515625 -5.09375 C 4.410156 -5.15625 4.289062 -5.203125 4.15625 -5.234375 C 4.03125 -5.265625 3.890625 -5.28125 3.734375 -5.28125 C 3.171875 -5.28125 2.738281 -5.097656 2.4375 -4.734375 C 2.144531 -4.367188 2 -3.847656 2 -3.171875 L 2 0 L 1 0 L 1 -6.015625 L 2 -6.015625 L 2 -5.078125 C 2.195312 -5.441406 2.460938 -5.710938 2.796875 -5.890625 C 3.128906 -6.066406 3.535156 -6.15625 4.015625 -6.15625 C 4.085938 -6.15625 4.160156 -6.148438 4.234375 -6.140625 C 4.316406 -6.140625 4.410156 -6.128906 4.515625 -6.109375 Z M 4.515625 -5.09375 "/>
</symbol>
<symbol overflow="visible" id="glyph1-14">
<path style="stroke:none;" d="M 2 -0.90625 L 2 2.28125 L 1 2.28125 L 1 -6.015625 L 2 -6.015625 L 2 -5.109375 C 2.195312 -5.460938 2.453125 -5.722656 2.765625 -5.890625 C 3.085938 -6.066406 3.472656 -6.15625 3.921875 -6.15625 C 4.648438 -6.15625 5.238281 -5.863281 5.6875 -5.28125 C 6.144531 -4.707031 6.375 -3.945312 6.375 -3 C 6.375 -2.050781 6.144531 -1.285156 5.6875 -0.703125 C 5.238281 -0.128906 4.648438 0.15625 3.921875 0.15625 C 3.472656 0.15625 3.085938 0.0703125 2.765625 -0.09375 C 2.453125 -0.269531 2.195312 -0.539062 2 -0.90625 Z M 5.359375 -3 C 5.359375 -3.726562 5.207031 -4.296875 4.90625 -4.703125 C 4.601562 -5.117188 4.191406 -5.328125 3.671875 -5.328125 C 3.148438 -5.328125 2.738281 -5.117188 2.4375 -4.703125 C 2.144531 -4.296875 2 -3.726562 2 -3 C 2 -2.269531 2.144531 -1.695312 2.4375 -1.28125 C 2.738281 -0.875 3.148438 -0.671875 3.671875 -0.671875 C 4.191406 -0.671875 4.601562 -0.875 4.90625 -1.28125 C 5.207031 -1.695312 5.359375 -2.269531 5.359375 -3 Z M 5.359375 -3 "/>
</symbol>
<symbol overflow="visible" id="glyph1-15">
<path style="stroke:none;" d="M 0.9375 -2.375 L 0.9375 -6.015625 L 1.921875 -6.015625 L 1.921875 -2.40625 C 1.921875 -1.84375 2.03125 -1.414062 2.25 -1.125 C 2.476562 -0.84375 2.8125 -0.703125 3.25 -0.703125 C 3.789062 -0.703125 4.210938 -0.867188 4.515625 -1.203125 C 4.828125 -1.546875 4.984375 -2.015625 4.984375 -2.609375 L 4.984375 -6.015625 L 5.96875 -6.015625 L 5.96875 0 L 4.984375 0 L 4.984375 -0.921875 C 4.742188 -0.554688 4.460938 -0.285156 4.140625 -0.109375 C 3.828125 0.0664062 3.460938 0.15625 3.046875 0.15625 C 2.359375 0.15625 1.832031 -0.0546875 1.46875 -0.484375 C 1.113281 -0.921875 0.9375 -1.550781 0.9375 -2.375 Z M 3.421875 -6.15625 Z M 3.421875 -6.15625 "/>
</symbol>
<symbol overflow="visible" id="glyph1-16">
<path style="stroke:none;" d="M 5 -3.078125 C 5 -3.796875 4.847656 -4.347656 4.546875 -4.734375 C 4.253906 -5.128906 3.84375 -5.328125 3.3125 -5.328125 C 2.78125 -5.328125 2.363281 -5.128906 2.0625 -4.734375 C 1.769531 -4.347656 1.625 -3.796875 1.625 -3.078125 C 1.625 -2.367188 1.769531 -1.816406 2.0625 -1.421875 C 2.363281 -1.023438 2.78125 -0.828125 3.3125 -0.828125 C 3.84375 -0.828125 4.253906 -1.023438 4.546875 -1.421875 C 4.847656 -1.816406 5 -2.367188 5 -3.078125 Z M 5.984375 -0.75 C 5.984375 0.28125 5.753906 1.039062 5.296875 1.53125 C 4.847656 2.03125 4.15625 2.28125 3.21875 2.28125 C 2.863281 2.28125 2.53125 2.253906 2.21875 2.203125 C 1.914062 2.148438 1.617188 2.070312 1.328125 1.96875 L 1.328125 1.015625 C 1.617188 1.171875 1.90625 1.285156 2.1875 1.359375 C 2.46875 1.429688 2.757812 1.46875 3.0625 1.46875 C 3.707031 1.46875 4.191406 1.296875 4.515625 0.953125 C 4.835938 0.617188 5 0.113281 5 -0.5625 L 5 -1.0625 C 4.789062 -0.707031 4.523438 -0.441406 4.203125 -0.265625 C 3.890625 -0.0859375 3.507812 0 3.0625 0 C 2.320312 0 1.726562 -0.28125 1.28125 -0.84375 C 0.832031 -1.40625 0.609375 -2.148438 0.609375 -3.078125 C 0.609375 -4.003906 0.832031 -4.75 1.28125 -5.3125 C 1.726562 -5.875 2.320312 -6.15625 3.0625 -6.15625 C 3.507812 -6.15625 3.890625 -6.066406 4.203125 -5.890625 C 4.523438 -5.722656 4.789062 -5.460938 5 -5.109375 L 5 -6.015625 L 5.984375 -6.015625 Z M 5.984375 -0.75 "/>
</symbol>
<symbol overflow="visible" id="glyph1-17">
<path style="stroke:none;" d="M 0.328125 -6.015625 L 1.375 -6.015625 L 3.25 -0.96875 L 5.140625 -6.015625 L 6.1875 -6.015625 L 3.921875 0 L 2.578125 0 Z M 0.328125 -6.015625 "/>
</symbol>
<symbol overflow="visible" id="glyph1-18">
<path style="stroke:none;" d="M 1.03125 -8.359375 L 2.03125 -8.359375 L 2.03125 0 L 1.03125 0 Z M 1.03125 -8.359375 "/>
</symbol>
<symbol overflow="visible" id="glyph1-19">
<path style="stroke:none;" d="M 7.078125 -7.40625 L 7.078125 -6.25 C 6.710938 -6.59375 6.320312 -6.847656 5.90625 -7.015625 C 5.5 -7.179688 5.0625 -7.265625 4.59375 -7.265625 C 3.675781 -7.265625 2.972656 -6.984375 2.484375 -6.421875 C 2.003906 -5.867188 1.765625 -5.0625 1.765625 -4 C 1.765625 -2.945312 2.003906 -2.140625 2.484375 -1.578125 C 2.972656 -1.015625 3.675781 -0.734375 4.59375 -0.734375 C 5.0625 -0.734375 5.5 -0.816406 5.90625 -0.984375 C 6.320312 -1.148438 6.710938 -1.40625 7.078125 -1.75 L 7.078125 -0.625 C 6.703125 -0.363281 6.300781 -0.164062 5.875 -0.03125 C 5.457031 0.09375 5.007812 0.15625 4.53125 0.15625 C 3.320312 0.15625 2.367188 -0.210938 1.671875 -0.953125 C 0.972656 -1.703125 0.625 -2.71875 0.625 -4 C 0.625 -5.289062 0.972656 -6.304688 1.671875 -7.046875 C 2.367188 -7.796875 3.320312 -8.171875 4.53125 -8.171875 C 5.007812 -8.171875 5.460938 -8.101562 5.890625 -7.96875 C 6.316406 -7.84375 6.710938 -7.65625 7.078125 -7.40625 Z M 7.078125 -7.40625 "/>
</symbol>
<symbol overflow="visible" id="glyph1-20">
<path style="stroke:none;" d="M 1.171875 -1.359375 L 2.3125 -1.359375 L 2.3125 0 L 1.171875 0 Z M 1.171875 -1.359375 "/>
</symbol>
<symbol overflow="visible" id="glyph2-0">
<path style="stroke:none;" d="M 0.546875 1.9375 L 0.546875 -7.75 L 6.046875 -7.75 L 6.046875 1.9375 Z M 1.171875 1.328125 L 5.4375 1.328125 L 5.4375 -7.140625 L 1.171875 -7.140625 Z M 1.171875 1.328125 "/>
</symbol>
<symbol overflow="visible" id="glyph2-1">
<path style="stroke:none;" d=""/>
</symbol>
<symbol overflow="visible" id="glyph3-0">
<path style="stroke:none;" d="M 1.9375 -0.546875 L -7.75 -0.546875 L -7.75 -6.046875 L 1.9375 -6.046875 Z M 1.328125 -1.171875 L 1.328125 -5.4375 L -7.140625 -5.4375 L -7.140625 -1.171875 Z M 1.328125 -1.171875 "/>
</symbol>
<symbol overflow="visible" id="glyph3-1">
<path style="stroke:none;" d="M -8.015625 -1.015625 L -8.015625 -4.4375 C -8.015625 -5.457031 -7.785156 -6.238281 -7.328125 -6.78125 C -6.878906 -7.332031 -6.238281 -7.609375 -5.40625 -7.609375 C -4.5625 -7.609375 -3.910156 -7.332031 -3.453125 -6.78125 C -3.003906 -6.238281 -2.78125 -5.457031 -2.78125 -4.4375 L -2.78125 -3.078125 L 0 -3.078125 L 0 -1.015625 Z M -6.515625 -3.078125 L -4.28125 -3.078125 L -4.28125 -4.21875 C -4.28125 -4.625 -4.375 -4.9375 -4.5625 -5.15625 C -4.757812 -5.375 -5.039062 -5.484375 -5.40625 -5.484375 C -5.757812 -5.484375 -6.03125 -5.375 -6.21875 -5.15625 C -6.414062 -4.9375 -6.515625 -4.625 -6.515625 -4.21875 Z M -6.515625 -3.078125 "/>
</symbol>
<symbol overflow="visible" id="glyph3-2">
<path style="stroke:none;" d="M -3.65625 -6.96875 L 0 -6.96875 L 0 -5.03125 L -2.796875 -5.03125 C -3.316406 -5.03125 -3.675781 -5.019531 -3.875 -5 C -4.070312 -4.976562 -4.21875 -4.9375 -4.3125 -4.875 C -4.4375 -4.800781 -4.53125 -4.703125 -4.59375 -4.578125 C -4.664062 -4.453125 -4.703125 -4.304688 -4.703125 -4.140625 C -4.703125 -3.734375 -4.546875 -3.414062 -4.234375 -3.1875 C -3.929688 -2.957031 -3.503906 -2.84375 -2.953125 -2.84375 L 0 -2.84375 L 0 -0.921875 L -8.359375 -0.921875 L -8.359375 -2.84375 L -5.140625 -2.84375 C -5.484375 -3.132812 -5.738281 -3.441406 -5.90625 -3.765625 C -6.070312 -4.097656 -6.15625 -4.457031 -6.15625 -4.84375 C -6.15625 -5.539062 -5.941406 -6.066406 -5.515625 -6.421875 C -5.085938 -6.785156 -4.46875 -6.96875 -3.65625 -6.96875 Z M -3.65625 -6.96875 "/>
</symbol>
<symbol overflow="visible" id="glyph3-3">
<path style="stroke:none;" d="M -6.015625 -0.140625 L -6.015625 -2.0625 L -1.9375 -3.671875 L -6.015625 -5.046875 L -6.015625 -6.96875 L 0.5625 -4.4375 C 1.238281 -4.1875 1.707031 -3.890625 1.96875 -3.546875 C 2.238281 -3.210938 2.375 -2.769531 2.375 -2.21875 L 2.375 -1.09375 L 1.109375 -1.09375 L 1.109375 -1.703125 C 1.109375 -2.023438 1.054688 -2.257812 0.953125 -2.40625 C 0.847656 -2.5625 0.660156 -2.679688 0.390625 -2.765625 L 0.234375 -2.8125 Z M -6.015625 -0.140625 "/>
</symbol>
<symbol overflow="visible" id="glyph3-4">
<path style="stroke:none;" d="M -8.359375 -0.921875 L -8.359375 -2.84375 L 0 -2.84375 L 0 -0.921875 Z M -8.359375 -0.921875 "/>
</symbol>
<symbol overflow="visible" id="glyph3-5">
<path style="stroke:none;" d="M -4.78125 -3.78125 C -4.78125 -3.351562 -4.628906 -3.023438 -4.328125 -2.796875 C -4.023438 -2.578125 -3.582031 -2.46875 -3 -2.46875 C -2.425781 -2.46875 -1.984375 -2.578125 -1.671875 -2.796875 C -1.367188 -3.023438 -1.21875 -3.351562 -1.21875 -3.78125 C -1.21875 -4.207031 -1.367188 -4.53125 -1.671875 -4.75 C -1.984375 -4.96875 -2.425781 -5.078125 -3 -5.078125 C -3.582031 -5.078125 -4.023438 -4.96875 -4.328125 -4.75 C -4.628906 -4.53125 -4.78125 -4.207031 -4.78125 -3.78125 Z M -6.15625 -3.78125 C -6.15625 -4.820312 -5.875 -5.628906 -5.3125 -6.203125 C -4.757812 -6.785156 -3.988281 -7.078125 -3 -7.078125 C -2.007812 -7.078125 -1.234375 -6.785156 -0.671875 -6.203125 C -0.117188 -5.628906 0.15625 -4.820312 0.15625 -3.78125 C 0.15625 -2.75 -0.117188 -1.9375 -0.671875 -1.34375 C -1.234375 -0.757812 -2.007812 -0.46875 -3 -0.46875 C -3.988281 -0.46875 -4.757812 -0.757812 -5.3125 -1.34375 C -5.875 -1.9375 -6.15625 -2.75 -6.15625 -3.78125 Z M -6.15625 -3.78125 "/>
</symbol>
<symbol overflow="visible" id="glyph4-0">
<path style="stroke:none;" d="M 0.59375 2.125 L 0.59375 -8.46875 L 6.59375 -8.46875 L 6.59375 2.125 Z M 1.265625 1.453125 L 5.9375 1.453125 L 5.9375 -7.78125 L 1.265625 -7.78125 Z M 1.265625 1.453125 "/>
</symbol>
<symbol overflow="visible" id="glyph4-1">
<path style="stroke:none;" d="M 1.015625 -9.125 L 3.109375 -9.125 L 3.109375 0 L 1.015625 0 Z M 1.015625 -9.125 "/>
</symbol>
<symbol overflow="visible" id="glyph4-2">
<path style="stroke:none;" d="M 7.609375 -4 L 7.609375 0 L 5.5 0 L 5.5 -3.0625 C 5.5 -3.625 5.484375 -4.007812 5.453125 -4.21875 C 5.429688 -4.4375 5.390625 -4.597656 5.328125 -4.703125 C 5.242188 -4.835938 5.128906 -4.941406 4.984375 -5.015625 C 4.847656 -5.097656 4.691406 -5.140625 4.515625 -5.140625 C 4.078125 -5.140625 3.734375 -4.96875 3.484375 -4.625 C 3.234375 -4.289062 3.109375 -3.828125 3.109375 -3.234375 L 3.109375 0 L 1.015625 0 L 1.015625 -6.5625 L 3.109375 -6.5625 L 3.109375 -5.609375 C 3.421875 -5.984375 3.753906 -6.257812 4.109375 -6.4375 C 4.460938 -6.625 4.859375 -6.71875 5.296875 -6.71875 C 6.046875 -6.71875 6.617188 -6.484375 7.015625 -6.015625 C 7.410156 -5.554688 7.609375 -4.882812 7.609375 -4 Z M 7.609375 -4 "/>
</symbol>
<symbol overflow="visible" id="glyph4-3">
<path style="stroke:none;" d="M 6.3125 -6.359375 L 6.3125 -4.640625 C 6.03125 -4.835938 5.742188 -4.984375 5.453125 -5.078125 C 5.160156 -5.171875 4.863281 -5.21875 4.5625 -5.21875 C 3.976562 -5.21875 3.519531 -5.046875 3.1875 -4.703125 C 2.863281 -4.367188 2.703125 -3.894531 2.703125 -3.28125 C 2.703125 -2.664062 2.863281 -2.1875 3.1875 -1.84375 C 3.519531 -1.5 3.976562 -1.328125 4.5625 -1.328125 C 4.882812 -1.328125 5.191406 -1.375 5.484375 -1.46875 C 5.785156 -1.570312 6.0625 -1.71875 6.3125 -1.90625 L 6.3125 -0.1875 C 5.976562 -0.0703125 5.644531 0.015625 5.3125 0.078125 C 4.976562 0.140625 4.640625 0.171875 4.296875 0.171875 C 3.109375 0.171875 2.179688 -0.128906 1.515625 -0.734375 C 0.847656 -1.347656 0.515625 -2.195312 0.515625 -3.28125 C 0.515625 -4.363281 0.847656 -5.207031 1.515625 -5.8125 C 2.179688 -6.414062 3.109375 -6.71875 4.296875 -6.71875 C 4.640625 -6.71875 4.976562 -6.6875 5.3125 -6.625 C 5.644531 -6.570312 5.976562 -6.484375 6.3125 -6.359375 Z M 6.3125 -6.359375 "/>
</symbol>
<symbol overflow="visible" id="glyph4-4">
<path style="stroke:none;" d="M 4.3125 -4.875 C 4.78125 -4.875 5.113281 -4.957031 5.3125 -5.125 C 5.519531 -5.300781 5.625 -5.59375 5.625 -6 C 5.625 -6.394531 5.519531 -6.675781 5.3125 -6.84375 C 5.113281 -7.019531 4.78125 -7.109375 4.3125 -7.109375 L 3.359375 -7.109375 L 3.359375 -4.875 Z M 3.359375 -3.3125 L 3.359375 0 L 1.109375 0 L 1.109375 -8.75 L 4.546875 -8.75 C 5.703125 -8.75 6.546875 -8.554688 7.078125 -8.171875 C 7.617188 -7.785156 7.890625 -7.171875 7.890625 -6.328125 C 7.890625 -5.753906 7.75 -5.28125 7.46875 -4.90625 C 7.1875 -4.539062 6.765625 -4.269531 6.203125 -4.09375 C 6.515625 -4.019531 6.789062 -3.859375 7.03125 -3.609375 C 7.28125 -3.359375 7.53125 -2.984375 7.78125 -2.484375 L 9 0 L 6.59375 0 L 5.53125 -2.171875 C 5.3125 -2.609375 5.09375 -2.90625 4.875 -3.0625 C 4.65625 -3.226562 4.363281 -3.3125 4 -3.3125 Z M 3.359375 -3.3125 "/>
</symbol>
<symbol overflow="visible" id="glyph4-5">
<path style="stroke:none;" d="M 1.109375 -8.75 L 3.625 -8.75 L 6.796875 -2.75 L 6.796875 -8.75 L 8.9375 -8.75 L 8.9375 0 L 6.421875 0 L 3.234375 -6 L 3.234375 0 L 1.109375 0 Z M 1.109375 -8.75 "/>
</symbol>
<symbol overflow="visible" id="glyph4-6">
<path style="stroke:none;" d="M 6.40625 -1.59375 L 2.890625 -1.59375 L 2.328125 0 L 0.0625 0 L 3.296875 -8.75 L 5.984375 -8.75 L 9.234375 0 L 6.96875 0 Z M 3.453125 -3.21875 L 5.84375 -3.21875 L 4.640625 -6.703125 Z M 3.453125 -3.21875 "/>
</symbol>
<symbol overflow="visible" id="glyph4-7">
<path style="stroke:none;" d="M 6.140625 -6.359375 L 6.140625 -4.765625 C 5.691406 -4.953125 5.253906 -5.09375 4.828125 -5.1875 C 4.410156 -5.28125 4.019531 -5.328125 3.65625 -5.328125 C 3.25 -5.328125 2.945312 -5.273438 2.75 -5.171875 C 2.5625 -5.078125 2.46875 -4.925781 2.46875 -4.71875 C 2.46875 -4.550781 2.539062 -4.421875 2.6875 -4.328125 C 2.832031 -4.242188 3.097656 -4.175781 3.484375 -4.125 L 3.84375 -4.078125 C 4.925781 -3.941406 5.648438 -3.71875 6.015625 -3.40625 C 6.390625 -3.09375 6.578125 -2.601562 6.578125 -1.9375 C 6.578125 -1.238281 6.316406 -0.710938 5.796875 -0.359375 C 5.285156 -0.00390625 4.519531 0.171875 3.5 0.171875 C 3.0625 0.171875 2.609375 0.132812 2.140625 0.0625 C 1.679688 0 1.207031 -0.0976562 0.71875 -0.234375 L 0.71875 -1.828125 C 1.132812 -1.628906 1.5625 -1.476562 2 -1.375 C 2.445312 -1.269531 2.894531 -1.21875 3.34375 -1.21875 C 3.757812 -1.21875 4.066406 -1.273438 4.265625 -1.390625 C 4.472656 -1.503906 4.578125 -1.675781 4.578125 -1.90625 C 4.578125 -2.09375 4.503906 -2.226562 4.359375 -2.3125 C 4.222656 -2.40625 3.941406 -2.476562 3.515625 -2.53125 L 3.140625 -2.578125 C 2.210938 -2.691406 1.5625 -2.90625 1.1875 -3.21875 C 0.8125 -3.539062 0.625 -4.023438 0.625 -4.671875 C 0.625 -5.367188 0.859375 -5.882812 1.328125 -6.21875 C 1.804688 -6.550781 2.539062 -6.71875 3.53125 -6.71875 C 3.914062 -6.71875 4.320312 -6.6875 4.75 -6.625 C 5.175781 -6.570312 5.640625 -6.484375 6.140625 -6.359375 Z M 6.140625 -6.359375 "/>
</symbol>
<symbol overflow="visible" id="glyph4-8">
<path style="stroke:none;" d="M 1.34375 -6.5625 L 3.453125 -6.5625 L 3.453125 -4.296875 L 1.34375 -4.296875 Z M 1.34375 -2.265625 L 3.453125 -2.265625 L 3.453125 0 L 1.34375 0 Z M 1.34375 -2.265625 "/>
</symbol>
<symbol overflow="visible" id="glyph4-9">
<path style="stroke:none;" d="M 1.109375 -8.75 L 4.84375 -8.75 C 5.957031 -8.75 6.8125 -8.5 7.40625 -8 C 8 -7.507812 8.296875 -6.804688 8.296875 -5.890625 C 8.296875 -4.972656 8 -4.265625 7.40625 -3.765625 C 6.8125 -3.273438 5.957031 -3.03125 4.84375 -3.03125 L 3.359375 -3.03125 L 3.359375 0 L 1.109375 0 Z M 3.359375 -7.109375 L 3.359375 -4.671875 L 4.609375 -4.671875 C 5.046875 -4.671875 5.382812 -4.773438 5.625 -4.984375 C 5.863281 -5.203125 5.984375 -5.503906 5.984375 -5.890625 C 5.984375 -6.285156 5.863281 -6.585938 5.625 -6.796875 C 5.382812 -7.003906 5.046875 -7.109375 4.609375 -7.109375 Z M 3.359375 -7.109375 "/>
</symbol>
<symbol overflow="visible" id="glyph4-10">
<path style="stroke:none;" d="M 7.609375 -4 L 7.609375 0 L 5.5 0 L 5.5 -3.046875 C 5.5 -3.617188 5.484375 -4.007812 5.453125 -4.21875 C 5.429688 -4.4375 5.390625 -4.597656 5.328125 -4.703125 C 5.242188 -4.835938 5.128906 -4.941406 4.984375 -5.015625 C 4.847656 -5.097656 4.691406 -5.140625 4.515625 -5.140625 C 4.078125 -5.140625 3.734375 -4.96875 3.484375 -4.625 C 3.234375 -4.289062 3.109375 -3.828125 3.109375 -3.234375 L 3.109375 0 L 1.015625 0 L 1.015625 -9.125 L 3.109375 -9.125 L 3.109375 -5.609375 C 3.421875 -5.984375 3.753906 -6.257812 4.109375 -6.4375 C 4.460938 -6.625 4.859375 -6.71875 5.296875 -6.71875 C 6.046875 -6.71875 6.617188 -6.484375 7.015625 -6.015625 C 7.410156 -5.554688 7.609375 -4.882812 7.609375 -4 Z M 7.609375 -4 "/>
</symbol>
<symbol overflow="visible" id="glyph4-11">
<path style="stroke:none;" d="M 0.140625 -6.5625 L 2.25 -6.5625 L 4.015625 -2.109375 L 5.515625 -6.5625 L 7.609375 -6.5625 L 4.84375 0.625 C 4.570312 1.351562 4.25 1.863281 3.875 2.15625 C 3.507812 2.445312 3.023438 2.59375 2.421875 2.59375 L 1.203125 2.59375 L 1.203125 1.21875 L 1.859375 1.21875 C 2.210938 1.21875 2.46875 1.160156 2.625 1.046875 C 2.789062 0.929688 2.921875 0.726562 3.015625 0.4375 L 3.078125 0.25 Z M 0.140625 -6.5625 "/>
</symbol>
<symbol overflow="visible" id="glyph4-12">
<path style="stroke:none;" d="M 4.125 -5.21875 C 3.664062 -5.21875 3.3125 -5.050781 3.0625 -4.71875 C 2.820312 -4.382812 2.703125 -3.90625 2.703125 -3.28125 C 2.703125 -2.644531 2.820312 -2.160156 3.0625 -1.828125 C 3.3125 -1.492188 3.664062 -1.328125 4.125 -1.328125 C 4.582031 -1.328125 4.929688 -1.492188 5.171875 -1.828125 C 5.421875 -2.160156 5.546875 -2.644531 5.546875 -3.28125 C 5.546875 -3.90625 5.421875 -4.382812 5.171875 -4.71875 C 4.929688 -5.050781 4.582031 -5.21875 4.125 -5.21875 Z M 4.125 -6.71875 C 5.257812 -6.71875 6.144531 -6.410156 6.78125 -5.796875 C 7.414062 -5.191406 7.734375 -4.351562 7.734375 -3.28125 C 7.734375 -2.195312 7.414062 -1.347656 6.78125 -0.734375 C 6.144531 -0.128906 5.257812 0.171875 4.125 0.171875 C 3 0.171875 2.113281 -0.128906 1.46875 -0.734375 C 0.832031 -1.347656 0.515625 -2.195312 0.515625 -3.28125 C 0.515625 -4.351562 0.832031 -5.191406 1.46875 -5.796875 C 2.113281 -6.410156 3 -6.71875 4.125 -6.71875 Z M 4.125 -6.71875 "/>
</symbol>
<symbol overflow="visible" id="glyph4-13">
<path style="stroke:none;" d=""/>
</symbol>
<symbol overflow="visible" id="glyph4-14">
<path style="stroke:none;" d="M 0.1875 -6.5625 L 2.28125 -6.5625 L 3.921875 -2.03125 L 5.546875 -6.5625 L 7.640625 -6.5625 L 5.0625 0 L 2.765625 0 Z M 0.1875 -6.5625 "/>
</symbol>
<symbol overflow="visible" id="glyph4-15">
<path style="stroke:none;" d="M 4.609375 -5.359375 C 4.960938 -5.359375 5.226562 -5.4375 5.40625 -5.59375 C 5.59375 -5.75 5.6875 -5.976562 5.6875 -6.28125 C 5.6875 -6.582031 5.59375 -6.8125 5.40625 -6.96875 C 5.226562 -7.132812 4.960938 -7.21875 4.609375 -7.21875 L 3.359375 -7.21875 L 3.359375 -5.359375 Z M 4.6875 -1.53125 C 5.132812 -1.53125 5.472656 -1.625 5.703125 -1.8125 C 5.929688 -2.007812 6.046875 -2.300781 6.046875 -2.6875 C 6.046875 -3.070312 5.929688 -3.359375 5.703125 -3.546875 C 5.484375 -3.734375 5.144531 -3.828125 4.6875 -3.828125 L 3.359375 -3.828125 L 3.359375 -1.53125 Z M 6.78125 -4.6875 C 7.257812 -4.539062 7.628906 -4.273438 7.890625 -3.890625 C 8.160156 -3.515625 8.296875 -3.054688 8.296875 -2.515625 C 8.296875 -1.671875 8.007812 -1.039062 7.4375 -0.625 C 6.875 -0.207031 6.007812 0 4.84375 0 L 1.109375 0 L 1.109375 -8.75 L 4.484375 -8.75 C 5.703125 -8.75 6.582031 -8.5625 7.125 -8.1875 C 7.675781 -7.820312 7.953125 -7.238281 7.953125 -6.4375 C 7.953125 -6.007812 7.847656 -5.644531 7.640625 -5.34375 C 7.441406 -5.050781 7.15625 -4.832031 6.78125 -4.6875 Z M 6.78125 -4.6875 "/>
</symbol>
<symbol overflow="visible" id="glyph4-16">
<path style="stroke:none;" d="M 1.015625 -6.5625 L 3.109375 -6.5625 L 3.109375 0 L 1.015625 0 Z M 1.015625 -9.125 L 3.109375 -9.125 L 3.109375 -7.40625 L 1.015625 -7.40625 Z M 1.015625 -9.125 "/>
</symbol>
<symbol overflow="visible" id="glyph4-17">
<path style="stroke:none;" d="M 3.296875 -8.421875 L 3.296875 -6.5625 L 5.46875 -6.5625 L 5.46875 -5.0625 L 3.296875 -5.0625 L 3.296875 -2.28125 C 3.296875 -1.976562 3.351562 -1.769531 3.46875 -1.65625 C 3.59375 -1.550781 3.835938 -1.5 4.203125 -1.5 L 5.28125 -1.5 L 5.28125 0 L 3.484375 0 C 2.648438 0 2.0625 -0.171875 1.71875 -0.515625 C 1.375 -0.859375 1.203125 -1.445312 1.203125 -2.28125 L 1.203125 -5.0625 L 0.15625 -5.0625 L 0.15625 -6.5625 L 1.203125 -6.5625 L 1.203125 -8.421875 Z M 3.296875 -8.421875 "/>
</symbol>
<symbol overflow="visible" id="glyph4-18">
<path style="stroke:none;" d="M 3.109375 -0.953125 L 3.109375 2.5 L 1.015625 2.5 L 1.015625 -6.5625 L 3.109375 -6.5625 L 3.109375 -5.609375 C 3.398438 -5.984375 3.71875 -6.257812 4.0625 -6.4375 C 4.414062 -6.625 4.820312 -6.71875 5.28125 -6.71875 C 6.09375 -6.71875 6.753906 -6.394531 7.265625 -5.75 C 7.785156 -5.113281 8.046875 -4.289062 8.046875 -3.28125 C 8.046875 -2.269531 7.785156 -1.441406 7.265625 -0.796875 C 6.753906 -0.148438 6.09375 0.171875 5.28125 0.171875 C 4.820312 0.171875 4.414062 0.0820312 4.0625 -0.09375 C 3.71875 -0.28125 3.398438 -0.566406 3.109375 -0.953125 Z M 4.5 -5.203125 C 4.050781 -5.203125 3.707031 -5.035156 3.46875 -4.703125 C 3.226562 -4.367188 3.109375 -3.894531 3.109375 -3.28125 C 3.109375 -2.65625 3.226562 -2.175781 3.46875 -1.84375 C 3.707031 -1.519531 4.050781 -1.359375 4.5 -1.359375 C 4.945312 -1.359375 5.289062 -1.519531 5.53125 -1.84375 C 5.769531 -2.175781 5.890625 -2.65625 5.890625 -3.28125 C 5.890625 -3.90625 5.769531 -4.378906 5.53125 -4.703125 C 5.289062 -5.035156 4.945312 -5.203125 4.5 -5.203125 Z M 4.5 -5.203125 "/>
</symbol>
<symbol overflow="visible" id="glyph4-19">
<path style="stroke:none;" d="M 7.5625 -3.296875 L 7.5625 -2.703125 L 2.65625 -2.703125 C 2.707031 -2.210938 2.882812 -1.84375 3.1875 -1.59375 C 3.488281 -1.34375 3.914062 -1.21875 4.46875 -1.21875 C 4.90625 -1.21875 5.351562 -1.285156 5.8125 -1.421875 C 6.28125 -1.554688 6.757812 -1.753906 7.25 -2.015625 L 7.25 -0.40625 C 6.75 -0.21875 6.25 -0.078125 5.75 0.015625 C 5.257812 0.117188 4.765625 0.171875 4.265625 0.171875 C 3.078125 0.171875 2.15625 -0.128906 1.5 -0.734375 C 0.84375 -1.335938 0.515625 -2.1875 0.515625 -3.28125 C 0.515625 -4.34375 0.835938 -5.179688 1.484375 -5.796875 C 2.128906 -6.410156 3.019531 -6.71875 4.15625 -6.71875 C 5.1875 -6.71875 6.007812 -6.40625 6.625 -5.78125 C 7.25 -5.164062 7.5625 -4.335938 7.5625 -3.296875 Z M 5.40625 -4 C 5.40625 -4.394531 5.285156 -4.710938 5.046875 -4.953125 C 4.816406 -5.203125 4.515625 -5.328125 4.140625 -5.328125 C 3.734375 -5.328125 3.398438 -5.210938 3.140625 -4.984375 C 2.890625 -4.753906 2.734375 -4.425781 2.671875 -4 Z M 5.40625 -4 "/>
</symbol>
</g>
<clipPath id="clip1">
  <path d="M 36.140625 23.304688 L 812 23.304688 L 812 488 L 36.140625 488 Z M 36.140625 23.304688 "/>
</clipPath>
<clipPath id="clip2">
  <path d="M 36.140625 442 L 812.84375 442 L 812.84375 443 L 36.140625 443 Z M 36.140625 442 "/>
</clipPath>
<clipPath id="clip3">
  <path d="M 36.140625 353 L 812.84375 353 L 812.84375 354 L 36.140625 354 Z M 36.140625 353 "/>
</clipPath>
<clipPath id="clip4">
  <path d="M 36.140625 264 L 812.84375 264 L 812.84375 266 L 36.140625 266 Z M 36.140625 264 "/>
</clipPath>
<clipPath id="clip5">
  <path d="M 36.140625 175 L 812.84375 175 L 812.84375 177 L 36.140625 177 Z M 36.140625 175 "/>
</clipPath>
<clipPath id="clip6">
  <path d="M 36.140625 86 L 812.84375 86 L 812.84375 88 L 36.140625 88 Z M 36.140625 86 "/>
</clipPath>
<clipPath id="clip7">
  <path d="M 36.140625 486 L 812.84375 486 L 812.84375 488 L 36.140625 488 Z M 36.140625 486 "/>
</clipPath>
<clipPath id="clip8">
  <path d="M 36.140625 397 L 812.84375 397 L 812.84375 399 L 36.140625 399 Z M 36.140625 397 "/>
</clipPath>
<clipPath id="clip9">
  <path d="M 36.140625 308 L 812.84375 308 L 812.84375 310 L 36.140625 310 Z M 36.140625 308 "/>
</clipPath>
<clipPath id="clip10">
  <path d="M 36.140625 219 L 812.84375 219 L 812.84375 221 L 36.140625 221 Z M 36.140625 219 "/>
</clipPath>
<clipPath id="clip11">
  <path d="M 36.140625 131 L 812.84375 131 L 812.84375 133 L 36.140625 133 Z M 36.140625 131 "/>
</clipPath>
<clipPath id="clip12">
  <path d="M 36.140625 42 L 812.84375 42 L 812.84375 44 L 36.140625 44 Z M 36.140625 42 "/>
</clipPath>
<clipPath id="clip13">
  <path d="M 146 23.304688 L 148 23.304688 L 148 488 L 146 488 Z M 146 23.304688 "/>
</clipPath>
<clipPath id="clip14">
  <path d="M 331 23.304688 L 333 23.304688 L 333 488 L 331 488 Z M 331 23.304688 "/>
</clipPath>
<clipPath id="clip15">
  <path d="M 515 23.304688 L 517 23.304688 L 517 488 L 515 488 Z M 515 23.304688 "/>
</clipPath>
<clipPath id="clip16">
  <path d="M 700 23.304688 L 702 23.304688 L 702 488 L 700 488 Z M 700 23.304688 "/>
</clipPath>
</defs>
<g id="surface5430">
<rect x="0" y="0" width="900" height="521" style="fill:rgb(100%,100%,100%);fill-opacity:1;stroke:none;"/>
<rect x="0" y="0" width="900" height="521" style="fill:rgb(100%,100%,100%);fill-opacity:1;stroke:none;"/>
<path style="fill:none;stroke-width:1.066978;stroke-linecap:round;stroke-linejoin:round;stroke:rgb(100%,100%,100%);stroke-opacity:1;stroke-miterlimit:10;" d="M 0 521 L 900 521 L 900 0 L 0 0 Z M 0 521 "/>
<g clip-path="url(#clip1)" clip-rule="nonzero">
<path style=" stroke:none;fill-rule:nonzero;fill:rgb(92.156863%,92.156863%,92.156863%);fill-opacity:1;" d="M 36.140625 487.109375 L 811.84375 487.109375 L 811.84375 23.304688 L 36.140625 23.304688 Z M 36.140625 487.109375 "/>
</g>
<g clip-path="url(#clip2)" clip-rule="nonzero">
<path style="fill:none;stroke-width:0.533489;stroke-linecap:butt;stroke-linejoin:round;stroke:rgb(100%,100%,100%);stroke-opacity:1;stroke-miterlimit:10;" d="M 36.140625 442.320312 L 811.84375 442.320312 "/>
</g>
<g clip-path="url(#clip3)" clip-rule="nonzero">
<path style="fill:none;stroke-width:0.533489;stroke-linecap:butt;stroke-linejoin:round;stroke:rgb(100%,100%,100%);stroke-opacity:1;stroke-miterlimit:10;" d="M 36.140625 353.535156 L 811.84375 353.535156 "/>
</g>
<g clip-path="url(#clip4)" clip-rule="nonzero">
<path style="fill:none;stroke-width:0.533489;stroke-linecap:butt;stroke-linejoin:round;stroke:rgb(100%,100%,100%);stroke-opacity:1;stroke-miterlimit:10;" d="M 36.140625 264.75 L 811.84375 264.75 "/>
</g>
<g clip-path="url(#clip5)" clip-rule="nonzero">
<path style="fill:none;stroke-width:0.533489;stroke-linecap:butt;stroke-linejoin:round;stroke:rgb(100%,100%,100%);stroke-opacity:1;stroke-miterlimit:10;" d="M 36.140625 175.964844 L 811.84375 175.964844 "/>
</g>
<g clip-path="url(#clip6)" clip-rule="nonzero">
<path style="fill:none;stroke-width:0.533489;stroke-linecap:butt;stroke-linejoin:round;stroke:rgb(100%,100%,100%);stroke-opacity:1;stroke-miterlimit:10;" d="M 36.140625 87.179688 L 811.84375 87.179688 "/>
</g>
<g clip-path="url(#clip7)" clip-rule="nonzero">
<path style="fill:none;stroke-width:1.066978;stroke-linecap:butt;stroke-linejoin:round;stroke:rgb(100%,100%,100%);stroke-opacity:1;stroke-miterlimit:10;" d="M 36.140625 486.714844 L 811.84375 486.714844 "/>
</g>
<g clip-path="url(#clip8)" clip-rule="nonzero">
<path style="fill:none;stroke-width:1.066978;stroke-linecap:butt;stroke-linejoin:round;stroke:rgb(100%,100%,100%);stroke-opacity:1;stroke-miterlimit:10;" d="M 36.140625 397.929688 L 811.84375 397.929688 "/>
</g>
<g clip-path="url(#clip9)" clip-rule="nonzero">
<path style="fill:none;stroke-width:1.066978;stroke-linecap:butt;stroke-linejoin:round;stroke:rgb(100%,100%,100%);stroke-opacity:1;stroke-miterlimit:10;" d="M 36.140625 309.144531 L 811.84375 309.144531 "/>
</g>
<g clip-path="url(#clip10)" clip-rule="nonzero">
<path style="fill:none;stroke-width:1.066978;stroke-linecap:butt;stroke-linejoin:round;stroke:rgb(100%,100%,100%);stroke-opacity:1;stroke-miterlimit:10;" d="M 36.140625 220.359375 L 811.84375 220.359375 "/>
</g>
<g clip-path="url(#clip11)" clip-rule="nonzero">
<path style="fill:none;stroke-width:1.066978;stroke-linecap:butt;stroke-linejoin:round;stroke:rgb(100%,100%,100%);stroke-opacity:1;stroke-miterlimit:10;" d="M 36.140625 131.574219 L 811.84375 131.574219 "/>
</g>
<g clip-path="url(#clip12)" clip-rule="nonzero">
<path style="fill:none;stroke-width:1.066978;stroke-linecap:butt;stroke-linejoin:round;stroke:rgb(100%,100%,100%);stroke-opacity:1;stroke-miterlimit:10;" d="M 36.140625 42.789062 L 811.84375 42.789062 "/>
</g>
<g clip-path="url(#clip13)" clip-rule="nonzero">
<path style="fill:none;stroke-width:1.066978;stroke-linecap:butt;stroke-linejoin:round;stroke:rgb(100%,100%,100%);stroke-opacity:1;stroke-miterlimit:10;" d="M 146.957031 487.109375 L 146.957031 23.304688 "/>
</g>
<g clip-path="url(#clip14)" clip-rule="nonzero">
<path style="fill:none;stroke-width:1.066978;stroke-linecap:butt;stroke-linejoin:round;stroke:rgb(100%,100%,100%);stroke-opacity:1;stroke-miterlimit:10;" d="M 331.644531 487.109375 L 331.644531 23.304688 "/>
</g>
<g clip-path="url(#clip15)" clip-rule="nonzero">
<path style="fill:none;stroke-width:1.066978;stroke-linecap:butt;stroke-linejoin:round;stroke:rgb(100%,100%,100%);stroke-opacity:1;stroke-miterlimit:10;" d="M 516.335938 487.109375 L 516.335938 23.304688 "/>
</g>
<g clip-path="url(#clip16)" clip-rule="nonzero">
<path style="fill:none;stroke-width:1.066978;stroke-linecap:butt;stroke-linejoin:round;stroke:rgb(100%,100%,100%);stroke-opacity:1;stroke-miterlimit:10;" d="M 701.027344 487.109375 L 701.027344 23.304688 "/>
</g>
<path style="fill-rule:nonzero;fill:rgb(20%,20%,20%);fill-opacity:0.301961;stroke-width:0.708661;stroke-linecap:round;stroke-linejoin:round;stroke:rgb(20%,20%,20%);stroke-opacity:0.301961;stroke-miterlimit:10;" d="M 114.28125 345.722656 C 114.28125 348.328125 110.371094 348.328125 110.371094 345.722656 C 110.371094 343.117188 114.28125 343.117188 114.28125 345.722656 "/>
<path style="fill:none;stroke-width:1.066978;stroke-linecap:butt;stroke-linejoin:round;stroke:rgb(20%,20%,20%);stroke-opacity:1;stroke-miterlimit:10;" d="M 112.324219 384.789062 L 112.324219 371.382812 "/>
<path style="fill:none;stroke-width:1.066978;stroke-linecap:butt;stroke-linejoin:round;stroke:rgb(20%,20%,20%);stroke-opacity:1;stroke-miterlimit:10;" d="M 112.324219 404.632812 L 112.324219 421.101562 "/>
<path style="fill-rule:nonzero;fill:rgb(21.568627%,49.411765%,72.156863%);fill-opacity:0.301961;stroke-width:1.066978;stroke-linecap:round;stroke-linejoin:round;stroke:rgb(20%,20%,20%);stroke-opacity:1;stroke-miterlimit:10;" d="M 77.695312 384.789062 L 77.695312 404.632812 L 146.957031 404.632812 L 146.957031 384.789062 Z M 77.695312 384.789062 "/>
<path style="fill:none;stroke-width:2.133957;stroke-linecap:butt;stroke-linejoin:round;stroke:rgb(20%,20%,20%);stroke-opacity:1;stroke-miterlimit:10;" d="M 77.695312 393.84375 L 146.957031 393.84375 "/>
<path style="fill-rule:nonzero;fill:rgb(20%,20%,20%);fill-opacity:0.301961;stroke-width:0.708661;stroke-linecap:round;stroke-linejoin:round;stroke:rgb(20%,20%,20%);stroke-opacity:0.301961;stroke-miterlimit:10;" d="M 183.539062 322.640625 C 183.539062 325.246094 179.628906 325.246094 179.628906 322.640625 C 179.628906 320.03125 183.539062 320.03125 183.539062 322.640625 "/>
<path style="fill-rule:nonzero;fill:rgb(20%,20%,20%);fill-opacity:0.301961;stroke-width:0.708661;stroke-linecap:round;stroke-linejoin:round;stroke:rgb(20%,20%,20%);stroke-opacity:0.301961;stroke-miterlimit:10;" d="M 183.539062 349.898438 C 183.539062 352.503906 179.628906 352.503906 179.628906 349.898438 C 179.628906 347.289062 183.539062 347.289062 183.539062 349.898438 "/>
<path style="fill:none;stroke-width:1.066978;stroke-linecap:butt;stroke-linejoin:round;stroke:rgb(20%,20%,20%);stroke-opacity:1;stroke-miterlimit:10;" d="M 181.585938 378.574219 L 181.585938 378.574219 "/>
<path style="fill:none;stroke-width:1.066978;stroke-linecap:butt;stroke-linejoin:round;stroke:rgb(20%,20%,20%);stroke-opacity:1;stroke-miterlimit:10;" d="M 181.585938 396.152344 L 181.585938 400.238281 "/>
<path style="fill-rule:nonzero;fill:rgb(100%,49.803922%,0%);fill-opacity:0.301961;stroke-width:1.066978;stroke-linecap:round;stroke-linejoin:round;stroke:rgb(20%,20%,20%);stroke-opacity:1;stroke-miterlimit:10;" d="M 146.957031 378.574219 L 146.957031 396.152344 L 216.214844 396.152344 L 216.214844 378.574219 Z M 146.957031 378.574219 "/>
<path style="fill:none;stroke-width:2.133957;stroke-linecap:butt;stroke-linejoin:round;stroke:rgb(20%,20%,20%);stroke-opacity:1;stroke-miterlimit:10;" d="M 146.957031 386.832031 L 216.214844 386.832031 "/>
<path style="fill-rule:nonzero;fill:rgb(20%,20%,20%);fill-opacity:0.301961;stroke-width:0.708661;stroke-linecap:round;stroke-linejoin:round;stroke:rgb(20%,20%,20%);stroke-opacity:0.301961;stroke-miterlimit:10;" d="M 298.972656 292.542969 C 298.972656 295.148438 295.0625 295.148438 295.0625 292.542969 C 295.0625 289.933594 298.972656 289.933594 298.972656 292.542969 "/>
<path style="fill-rule:nonzero;fill:rgb(20%,20%,20%);fill-opacity:0.301961;stroke-width:0.708661;stroke-linecap:round;stroke-linejoin:round;stroke:rgb(20%,20%,20%);stroke-opacity:0.301961;stroke-miterlimit:10;" d="M 298.972656 332.140625 C 298.972656 334.746094 295.0625 334.746094 295.0625 332.140625 C 295.0625 329.53125 298.972656 329.53125 298.972656 332.140625 "/>
<path style="fill-rule:nonzero;fill:rgb(20%,20%,20%);fill-opacity:0.301961;stroke-width:0.708661;stroke-linecap:round;stroke-linejoin:round;stroke:rgb(20%,20%,20%);stroke-opacity:0.301961;stroke-miterlimit:10;" d="M 298.972656 341.105469 C 298.972656 343.714844 295.0625 343.714844 295.0625 341.105469 C 295.0625 338.5 298.972656 338.5 298.972656 341.105469 "/>
<path style="fill-rule:nonzero;fill:rgb(20%,20%,20%);fill-opacity:0.301961;stroke-width:0.708661;stroke-linecap:round;stroke-linejoin:round;stroke:rgb(20%,20%,20%);stroke-opacity:0.301961;stroke-miterlimit:10;" d="M 298.972656 339.332031 C 298.972656 341.9375 295.0625 341.9375 295.0625 339.332031 C 295.0625 336.726562 298.972656 336.726562 298.972656 339.332031 "/>
<path style="fill-rule:nonzero;fill:rgb(20%,20%,20%);fill-opacity:0.301961;stroke-width:0.708661;stroke-linecap:round;stroke-linejoin:round;stroke:rgb(20%,20%,20%);stroke-opacity:0.301961;stroke-miterlimit:10;" d="M 298.972656 237.9375 C 298.972656 240.542969 295.0625 240.542969 295.0625 237.9375 C 295.0625 235.332031 298.972656 235.332031 298.972656 237.9375 "/>
<path style="fill-rule:nonzero;fill:rgb(20%,20%,20%);fill-opacity:0.301961;stroke-width:0.708661;stroke-linecap:round;stroke-linejoin:round;stroke:rgb(20%,20%,20%);stroke-opacity:0.301961;stroke-miterlimit:10;" d="M 298.972656 342.082031 C 298.972656 344.691406 295.0625 344.691406 295.0625 342.082031 C 295.0625 339.476562 298.972656 339.476562 298.972656 342.082031 "/>
<path style="fill-rule:nonzero;fill:rgb(20%,20%,20%);fill-opacity:0.301961;stroke-width:0.708661;stroke-linecap:round;stroke-linejoin:round;stroke:rgb(20%,20%,20%);stroke-opacity:0.301961;stroke-miterlimit:10;" d="M 298.972656 466.027344 C 298.972656 468.632812 295.0625 468.632812 295.0625 466.027344 C 295.0625 463.421875 298.972656 463.421875 298.972656 466.027344 "/>
<path style="fill-rule:nonzero;fill:rgb(20%,20%,20%);fill-opacity:0.301961;stroke-width:0.708661;stroke-linecap:round;stroke-linejoin:round;stroke:rgb(20%,20%,20%);stroke-opacity:0.301961;stroke-miterlimit:10;" d="M 298.972656 328.941406 C 298.972656 331.550781 295.0625 331.550781 295.0625 328.941406 C 295.0625 326.335938 298.972656 326.335938 298.972656 328.941406 "/>
<path style="fill-rule:nonzero;fill:rgb(20%,20%,20%);fill-opacity:0.301961;stroke-width:0.708661;stroke-linecap:round;stroke-linejoin:round;stroke:rgb(20%,20%,20%);stroke-opacity:0.301961;stroke-miterlimit:10;" d="M 298.972656 325.746094 C 298.972656 328.351562 295.0625 328.351562 295.0625 325.746094 C 295.0625 323.140625 298.972656 323.140625 298.972656 325.746094 "/>
<path style="fill-rule:nonzero;fill:rgb(20%,20%,20%);fill-opacity:0.301961;stroke-width:0.708661;stroke-linecap:round;stroke-linejoin:round;stroke:rgb(20%,20%,20%);stroke-opacity:0.301961;stroke-miterlimit:10;" d="M 298.972656 162.472656 C 298.972656 165.078125 295.0625 165.078125 295.0625 162.472656 C 295.0625 159.863281 298.972656 159.863281 298.972656 162.472656 "/>
<path style="fill-rule:nonzero;fill:rgb(20%,20%,20%);fill-opacity:0.301961;stroke-width:0.708661;stroke-linecap:round;stroke-linejoin:round;stroke:rgb(20%,20%,20%);stroke-opacity:0.301961;stroke-miterlimit:10;" d="M 298.972656 326.457031 C 298.972656 329.0625 295.0625 329.0625 295.0625 326.457031 C 295.0625 323.851562 298.972656 323.851562 298.972656 326.457031 "/>
<path style="fill-rule:nonzero;fill:rgb(20%,20%,20%);fill-opacity:0.301961;stroke-width:0.708661;stroke-linecap:round;stroke-linejoin:round;stroke:rgb(20%,20%,20%);stroke-opacity:0.301961;stroke-miterlimit:10;" d="M 298.972656 344.660156 C 298.972656 347.265625 295.0625 347.265625 295.0625 344.660156 C 295.0625 342.050781 298.972656 342.050781 298.972656 344.660156 "/>
<path style="fill-rule:nonzero;fill:rgb(20%,20%,20%);fill-opacity:0.301961;stroke-width:0.708661;stroke-linecap:round;stroke-linejoin:round;stroke:rgb(20%,20%,20%);stroke-opacity:0.301961;stroke-miterlimit:10;" d="M 298.972656 339.242188 C 298.972656 341.847656 295.0625 341.847656 295.0625 339.242188 C 295.0625 336.636719 298.972656 336.636719 298.972656 339.242188 "/>
<path style="fill-rule:nonzero;fill:rgb(20%,20%,20%);fill-opacity:0.301961;stroke-width:0.708661;stroke-linecap:round;stroke-linejoin:round;stroke:rgb(20%,20%,20%);stroke-opacity:0.301961;stroke-miterlimit:10;" d="M 298.972656 71.378906 C 298.972656 73.984375 295.0625 73.984375 295.0625 71.378906 C 295.0625 68.769531 298.972656 68.769531 298.972656 71.378906 "/>
<path style="fill:none;stroke-width:1.066978;stroke-linecap:butt;stroke-linejoin:round;stroke:rgb(20%,20%,20%);stroke-opacity:1;stroke-miterlimit:10;" d="M 297.015625 381.238281 L 297.015625 345.8125 "/>
<path style="fill:none;stroke-width:1.066978;stroke-linecap:butt;stroke-linejoin:round;stroke:rgb(20%,20%,20%);stroke-opacity:1;stroke-miterlimit:10;" d="M 297.015625 405.164062 L 297.015625 438.859375 "/>
<path style="fill-rule:nonzero;fill:rgb(89.411765%,10.196078%,10.980392%);fill-opacity:0.301961;stroke-width:1.066978;stroke-linecap:round;stroke-linejoin:round;stroke:rgb(20%,20%,20%);stroke-opacity:1;stroke-miterlimit:10;" d="M 262.386719 381.238281 L 262.386719 405.164062 L 331.644531 405.164062 L 331.644531 381.238281 Z M 262.386719 381.238281 "/>
<path style="fill:none;stroke-width:2.133957;stroke-linecap:butt;stroke-linejoin:round;stroke:rgb(20%,20%,20%);stroke-opacity:1;stroke-miterlimit:10;" d="M 262.386719 392.070312 L 331.644531 392.070312 "/>
<path style="fill-rule:nonzero;fill:rgb(20%,20%,20%);fill-opacity:0.301961;stroke-width:0.708661;stroke-linecap:round;stroke-linejoin:round;stroke:rgb(20%,20%,20%);stroke-opacity:0.301961;stroke-miterlimit:10;" d="M 368.230469 378.839844 C 368.230469 381.445312 364.320312 381.445312 364.320312 378.839844 C 364.320312 376.234375 368.230469 376.234375 368.230469 378.839844 "/>
<path style="fill:none;stroke-width:1.066978;stroke-linecap:butt;stroke-linejoin:round;stroke:rgb(20%,20%,20%);stroke-opacity:1;stroke-miterlimit:10;" d="M 366.277344 390.40625 L 366.277344 390.203125 "/>
<path style="fill:none;stroke-width:1.066978;stroke-linecap:butt;stroke-linejoin:round;stroke:rgb(20%,20%,20%);stroke-opacity:1;stroke-miterlimit:10;" d="M 366.277344 396.574219 L 366.277344 405.03125 "/>
<path style="fill-rule:nonzero;fill:rgb(59.607843%,30.588235%,63.921569%);fill-opacity:0.301961;stroke-width:1.066978;stroke-linecap:round;stroke-linejoin:round;stroke:rgb(20%,20%,20%);stroke-opacity:1;stroke-miterlimit:10;" d="M 331.644531 390.40625 L 331.644531 396.574219 L 400.90625 396.574219 L 400.90625 390.40625 Z M 331.644531 390.40625 "/>
<path style="fill:none;stroke-width:2.133957;stroke-linecap:butt;stroke-linejoin:round;stroke:rgb(20%,20%,20%);stroke-opacity:1;stroke-miterlimit:10;" d="M 331.644531 392.558594 L 400.90625 392.558594 "/>
<path style="fill-rule:nonzero;fill:rgb(20%,20%,20%);fill-opacity:0.301961;stroke-width:0.708661;stroke-linecap:round;stroke-linejoin:round;stroke:rgb(20%,20%,20%);stroke-opacity:0.301961;stroke-miterlimit:10;" d="M 472.121094 237.140625 C 472.121094 239.746094 468.210938 239.746094 468.210938 237.140625 C 468.210938 234.53125 472.121094 234.53125 472.121094 237.140625 "/>
<path style="fill:none;stroke-width:1.066978;stroke-linecap:butt;stroke-linejoin:round;stroke:rgb(20%,20%,20%);stroke-opacity:1;stroke-miterlimit:10;" d="M 470.164062 350.074219 L 470.164062 319.886719 "/>
<path style="fill:none;stroke-width:1.066978;stroke-linecap:butt;stroke-linejoin:round;stroke:rgb(20%,20%,20%);stroke-opacity:1;stroke-miterlimit:10;" d="M 470.164062 404.765625 L 470.164062 463.1875 "/>
<path style="fill-rule:nonzero;fill:rgb(89.411765%,10.196078%,10.980392%);fill-opacity:0.301961;stroke-width:1.066978;stroke-linecap:round;stroke-linejoin:round;stroke:rgb(20%,20%,20%);stroke-opacity:1;stroke-miterlimit:10;" d="M 447.078125 350.074219 L 447.078125 404.765625 L 493.25 404.765625 L 493.25 350.074219 Z M 447.078125 350.074219 "/>
<path style="fill:none;stroke-width:2.133957;stroke-linecap:butt;stroke-linejoin:round;stroke:rgb(20%,20%,20%);stroke-opacity:1;stroke-miterlimit:10;" d="M 447.078125 372.714844 L 493.25 372.714844 "/>
<path style="fill-rule:nonzero;fill:rgb(20%,20%,20%);fill-opacity:0.301961;stroke-width:0.708661;stroke-linecap:round;stroke-linejoin:round;stroke:rgb(20%,20%,20%);stroke-opacity:0.301961;stroke-miterlimit:10;" d="M 518.292969 126.335938 C 518.292969 128.941406 514.382812 128.941406 514.382812 126.335938 C 514.382812 123.730469 518.292969 123.730469 518.292969 126.335938 "/>
<path style="fill:none;stroke-width:1.066978;stroke-linecap:butt;stroke-linejoin:round;stroke:rgb(20%,20%,20%);stroke-opacity:1;stroke-miterlimit:10;" d="M 516.335938 316.335938 L 516.335938 214.589844 "/>
<path style="fill:none;stroke-width:1.066978;stroke-linecap:butt;stroke-linejoin:round;stroke:rgb(20%,20%,20%);stroke-opacity:1;stroke-miterlimit:10;" d="M 516.335938 397.574219 L 516.335938 420.660156 "/>
<path style="fill-rule:nonzero;fill:rgb(59.607843%,30.588235%,63.921569%);fill-opacity:0.301961;stroke-width:1.066978;stroke-linecap:round;stroke-linejoin:round;stroke:rgb(20%,20%,20%);stroke-opacity:1;stroke-miterlimit:10;" d="M 493.25 316.335938 L 493.25 397.574219 L 539.425781 397.574219 L 539.425781 316.335938 Z M 493.25 316.335938 "/>
<path style="fill:none;stroke-width:2.133957;stroke-linecap:butt;stroke-linejoin:round;stroke:rgb(20%,20%,20%);stroke-opacity:1;stroke-miterlimit:10;" d="M 493.25 383.546875 L 539.425781 383.546875 "/>
<path style="fill-rule:nonzero;fill:rgb(20%,20%,20%);fill-opacity:0.301961;stroke-width:0.708661;stroke-linecap:round;stroke-linejoin:round;stroke:rgb(20%,20%,20%);stroke-opacity:0.301961;stroke-miterlimit:10;" d="M 564.464844 320.6875 C 564.464844 323.292969 560.554688 323.292969 560.554688 320.6875 C 560.554688 318.078125 564.464844 318.078125 564.464844 320.6875 "/>
<path style="fill:none;stroke-width:1.066978;stroke-linecap:butt;stroke-linejoin:round;stroke:rgb(20%,20%,20%);stroke-opacity:1;stroke-miterlimit:10;" d="M 562.511719 376.796875 L 562.511719 370.582031 "/>
<path style="fill:none;stroke-width:1.066978;stroke-linecap:butt;stroke-linejoin:round;stroke:rgb(20%,20%,20%);stroke-opacity:1;stroke-miterlimit:10;" d="M 562.511719 394.199219 L 562.511719 401.660156 "/>
<path style="fill-rule:nonzero;fill:rgb(100%,49.803922%,0%);fill-opacity:0.301961;stroke-width:1.066978;stroke-linecap:round;stroke-linejoin:round;stroke:rgb(20%,20%,20%);stroke-opacity:1;stroke-miterlimit:10;" d="M 539.425781 376.796875 L 539.425781 394.199219 L 585.597656 394.199219 L 585.597656 376.796875 Z M 539.425781 376.796875 "/>
<path style="fill:none;stroke-width:2.133957;stroke-linecap:butt;stroke-linejoin:round;stroke:rgb(20%,20%,20%);stroke-opacity:1;stroke-miterlimit:10;" d="M 539.425781 392.511719 L 585.597656 392.511719 "/>
<path style="fill-rule:nonzero;fill:rgb(20%,20%,20%);fill-opacity:0.301961;stroke-width:0.708661;stroke-linecap:round;stroke-linejoin:round;stroke:rgb(20%,20%,20%);stroke-opacity:0.301961;stroke-miterlimit:10;" d="M 656.8125 44.386719 C 656.8125 46.992188 652.902344 46.992188 652.902344 44.386719 C 652.902344 41.78125 656.8125 41.78125 656.8125 44.386719 "/>
<path style="fill-rule:nonzero;fill:rgb(20%,20%,20%);fill-opacity:0.301961;stroke-width:0.708661;stroke-linecap:round;stroke-linejoin:round;stroke:rgb(20%,20%,20%);stroke-opacity:0.301961;stroke-miterlimit:10;" d="M 656.8125 134.058594 C 656.8125 136.667969 652.902344 136.667969 652.902344 134.058594 C 652.902344 131.453125 656.8125 131.453125 656.8125 134.058594 "/>
<path style="fill-rule:nonzero;fill:rgb(20%,20%,20%);fill-opacity:0.301961;stroke-width:0.708661;stroke-linecap:round;stroke-linejoin:round;stroke:rgb(20%,20%,20%);stroke-opacity:0.301961;stroke-miterlimit:10;" d="M 656.8125 334.179688 C 656.8125 336.789062 652.902344 336.789062 652.902344 334.179688 C 652.902344 331.574219 656.8125 331.574219 656.8125 334.179688 "/>
<path style="fill-rule:nonzero;fill:rgb(20%,20%,20%);fill-opacity:0.301961;stroke-width:0.708661;stroke-linecap:round;stroke-linejoin:round;stroke:rgb(20%,20%,20%);stroke-opacity:0.301961;stroke-miterlimit:10;" d="M 656.8125 328.855469 C 656.8125 331.460938 652.902344 331.460938 652.902344 328.855469 C 652.902344 326.25 656.8125 326.25 656.8125 328.855469 "/>
<path style="fill-rule:nonzero;fill:rgb(20%,20%,20%);fill-opacity:0.301961;stroke-width:0.708661;stroke-linecap:round;stroke-linejoin:round;stroke:rgb(20%,20%,20%);stroke-opacity:0.301961;stroke-miterlimit:10;" d="M 656.8125 318.023438 C 656.8125 320.628906 652.902344 320.628906 652.902344 318.023438 C 652.902344 315.417969 656.8125 315.417969 656.8125 318.023438 "/>
<path style="fill:none;stroke-width:1.066978;stroke-linecap:butt;stroke-linejoin:round;stroke:rgb(20%,20%,20%);stroke-opacity:1;stroke-miterlimit:10;" d="M 654.855469 374.757812 L 654.855469 357 "/>
<path style="fill:none;stroke-width:1.066978;stroke-linecap:butt;stroke-linejoin:round;stroke:rgb(20%,20%,20%);stroke-opacity:1;stroke-miterlimit:10;" d="M 654.855469 397.308594 L 654.855469 420.125 "/>
<path style="fill-rule:nonzero;fill:rgb(89.411765%,10.196078%,10.980392%);fill-opacity:0.301961;stroke-width:1.066978;stroke-linecap:round;stroke-linejoin:round;stroke:rgb(20%,20%,20%);stroke-opacity:1;stroke-miterlimit:10;" d="M 631.769531 374.757812 L 631.769531 397.308594 L 677.941406 397.308594 L 677.941406 374.757812 Z M 631.769531 374.757812 "/>
<path style="fill:none;stroke-width:2.133957;stroke-linecap:butt;stroke-linejoin:round;stroke:rgb(20%,20%,20%);stroke-opacity:1;stroke-miterlimit:10;" d="M 631.769531 388.164062 L 677.941406 388.164062 "/>
<path style="fill:none;stroke-width:1.066978;stroke-linecap:butt;stroke-linejoin:round;stroke:rgb(20%,20%,20%);stroke-opacity:1;stroke-miterlimit:10;" d="M 701.027344 305.859375 L 701.027344 295.914062 "/>
<path style="fill:none;stroke-width:1.066978;stroke-linecap:butt;stroke-linejoin:round;stroke:rgb(20%,20%,20%);stroke-opacity:1;stroke-miterlimit:10;" d="M 701.027344 386.386719 L 701.027344 387.363281 "/>
<path style="fill-rule:nonzero;fill:rgb(30.196078%,68.627451%,29.019608%);fill-opacity:0.301961;stroke-width:1.066978;stroke-linecap:round;stroke-linejoin:round;stroke:rgb(20%,20%,20%);stroke-opacity:1;stroke-miterlimit:10;" d="M 677.941406 305.859375 L 677.941406 386.386719 L 724.113281 386.386719 L 724.113281 305.859375 Z M 677.941406 305.859375 "/>
<path style="fill:none;stroke-width:2.133957;stroke-linecap:butt;stroke-linejoin:round;stroke:rgb(20%,20%,20%);stroke-opacity:1;stroke-miterlimit:10;" d="M 677.941406 385.5 L 724.113281 385.5 "/>
<path style="fill:none;stroke-width:1.066978;stroke-linecap:butt;stroke-linejoin:round;stroke:rgb(20%,20%,20%);stroke-opacity:1;stroke-miterlimit:10;" d="M 747.203125 378.417969 L 747.203125 377.242188 "/>
<path style="fill:none;stroke-width:1.066978;stroke-linecap:butt;stroke-linejoin:round;stroke:rgb(20%,20%,20%);stroke-opacity:1;stroke-miterlimit:10;" d="M 747.203125 380.773438 L 747.203125 381.949219 "/>
<path style="fill-rule:nonzero;fill:rgb(59.607843%,30.588235%,63.921569%);fill-opacity:0.301961;stroke-width:1.066978;stroke-linecap:round;stroke-linejoin:round;stroke:rgb(20%,20%,20%);stroke-opacity:1;stroke-miterlimit:10;" d="M 724.113281 378.417969 L 724.113281 380.773438 L 770.289062 380.773438 L 770.289062 378.417969 Z M 724.113281 378.417969 "/>
<path style="fill:none;stroke-width:2.133957;stroke-linecap:butt;stroke-linejoin:round;stroke:rgb(20%,20%,20%);stroke-opacity:1;stroke-miterlimit:10;" d="M 724.113281 379.59375 L 770.289062 379.59375 "/>
<g style="fill:rgb(30.196078%,30.196078%,30.196078%);fill-opacity:1;">
  <use xlink:href="#glyph0-1" x="22.207031" y="489.382812"/>
  <use xlink:href="#glyph0-2" x="25.455078" y="489.382812"/>
</g>
<g style="fill:rgb(30.196078%,30.196078%,30.196078%);fill-opacity:1;">
  <use xlink:href="#glyph0-3" x="25.207031" y="400.597656"/>
</g>
<g style="fill:rgb(30.196078%,30.196078%,30.196078%);fill-opacity:1;">
  <use xlink:href="#glyph0-2" x="25.207031" y="311.8125"/>
</g>
<g style="fill:rgb(30.196078%,30.196078%,30.196078%);fill-opacity:1;">
  <use xlink:href="#glyph0-4" x="25.207031" y="223.027344"/>
</g>
<g style="fill:rgb(30.196078%,30.196078%,30.196078%);fill-opacity:1;">
  <use xlink:href="#glyph0-5" x="25.207031" y="134.242188"/>
</g>
<g style="fill:rgb(30.196078%,30.196078%,30.196078%);fill-opacity:1;">
  <use xlink:href="#glyph0-6" x="25.207031" y="45.457031"/>
</g>
<path style="fill:none;stroke-width:1.066978;stroke-linecap:butt;stroke-linejoin:round;stroke:rgb(20%,20%,20%);stroke-opacity:1;stroke-miterlimit:10;" d="M 33.402344 486.714844 L 36.140625 486.714844 "/>
<path style="fill:none;stroke-width:1.066978;stroke-linecap:butt;stroke-linejoin:round;stroke:rgb(20%,20%,20%);stroke-opacity:1;stroke-miterlimit:10;" d="M 33.402344 397.929688 L 36.140625 397.929688 "/>
<path style="fill:none;stroke-width:1.066978;stroke-linecap:butt;stroke-linejoin:round;stroke:rgb(20%,20%,20%);stroke-opacity:1;stroke-miterlimit:10;" d="M 33.402344 309.144531 L 36.140625 309.144531 "/>
<path style="fill:none;stroke-width:1.066978;stroke-linecap:butt;stroke-linejoin:round;stroke:rgb(20%,20%,20%);stroke-opacity:1;stroke-miterlimit:10;" d="M 33.402344 220.359375 L 36.140625 220.359375 "/>
<path style="fill:none;stroke-width:1.066978;stroke-linecap:butt;stroke-linejoin:round;stroke:rgb(20%,20%,20%);stroke-opacity:1;stroke-miterlimit:10;" d="M 33.402344 131.574219 L 36.140625 131.574219 "/>
<path style="fill:none;stroke-width:1.066978;stroke-linecap:butt;stroke-linejoin:round;stroke:rgb(20%,20%,20%);stroke-opacity:1;stroke-miterlimit:10;" d="M 33.402344 42.789062 L 36.140625 42.789062 "/>
<path style="fill:none;stroke-width:1.066978;stroke-linecap:butt;stroke-linejoin:round;stroke:rgb(20%,20%,20%);stroke-opacity:1;stroke-miterlimit:10;" d="M 146.957031 489.847656 L 146.957031 487.109375 "/>
<path style="fill:none;stroke-width:1.066978;stroke-linecap:butt;stroke-linejoin:round;stroke:rgb(20%,20%,20%);stroke-opacity:1;stroke-miterlimit:10;" d="M 331.644531 489.847656 L 331.644531 487.109375 "/>
<path style="fill:none;stroke-width:1.066978;stroke-linecap:butt;stroke-linejoin:round;stroke:rgb(20%,20%,20%);stroke-opacity:1;stroke-miterlimit:10;" d="M 516.335938 489.847656 L 516.335938 487.109375 "/>
<path style="fill:none;stroke-width:1.066978;stroke-linecap:butt;stroke-linejoin:round;stroke:rgb(20%,20%,20%);stroke-opacity:1;stroke-miterlimit:10;" d="M 701.027344 489.847656 L 701.027344 487.109375 "/>
<g style="fill:rgb(30.196078%,30.196078%,30.196078%);fill-opacity:1;">
  <use xlink:href="#glyph1-1" x="71.957031" y="500.253906"/>
  <use xlink:href="#glyph1-2" x="78.928711" y="500.253906"/>
  <use xlink:href="#glyph1-1" x="85.65918" y="500.253906"/>
  <use xlink:href="#glyph1-3" x="92.630859" y="500.253906"/>
  <use xlink:href="#glyph1-4" x="98.362305" y="500.253906"/>
  <use xlink:href="#glyph1-1" x="105.129883" y="500.253906"/>
  <use xlink:href="#glyph1-3" x="112.101562" y="500.253906"/>
  <use xlink:href="#glyph1-4" x="117.833008" y="500.253906"/>
  <use xlink:href="#glyph1-5" x="124.600586" y="500.253906"/>
  <use xlink:href="#glyph1-6" x="130.100586" y="500.253906"/>
  <use xlink:href="#glyph1-4" x="140.816406" y="500.253906"/>
  <use xlink:href="#glyph1-7" x="147.583984" y="500.253906"/>
  <use xlink:href="#glyph1-8" x="154.566406" y="500.253906"/>
  <use xlink:href="#glyph1-9" x="157.623047" y="500.253906"/>
  <use xlink:href="#glyph1-10" x="164.364258" y="500.253906"/>
  <use xlink:href="#glyph1-4" x="168.677734" y="500.253906"/>
  <use xlink:href="#glyph1-7" x="175.445312" y="500.253906"/>
  <use xlink:href="#glyph1-5" x="182.427734" y="500.253906"/>
  <use xlink:href="#glyph1-7" x="187.927734" y="500.253906"/>
  <use xlink:href="#glyph1-4" x="194.910156" y="500.253906"/>
  <use xlink:href="#glyph1-11" x="201.677734" y="500.253906"/>
  <use xlink:href="#glyph1-9" x="207.725586" y="500.253906"/>
  <use xlink:href="#glyph1-12" x="214.466797" y="500.253906"/>
</g>
<g style="fill:rgb(30.196078%,30.196078%,30.196078%);fill-opacity:1;">
  <use xlink:href="#glyph1-3" x="292.144531" y="500.253906"/>
  <use xlink:href="#glyph1-4" x="297.875977" y="500.253906"/>
  <use xlink:href="#glyph1-1" x="304.643555" y="500.253906"/>
  <use xlink:href="#glyph1-3" x="311.615234" y="500.253906"/>
  <use xlink:href="#glyph1-4" x="317.34668" y="500.253906"/>
  <use xlink:href="#glyph1-5" x="324.114258" y="500.253906"/>
  <use xlink:href="#glyph1-8" x="329.614258" y="500.253906"/>
  <use xlink:href="#glyph1-1" x="332.670898" y="500.253906"/>
  <use xlink:href="#glyph1-10" x="339.642578" y="500.253906"/>
  <use xlink:href="#glyph1-13" x="343.956055" y="500.253906"/>
  <use xlink:href="#glyph1-2" x="348.237305" y="500.253906"/>
  <use xlink:href="#glyph1-1" x="354.967773" y="500.253906"/>
  <use xlink:href="#glyph1-8" x="361.939453" y="500.253906"/>
  <use xlink:href="#glyph1-11" x="364.996094" y="500.253906"/>
</g>
<g style="fill:rgb(30.196078%,30.196078%,30.196078%);fill-opacity:1;">
  <use xlink:href="#glyph1-14" x="451.335938" y="500.253906"/>
  <use xlink:href="#glyph1-13" x="458.318359" y="500.253906"/>
  <use xlink:href="#glyph1-2" x="462.599609" y="500.253906"/>
  <use xlink:href="#glyph1-11" x="469.330078" y="500.253906"/>
  <use xlink:href="#glyph1-4" x="475.37793" y="500.253906"/>
  <use xlink:href="#glyph1-3" x="482.145508" y="500.253906"/>
  <use xlink:href="#glyph1-3" x="487.876953" y="500.253906"/>
  <use xlink:href="#glyph1-4" x="493.608398" y="500.253906"/>
  <use xlink:href="#glyph1-7" x="500.375977" y="500.253906"/>
  <use xlink:href="#glyph1-5" x="507.358398" y="500.253906"/>
  <use xlink:href="#glyph1-14" x="512.858398" y="500.253906"/>
  <use xlink:href="#glyph1-3" x="519.84082" y="500.253906"/>
  <use xlink:href="#glyph1-4" x="525.572266" y="500.253906"/>
  <use xlink:href="#glyph1-15" x="532.339844" y="500.253906"/>
  <use xlink:href="#glyph1-7" x="539.311523" y="500.253906"/>
  <use xlink:href="#glyph1-2" x="546.293945" y="500.253906"/>
  <use xlink:href="#glyph1-16" x="553.024414" y="500.253906"/>
  <use xlink:href="#glyph1-4" x="560.006836" y="500.253906"/>
  <use xlink:href="#glyph1-1" x="566.774414" y="500.253906"/>
  <use xlink:href="#glyph1-4" x="573.746094" y="500.253906"/>
</g>
<g style="fill:rgb(30.196078%,30.196078%,30.196078%);fill-opacity:1;">
  <use xlink:href="#glyph1-3" x="649.527344" y="500.253906"/>
  <use xlink:href="#glyph1-4" x="655.258789" y="500.253906"/>
  <use xlink:href="#glyph1-1" x="662.026367" y="500.253906"/>
  <use xlink:href="#glyph1-3" x="668.998047" y="500.253906"/>
  <use xlink:href="#glyph1-4" x="674.729492" y="500.253906"/>
  <use xlink:href="#glyph1-5" x="681.49707" y="500.253906"/>
  <use xlink:href="#glyph1-2" x="686.99707" y="500.253906"/>
  <use xlink:href="#glyph1-17" x="693.727539" y="500.253906"/>
  <use xlink:href="#glyph1-4" x="700.237305" y="500.253906"/>
  <use xlink:href="#glyph1-13" x="707.004883" y="500.253906"/>
  <use xlink:href="#glyph1-18" x="711.527344" y="500.253906"/>
  <use xlink:href="#glyph1-9" x="714.583984" y="500.253906"/>
  <use xlink:href="#glyph1-14" x="721.325195" y="500.253906"/>
  <use xlink:href="#glyph1-14" x="728.307617" y="500.253906"/>
  <use xlink:href="#glyph1-8" x="735.290039" y="500.253906"/>
  <use xlink:href="#glyph1-1" x="738.34668" y="500.253906"/>
  <use xlink:href="#glyph1-16" x="745.318359" y="500.253906"/>
</g>
<g style="fill:rgb(0%,0%,0%);fill-opacity:1;">
  <use xlink:href="#glyph2-1" x="421.992188" y="514.730469"/>
</g>
<g style="fill:rgb(0%,0%,0%);fill-opacity:1;">
  <use xlink:href="#glyph3-1" x="13.691406" y="276.707031"/>
  <use xlink:href="#glyph3-2" x="13.691406" y="268.644531"/>
  <use xlink:href="#glyph3-3" x="13.691406" y="260.813477"/>
  <use xlink:href="#glyph3-4" x="13.691406" y="253.642578"/>
  <use xlink:href="#glyph3-5" x="13.691406" y="249.87207"/>
  <use xlink:href="#glyph3-1" x="13.691406" y="242.314453"/>
</g>
<path style=" stroke:none;fill-rule:nonzero;fill:rgb(100%,100%,100%);fill-opacity:1;" d="M 823.183594 310.738281 L 894.523438 310.738281 L 894.523438 199.679688 L 823.183594 199.679688 Z M 823.183594 310.738281 "/>
<g style="fill:rgb(0%,0%,0%);fill-opacity:1;">
  <use xlink:href="#glyph1-19" x="828.851562" y="213.558594"/>
  <use xlink:href="#glyph1-18" x="836.532227" y="213.558594"/>
  <use xlink:href="#glyph1-9" x="839.588867" y="213.558594"/>
  <use xlink:href="#glyph1-3" x="846.330078" y="213.558594"/>
  <use xlink:href="#glyph1-3" x="852.061523" y="213.558594"/>
  <use xlink:href="#glyph1-20" x="857.792969" y="213.558594"/>
  <use xlink:href="#glyph1-11" x="861.290039" y="213.558594"/>
  <use xlink:href="#glyph1-2" x="867.337891" y="213.558594"/>
  <use xlink:href="#glyph1-7" x="874.068359" y="213.558594"/>
  <use xlink:href="#glyph1-4" x="881.050781" y="213.558594"/>
</g>
<path style="fill-rule:nonzero;fill:rgb(94.901961%,94.901961%,94.901961%);fill-opacity:1;stroke-width:1.066978;stroke-linecap:round;stroke-linejoin:round;stroke:rgb(100%,100%,100%);stroke-opacity:1;stroke-miterlimit:10;" d="M 828.851562 235.945312 L 846.132812 235.945312 L 846.132812 218.664062 L 828.851562 218.664062 Z M 828.851562 235.945312 "/>
<path style="fill:none;stroke-width:1.066978;stroke-linecap:round;stroke-linejoin:round;stroke:rgb(20%,20%,20%);stroke-opacity:1;stroke-miterlimit:10;" d="M 837.492188 234.21875 L 837.492188 231.628906 "/>
<path style="fill:none;stroke-width:1.066978;stroke-linecap:round;stroke-linejoin:round;stroke:rgb(20%,20%,20%);stroke-opacity:1;stroke-miterlimit:10;" d="M 837.492188 222.988281 L 837.492188 220.394531 "/>
<path style="fill-rule:nonzero;fill:rgb(89.411765%,10.196078%,10.980392%);fill-opacity:0.301961;stroke-width:1.066978;stroke-linecap:round;stroke-linejoin:round;stroke:rgb(20%,20%,20%);stroke-opacity:1;stroke-miterlimit:10;" d="M 831.011719 231.628906 L 843.972656 231.628906 L 843.972656 222.988281 L 831.011719 222.988281 Z M 831.011719 231.628906 "/>
<path style="fill:none;stroke-width:1.066978;stroke-linecap:round;stroke-linejoin:round;stroke:rgb(20%,20%,20%);stroke-opacity:1;stroke-miterlimit:10;" d="M 831.011719 227.308594 L 843.972656 227.308594 "/>
<path style="fill-rule:nonzero;fill:rgb(94.901961%,94.901961%,94.901961%);fill-opacity:1;stroke-width:1.066978;stroke-linecap:round;stroke-linejoin:round;stroke:rgb(100%,100%,100%);stroke-opacity:1;stroke-miterlimit:10;" d="M 828.851562 253.226562 L 846.132812 253.226562 L 846.132812 235.945312 L 828.851562 235.945312 Z M 828.851562 253.226562 "/>
<path style="fill:none;stroke-width:1.066978;stroke-linecap:round;stroke-linejoin:round;stroke:rgb(20%,20%,20%);stroke-opacity:1;stroke-miterlimit:10;" d="M 837.492188 251.5 L 837.492188 248.90625 "/>
<path style="fill:none;stroke-width:1.066978;stroke-linecap:round;stroke-linejoin:round;stroke:rgb(20%,20%,20%);stroke-opacity:1;stroke-miterlimit:10;" d="M 837.492188 240.265625 L 837.492188 237.675781 "/>
<path style="fill-rule:nonzero;fill:rgb(21.568627%,49.411765%,72.156863%);fill-opacity:0.301961;stroke-width:1.066978;stroke-linecap:round;stroke-linejoin:round;stroke:rgb(20%,20%,20%);stroke-opacity:1;stroke-miterlimit:10;" d="M 831.011719 248.90625 L 843.972656 248.90625 L 843.972656 240.265625 L 831.011719 240.265625 Z M 831.011719 248.90625 "/>
<path style="fill:none;stroke-width:1.066978;stroke-linecap:round;stroke-linejoin:round;stroke:rgb(20%,20%,20%);stroke-opacity:1;stroke-miterlimit:10;" d="M 831.011719 244.585938 L 843.972656 244.585938 "/>
<path style="fill-rule:nonzero;fill:rgb(94.901961%,94.901961%,94.901961%);fill-opacity:1;stroke-width:1.066978;stroke-linecap:round;stroke-linejoin:round;stroke:rgb(100%,100%,100%);stroke-opacity:1;stroke-miterlimit:10;" d="M 828.851562 270.507812 L 846.132812 270.507812 L 846.132812 253.226562 L 828.851562 253.226562 Z M 828.851562 270.507812 "/>
<path style="fill:none;stroke-width:1.066978;stroke-linecap:round;stroke-linejoin:round;stroke:rgb(20%,20%,20%);stroke-opacity:1;stroke-miterlimit:10;" d="M 837.492188 268.777344 L 837.492188 266.1875 "/>
<path style="fill:none;stroke-width:1.066978;stroke-linecap:round;stroke-linejoin:round;stroke:rgb(20%,20%,20%);stroke-opacity:1;stroke-miterlimit:10;" d="M 837.492188 257.546875 L 837.492188 254.957031 "/>
<path style="fill-rule:nonzero;fill:rgb(30.196078%,68.627451%,29.019608%);fill-opacity:0.301961;stroke-width:1.066978;stroke-linecap:round;stroke-linejoin:round;stroke:rgb(20%,20%,20%);stroke-opacity:1;stroke-miterlimit:10;" d="M 831.011719 266.1875 L 843.972656 266.1875 L 843.972656 257.546875 L 831.011719 257.546875 Z M 831.011719 266.1875 "/>
<path style="fill:none;stroke-width:1.066978;stroke-linecap:round;stroke-linejoin:round;stroke:rgb(20%,20%,20%);stroke-opacity:1;stroke-miterlimit:10;" d="M 831.011719 261.867188 L 843.972656 261.867188 "/>
<path style="fill-rule:nonzero;fill:rgb(94.901961%,94.901961%,94.901961%);fill-opacity:1;stroke-width:1.066978;stroke-linecap:round;stroke-linejoin:round;stroke:rgb(100%,100%,100%);stroke-opacity:1;stroke-miterlimit:10;" d="M 828.851562 287.789062 L 846.132812 287.789062 L 846.132812 270.507812 L 828.851562 270.507812 Z M 828.851562 287.789062 "/>
<path style="fill:none;stroke-width:1.066978;stroke-linecap:round;stroke-linejoin:round;stroke:rgb(20%,20%,20%);stroke-opacity:1;stroke-miterlimit:10;" d="M 837.492188 286.058594 L 837.492188 283.46875 "/>
<path style="fill:none;stroke-width:1.066978;stroke-linecap:round;stroke-linejoin:round;stroke:rgb(20%,20%,20%);stroke-opacity:1;stroke-miterlimit:10;" d="M 837.492188 274.828125 L 837.492188 272.234375 "/>
<path style="fill-rule:nonzero;fill:rgb(59.607843%,30.588235%,63.921569%);fill-opacity:0.301961;stroke-width:1.066978;stroke-linecap:round;stroke-linejoin:round;stroke:rgb(20%,20%,20%);stroke-opacity:1;stroke-miterlimit:10;" d="M 831.011719 283.46875 L 843.972656 283.46875 L 843.972656 274.828125 L 831.011719 274.828125 Z M 831.011719 283.46875 "/>
<path style="fill:none;stroke-width:1.066978;stroke-linecap:round;stroke-linejoin:round;stroke:rgb(20%,20%,20%);stroke-opacity:1;stroke-miterlimit:10;" d="M 831.011719 279.148438 L 843.972656 279.148438 "/>
<path style="fill-rule:nonzero;fill:rgb(94.901961%,94.901961%,94.901961%);fill-opacity:1;stroke-width:1.066978;stroke-linecap:round;stroke-linejoin:round;stroke:rgb(100%,100%,100%);stroke-opacity:1;stroke-miterlimit:10;" d="M 828.851562 305.066406 L 846.132812 305.066406 L 846.132812 287.785156 L 828.851562 287.785156 Z M 828.851562 305.066406 "/>
<path style="fill:none;stroke-width:1.066978;stroke-linecap:round;stroke-linejoin:round;stroke:rgb(20%,20%,20%);stroke-opacity:1;stroke-miterlimit:10;" d="M 837.492188 303.339844 L 837.492188 300.746094 "/>
<path style="fill:none;stroke-width:1.066978;stroke-linecap:round;stroke-linejoin:round;stroke:rgb(20%,20%,20%);stroke-opacity:1;stroke-miterlimit:10;" d="M 837.492188 292.105469 L 837.492188 289.515625 "/>
<path style="fill-rule:nonzero;fill:rgb(100%,49.803922%,0%);fill-opacity:0.301961;stroke-width:1.066978;stroke-linecap:round;stroke-linejoin:round;stroke:rgb(20%,20%,20%);stroke-opacity:1;stroke-miterlimit:10;" d="M 831.011719 300.746094 L 843.972656 300.746094 L 843.972656 292.105469 L 831.011719 292.105469 Z M 831.011719 300.746094 "/>
<path style="fill:none;stroke-width:1.066978;stroke-linecap:round;stroke-linejoin:round;stroke:rgb(20%,20%,20%);stroke-opacity:1;stroke-miterlimit:10;" d="M 831.011719 296.425781 L 843.972656 296.425781 "/>
<g style="fill:rgb(0%,0%,0%);fill-opacity:1;">
  <use xlink:href="#glyph0-7" x="848.292969" y="229.976562"/>
</g>
<g style="fill:rgb(0%,0%,0%);fill-opacity:1;">
  <use xlink:href="#glyph0-8" x="848.292969" y="247.253906"/>
</g>
<g style="fill:rgb(0%,0%,0%);fill-opacity:1;">
  <use xlink:href="#glyph0-9" x="848.292969" y="264.535156"/>
</g>
<g style="fill:rgb(0%,0%,0%);fill-opacity:1;">
  <use xlink:href="#glyph0-10" x="848.292969" y="281.816406"/>
</g>
<g style="fill:rgb(0%,0%,0%);fill-opacity:1;">
  <use xlink:href="#glyph0-11" x="848.292969" y="299.09375"/>
</g>
<g style="fill:rgb(0%,0%,0%);fill-opacity:1;">
  <use xlink:href="#glyph4-1" x="36.140625" y="13.619141"/>
  <use xlink:href="#glyph4-2" x="40.253906" y="13.619141"/>
  <use xlink:href="#glyph4-3" x="48.796875" y="13.619141"/>
  <use xlink:href="#glyph4-4" x="55.910156" y="13.619141"/>
  <use xlink:href="#glyph4-5" x="65.150391" y="13.619141"/>
  <use xlink:href="#glyph4-6" x="75.193359" y="13.619141"/>
  <use xlink:href="#glyph4-7" x="84.480469" y="13.619141"/>
  <use xlink:href="#glyph4-8" x="91.623047" y="13.619141"/>
  <use xlink:href="#glyph4-9" x="96.421875" y="13.619141"/>
  <use xlink:href="#glyph4-10" x="105.216797" y="13.619141"/>
  <use xlink:href="#glyph4-11" x="113.759766" y="13.619141"/>
  <use xlink:href="#glyph4-1" x="121.582031" y="13.619141"/>
  <use xlink:href="#glyph4-12" x="125.695312" y="13.619141"/>
  <use xlink:href="#glyph4-9" x="133.939453" y="13.619141"/>
  <use xlink:href="#glyph4-13" x="142.734375" y="13.619141"/>
  <use xlink:href="#glyph4-14" x="146.912109" y="13.619141"/>
  <use xlink:href="#glyph4-7" x="154.734375" y="13.619141"/>
  <use xlink:href="#glyph4-13" x="161.876953" y="13.619141"/>
  <use xlink:href="#glyph4-15" x="166.054688" y="13.619141"/>
  <use xlink:href="#glyph4-16" x="175.201172" y="13.619141"/>
  <use xlink:href="#glyph4-12" x="179.314453" y="13.619141"/>
  <use xlink:href="#glyph4-17" x="187.558594" y="13.619141"/>
  <use xlink:href="#glyph4-11" x="193.294922" y="13.619141"/>
  <use xlink:href="#glyph4-18" x="201.117188" y="13.619141"/>
  <use xlink:href="#glyph4-19" x="209.707031" y="13.619141"/>
  <use xlink:href="#glyph4-7" x="217.845703" y="13.619141"/>
</g>
</g>
</svg>
