<?xml version="1.0" encoding="UTF-8"?>
<svg xmlns="http://www.w3.org/2000/svg" xmlns:xlink="http://www.w3.org/1999/xlink" width="900pt" height="521pt" viewBox="0 0 900 521" version="1.1">
<defs>
<g>
<symbol overflow="visible" id="glyph0-0">
<path style="stroke:none;" d="M 0.453125 1.59375 L 0.453125 -6.34375 L 4.953125 -6.34375 L 4.953125 1.59375 Z M 0.953125 1.09375 L 4.453125 1.09375 L 4.453125 -5.84375 L 0.953125 -5.84375 Z M 0.953125 1.09375 "/>
</symbol>
<symbol overflow="visible" id="glyph0-1">
<path style="stroke:none;" d="M 2.859375 -5.984375 C 2.398438 -5.984375 2.054688 -5.753906 1.828125 -5.296875 C 1.597656 -4.847656 1.484375 -4.175781 1.484375 -3.28125 C 1.484375 -2.375 1.597656 -1.695312 1.828125 -1.25 C 2.054688 -0.800781 2.398438 -0.578125 2.859375 -0.578125 C 3.316406 -0.578125 3.660156 -0.800781 3.890625 -1.25 C 4.117188 -1.695312 4.234375 -2.375 4.234375 -3.28125 C 4.234375 -4.175781 4.117188 -4.847656 3.890625 -5.296875 C 3.660156 -5.753906 3.316406 -5.984375 2.859375 -5.984375 Z M 2.859375 -6.6875 C 3.597656 -6.6875 4.160156 -6.394531 4.546875 -5.8125 C 4.929688 -5.226562 5.125 -4.382812 5.125 -3.28125 C 5.125 -2.175781 4.929688 -1.332031 4.546875 -0.75 C 4.160156 -0.164062 3.597656 0.125 2.859375 0.125 C 2.128906 0.125 1.566406 -0.164062 1.171875 -0.75 C 0.785156 -1.332031 0.59375 -2.175781 0.59375 -3.28125 C 0.59375 -4.382812 0.785156 -5.226562 1.171875 -5.8125 C 1.566406 -6.394531 2.128906 -6.6875 2.859375 -6.6875 Z M 2.859375 -6.6875 "/>
</symbol>
<symbol overflow="visible" id="glyph0-2">
<path style="stroke:none;" d="M 0.96875 -1.109375 L 1.890625 -1.109375 L 1.890625 0 L 0.96875 0 Z M 0.96875 -1.109375 "/>
</symbol>
<symbol overflow="visible" id="glyph0-3">
<path style="stroke:none;" d="M 1.734375 -0.75 L 4.828125 -0.75 L 4.828125 0 L 0.65625 0 L 0.65625 -0.75 C 1 -1.09375 1.457031 -1.554688 2.03125 -2.140625 C 2.613281 -2.734375 2.984375 -3.113281 3.140625 -3.28125 C 3.421875 -3.601562 3.613281 -3.875 3.71875 -4.09375 C 3.832031 -4.320312 3.890625 -4.539062 3.890625 -4.75 C 3.890625 -5.101562 3.769531 -5.390625 3.53125 -5.609375 C 3.289062 -5.828125 2.972656 -5.9375 2.578125 -5.9375 C 2.296875 -5.9375 2 -5.882812 1.6875 -5.78125 C 1.382812 -5.6875 1.054688 -5.539062 0.703125 -5.34375 L 0.703125 -6.25 C 1.054688 -6.382812 1.390625 -6.488281 1.703125 -6.5625 C 2.015625 -6.644531 2.300781 -6.6875 2.5625 -6.6875 C 3.238281 -6.6875 3.78125 -6.515625 4.1875 -6.171875 C 4.59375 -5.828125 4.796875 -5.375 4.796875 -4.8125 C 4.796875 -4.539062 4.742188 -4.28125 4.640625 -4.03125 C 4.535156 -3.789062 4.351562 -3.507812 4.09375 -3.1875 C 4.019531 -3.101562 3.785156 -2.859375 3.390625 -2.453125 C 2.992188 -2.046875 2.441406 -1.476562 1.734375 -0.75 Z M 1.734375 -0.75 "/>
</symbol>
<symbol overflow="visible" id="glyph0-4">
<path style="stroke:none;" d="M 0.96875 -6.5625 L 4.453125 -6.5625 L 4.453125 -5.8125 L 1.78125 -5.8125 L 1.78125 -4.203125 C 1.914062 -4.242188 2.046875 -4.273438 2.171875 -4.296875 C 2.296875 -4.328125 2.425781 -4.34375 2.5625 -4.34375 C 3.289062 -4.34375 3.867188 -4.140625 4.296875 -3.734375 C 4.722656 -3.335938 4.9375 -2.796875 4.9375 -2.109375 C 4.9375 -1.398438 4.71875 -0.847656 4.28125 -0.453125 C 3.84375 -0.0664062 3.222656 0.125 2.421875 0.125 C 2.148438 0.125 1.867188 0.0976562 1.578125 0.046875 C 1.296875 0.00390625 1 -0.0625 0.6875 -0.15625 L 0.6875 -1.046875 C 0.957031 -0.898438 1.234375 -0.789062 1.515625 -0.71875 C 1.796875 -0.65625 2.09375 -0.625 2.40625 -0.625 C 2.914062 -0.625 3.316406 -0.753906 3.609375 -1.015625 C 3.898438 -1.285156 4.046875 -1.648438 4.046875 -2.109375 C 4.046875 -2.566406 3.898438 -2.925781 3.609375 -3.1875 C 3.316406 -3.457031 2.914062 -3.59375 2.40625 -3.59375 C 2.164062 -3.59375 1.925781 -3.566406 1.6875 -3.515625 C 1.457031 -3.460938 1.21875 -3.378906 0.96875 -3.265625 Z M 0.96875 -6.5625 "/>
</symbol>
<symbol overflow="visible" id="glyph0-5">
<path style="stroke:none;" d="M 0.734375 -6.5625 L 4.953125 -6.5625 L 4.953125 -6.1875 L 2.578125 0 L 1.640625 0 L 3.890625 -5.8125 L 0.734375 -5.8125 Z M 0.734375 -6.5625 "/>
</symbol>
<symbol overflow="visible" id="glyph0-6">
<path style="stroke:none;" d="M 1.109375 -0.75 L 2.5625 -0.75 L 2.5625 -5.75 L 0.984375 -5.4375 L 0.984375 -6.25 L 2.5625 -6.5625 L 3.453125 -6.5625 L 3.453125 -0.75 L 4.890625 -0.75 L 4.890625 0 L 1.109375 0 Z M 1.109375 -0.75 "/>
</symbol>
<symbol overflow="visible" id="glyph1-0">
<path style="stroke:none;" d="M 0.546875 1.9375 L 0.546875 -7.75 L 6.046875 -7.75 L 6.046875 1.9375 Z M 1.171875 1.328125 L 5.4375 1.328125 L 5.4375 -7.140625 L 1.171875 -7.140625 Z M 1.171875 1.328125 "/>
</symbol>
<symbol overflow="visible" id="glyph1-1">
<path style="stroke:none;" d="M 3.5 -7.3125 C 2.9375 -7.3125 2.515625 -7.035156 2.234375 -6.484375 C 1.953125 -5.929688 1.8125 -5.101562 1.8125 -4 C 1.8125 -2.90625 1.953125 -2.082031 2.234375 -1.53125 C 2.515625 -0.976562 2.9375 -0.703125 3.5 -0.703125 C 4.0625 -0.703125 4.484375 -0.976562 4.765625 -1.53125 C 5.046875 -2.082031 5.1875 -2.90625 5.1875 -4 C 5.1875 -5.101562 5.046875 -5.929688 4.765625 -6.484375 C 4.484375 -7.035156 4.0625 -7.3125 3.5 -7.3125 Z M 3.5 -8.171875 C 4.394531 -8.171875 5.078125 -7.8125 5.546875 -7.09375 C 6.023438 -6.382812 6.265625 -5.351562 6.265625 -4 C 6.265625 -2.65625 6.023438 -1.625 5.546875 -0.90625 C 5.078125 -0.195312 4.394531 0.15625 3.5 0.15625 C 2.601562 0.15625 1.914062 -0.195312 1.4375 -0.90625 C 0.957031 -1.625 0.71875 -2.65625 0.71875 -4 C 0.71875 -5.351562 0.957031 -6.382812 1.4375 -7.09375 C 1.914062 -7.8125 2.601562 -8.171875 3.5 -8.171875 Z M 3.5 -8.171875 "/>
</symbol>
<symbol overflow="visible" id="glyph1-2">
<path style="stroke:none;" d="M 1.359375 -0.90625 L 3.140625 -0.90625 L 3.140625 -7.03125 L 1.203125 -6.640625 L 1.203125 -7.625 L 3.125 -8.015625 L 4.21875 -8.015625 L 4.21875 -0.90625 L 5.984375 -0.90625 L 5.984375 0 L 1.359375 0 Z M 1.359375 -0.90625 "/>
</symbol>
<symbol overflow="visible" id="glyph1-3">
<path style="stroke:none;" d="M 2.109375 -0.90625 L 5.890625 -0.90625 L 5.890625 0 L 0.8125 0 L 0.8125 -0.90625 C 1.21875 -1.332031 1.773438 -1.90625 2.484375 -2.625 C 3.203125 -3.34375 3.648438 -3.804688 3.828125 -4.015625 C 4.171875 -4.410156 4.410156 -4.742188 4.546875 -5.015625 C 4.691406 -5.285156 4.765625 -5.550781 4.765625 -5.8125 C 4.765625 -6.238281 4.613281 -6.582031 4.3125 -6.84375 C 4.019531 -7.113281 3.628906 -7.25 3.140625 -7.25 C 2.804688 -7.25 2.445312 -7.1875 2.0625 -7.0625 C 1.6875 -6.945312 1.285156 -6.769531 0.859375 -6.53125 L 0.859375 -7.625 C 1.296875 -7.800781 1.703125 -7.9375 2.078125 -8.03125 C 2.460938 -8.125 2.8125 -8.171875 3.125 -8.171875 C 3.957031 -8.171875 4.617188 -7.960938 5.109375 -7.546875 C 5.609375 -7.128906 5.859375 -6.570312 5.859375 -5.875 C 5.859375 -5.539062 5.796875 -5.226562 5.671875 -4.9375 C 5.546875 -4.644531 5.320312 -4.296875 5 -3.890625 C 4.90625 -3.785156 4.617188 -3.484375 4.140625 -2.984375 C 3.660156 -2.492188 2.984375 -1.800781 2.109375 -0.90625 Z M 2.109375 -0.90625 "/>
</symbol>
<symbol overflow="visible" id="glyph1-4">
<path style="stroke:none;" d="M 4.46875 -4.328125 C 4.988281 -4.210938 5.394531 -3.976562 5.6875 -3.625 C 5.976562 -3.28125 6.125 -2.847656 6.125 -2.328125 C 6.125 -1.535156 5.847656 -0.921875 5.296875 -0.484375 C 4.753906 -0.0546875 3.984375 0.15625 2.984375 0.15625 C 2.640625 0.15625 2.289062 0.117188 1.9375 0.046875 C 1.582031 -0.015625 1.21875 -0.109375 0.84375 -0.234375 L 0.84375 -1.296875 C 1.144531 -1.117188 1.472656 -0.984375 1.828125 -0.890625 C 2.179688 -0.796875 2.554688 -0.75 2.953125 -0.75 C 3.628906 -0.75 4.144531 -0.882812 4.5 -1.15625 C 4.851562 -1.425781 5.03125 -1.816406 5.03125 -2.328125 C 5.03125 -2.804688 4.863281 -3.175781 4.53125 -3.4375 C 4.207031 -3.707031 3.75 -3.84375 3.15625 -3.84375 L 2.21875 -3.84375 L 2.21875 -4.734375 L 3.203125 -4.734375 C 3.734375 -4.734375 4.140625 -4.835938 4.421875 -5.046875 C 4.703125 -5.265625 4.84375 -5.570312 4.84375 -5.96875 C 4.84375 -6.382812 4.695312 -6.703125 4.40625 -6.921875 C 4.113281 -7.140625 3.695312 -7.25 3.15625 -7.25 C 2.863281 -7.25 2.546875 -7.21875 2.203125 -7.15625 C 1.859375 -7.09375 1.484375 -6.992188 1.078125 -6.859375 L 1.078125 -7.828125 C 1.492188 -7.941406 1.878906 -8.023438 2.234375 -8.078125 C 2.597656 -8.140625 2.9375 -8.171875 3.25 -8.171875 C 4.070312 -8.171875 4.722656 -7.984375 5.203125 -7.609375 C 5.691406 -7.234375 5.9375 -6.722656 5.9375 -6.078125 C 5.9375 -5.640625 5.804688 -5.265625 5.546875 -4.953125 C 5.296875 -4.648438 4.9375 -4.441406 4.46875 -4.328125 Z M 4.46875 -4.328125 "/>
</symbol>
<symbol overflow="visible" id="glyph1-5">
<path style="stroke:none;" d="M 4.15625 -7.078125 L 1.421875 -2.796875 L 4.15625 -2.796875 Z M 3.875 -8.015625 L 5.234375 -8.015625 L 5.234375 -2.796875 L 6.375 -2.796875 L 6.375 -1.890625 L 5.234375 -1.890625 L 5.234375 0 L 4.15625 0 L 4.15625 -1.890625 L 0.53125 -1.890625 L 0.53125 -2.9375 Z M 3.875 -8.015625 "/>
</symbol>
<symbol overflow="visible" id="glyph1-6">
<path style="stroke:none;" d="M 1.1875 -8.015625 L 5.453125 -8.015625 L 5.453125 -7.109375 L 2.1875 -7.109375 L 2.1875 -5.140625 C 2.34375 -5.191406 2.5 -5.226562 2.65625 -5.25 C 2.8125 -5.28125 2.96875 -5.296875 3.125 -5.296875 C 4.019531 -5.296875 4.726562 -5.050781 5.25 -4.5625 C 5.769531 -4.070312 6.03125 -3.410156 6.03125 -2.578125 C 6.03125 -1.710938 5.757812 -1.039062 5.21875 -0.5625 C 4.6875 -0.0820312 3.929688 0.15625 2.953125 0.15625 C 2.617188 0.15625 2.273438 0.125 1.921875 0.0625 C 1.578125 0.0078125 1.21875 -0.0703125 0.84375 -0.1875 L 0.84375 -1.28125 C 1.164062 -1.101562 1.5 -0.96875 1.84375 -0.875 C 2.1875 -0.789062 2.550781 -0.75 2.9375 -0.75 C 3.5625 -0.75 4.050781 -0.910156 4.40625 -1.234375 C 4.769531 -1.566406 4.953125 -2.015625 4.953125 -2.578125 C 4.953125 -3.128906 4.769531 -3.566406 4.40625 -3.890625 C 4.050781 -4.222656 3.5625 -4.390625 2.9375 -4.390625 C 2.644531 -4.390625 2.351562 -4.351562 2.0625 -4.28125 C 1.78125 -4.21875 1.488281 -4.117188 1.1875 -3.984375 Z M 1.1875 -8.015625 "/>
</symbol>
<symbol overflow="visible" id="glyph1-7">
<path style="stroke:none;" d="M 3.625 -4.4375 C 3.144531 -4.4375 2.757812 -4.269531 2.46875 -3.9375 C 2.1875 -3.601562 2.046875 -3.148438 2.046875 -2.578125 C 2.046875 -1.992188 2.1875 -1.535156 2.46875 -1.203125 C 2.757812 -0.867188 3.144531 -0.703125 3.625 -0.703125 C 4.113281 -0.703125 4.5 -0.867188 4.78125 -1.203125 C 5.070312 -1.535156 5.21875 -1.992188 5.21875 -2.578125 C 5.21875 -3.148438 5.070312 -3.601562 4.78125 -3.9375 C 4.5 -4.269531 4.113281 -4.4375 3.625 -4.4375 Z M 5.78125 -7.84375 L 5.78125 -6.859375 C 5.507812 -6.984375 5.234375 -7.078125 4.953125 -7.140625 C 4.679688 -7.210938 4.410156 -7.25 4.140625 -7.25 C 3.421875 -7.25 2.867188 -7.003906 2.484375 -6.515625 C 2.109375 -6.035156 1.894531 -5.304688 1.84375 -4.328125 C 2.0625 -4.640625 2.328125 -4.878906 2.640625 -5.046875 C 2.960938 -5.210938 3.316406 -5.296875 3.703125 -5.296875 C 4.503906 -5.296875 5.140625 -5.050781 5.609375 -4.5625 C 6.078125 -4.070312 6.3125 -3.410156 6.3125 -2.578125 C 6.3125 -1.753906 6.066406 -1.09375 5.578125 -0.59375 C 5.085938 -0.09375 4.4375 0.15625 3.625 0.15625 C 2.695312 0.15625 1.988281 -0.195312 1.5 -0.90625 C 1.007812 -1.625 0.765625 -2.65625 0.765625 -4 C 0.765625 -5.269531 1.066406 -6.28125 1.671875 -7.03125 C 2.273438 -7.789062 3.082031 -8.171875 4.09375 -8.171875 C 4.363281 -8.171875 4.632812 -8.140625 4.90625 -8.078125 C 5.1875 -8.023438 5.476562 -7.945312 5.78125 -7.84375 Z M 5.78125 -7.84375 "/>
</symbol>
<symbol overflow="visible" id="glyph1-8">
<path style="stroke:none;" d="M 0.90625 -8.015625 L 6.0625 -8.015625 L 6.0625 -7.5625 L 3.140625 0 L 2.015625 0 L 4.75 -7.109375 L 0.90625 -7.109375 Z M 0.90625 -8.015625 "/>
</symbol>
<symbol overflow="visible" id="glyph1-9">
<path style="stroke:none;" d="M 3.5 -3.8125 C 2.976562 -3.8125 2.570312 -3.671875 2.28125 -3.390625 C 1.988281 -3.117188 1.84375 -2.738281 1.84375 -2.25 C 1.84375 -1.769531 1.988281 -1.390625 2.28125 -1.109375 C 2.570312 -0.835938 2.976562 -0.703125 3.5 -0.703125 C 4.007812 -0.703125 4.410156 -0.835938 4.703125 -1.109375 C 5.003906 -1.390625 5.15625 -1.769531 5.15625 -2.25 C 5.15625 -2.738281 5.007812 -3.117188 4.71875 -3.390625 C 4.425781 -3.671875 4.019531 -3.8125 3.5 -3.8125 Z M 2.40625 -4.265625 C 1.945312 -4.378906 1.585938 -4.59375 1.328125 -4.90625 C 1.066406 -5.226562 0.9375 -5.617188 0.9375 -6.078125 C 0.9375 -6.722656 1.160156 -7.234375 1.609375 -7.609375 C 2.066406 -7.984375 2.695312 -8.171875 3.5 -8.171875 C 4.289062 -8.171875 4.914062 -7.984375 5.375 -7.609375 C 5.832031 -7.234375 6.0625 -6.722656 6.0625 -6.078125 C 6.0625 -5.617188 5.929688 -5.226562 5.671875 -4.90625 C 5.410156 -4.59375 5.050781 -4.378906 4.59375 -4.265625 C 5.113281 -4.148438 5.519531 -3.914062 5.8125 -3.5625 C 6.101562 -3.207031 6.25 -2.769531 6.25 -2.25 C 6.25 -1.476562 6.007812 -0.882812 5.53125 -0.46875 C 5.0625 -0.0507812 4.382812 0.15625 3.5 0.15625 C 2.613281 0.15625 1.929688 -0.0507812 1.453125 -0.46875 C 0.984375 -0.882812 0.75 -1.476562 0.75 -2.25 C 0.75 -2.769531 0.894531 -3.207031 1.1875 -3.5625 C 1.476562 -3.914062 1.882812 -4.148438 2.40625 -4.265625 Z M 2.015625 -5.984375 C 2.015625 -5.566406 2.144531 -5.238281 2.40625 -5 C 2.664062 -4.769531 3.03125 -4.65625 3.5 -4.65625 C 3.957031 -4.65625 4.316406 -4.769531 4.578125 -5 C 4.847656 -5.238281 4.984375 -5.566406 4.984375 -5.984375 C 4.984375 -6.398438 4.847656 -6.722656 4.578125 -6.953125 C 4.316406 -7.191406 3.957031 -7.3125 3.5 -7.3125 C 3.03125 -7.3125 2.664062 -7.191406 2.40625 -6.953125 C 2.144531 -6.722656 2.015625 -6.398438 2.015625 -5.984375 Z M 2.015625 -5.984375 "/>
</symbol>
<symbol overflow="visible" id="glyph1-10">
<path style="stroke:none;" d="M 1.203125 -0.171875 L 1.203125 -1.15625 C 1.472656 -1.03125 1.75 -0.929688 2.03125 -0.859375 C 2.3125 -0.785156 2.585938 -0.75 2.859375 -0.75 C 3.578125 -0.75 4.125 -0.988281 4.5 -1.46875 C 4.875 -1.957031 5.085938 -2.691406 5.140625 -3.671875 C 4.929688 -3.367188 4.664062 -3.132812 4.34375 -2.96875 C 4.03125 -2.800781 3.679688 -2.71875 3.296875 -2.71875 C 2.492188 -2.71875 1.859375 -2.957031 1.390625 -3.4375 C 0.921875 -3.925781 0.6875 -4.59375 0.6875 -5.4375 C 0.6875 -6.257812 0.929688 -6.921875 1.421875 -7.421875 C 1.910156 -7.921875 2.5625 -8.171875 3.375 -8.171875 C 4.300781 -8.171875 5.003906 -7.8125 5.484375 -7.09375 C 5.972656 -6.382812 6.21875 -5.351562 6.21875 -4 C 6.21875 -2.738281 5.914062 -1.726562 5.3125 -0.96875 C 4.71875 -0.21875 3.914062 0.15625 2.90625 0.15625 C 2.632812 0.15625 2.359375 0.128906 2.078125 0.078125 C 1.796875 0.0234375 1.503906 -0.0546875 1.203125 -0.171875 Z M 3.375 -3.5625 C 3.851562 -3.5625 4.234375 -3.726562 4.515625 -4.0625 C 4.804688 -4.394531 4.953125 -4.851562 4.953125 -5.4375 C 4.953125 -6.007812 4.804688 -6.460938 4.515625 -6.796875 C 4.234375 -7.140625 3.851562 -7.3125 3.375 -7.3125 C 2.882812 -7.3125 2.492188 -7.140625 2.203125 -6.796875 C 1.921875 -6.460938 1.78125 -6.007812 1.78125 -5.4375 C 1.78125 -4.851562 1.921875 -4.394531 2.203125 -4.0625 C 2.492188 -3.726562 2.882812 -3.5625 3.375 -3.5625 Z M 3.375 -3.5625 "/>
</symbol>
<symbol overflow="visible" id="glyph2-0">
<path style="stroke:none;" d="M 0.546875 1.9375 L 0.546875 -7.75 L 6.046875 -7.75 L 6.046875 1.9375 Z M 1.171875 1.328125 L 5.4375 1.328125 L 5.4375 -7.140625 L 1.171875 -7.140625 Z M 1.171875 1.328125 "/>
</symbol>
<symbol overflow="visible" id="glyph2-1">
<path style="stroke:none;" d="M 4.671875 -6.671875 C 4.046875 -6.671875 3.554688 -6.4375 3.203125 -5.96875 C 2.859375 -5.5 2.6875 -4.84375 2.6875 -4 C 2.6875 -3.15625 2.859375 -2.5 3.203125 -2.03125 C 3.554688 -1.570312 4.046875 -1.34375 4.671875 -1.34375 C 5.304688 -1.34375 5.796875 -1.570312 6.140625 -2.03125 C 6.492188 -2.5 6.671875 -3.15625 6.671875 -4 C 6.671875 -4.84375 6.492188 -5.5 6.140625 -5.96875 C 5.796875 -6.4375 5.304688 -6.671875 4.671875 -6.671875 Z M 4.671875 -8.171875 C 5.960938 -8.171875 6.972656 -7.800781 7.703125 -7.0625 C 8.429688 -6.320312 8.796875 -5.300781 8.796875 -4 C 8.796875 -2.707031 8.429688 -1.691406 7.703125 -0.953125 C 6.972656 -0.210938 5.960938 0.15625 4.671875 0.15625 C 3.390625 0.15625 2.378906 -0.210938 1.640625 -0.953125 C 0.910156 -1.691406 0.546875 -2.707031 0.546875 -4 C 0.546875 -5.300781 0.910156 -6.320312 1.640625 -7.0625 C 2.378906 -7.800781 3.390625 -8.171875 4.671875 -8.171875 Z M 4.671875 -8.171875 "/>
</symbol>
<symbol overflow="visible" id="glyph2-2">
<path style="stroke:none;" d="M 5.390625 -4.375 C 5.222656 -4.457031 5.054688 -4.515625 4.890625 -4.546875 C 4.722656 -4.585938 4.554688 -4.609375 4.390625 -4.609375 C 3.890625 -4.609375 3.503906 -4.445312 3.234375 -4.125 C 2.972656 -3.8125 2.84375 -3.359375 2.84375 -2.765625 L 2.84375 0 L 0.921875 0 L 0.921875 -6.015625 L 2.84375 -6.015625 L 2.84375 -5.03125 C 3.09375 -5.425781 3.375 -5.710938 3.6875 -5.890625 C 4.007812 -6.066406 4.394531 -6.15625 4.84375 -6.15625 C 4.914062 -6.15625 4.988281 -6.148438 5.0625 -6.140625 C 5.132812 -6.140625 5.242188 -6.132812 5.390625 -6.125 Z M 5.390625 -4.375 "/>
</symbol>
<symbol overflow="visible" id="glyph2-3">
<path style="stroke:none;" d="M 3.03125 -7.71875 L 3.03125 -6.015625 L 5 -6.015625 L 5 -4.640625 L 3.03125 -4.640625 L 3.03125 -2.09375 C 3.03125 -1.8125 3.082031 -1.617188 3.1875 -1.515625 C 3.300781 -1.421875 3.519531 -1.375 3.84375 -1.375 L 4.84375 -1.375 L 4.84375 0 L 3.1875 0 C 2.425781 0 1.882812 -0.15625 1.5625 -0.46875 C 1.25 -0.789062 1.09375 -1.332031 1.09375 -2.09375 L 1.09375 -4.640625 L 0.140625 -4.640625 L 0.140625 -6.015625 L 1.09375 -6.015625 L 1.09375 -7.71875 Z M 3.03125 -7.71875 "/>
</symbol>
<symbol overflow="visible" id="glyph2-4">
<path style="stroke:none;" d="M 6.96875 -3.65625 L 6.96875 0 L 5.03125 0 L 5.03125 -2.796875 C 5.03125 -3.316406 5.019531 -3.675781 5 -3.875 C 4.976562 -4.070312 4.9375 -4.21875 4.875 -4.3125 C 4.800781 -4.4375 4.703125 -4.53125 4.578125 -4.59375 C 4.453125 -4.664062 4.304688 -4.703125 4.140625 -4.703125 C 3.734375 -4.703125 3.414062 -4.546875 3.1875 -4.234375 C 2.957031 -3.929688 2.84375 -3.503906 2.84375 -2.953125 L 2.84375 0 L 0.921875 0 L 0.921875 -8.359375 L 2.84375 -8.359375 L 2.84375 -5.140625 C 3.132812 -5.484375 3.441406 -5.738281 3.765625 -5.90625 C 4.097656 -6.070312 4.457031 -6.15625 4.84375 -6.15625 C 5.539062 -6.15625 6.066406 -5.941406 6.421875 -5.515625 C 6.785156 -5.085938 6.96875 -4.46875 6.96875 -3.65625 Z M 6.96875 -3.65625 "/>
</symbol>
<symbol overflow="visible" id="glyph2-5">
<path style="stroke:none;" d="M 3.78125 -4.78125 C 3.351562 -4.78125 3.023438 -4.628906 2.796875 -4.328125 C 2.578125 -4.023438 2.46875 -3.582031 2.46875 -3 C 2.46875 -2.425781 2.578125 -1.984375 2.796875 -1.671875 C 3.023438 -1.367188 3.351562 -1.21875 3.78125 -1.21875 C 4.207031 -1.21875 4.53125 -1.367188 4.75 -1.671875 C 4.96875 -1.984375 5.078125 -2.425781 5.078125 -3 C 5.078125 -3.582031 4.96875 -4.023438 4.75 -4.328125 C 4.53125 -4.628906 4.207031 -4.78125 3.78125 -4.78125 Z M 3.78125 -6.15625 C 4.820312 -6.15625 5.628906 -5.875 6.203125 -5.3125 C 6.785156 -4.757812 7.078125 -3.988281 7.078125 -3 C 7.078125 -2.007812 6.785156 -1.234375 6.203125 -0.671875 C 5.628906 -0.117188 4.820312 0.15625 3.78125 0.15625 C 2.75 0.15625 1.9375 -0.117188 1.34375 -0.671875 C 0.757812 -1.234375 0.46875 -2.007812 0.46875 -3 C 0.46875 -3.988281 0.757812 -4.757812 1.34375 -5.3125 C 1.9375 -5.875 2.75 -6.15625 3.78125 -6.15625 Z M 3.78125 -6.15625 "/>
</symbol>
<symbol overflow="visible" id="glyph2-6">
<path style="stroke:none;" d="M 0.921875 -8.359375 L 2.84375 -8.359375 L 2.84375 0 L 0.921875 0 Z M 0.921875 -8.359375 "/>
</symbol>
<symbol overflow="visible" id="glyph2-7">
<path style="stroke:none;" d="M 5.015625 -1.015625 C 4.753906 -0.671875 4.460938 -0.414062 4.140625 -0.25 C 3.816406 -0.0820312 3.445312 0 3.03125 0 C 2.300781 0 1.695312 -0.285156 1.21875 -0.859375 C 0.738281 -1.441406 0.5 -2.179688 0.5 -3.078125 C 0.5 -3.972656 0.738281 -4.707031 1.21875 -5.28125 C 1.695312 -5.863281 2.300781 -6.15625 3.03125 -6.15625 C 3.445312 -6.15625 3.816406 -6.070312 4.140625 -5.90625 C 4.460938 -5.738281 4.753906 -5.476562 5.015625 -5.125 L 5.015625 -6.015625 L 6.953125 -6.015625 L 6.953125 -0.609375 C 6.953125 0.359375 6.644531 1.097656 6.03125 1.609375 C 5.425781 2.117188 4.539062 2.375 3.375 2.375 C 3 2.375 2.632812 2.34375 2.28125 2.28125 C 1.9375 2.226562 1.585938 2.144531 1.234375 2.03125 L 1.234375 0.53125 C 1.566406 0.71875 1.894531 0.859375 2.21875 0.953125 C 2.539062 1.046875 2.863281 1.09375 3.1875 1.09375 C 3.820312 1.09375 4.285156 0.957031 4.578125 0.6875 C 4.867188 0.414062 5.015625 -0.015625 5.015625 -0.609375 Z M 3.75 -4.765625 C 3.351562 -4.765625 3.039062 -4.617188 2.8125 -4.328125 C 2.59375 -4.035156 2.484375 -3.617188 2.484375 -3.078125 C 2.484375 -2.523438 2.585938 -2.101562 2.796875 -1.8125 C 3.015625 -1.53125 3.332031 -1.390625 3.75 -1.390625 C 4.144531 -1.390625 4.453125 -1.535156 4.671875 -1.828125 C 4.898438 -2.128906 5.015625 -2.546875 5.015625 -3.078125 C 5.015625 -3.617188 4.898438 -4.035156 4.671875 -4.328125 C 4.453125 -4.617188 4.144531 -4.765625 3.75 -4.765625 Z M 3.75 -4.765625 "/>
</symbol>
<symbol overflow="visible" id="glyph2-8">
<path style="stroke:none;" d="M 5.625 -5.828125 L 5.625 -4.359375 C 5.207031 -4.535156 4.804688 -4.664062 4.421875 -4.75 C 4.046875 -4.832031 3.6875 -4.875 3.34375 -4.875 C 2.976562 -4.875 2.707031 -4.828125 2.53125 -4.734375 C 2.351562 -4.648438 2.265625 -4.515625 2.265625 -4.328125 C 2.265625 -4.171875 2.332031 -4.050781 2.46875 -3.96875 C 2.601562 -3.882812 2.84375 -3.820312 3.1875 -3.78125 L 3.53125 -3.734375 C 4.507812 -3.609375 5.171875 -3.398438 5.515625 -3.109375 C 5.859375 -2.828125 6.03125 -2.378906 6.03125 -1.765625 C 6.03125 -1.128906 5.789062 -0.648438 5.3125 -0.328125 C 4.84375 -0.00390625 4.140625 0.15625 3.203125 0.15625 C 2.804688 0.15625 2.394531 0.125 1.96875 0.0625 C 1.539062 0 1.101562 -0.09375 0.65625 -0.21875 L 0.65625 -1.6875 C 1.039062 -1.5 1.429688 -1.359375 1.828125 -1.265625 C 2.234375 -1.171875 2.644531 -1.125 3.0625 -1.125 C 3.4375 -1.125 3.71875 -1.175781 3.90625 -1.28125 C 4.101562 -1.382812 4.203125 -1.535156 4.203125 -1.734375 C 4.203125 -1.910156 4.132812 -2.039062 4 -2.125 C 3.875 -2.207031 3.613281 -2.273438 3.21875 -2.328125 L 2.890625 -2.359375 C 2.023438 -2.472656 1.421875 -2.671875 1.078125 -2.953125 C 0.734375 -3.242188 0.5625 -3.6875 0.5625 -4.28125 C 0.5625 -4.914062 0.78125 -5.382812 1.21875 -5.6875 C 1.65625 -6 2.328125 -6.15625 3.234375 -6.15625 C 3.585938 -6.15625 3.957031 -6.128906 4.34375 -6.078125 C 4.738281 -6.023438 5.164062 -5.941406 5.625 -5.828125 Z M 5.625 -5.828125 "/>
</symbol>
<symbol overflow="visible" id="glyph2-9">
<path style="stroke:none;" d=""/>
</symbol>
<symbol overflow="visible" id="glyph2-10">
<path style="stroke:none;" d="M 2.84375 -0.875 L 2.84375 2.28125 L 0.921875 2.28125 L 0.921875 -6.015625 L 2.84375 -6.015625 L 2.84375 -5.140625 C 3.113281 -5.484375 3.410156 -5.738281 3.734375 -5.90625 C 4.054688 -6.070312 4.425781 -6.15625 4.84375 -6.15625 C 5.582031 -6.15625 6.1875 -5.859375 6.65625 -5.265625 C 7.132812 -4.679688 7.375 -3.925781 7.375 -3 C 7.375 -2.070312 7.132812 -1.3125 6.65625 -0.71875 C 6.1875 -0.132812 5.582031 0.15625 4.84375 0.15625 C 4.425781 0.15625 4.054688 0.0703125 3.734375 -0.09375 C 3.410156 -0.257812 3.113281 -0.519531 2.84375 -0.875 Z M 4.125 -4.765625 C 3.707031 -4.765625 3.390625 -4.613281 3.171875 -4.3125 C 2.953125 -4.007812 2.84375 -3.570312 2.84375 -3 C 2.84375 -2.4375 2.953125 -2 3.171875 -1.6875 C 3.390625 -1.382812 3.707031 -1.234375 4.125 -1.234375 C 4.539062 -1.234375 4.851562 -1.382812 5.0625 -1.6875 C 5.28125 -1.988281 5.390625 -2.425781 5.390625 -3 C 5.390625 -3.570312 5.28125 -4.007812 5.0625 -4.3125 C 4.851562 -4.613281 4.539062 -4.765625 4.125 -4.765625 Z M 4.125 -4.765625 "/>
</symbol>
<symbol overflow="visible" id="glyph2-11">
<path style="stroke:none;" d="M 6.921875 -3.03125 L 6.921875 -2.46875 L 2.4375 -2.46875 C 2.476562 -2.019531 2.640625 -1.679688 2.921875 -1.453125 C 3.203125 -1.234375 3.59375 -1.125 4.09375 -1.125 C 4.5 -1.125 4.910156 -1.179688 5.328125 -1.296875 C 5.753906 -1.421875 6.191406 -1.601562 6.640625 -1.84375 L 6.640625 -0.359375 C 6.191406 -0.191406 5.738281 -0.0664062 5.28125 0.015625 C 4.820312 0.109375 4.367188 0.15625 3.921875 0.15625 C 2.828125 0.15625 1.976562 -0.117188 1.375 -0.671875 C 0.769531 -1.222656 0.46875 -2 0.46875 -3 C 0.46875 -3.976562 0.765625 -4.75 1.359375 -5.3125 C 1.953125 -5.875 2.769531 -6.15625 3.8125 -6.15625 C 4.75 -6.15625 5.5 -5.867188 6.0625 -5.296875 C 6.632812 -4.734375 6.921875 -3.976562 6.921875 -3.03125 Z M 4.953125 -3.65625 C 4.953125 -4.03125 4.84375 -4.328125 4.625 -4.546875 C 4.414062 -4.765625 4.140625 -4.875 3.796875 -4.875 C 3.421875 -4.875 3.117188 -4.769531 2.890625 -4.5625 C 2.660156 -4.351562 2.515625 -4.050781 2.453125 -3.65625 Z M 4.953125 -3.65625 "/>
</symbol>
<symbol overflow="visible" id="glyph2-12">
<path style="stroke:none;" d="M 6.96875 -3.65625 L 6.96875 0 L 5.03125 0 L 5.03125 -2.796875 C 5.03125 -3.316406 5.019531 -3.675781 5 -3.875 C 4.976562 -4.070312 4.9375 -4.21875 4.875 -4.3125 C 4.800781 -4.4375 4.703125 -4.53125 4.578125 -4.59375 C 4.453125 -4.664062 4.304688 -4.703125 4.140625 -4.703125 C 3.734375 -4.703125 3.414062 -4.546875 3.1875 -4.234375 C 2.957031 -3.929688 2.84375 -3.503906 2.84375 -2.953125 L 2.84375 0 L 0.921875 0 L 0.921875 -6.015625 L 2.84375 -6.015625 L 2.84375 -5.140625 C 3.132812 -5.484375 3.441406 -5.738281 3.765625 -5.90625 C 4.097656 -6.070312 4.457031 -6.15625 4.84375 -6.15625 C 5.539062 -6.15625 6.066406 -5.941406 6.421875 -5.515625 C 6.785156 -5.085938 6.96875 -4.46875 6.96875 -3.65625 Z M 6.96875 -3.65625 "/>
</symbol>
<symbol overflow="visible" id="glyph2-13">
<path style="stroke:none;" d="M 5.78125 -5.828125 L 5.78125 -4.265625 C 5.519531 -4.441406 5.257812 -4.570312 5 -4.65625 C 4.738281 -4.738281 4.460938 -4.78125 4.171875 -4.78125 C 3.640625 -4.78125 3.222656 -4.625 2.921875 -4.3125 C 2.617188 -4 2.46875 -3.5625 2.46875 -3 C 2.46875 -2.4375 2.617188 -2 2.921875 -1.6875 C 3.222656 -1.375 3.640625 -1.21875 4.171875 -1.21875 C 4.472656 -1.21875 4.757812 -1.257812 5.03125 -1.34375 C 5.300781 -1.4375 5.550781 -1.570312 5.78125 -1.75 L 5.78125 -0.171875 C 5.476562 -0.0664062 5.171875 0.0078125 4.859375 0.0625 C 4.554688 0.125 4.25 0.15625 3.9375 0.15625 C 2.851562 0.15625 2.003906 -0.117188 1.390625 -0.671875 C 0.773438 -1.234375 0.46875 -2.007812 0.46875 -3 C 0.46875 -3.988281 0.773438 -4.757812 1.390625 -5.3125 C 2.003906 -5.875 2.851562 -6.15625 3.9375 -6.15625 C 4.25 -6.15625 4.554688 -6.128906 4.859375 -6.078125 C 5.171875 -6.023438 5.476562 -5.941406 5.78125 -5.828125 Z M 5.78125 -5.828125 "/>
</symbol>
<symbol overflow="visible" id="glyph2-14">
<path style="stroke:none;" d="M 3.953125 -4.46875 C 4.378906 -4.46875 4.6875 -4.546875 4.875 -4.703125 C 5.0625 -4.867188 5.15625 -5.132812 5.15625 -5.5 C 5.15625 -5.863281 5.0625 -6.125 4.875 -6.28125 C 4.6875 -6.4375 4.378906 -6.515625 3.953125 -6.515625 L 3.078125 -6.515625 L 3.078125 -4.46875 Z M 3.078125 -3.03125 L 3.078125 0 L 1.015625 0 L 1.015625 -8.015625 L 4.171875 -8.015625 C 5.222656 -8.015625 5.992188 -7.835938 6.484375 -7.484375 C 6.984375 -7.128906 7.234375 -6.570312 7.234375 -5.8125 C 7.234375 -5.28125 7.101562 -4.84375 6.84375 -4.5 C 6.59375 -4.15625 6.207031 -3.90625 5.6875 -3.75 C 5.96875 -3.6875 6.21875 -3.539062 6.4375 -3.3125 C 6.664062 -3.082031 6.894531 -2.738281 7.125 -2.28125 L 8.25 0 L 6.046875 0 L 5.078125 -2 C 4.878906 -2.394531 4.675781 -2.664062 4.46875 -2.8125 C 4.269531 -2.957031 4 -3.03125 3.65625 -3.03125 Z M 3.078125 -3.03125 "/>
</symbol>
<symbol overflow="visible" id="glyph2-15">
<path style="stroke:none;" d="M 1.015625 -8.015625 L 3.3125 -8.015625 L 6.234375 -2.515625 L 6.234375 -8.015625 L 8.203125 -8.015625 L 8.203125 0 L 5.890625 0 L 2.96875 -5.5 L 2.96875 0 L 1.015625 0 Z M 1.015625 -8.015625 "/>
</symbol>
<symbol overflow="visible" id="glyph2-16">
<path style="stroke:none;" d="M 5.875 -1.46875 L 2.640625 -1.46875 L 2.125 0 L 0.046875 0 L 3.03125 -8.015625 L 5.484375 -8.015625 L 8.453125 0 L 6.375 0 Z M 3.15625 -2.953125 L 5.359375 -2.953125 L 4.265625 -6.140625 Z M 3.15625 -2.953125 "/>
</symbol>
<symbol overflow="visible" id="glyph3-0">
<path style="stroke:none;" d="M 1.9375 -0.546875 L -7.75 -0.546875 L -7.75 -6.046875 L 1.9375 -6.046875 Z M 1.328125 -1.171875 L 1.328125 -5.4375 L -7.140625 -5.4375 L -7.140625 -1.171875 Z M 1.328125 -1.171875 "/>
</symbol>
<symbol overflow="visible" id="glyph3-1">
<path style="stroke:none;" d="M -8.015625 -1.015625 L -8.015625 -4.4375 C -8.015625 -5.457031 -7.785156 -6.238281 -7.328125 -6.78125 C -6.878906 -7.332031 -6.238281 -7.609375 -5.40625 -7.609375 C -4.5625 -7.609375 -3.910156 -7.332031 -3.453125 -6.78125 C -3.003906 -6.238281 -2.78125 -5.457031 -2.78125 -4.4375 L -2.78125 -3.078125 L 0 -3.078125 L 0 -1.015625 Z M -6.515625 -3.078125 L -4.28125 -3.078125 L -4.28125 -4.21875 C -4.28125 -4.625 -4.375 -4.9375 -4.5625 -5.15625 C -4.757812 -5.375 -5.039062 -5.484375 -5.40625 -5.484375 C -5.757812 -5.484375 -6.03125 -5.375 -6.21875 -5.15625 C -6.414062 -4.9375 -6.515625 -4.625 -6.515625 -4.21875 Z M -6.515625 -3.078125 "/>
</symbol>
<symbol overflow="visible" id="glyph3-2">
<path style="stroke:none;" d="M -3.65625 -6.96875 L 0 -6.96875 L 0 -5.03125 L -2.796875 -5.03125 C -3.316406 -5.03125 -3.675781 -5.019531 -3.875 -5 C -4.070312 -4.976562 -4.21875 -4.9375 -4.3125 -4.875 C -4.4375 -4.800781 -4.53125 -4.703125 -4.59375 -4.578125 C -4.664062 -4.453125 -4.703125 -4.304688 -4.703125 -4.140625 C -4.703125 -3.734375 -4.546875 -3.414062 -4.234375 -3.1875 C -3.929688 -2.957031 -3.503906 -2.84375 -2.953125 -2.84375 L 0 -2.84375 L 0 -0.921875 L -8.359375 -0.921875 L -8.359375 -2.84375 L -5.140625 -2.84375 C -5.484375 -3.132812 -5.738281 -3.441406 -5.90625 -3.765625 C -6.070312 -4.097656 -6.15625 -4.457031 -6.15625 -4.84375 C -6.15625 -5.539062 -5.941406 -6.066406 -5.515625 -6.421875 C -5.085938 -6.785156 -4.46875 -6.96875 -3.65625 -6.96875 Z M -3.65625 -6.96875 "/>
</symbol>
<symbol overflow="visible" id="glyph3-3">
<path style="stroke:none;" d="M -2.703125 -3.625 C -2.703125 -3.21875 -2.632812 -2.910156 -2.5 -2.703125 C -2.363281 -2.503906 -2.164062 -2.40625 -1.90625 -2.40625 C -1.65625 -2.40625 -1.460938 -2.488281 -1.328125 -2.65625 C -1.191406 -2.820312 -1.125 -3.046875 -1.125 -3.328125 C -1.125 -3.691406 -1.253906 -4 -1.515625 -4.25 C -1.773438 -4.5 -2.097656 -4.625 -2.484375 -4.625 L -2.703125 -4.625 Z M -3.4375 -6.5625 L 0 -6.5625 L 0 -4.625 L -0.890625 -4.625 C -0.523438 -4.363281 -0.257812 -4.070312 -0.09375 -3.75 C 0.0703125 -3.425781 0.15625 -3.035156 0.15625 -2.578125 C 0.15625 -1.953125 -0.0234375 -1.441406 -0.390625 -1.046875 C -0.753906 -0.660156 -1.226562 -0.46875 -1.8125 -0.46875 C -2.507812 -0.46875 -3.019531 -0.707031 -3.34375 -1.1875 C -3.675781 -1.675781 -3.84375 -2.441406 -3.84375 -3.484375 L -3.84375 -4.625 L -4 -4.625 C -4.300781 -4.625 -4.519531 -4.503906 -4.65625 -4.265625 C -4.800781 -4.023438 -4.875 -3.648438 -4.875 -3.140625 C -4.875 -2.722656 -4.832031 -2.335938 -4.75 -1.984375 C -4.675781 -1.628906 -4.554688 -1.300781 -4.390625 -1 L -5.859375 -1 C -5.953125 -1.40625 -6.023438 -1.816406 -6.078125 -2.234375 C -6.128906 -2.648438 -6.15625 -3.066406 -6.15625 -3.484375 C -6.15625 -4.566406 -5.941406 -5.347656 -5.515625 -5.828125 C -5.085938 -6.316406 -4.394531 -6.5625 -3.4375 -6.5625 Z M -3.4375 -6.5625 "/>
</symbol>
<symbol overflow="visible" id="glyph3-4">
<path style="stroke:none;" d="M -5.828125 -5.625 L -4.359375 -5.625 C -4.535156 -5.207031 -4.664062 -4.804688 -4.75 -4.421875 C -4.832031 -4.046875 -4.875 -3.6875 -4.875 -3.34375 C -4.875 -2.976562 -4.828125 -2.707031 -4.734375 -2.53125 C -4.648438 -2.351562 -4.515625 -2.265625 -4.328125 -2.265625 C -4.171875 -2.265625 -4.050781 -2.332031 -3.96875 -2.46875 C -3.882812 -2.601562 -3.820312 -2.84375 -3.78125 -3.1875 L -3.734375 -3.53125 C -3.609375 -4.507812 -3.398438 -5.171875 -3.109375 -5.515625 C -2.828125 -5.859375 -2.378906 -6.03125 -1.765625 -6.03125 C -1.128906 -6.03125 -0.648438 -5.789062 -0.328125 -5.3125 C -0.00390625 -4.84375 0.15625 -4.140625 0.15625 -3.203125 C 0.15625 -2.804688 0.125 -2.394531 0.0625 -1.96875 C 0 -1.539062 -0.09375 -1.101562 -0.21875 -0.65625 L -1.6875 -0.65625 C -1.5 -1.039062 -1.359375 -1.429688 -1.265625 -1.828125 C -1.171875 -2.234375 -1.125 -2.644531 -1.125 -3.0625 C -1.125 -3.4375 -1.175781 -3.71875 -1.28125 -3.90625 C -1.382812 -4.101562 -1.535156 -4.203125 -1.734375 -4.203125 C -1.910156 -4.203125 -2.039062 -4.132812 -2.125 -4 C -2.207031 -3.875 -2.273438 -3.613281 -2.328125 -3.21875 L -2.359375 -2.890625 C -2.472656 -2.023438 -2.671875 -1.421875 -2.953125 -1.078125 C -3.242188 -0.734375 -3.6875 -0.5625 -4.28125 -0.5625 C -4.914062 -0.5625 -5.382812 -0.78125 -5.6875 -1.21875 C -6 -1.65625 -6.15625 -2.328125 -6.15625 -3.234375 C -6.15625 -3.585938 -6.128906 -3.957031 -6.078125 -4.34375 C -6.023438 -4.738281 -5.941406 -5.164062 -5.828125 -5.625 Z M -5.828125 -5.625 "/>
</symbol>
<symbol overflow="visible" id="glyph3-5">
<path style="stroke:none;" d="M -7.71875 -3.03125 L -6.015625 -3.03125 L -6.015625 -5 L -4.640625 -5 L -4.640625 -3.03125 L -2.09375 -3.03125 C -1.8125 -3.03125 -1.617188 -3.082031 -1.515625 -3.1875 C -1.421875 -3.300781 -1.375 -3.519531 -1.375 -3.84375 L -1.375 -4.84375 L 0 -4.84375 L 0 -3.1875 C 0 -2.425781 -0.15625 -1.882812 -0.46875 -1.5625 C -0.789062 -1.25 -1.332031 -1.09375 -2.09375 -1.09375 L -4.640625 -1.09375 L -4.640625 -0.140625 L -6.015625 -0.140625 L -6.015625 -1.09375 L -7.71875 -1.09375 Z M -7.71875 -3.03125 "/>
</symbol>
<symbol overflow="visible" id="glyph3-6">
<path style="stroke:none;" d="M -0.4375 -7.375 C -0.238281 -6.988281 -0.09375 -6.585938 0 -6.171875 C 0.101562 -5.765625 0.15625 -5.335938 0.15625 -4.890625 C 0.15625 -3.554688 -0.210938 -2.5 -0.953125 -1.71875 C -1.703125 -0.9375 -2.71875 -0.546875 -4 -0.546875 C -5.28125 -0.546875 -6.296875 -0.9375 -7.046875 -1.71875 C -7.796875 -2.5 -8.171875 -3.554688 -8.171875 -4.890625 C -8.171875 -5.335938 -8.117188 -5.765625 -8.015625 -6.171875 C -7.910156 -6.585938 -7.757812 -6.988281 -7.5625 -7.375 L -5.90625 -7.375 C -6.164062 -6.988281 -6.359375 -6.609375 -6.484375 -6.234375 C -6.609375 -5.859375 -6.671875 -5.46875 -6.671875 -5.0625 C -6.671875 -4.320312 -6.429688 -3.738281 -5.953125 -3.3125 C -5.484375 -2.894531 -4.832031 -2.6875 -4 -2.6875 C -3.175781 -2.6875 -2.523438 -2.894531 -2.046875 -3.3125 C -1.578125 -3.738281 -1.34375 -4.320312 -1.34375 -5.0625 C -1.34375 -5.46875 -1.398438 -5.859375 -1.515625 -6.234375 C -1.640625 -6.609375 -1.832031 -6.988281 -2.09375 -7.375 Z M -0.4375 -7.375 "/>
</symbol>
<symbol overflow="visible" id="glyph3-7">
<path style="stroke:none;" d="M -4.78125 -3.78125 C -4.78125 -3.351562 -4.628906 -3.023438 -4.328125 -2.796875 C -4.023438 -2.578125 -3.582031 -2.46875 -3 -2.46875 C -2.425781 -2.46875 -1.984375 -2.578125 -1.671875 -2.796875 C -1.367188 -3.023438 -1.21875 -3.351562 -1.21875 -3.78125 C -1.21875 -4.207031 -1.367188 -4.53125 -1.671875 -4.75 C -1.984375 -4.96875 -2.425781 -5.078125 -3 -5.078125 C -3.582031 -5.078125 -4.023438 -4.96875 -4.328125 -4.75 C -4.628906 -4.53125 -4.78125 -4.207031 -4.78125 -3.78125 Z M -6.15625 -3.78125 C -6.15625 -4.820312 -5.875 -5.628906 -5.3125 -6.203125 C -4.757812 -6.785156 -3.988281 -7.078125 -3 -7.078125 C -2.007812 -7.078125 -1.234375 -6.785156 -0.671875 -6.203125 C -0.117188 -5.628906 0.15625 -4.820312 0.15625 -3.78125 C 0.15625 -2.75 -0.117188 -1.9375 -0.671875 -1.34375 C -1.234375 -0.757812 -2.007812 -0.46875 -3 -0.46875 C -3.988281 -0.46875 -4.757812 -0.757812 -5.3125 -1.34375 C -5.875 -1.9375 -6.15625 -2.75 -6.15625 -3.78125 Z M -6.15625 -3.78125 "/>
</symbol>
<symbol overflow="visible" id="glyph3-8">
<path style="stroke:none;" d="M -3.65625 -6.96875 L 0 -6.96875 L 0 -5.03125 L -2.796875 -5.03125 C -3.316406 -5.03125 -3.675781 -5.019531 -3.875 -5 C -4.070312 -4.976562 -4.21875 -4.9375 -4.3125 -4.875 C -4.4375 -4.800781 -4.53125 -4.703125 -4.59375 -4.578125 C -4.664062 -4.453125 -4.703125 -4.304688 -4.703125 -4.140625 C -4.703125 -3.734375 -4.546875 -3.414062 -4.234375 -3.1875 C -3.929688 -2.957031 -3.503906 -2.84375 -2.953125 -2.84375 L 0 -2.84375 L 0 -0.921875 L -6.015625 -0.921875 L -6.015625 -2.84375 L -5.140625 -2.84375 C -5.484375 -3.132812 -5.738281 -3.441406 -5.90625 -3.765625 C -6.070312 -4.097656 -6.15625 -4.457031 -6.15625 -4.84375 C -6.15625 -5.539062 -5.941406 -6.066406 -5.515625 -6.421875 C -5.085938 -6.785156 -4.46875 -6.96875 -3.65625 -6.96875 Z M -3.65625 -6.96875 "/>
</symbol>
<symbol overflow="visible" id="glyph4-0">
<path style="stroke:none;" d="M 0.59375 2.125 L 0.59375 -8.46875 L 6.59375 -8.46875 L 6.59375 2.125 Z M 1.265625 1.453125 L 5.9375 1.453125 L 5.9375 -7.78125 L 1.265625 -7.78125 Z M 1.265625 1.453125 "/>
</symbol>
<symbol overflow="visible" id="glyph4-1">
<path style="stroke:none;" d="M 3.109375 -0.953125 L 3.109375 2.5 L 1.015625 2.5 L 1.015625 -6.5625 L 3.109375 -6.5625 L 3.109375 -5.609375 C 3.398438 -5.984375 3.71875 -6.257812 4.0625 -6.4375 C 4.414062 -6.625 4.820312 -6.71875 5.28125 -6.71875 C 6.09375 -6.71875 6.753906 -6.394531 7.265625 -5.75 C 7.785156 -5.113281 8.046875 -4.289062 8.046875 -3.28125 C 8.046875 -2.269531 7.785156 -1.441406 7.265625 -0.796875 C 6.753906 -0.148438 6.09375 0.171875 5.28125 0.171875 C 4.820312 0.171875 4.414062 0.0820312 4.0625 -0.09375 C 3.71875 -0.28125 3.398438 -0.566406 3.109375 -0.953125 Z M 4.5 -5.203125 C 4.050781 -5.203125 3.707031 -5.035156 3.46875 -4.703125 C 3.226562 -4.367188 3.109375 -3.894531 3.109375 -3.28125 C 3.109375 -2.65625 3.226562 -2.175781 3.46875 -1.84375 C 3.707031 -1.519531 4.050781 -1.359375 4.5 -1.359375 C 4.945312 -1.359375 5.289062 -1.519531 5.53125 -1.84375 C 5.769531 -2.175781 5.890625 -2.65625 5.890625 -3.28125 C 5.890625 -3.90625 5.769531 -4.378906 5.53125 -4.703125 C 5.289062 -5.035156 4.945312 -5.203125 4.5 -5.203125 Z M 4.5 -5.203125 "/>
</symbol>
<symbol overflow="visible" id="glyph4-2">
<path style="stroke:none;" d="M 5.890625 -4.78125 C 5.703125 -4.863281 5.515625 -4.925781 5.328125 -4.96875 C 5.148438 -5.007812 4.96875 -5.03125 4.78125 -5.03125 C 4.25 -5.03125 3.835938 -4.851562 3.546875 -4.5 C 3.253906 -4.15625 3.109375 -3.664062 3.109375 -3.03125 L 3.109375 0 L 1.015625 0 L 1.015625 -6.5625 L 3.109375 -6.5625 L 3.109375 -5.484375 C 3.378906 -5.910156 3.6875 -6.222656 4.03125 -6.421875 C 4.382812 -6.617188 4.804688 -6.71875 5.296875 -6.71875 C 5.359375 -6.71875 5.429688 -6.710938 5.515625 -6.703125 C 5.597656 -6.703125 5.71875 -6.691406 5.875 -6.671875 Z M 5.890625 -4.78125 "/>
</symbol>
<symbol overflow="visible" id="glyph4-3">
<path style="stroke:none;" d="M 4.125 -5.21875 C 3.664062 -5.21875 3.3125 -5.050781 3.0625 -4.71875 C 2.820312 -4.382812 2.703125 -3.90625 2.703125 -3.28125 C 2.703125 -2.644531 2.820312 -2.160156 3.0625 -1.828125 C 3.3125 -1.492188 3.664062 -1.328125 4.125 -1.328125 C 4.582031 -1.328125 4.929688 -1.492188 5.171875 -1.828125 C 5.421875 -2.160156 5.546875 -2.644531 5.546875 -3.28125 C 5.546875 -3.90625 5.421875 -4.382812 5.171875 -4.71875 C 4.929688 -5.050781 4.582031 -5.21875 4.125 -5.21875 Z M 4.125 -6.71875 C 5.257812 -6.71875 6.144531 -6.410156 6.78125 -5.796875 C 7.414062 -5.191406 7.734375 -4.351562 7.734375 -3.28125 C 7.734375 -2.195312 7.414062 -1.347656 6.78125 -0.734375 C 6.144531 -0.128906 5.257812 0.171875 4.125 0.171875 C 3 0.171875 2.113281 -0.128906 1.46875 -0.734375 C 0.832031 -1.347656 0.515625 -2.195312 0.515625 -3.28125 C 0.515625 -4.351562 0.832031 -5.191406 1.46875 -5.796875 C 2.113281 -6.410156 3 -6.71875 4.125 -6.71875 Z M 4.125 -6.71875 "/>
</symbol>
<symbol overflow="visible" id="glyph4-4">
<path style="stroke:none;" d="M 6.3125 -6.359375 L 6.3125 -4.640625 C 6.03125 -4.835938 5.742188 -4.984375 5.453125 -5.078125 C 5.160156 -5.171875 4.863281 -5.21875 4.5625 -5.21875 C 3.976562 -5.21875 3.519531 -5.046875 3.1875 -4.703125 C 2.863281 -4.367188 2.703125 -3.894531 2.703125 -3.28125 C 2.703125 -2.664062 2.863281 -2.1875 3.1875 -1.84375 C 3.519531 -1.5 3.976562 -1.328125 4.5625 -1.328125 C 4.882812 -1.328125 5.191406 -1.375 5.484375 -1.46875 C 5.785156 -1.570312 6.0625 -1.71875 6.3125 -1.90625 L 6.3125 -0.1875 C 5.976562 -0.0703125 5.644531 0.015625 5.3125 0.078125 C 4.976562 0.140625 4.640625 0.171875 4.296875 0.171875 C 3.109375 0.171875 2.179688 -0.128906 1.515625 -0.734375 C 0.847656 -1.347656 0.515625 -2.195312 0.515625 -3.28125 C 0.515625 -4.363281 0.847656 -5.207031 1.515625 -5.8125 C 2.179688 -6.414062 3.109375 -6.71875 4.296875 -6.71875 C 4.640625 -6.71875 4.976562 -6.6875 5.3125 -6.625 C 5.644531 -6.570312 5.976562 -6.484375 6.3125 -6.359375 Z M 6.3125 -6.359375 "/>
</symbol>
<symbol overflow="visible" id="glyph4-5">
<path style="stroke:none;" d="M 7.5625 -3.296875 L 7.5625 -2.703125 L 2.65625 -2.703125 C 2.707031 -2.210938 2.882812 -1.84375 3.1875 -1.59375 C 3.488281 -1.34375 3.914062 -1.21875 4.46875 -1.21875 C 4.90625 -1.21875 5.351562 -1.285156 5.8125 -1.421875 C 6.28125 -1.554688 6.757812 -1.753906 7.25 -2.015625 L 7.25 -0.40625 C 6.75 -0.21875 6.25 -0.078125 5.75 0.015625 C 5.257812 0.117188 4.765625 0.171875 4.265625 0.171875 C 3.078125 0.171875 2.15625 -0.128906 1.5 -0.734375 C 0.84375 -1.335938 0.515625 -2.1875 0.515625 -3.28125 C 0.515625 -4.34375 0.835938 -5.179688 1.484375 -5.796875 C 2.128906 -6.410156 3.019531 -6.71875 4.15625 -6.71875 C 5.1875 -6.71875 6.007812 -6.40625 6.625 -5.78125 C 7.25 -5.164062 7.5625 -4.335938 7.5625 -3.296875 Z M 5.40625 -4 C 5.40625 -4.394531 5.285156 -4.710938 5.046875 -4.953125 C 4.816406 -5.203125 4.515625 -5.328125 4.140625 -5.328125 C 3.734375 -5.328125 3.398438 -5.210938 3.140625 -4.984375 C 2.890625 -4.753906 2.734375 -4.425781 2.671875 -4 Z M 5.40625 -4 "/>
</symbol>
<symbol overflow="visible" id="glyph4-6">
<path style="stroke:none;" d="M 6.140625 -6.359375 L 6.140625 -4.765625 C 5.691406 -4.953125 5.253906 -5.09375 4.828125 -5.1875 C 4.410156 -5.28125 4.019531 -5.328125 3.65625 -5.328125 C 3.25 -5.328125 2.945312 -5.273438 2.75 -5.171875 C 2.5625 -5.078125 2.46875 -4.925781 2.46875 -4.71875 C 2.46875 -4.550781 2.539062 -4.421875 2.6875 -4.328125 C 2.832031 -4.242188 3.097656 -4.175781 3.484375 -4.125 L 3.84375 -4.078125 C 4.925781 -3.941406 5.648438 -3.71875 6.015625 -3.40625 C 6.390625 -3.09375 6.578125 -2.601562 6.578125 -1.9375 C 6.578125 -1.238281 6.316406 -0.710938 5.796875 -0.359375 C 5.285156 -0.00390625 4.519531 0.171875 3.5 0.171875 C 3.0625 0.171875 2.609375 0.132812 2.140625 0.0625 C 1.679688 0 1.207031 -0.0976562 0.71875 -0.234375 L 0.71875 -1.828125 C 1.132812 -1.628906 1.5625 -1.476562 2 -1.375 C 2.445312 -1.269531 2.894531 -1.21875 3.34375 -1.21875 C 3.757812 -1.21875 4.066406 -1.273438 4.265625 -1.390625 C 4.472656 -1.503906 4.578125 -1.675781 4.578125 -1.90625 C 4.578125 -2.09375 4.503906 -2.226562 4.359375 -2.3125 C 4.222656 -2.40625 3.941406 -2.476562 3.515625 -2.53125 L 3.140625 -2.578125 C 2.210938 -2.691406 1.5625 -2.90625 1.1875 -3.21875 C 0.8125 -3.539062 0.625 -4.023438 0.625 -4.671875 C 0.625 -5.367188 0.859375 -5.882812 1.328125 -6.21875 C 1.804688 -6.550781 2.539062 -6.71875 3.53125 -6.71875 C 3.914062 -6.71875 4.320312 -6.6875 4.75 -6.625 C 5.175781 -6.570312 5.640625 -6.484375 6.140625 -6.359375 Z M 6.140625 -6.359375 "/>
</symbol>
<symbol overflow="visible" id="glyph4-7">
<path style="stroke:none;" d="M 5.46875 -5.609375 L 5.46875 -9.125 L 7.578125 -9.125 L 7.578125 0 L 5.46875 0 L 5.46875 -0.953125 C 5.1875 -0.566406 4.867188 -0.28125 4.515625 -0.09375 C 4.171875 0.0820312 3.769531 0.171875 3.3125 0.171875 C 2.5 0.171875 1.832031 -0.148438 1.3125 -0.796875 C 0.800781 -1.441406 0.546875 -2.269531 0.546875 -3.28125 C 0.546875 -4.289062 0.800781 -5.113281 1.3125 -5.75 C 1.832031 -6.394531 2.5 -6.71875 3.3125 -6.71875 C 3.757812 -6.71875 4.160156 -6.625 4.515625 -6.4375 C 4.867188 -6.257812 5.1875 -5.984375 5.46875 -5.609375 Z M 4.09375 -1.359375 C 4.539062 -1.359375 4.878906 -1.519531 5.109375 -1.84375 C 5.347656 -2.175781 5.46875 -2.65625 5.46875 -3.28125 C 5.46875 -3.90625 5.347656 -4.378906 5.109375 -4.703125 C 4.878906 -5.035156 4.539062 -5.203125 4.09375 -5.203125 C 3.644531 -5.203125 3.300781 -5.035156 3.0625 -4.703125 C 2.832031 -4.378906 2.71875 -3.90625 2.71875 -3.28125 C 2.71875 -2.65625 2.832031 -2.175781 3.0625 -1.84375 C 3.300781 -1.519531 3.644531 -1.359375 4.09375 -1.359375 Z M 4.09375 -1.359375 "/>
</symbol>
<symbol overflow="visible" id="glyph4-8">
<path style="stroke:none;" d="M 6 1.71875 L 6 2.828125 L 0 2.828125 L 0 1.71875 Z M 6 1.71875 "/>
</symbol>
<symbol overflow="visible" id="glyph4-9">
<path style="stroke:none;" d="M 3.296875 -8.421875 L 3.296875 -6.5625 L 5.46875 -6.5625 L 5.46875 -5.0625 L 3.296875 -5.0625 L 3.296875 -2.28125 C 3.296875 -1.976562 3.351562 -1.769531 3.46875 -1.65625 C 3.59375 -1.550781 3.835938 -1.5 4.203125 -1.5 L 5.28125 -1.5 L 5.28125 0 L 3.484375 0 C 2.648438 0 2.0625 -0.171875 1.71875 -0.515625 C 1.375 -0.859375 1.203125 -1.445312 1.203125 -2.28125 L 1.203125 -5.0625 L 0.15625 -5.0625 L 0.15625 -6.5625 L 1.203125 -6.5625 L 1.203125 -8.421875 Z M 3.296875 -8.421875 "/>
</symbol>
<symbol overflow="visible" id="glyph4-10">
<path style="stroke:none;" d="M 3.953125 -2.953125 C 3.515625 -2.953125 3.179688 -2.878906 2.953125 -2.734375 C 2.734375 -2.585938 2.625 -2.367188 2.625 -2.078125 C 2.625 -1.804688 2.710938 -1.59375 2.890625 -1.4375 C 3.078125 -1.289062 3.328125 -1.21875 3.640625 -1.21875 C 4.035156 -1.21875 4.367188 -1.359375 4.640625 -1.640625 C 4.910156 -1.929688 5.046875 -2.289062 5.046875 -2.71875 L 5.046875 -2.953125 Z M 7.15625 -3.75 L 7.15625 0 L 5.046875 0 L 5.046875 -0.96875 C 4.765625 -0.570312 4.445312 -0.28125 4.09375 -0.09375 C 3.738281 0.0820312 3.3125 0.171875 2.8125 0.171875 C 2.125 0.171875 1.566406 -0.0234375 1.140625 -0.421875 C 0.722656 -0.816406 0.515625 -1.332031 0.515625 -1.96875 C 0.515625 -2.738281 0.78125 -3.300781 1.3125 -3.65625 C 1.84375 -4.019531 2.671875 -4.203125 3.796875 -4.203125 L 5.046875 -4.203125 L 5.046875 -4.359375 C 5.046875 -4.691406 4.910156 -4.9375 4.640625 -5.09375 C 4.378906 -5.25 3.972656 -5.328125 3.421875 -5.328125 C 2.972656 -5.328125 2.554688 -5.28125 2.171875 -5.1875 C 1.785156 -5.101562 1.425781 -4.96875 1.09375 -4.78125 L 1.09375 -6.390625 C 1.539062 -6.492188 1.988281 -6.570312 2.4375 -6.625 C 2.894531 -6.6875 3.347656 -6.71875 3.796875 -6.71875 C 4.984375 -6.71875 5.835938 -6.484375 6.359375 -6.015625 C 6.890625 -5.554688 7.15625 -4.800781 7.15625 -3.75 Z M 7.15625 -3.75 "/>
</symbol>
<symbol overflow="visible" id="glyph4-11">
<path style="stroke:none;" d="M 7.609375 -4 L 7.609375 0 L 5.5 0 L 5.5 -3.0625 C 5.5 -3.625 5.484375 -4.007812 5.453125 -4.21875 C 5.429688 -4.4375 5.390625 -4.597656 5.328125 -4.703125 C 5.242188 -4.835938 5.128906 -4.941406 4.984375 -5.015625 C 4.847656 -5.097656 4.691406 -5.140625 4.515625 -5.140625 C 4.078125 -5.140625 3.734375 -4.96875 3.484375 -4.625 C 3.234375 -4.289062 3.109375 -3.828125 3.109375 -3.234375 L 3.109375 0 L 1.015625 0 L 1.015625 -6.5625 L 3.109375 -6.5625 L 3.109375 -5.609375 C 3.421875 -5.984375 3.753906 -6.257812 4.109375 -6.4375 C 4.460938 -6.625 4.859375 -6.71875 5.296875 -6.71875 C 6.046875 -6.71875 6.617188 -6.484375 7.015625 -6.015625 C 7.410156 -5.554688 7.609375 -4.882812 7.609375 -4 Z M 7.609375 -4 "/>
</symbol>
<symbol overflow="visible" id="glyph4-12">
<path style="stroke:none;" d="M 1.015625 -6.5625 L 3.109375 -6.5625 L 3.109375 0 L 1.015625 0 Z M 1.015625 -9.125 L 3.109375 -9.125 L 3.109375 -7.40625 L 1.015625 -7.40625 Z M 1.015625 -9.125 "/>
</symbol>
<symbol overflow="visible" id="glyph4-13">
<path style="stroke:none;" d="M 1.34375 -6.5625 L 3.453125 -6.5625 L 3.453125 -4.296875 L 1.34375 -4.296875 Z M 1.34375 -2.265625 L 3.453125 -2.265625 L 3.453125 0 L 1.34375 0 Z M 1.34375 -2.265625 "/>
</symbol>
<symbol overflow="visible" id="glyph4-14">
<path style="stroke:none;" d="M 1.109375 -8.75 L 4.84375 -8.75 C 5.957031 -8.75 6.8125 -8.5 7.40625 -8 C 8 -7.507812 8.296875 -6.804688 8.296875 -5.890625 C 8.296875 -4.972656 8 -4.265625 7.40625 -3.765625 C 6.8125 -3.273438 5.957031 -3.03125 4.84375 -3.03125 L 3.359375 -3.03125 L 3.359375 0 L 1.109375 0 Z M 3.359375 -7.109375 L 3.359375 -4.671875 L 4.609375 -4.671875 C 5.046875 -4.671875 5.382812 -4.773438 5.625 -4.984375 C 5.863281 -5.203125 5.984375 -5.503906 5.984375 -5.890625 C 5.984375 -6.285156 5.863281 -6.585938 5.625 -6.796875 C 5.382812 -7.003906 5.046875 -7.109375 4.609375 -7.109375 Z M 3.359375 -7.109375 "/>
</symbol>
<symbol overflow="visible" id="glyph4-15">
<path style="stroke:none;" d="M 7.609375 -4 L 7.609375 0 L 5.5 0 L 5.5 -3.046875 C 5.5 -3.617188 5.484375 -4.007812 5.453125 -4.21875 C 5.429688 -4.4375 5.390625 -4.597656 5.328125 -4.703125 C 5.242188 -4.835938 5.128906 -4.941406 4.984375 -5.015625 C 4.847656 -5.097656 4.691406 -5.140625 4.515625 -5.140625 C 4.078125 -5.140625 3.734375 -4.96875 3.484375 -4.625 C 3.234375 -4.289062 3.109375 -3.828125 3.109375 -3.234375 L 3.109375 0 L 1.015625 0 L 1.015625 -9.125 L 3.109375 -9.125 L 3.109375 -5.609375 C 3.421875 -5.984375 3.753906 -6.257812 4.109375 -6.4375 C 4.460938 -6.625 4.859375 -6.71875 5.296875 -6.71875 C 6.046875 -6.71875 6.617188 -6.484375 7.015625 -6.015625 C 7.410156 -5.554688 7.609375 -4.882812 7.609375 -4 Z M 7.609375 -4 "/>
</symbol>
<symbol overflow="visible" id="glyph4-16">
<path style="stroke:none;" d="M 8.046875 -0.484375 C 7.628906 -0.265625 7.195312 -0.101562 6.75 0 C 6.300781 0.113281 5.832031 0.171875 5.34375 0.171875 C 3.882812 0.171875 2.726562 -0.234375 1.875 -1.046875 C 1.019531 -1.867188 0.59375 -2.972656 0.59375 -4.359375 C 0.59375 -5.765625 1.019531 -6.875 1.875 -7.6875 C 2.726562 -8.5 3.882812 -8.90625 5.34375 -8.90625 C 5.832031 -8.90625 6.300781 -8.847656 6.75 -8.734375 C 7.195312 -8.628906 7.628906 -8.46875 8.046875 -8.25 L 8.046875 -6.453125 C 7.617188 -6.734375 7.203125 -6.9375 6.796875 -7.0625 C 6.390625 -7.195312 5.960938 -7.265625 5.515625 -7.265625 C 4.710938 -7.265625 4.082031 -7.003906 3.625 -6.484375 C 3.164062 -5.972656 2.9375 -5.265625 2.9375 -4.359375 C 2.9375 -3.460938 3.164062 -2.753906 3.625 -2.234375 C 4.082031 -1.722656 4.710938 -1.46875 5.515625 -1.46875 C 5.960938 -1.46875 6.390625 -1.53125 6.796875 -1.65625 C 7.203125 -1.789062 7.617188 -2.003906 8.046875 -2.296875 Z M 8.046875 -0.484375 "/>
</symbol>
</g>
<clipPath id="clip1">
  <path d="M 45.890625 23.304688 L 895 23.304688 L 895 485 L 45.890625 485 Z M 45.890625 23.304688 "/>
</clipPath>
<clipPath id="clip2">
  <path d="M 45.890625 410 L 895 410 L 895 411 L 45.890625 411 Z M 45.890625 410 "/>
</clipPath>
<clipPath id="clip3">
  <path d="M 45.890625 300 L 895 300 L 895 301 L 45.890625 301 Z M 45.890625 300 "/>
</clipPath>
<clipPath id="clip4">
  <path d="M 45.890625 190 L 895 190 L 895 191 L 45.890625 191 Z M 45.890625 190 "/>
</clipPath>
<clipPath id="clip5">
  <path d="M 45.890625 80 L 895 80 L 895 81 L 45.890625 81 Z M 45.890625 80 "/>
</clipPath>
<clipPath id="clip6">
  <path d="M 45.890625 464 L 895.519531 464 L 895.519531 466 L 45.890625 466 Z M 45.890625 464 "/>
</clipPath>
<clipPath id="clip7">
  <path d="M 45.890625 354 L 895.519531 354 L 895.519531 356 L 45.890625 356 Z M 45.890625 354 "/>
</clipPath>
<clipPath id="clip8">
  <path d="M 45.890625 244 L 895.519531 244 L 895.519531 246 L 45.890625 246 Z M 45.890625 244 "/>
</clipPath>
<clipPath id="clip9">
  <path d="M 45.890625 134 L 895.519531 134 L 895.519531 136 L 45.890625 136 Z M 45.890625 134 "/>
</clipPath>
<clipPath id="clip10">
  <path d="M 45.890625 24 L 895.519531 24 L 895.519531 26 L 45.890625 26 Z M 45.890625 24 "/>
</clipPath>
<clipPath id="clip11">
  <path d="M 87 23.304688 L 89 23.304688 L 89 485.859375 L 87 485.859375 Z M 87 23.304688 "/>
</clipPath>
<clipPath id="clip12">
  <path d="M 156 23.304688 L 158 23.304688 L 158 485.859375 L 156 485.859375 Z M 156 23.304688 "/>
</clipPath>
<clipPath id="clip13">
  <path d="M 226 23.304688 L 228 23.304688 L 228 485.859375 L 226 485.859375 Z M 226 23.304688 "/>
</clipPath>
<clipPath id="clip14">
  <path d="M 295 23.304688 L 297 23.304688 L 297 485.859375 L 295 485.859375 Z M 295 23.304688 "/>
</clipPath>
<clipPath id="clip15">
  <path d="M 365 23.304688 L 367 23.304688 L 367 485.859375 L 365 485.859375 Z M 365 23.304688 "/>
</clipPath>
<clipPath id="clip16">
  <path d="M 434 23.304688 L 436 23.304688 L 436 485.859375 L 434 485.859375 Z M 434 23.304688 "/>
</clipPath>
<clipPath id="clip17">
  <path d="M 504 23.304688 L 506 23.304688 L 506 485.859375 L 504 485.859375 Z M 504 23.304688 "/>
</clipPath>
<clipPath id="clip18">
  <path d="M 574 23.304688 L 576 23.304688 L 576 485.859375 L 574 485.859375 Z M 574 23.304688 "/>
</clipPath>
<clipPath id="clip19">
  <path d="M 643 23.304688 L 645 23.304688 L 645 485.859375 L 643 485.859375 Z M 643 23.304688 "/>
</clipPath>
<clipPath id="clip20">
  <path d="M 713 23.304688 L 715 23.304688 L 715 485.859375 L 713 485.859375 Z M 713 23.304688 "/>
</clipPath>
<clipPath id="clip21">
  <path d="M 782 23.304688 L 784 23.304688 L 784 485.859375 L 782 485.859375 Z M 782 23.304688 "/>
</clipPath>
<clipPath id="clip22">
  <path d="M 852 23.304688 L 854 23.304688 L 854 485.859375 L 852 485.859375 Z M 852 23.304688 "/>
</clipPath>
</defs>
<g id="surface6919">
<rect x="0" y="0" width="900" height="521" style="fill:rgb(100%,100%,100%);fill-opacity:1;stroke:none;"/>
<rect x="0" y="0" width="900" height="521" style="fill:rgb(100%,100%,100%);fill-opacity:1;stroke:none;"/>
<path style="fill:none;stroke-width:1.066978;stroke-linecap:round;stroke-linejoin:round;stroke:rgb(100%,100%,100%);stroke-opacity:1;stroke-miterlimit:10;" d="M 0 521 L 900 521 L 900 0 L 0 0 Z M 0 521 "/>
<g clip-path="url(#clip1)" clip-rule="nonzero">
<path style=" stroke:none;fill-rule:nonzero;fill:rgb(92.156863%,92.156863%,92.156863%);fill-opacity:1;" d="M 45.890625 484.859375 L 894.519531 484.859375 L 894.519531 23.304688 L 45.890625 23.304688 Z M 45.890625 484.859375 "/>
</g>
<g clip-path="url(#clip2)" clip-rule="nonzero">
<path style="fill:none;stroke-width:0.533489;stroke-linecap:butt;stroke-linejoin:round;stroke:rgb(100%,100%,100%);stroke-opacity:1;stroke-miterlimit:10;" d="M 45.890625 410.375 L 894.519531 410.375 "/>
</g>
<g clip-path="url(#clip3)" clip-rule="nonzero">
<path style="fill:none;stroke-width:0.533489;stroke-linecap:butt;stroke-linejoin:round;stroke:rgb(100%,100%,100%);stroke-opacity:1;stroke-miterlimit:10;" d="M 45.890625 300.375 L 894.519531 300.375 "/>
</g>
<g clip-path="url(#clip4)" clip-rule="nonzero">
<path style="fill:none;stroke-width:0.533489;stroke-linecap:butt;stroke-linejoin:round;stroke:rgb(100%,100%,100%);stroke-opacity:1;stroke-miterlimit:10;" d="M 45.890625 190.375 L 894.519531 190.375 "/>
</g>
<g clip-path="url(#clip5)" clip-rule="nonzero">
<path style="fill:none;stroke-width:0.533489;stroke-linecap:butt;stroke-linejoin:round;stroke:rgb(100%,100%,100%);stroke-opacity:1;stroke-miterlimit:10;" d="M 45.890625 80.375 L 894.519531 80.375 "/>
</g>
<g clip-path="url(#clip6)" clip-rule="nonzero">
<path style="fill:none;stroke-width:1.066978;stroke-linecap:butt;stroke-linejoin:round;stroke:rgb(100%,100%,100%);stroke-opacity:1;stroke-miterlimit:10;" d="M 45.890625 465.378906 L 894.519531 465.378906 "/>
</g>
<g clip-path="url(#clip7)" clip-rule="nonzero">
<path style="fill:none;stroke-width:1.066978;stroke-linecap:butt;stroke-linejoin:round;stroke:rgb(100%,100%,100%);stroke-opacity:1;stroke-miterlimit:10;" d="M 45.890625 355.375 L 894.519531 355.375 "/>
</g>
<g clip-path="url(#clip8)" clip-rule="nonzero">
<path style="fill:none;stroke-width:1.066978;stroke-linecap:butt;stroke-linejoin:round;stroke:rgb(100%,100%,100%);stroke-opacity:1;stroke-miterlimit:10;" d="M 45.890625 245.375 L 894.519531 245.375 "/>
</g>
<g clip-path="url(#clip9)" clip-rule="nonzero">
<path style="fill:none;stroke-width:1.066978;stroke-linecap:butt;stroke-linejoin:round;stroke:rgb(100%,100%,100%);stroke-opacity:1;stroke-miterlimit:10;" d="M 45.890625 135.375 L 894.519531 135.375 "/>
</g>
<g clip-path="url(#clip10)" clip-rule="nonzero">
<path style="fill:none;stroke-width:1.066978;stroke-linecap:butt;stroke-linejoin:round;stroke:rgb(100%,100%,100%);stroke-opacity:1;stroke-miterlimit:10;" d="M 45.890625 25.375 L 894.519531 25.375 "/>
</g>
<g clip-path="url(#clip11)" clip-rule="nonzero">
<path style="fill:none;stroke-width:1.066978;stroke-linecap:butt;stroke-linejoin:round;stroke:rgb(100%,100%,100%);stroke-opacity:1;stroke-miterlimit:10;" d="M 87.625 484.859375 L 87.625 23.304688 "/>
</g>
<g clip-path="url(#clip12)" clip-rule="nonzero">
<path style="fill:none;stroke-width:1.066978;stroke-linecap:butt;stroke-linejoin:round;stroke:rgb(100%,100%,100%);stroke-opacity:1;stroke-miterlimit:10;" d="M 157.1875 484.859375 L 157.1875 23.304688 "/>
</g>
<g clip-path="url(#clip13)" clip-rule="nonzero">
<path style="fill:none;stroke-width:1.066978;stroke-linecap:butt;stroke-linejoin:round;stroke:rgb(100%,100%,100%);stroke-opacity:1;stroke-miterlimit:10;" d="M 226.746094 484.859375 L 226.746094 23.304688 "/>
</g>
<g clip-path="url(#clip14)" clip-rule="nonzero">
<path style="fill:none;stroke-width:1.066978;stroke-linecap:butt;stroke-linejoin:round;stroke:rgb(100%,100%,100%);stroke-opacity:1;stroke-miterlimit:10;" d="M 296.304688 484.859375 L 296.304688 23.304688 "/>
</g>
<g clip-path="url(#clip15)" clip-rule="nonzero">
<path style="fill:none;stroke-width:1.066978;stroke-linecap:butt;stroke-linejoin:round;stroke:rgb(100%,100%,100%);stroke-opacity:1;stroke-miterlimit:10;" d="M 365.867188 484.859375 L 365.867188 23.304688 "/>
</g>
<g clip-path="url(#clip16)" clip-rule="nonzero">
<path style="fill:none;stroke-width:1.066978;stroke-linecap:butt;stroke-linejoin:round;stroke:rgb(100%,100%,100%);stroke-opacity:1;stroke-miterlimit:10;" d="M 435.425781 484.859375 L 435.425781 23.304688 "/>
</g>
<g clip-path="url(#clip17)" clip-rule="nonzero">
<path style="fill:none;stroke-width:1.066978;stroke-linecap:butt;stroke-linejoin:round;stroke:rgb(100%,100%,100%);stroke-opacity:1;stroke-miterlimit:10;" d="M 504.984375 484.859375 L 504.984375 23.304688 "/>
</g>
<g clip-path="url(#clip18)" clip-rule="nonzero">
<path style="fill:none;stroke-width:1.066978;stroke-linecap:butt;stroke-linejoin:round;stroke:rgb(100%,100%,100%);stroke-opacity:1;stroke-miterlimit:10;" d="M 574.546875 484.859375 L 574.546875 23.304688 "/>
</g>
<g clip-path="url(#clip19)" clip-rule="nonzero">
<path style="fill:none;stroke-width:1.066978;stroke-linecap:butt;stroke-linejoin:round;stroke:rgb(100%,100%,100%);stroke-opacity:1;stroke-miterlimit:10;" d="M 644.105469 484.859375 L 644.105469 23.304688 "/>
</g>
<g clip-path="url(#clip20)" clip-rule="nonzero">
<path style="fill:none;stroke-width:1.066978;stroke-linecap:butt;stroke-linejoin:round;stroke:rgb(100%,100%,100%);stroke-opacity:1;stroke-miterlimit:10;" d="M 713.664062 484.859375 L 713.664062 23.304688 "/>
</g>
<g clip-path="url(#clip21)" clip-rule="nonzero">
<path style="fill:none;stroke-width:1.066978;stroke-linecap:butt;stroke-linejoin:round;stroke:rgb(100%,100%,100%);stroke-opacity:1;stroke-miterlimit:10;" d="M 783.226562 484.859375 L 783.226562 23.304688 "/>
</g>
<g clip-path="url(#clip22)" clip-rule="nonzero">
<path style="fill:none;stroke-width:1.066978;stroke-linecap:butt;stroke-linejoin:round;stroke:rgb(100%,100%,100%);stroke-opacity:1;stroke-miterlimit:10;" d="M 852.785156 484.859375 L 852.785156 23.304688 "/>
</g>
<path style="fill-rule:nonzero;fill:rgb(20%,20%,20%);fill-opacity:0.301961;stroke-width:0.708661;stroke-linecap:round;stroke-linejoin:round;stroke:rgb(20%,20%,20%);stroke-opacity:0.301961;stroke-miterlimit:10;" d="M 89.582031 127.644531 C 89.582031 130.25 85.671875 130.25 85.671875 127.644531 C 85.671875 125.035156 89.582031 125.035156 89.582031 127.644531 "/>
<path style="fill-rule:nonzero;fill:rgb(20%,20%,20%);fill-opacity:0.301961;stroke-width:0.708661;stroke-linecap:round;stroke-linejoin:round;stroke:rgb(20%,20%,20%);stroke-opacity:0.301961;stroke-miterlimit:10;" d="M 89.582031 138.867188 C 89.582031 141.472656 85.671875 141.472656 85.671875 138.867188 C 85.671875 136.257812 89.582031 136.257812 89.582031 138.867188 "/>
<path style="fill:none;stroke-width:1.066978;stroke-linecap:butt;stroke-linejoin:round;stroke:rgb(20%,20%,20%);stroke-opacity:1;stroke-miterlimit:10;" d="M 87.625 366.625 L 87.625 300.347656 "/>
<path style="fill:none;stroke-width:1.066978;stroke-linecap:butt;stroke-linejoin:round;stroke:rgb(20%,20%,20%);stroke-opacity:1;stroke-miterlimit:10;" d="M 87.625 429.933594 L 87.625 452.128906 "/>
<path style="fill-rule:nonzero;fill:rgb(7.45098%,16.862745%,26.27451%);fill-opacity:0.301961;stroke-width:1.066978;stroke-linecap:round;stroke-linejoin:round;stroke:rgb(20%,20%,20%);stroke-opacity:1;stroke-miterlimit:10;" d="M 61.542969 366.625 L 61.542969 429.933594 L 113.710938 429.933594 L 113.710938 366.625 Z M 61.542969 366.625 "/>
<path style="fill:none;stroke-width:2.133957;stroke-linecap:butt;stroke-linejoin:round;stroke:rgb(20%,20%,20%);stroke-opacity:1;stroke-miterlimit:10;" d="M 61.542969 403.988281 L 113.710938 403.988281 "/>
<path style="fill-rule:nonzero;fill:rgb(20%,20%,20%);fill-opacity:0.301961;stroke-width:0.708661;stroke-linecap:round;stroke-linejoin:round;stroke:rgb(20%,20%,20%);stroke-opacity:0.301961;stroke-miterlimit:10;" d="M 159.140625 297.671875 C 159.140625 300.28125 155.230469 300.28125 155.230469 297.671875 C 155.230469 295.066406 159.140625 295.066406 159.140625 297.671875 "/>
<path style="fill-rule:nonzero;fill:rgb(20%,20%,20%);fill-opacity:0.301961;stroke-width:0.708661;stroke-linecap:round;stroke-linejoin:round;stroke:rgb(20%,20%,20%);stroke-opacity:0.301961;stroke-miterlimit:10;" d="M 159.140625 298.738281 C 159.140625 301.34375 155.230469 301.34375 155.230469 298.738281 C 155.230469 296.132812 159.140625 296.132812 159.140625 298.738281 "/>
<path style="fill-rule:nonzero;fill:rgb(20%,20%,20%);fill-opacity:0.301961;stroke-width:0.708661;stroke-linecap:round;stroke-linejoin:round;stroke:rgb(20%,20%,20%);stroke-opacity:0.301961;stroke-miterlimit:10;" d="M 159.140625 344.199219 C 159.140625 346.804688 155.230469 346.804688 155.230469 344.199219 C 155.230469 341.59375 159.140625 341.59375 159.140625 344.199219 "/>
<path style="fill-rule:nonzero;fill:rgb(20%,20%,20%);fill-opacity:0.301961;stroke-width:0.708661;stroke-linecap:round;stroke-linejoin:round;stroke:rgb(20%,20%,20%);stroke-opacity:0.301961;stroke-miterlimit:10;" d="M 159.140625 326.253906 C 159.140625 328.863281 155.230469 328.863281 155.230469 326.253906 C 155.230469 323.648438 159.140625 323.648438 159.140625 326.253906 "/>
<path style="fill-rule:nonzero;fill:rgb(20%,20%,20%);fill-opacity:0.301961;stroke-width:0.708661;stroke-linecap:round;stroke-linejoin:round;stroke:rgb(20%,20%,20%);stroke-opacity:0.301961;stroke-miterlimit:10;" d="M 159.140625 325.980469 C 159.140625 328.585938 155.230469 328.585938 155.230469 325.980469 C 155.230469 323.375 159.140625 323.375 159.140625 325.980469 "/>
<path style="fill:none;stroke-width:1.066978;stroke-linecap:butt;stroke-linejoin:round;stroke:rgb(20%,20%,20%);stroke-opacity:1;stroke-miterlimit:10;" d="M 157.1875 400.628906 L 157.1875 357.828125 "/>
<path style="fill:none;stroke-width:1.066978;stroke-linecap:butt;stroke-linejoin:round;stroke:rgb(20%,20%,20%);stroke-opacity:1;stroke-miterlimit:10;" d="M 157.1875 434.425781 L 157.1875 463.003906 "/>
<path style="fill-rule:nonzero;fill:rgb(9.411765%,21.176471%,32.156863%);fill-opacity:0.301961;stroke-width:1.066978;stroke-linecap:round;stroke-linejoin:round;stroke:rgb(20%,20%,20%);stroke-opacity:1;stroke-miterlimit:10;" d="M 131.101562 400.628906 L 131.101562 434.425781 L 183.269531 434.425781 L 183.269531 400.628906 Z M 131.101562 400.628906 "/>
<path style="fill:none;stroke-width:2.133957;stroke-linecap:butt;stroke-linejoin:round;stroke:rgb(20%,20%,20%);stroke-opacity:1;stroke-miterlimit:10;" d="M 131.101562 419.335938 L 183.269531 419.335938 "/>
<path style="fill-rule:nonzero;fill:rgb(20%,20%,20%);fill-opacity:0.301961;stroke-width:0.708661;stroke-linecap:round;stroke-linejoin:round;stroke:rgb(20%,20%,20%);stroke-opacity:0.301961;stroke-miterlimit:10;" d="M 228.699219 228.363281 C 228.699219 230.96875 224.792969 230.96875 224.792969 228.363281 C 224.792969 225.757812 228.699219 225.757812 228.699219 228.363281 "/>
<path style="fill-rule:nonzero;fill:rgb(20%,20%,20%);fill-opacity:0.301961;stroke-width:0.708661;stroke-linecap:round;stroke-linejoin:round;stroke:rgb(20%,20%,20%);stroke-opacity:0.301961;stroke-miterlimit:10;" d="M 228.699219 44.285156 C 228.699219 46.890625 224.792969 46.890625 224.792969 44.285156 C 224.792969 41.679688 228.699219 41.679688 228.699219 44.285156 "/>
<path style="fill-rule:nonzero;fill:rgb(20%,20%,20%);fill-opacity:0.301961;stroke-width:0.708661;stroke-linecap:round;stroke-linejoin:round;stroke:rgb(20%,20%,20%);stroke-opacity:0.301961;stroke-miterlimit:10;" d="M 228.699219 237.570312 C 228.699219 240.175781 224.792969 240.175781 224.792969 237.570312 C 224.792969 234.964844 228.699219 234.964844 228.699219 237.570312 "/>
<path style="fill-rule:nonzero;fill:rgb(20%,20%,20%);fill-opacity:0.301961;stroke-width:0.708661;stroke-linecap:round;stroke-linejoin:round;stroke:rgb(20%,20%,20%);stroke-opacity:0.301961;stroke-miterlimit:10;" d="M 228.699219 297.363281 C 228.699219 299.96875 224.792969 299.96875 224.792969 297.363281 C 224.792969 294.753906 228.699219 294.753906 228.699219 297.363281 "/>
<path style="fill-rule:nonzero;fill:rgb(20%,20%,20%);fill-opacity:0.301961;stroke-width:0.708661;stroke-linecap:round;stroke-linejoin:round;stroke:rgb(20%,20%,20%);stroke-opacity:0.301961;stroke-miterlimit:10;" d="M 228.699219 305.425781 C 228.699219 308.03125 224.792969 308.03125 224.792969 305.425781 C 224.792969 302.820312 228.699219 302.820312 228.699219 305.425781 "/>
<path style="fill-rule:nonzero;fill:rgb(20%,20%,20%);fill-opacity:0.301961;stroke-width:0.708661;stroke-linecap:round;stroke-linejoin:round;stroke:rgb(20%,20%,20%);stroke-opacity:0.301961;stroke-miterlimit:10;" d="M 228.699219 315.179688 C 228.699219 317.785156 224.792969 317.785156 224.792969 315.179688 C 224.792969 312.574219 228.699219 312.574219 228.699219 315.179688 "/>
<path style="fill-rule:nonzero;fill:rgb(20%,20%,20%);fill-opacity:0.301961;stroke-width:0.708661;stroke-linecap:round;stroke-linejoin:round;stroke:rgb(20%,20%,20%);stroke-opacity:0.301961;stroke-miterlimit:10;" d="M 228.699219 208.613281 C 228.699219 211.21875 224.792969 211.21875 224.792969 208.613281 C 224.792969 206.003906 228.699219 206.003906 228.699219 208.613281 "/>
<path style="fill:none;stroke-width:1.066978;stroke-linecap:butt;stroke-linejoin:round;stroke:rgb(20%,20%,20%);stroke-opacity:1;stroke-miterlimit:10;" d="M 226.746094 393.960938 L 226.746094 327.542969 "/>
<path style="fill:none;stroke-width:1.066978;stroke-linecap:butt;stroke-linejoin:round;stroke:rgb(20%,20%,20%);stroke-opacity:1;stroke-miterlimit:10;" d="M 226.746094 440.300781 L 226.746094 458.992188 "/>
<path style="fill-rule:nonzero;fill:rgb(11.764706%,25.490196%,37.647059%);fill-opacity:0.301961;stroke-width:1.066978;stroke-linecap:round;stroke-linejoin:round;stroke:rgb(20%,20%,20%);stroke-opacity:1;stroke-miterlimit:10;" d="M 200.660156 393.960938 L 200.660156 440.300781 L 252.832031 440.300781 L 252.832031 393.960938 Z M 200.660156 393.960938 "/>
<path style="fill:none;stroke-width:2.133957;stroke-linecap:butt;stroke-linejoin:round;stroke:rgb(20%,20%,20%);stroke-opacity:1;stroke-miterlimit:10;" d="M 200.660156 430.328125 L 252.832031 430.328125 "/>
<path style="fill-rule:nonzero;fill:rgb(20%,20%,20%);fill-opacity:0.301961;stroke-width:0.708661;stroke-linecap:round;stroke-linejoin:round;stroke:rgb(20%,20%,20%);stroke-opacity:0.301961;stroke-miterlimit:10;" d="M 298.261719 254.75 C 298.261719 257.355469 294.351562 257.355469 294.351562 254.75 C 294.351562 252.140625 298.261719 252.140625 298.261719 254.75 "/>
<path style="fill-rule:nonzero;fill:rgb(20%,20%,20%);fill-opacity:0.301961;stroke-width:0.708661;stroke-linecap:round;stroke-linejoin:round;stroke:rgb(20%,20%,20%);stroke-opacity:0.301961;stroke-miterlimit:10;" d="M 298.261719 287.597656 C 298.261719 290.203125 294.351562 290.203125 294.351562 287.597656 C 294.351562 284.992188 298.261719 284.992188 298.261719 287.597656 "/>
<path style="fill-rule:nonzero;fill:rgb(20%,20%,20%);fill-opacity:0.301961;stroke-width:0.708661;stroke-linecap:round;stroke-linejoin:round;stroke:rgb(20%,20%,20%);stroke-opacity:0.301961;stroke-miterlimit:10;" d="M 298.261719 282.332031 C 298.261719 284.941406 294.351562 284.941406 294.351562 282.332031 C 294.351562 279.726562 298.261719 279.726562 298.261719 282.332031 "/>
<path style="fill-rule:nonzero;fill:rgb(20%,20%,20%);fill-opacity:0.301961;stroke-width:0.708661;stroke-linecap:round;stroke-linejoin:round;stroke:rgb(20%,20%,20%);stroke-opacity:0.301961;stroke-miterlimit:10;" d="M 298.261719 167.488281 C 298.261719 170.097656 294.351562 170.097656 294.351562 167.488281 C 294.351562 164.882812 298.261719 164.882812 298.261719 167.488281 "/>
<path style="fill-rule:nonzero;fill:rgb(20%,20%,20%);fill-opacity:0.301961;stroke-width:0.708661;stroke-linecap:round;stroke-linejoin:round;stroke:rgb(20%,20%,20%);stroke-opacity:0.301961;stroke-miterlimit:10;" d="M 298.261719 276.785156 C 298.261719 279.390625 294.351562 279.390625 294.351562 276.785156 C 294.351562 274.179688 298.261719 274.179688 298.261719 276.785156 "/>
<path style="fill-rule:nonzero;fill:rgb(20%,20%,20%);fill-opacity:0.301961;stroke-width:0.708661;stroke-linecap:round;stroke-linejoin:round;stroke:rgb(20%,20%,20%);stroke-opacity:0.301961;stroke-miterlimit:10;" d="M 298.261719 120.484375 C 298.261719 123.089844 294.351562 123.089844 294.351562 120.484375 C 294.351562 117.878906 298.261719 117.878906 298.261719 120.484375 "/>
<path style="fill-rule:nonzero;fill:rgb(20%,20%,20%);fill-opacity:0.301961;stroke-width:0.708661;stroke-linecap:round;stroke-linejoin:round;stroke:rgb(20%,20%,20%);stroke-opacity:0.301961;stroke-miterlimit:10;" d="M 298.261719 173.289062 C 298.261719 175.894531 294.351562 175.894531 294.351562 173.289062 C 294.351562 170.679688 298.261719 170.679688 298.261719 173.289062 "/>
<path style="fill-rule:nonzero;fill:rgb(20%,20%,20%);fill-opacity:0.301961;stroke-width:0.708661;stroke-linecap:round;stroke-linejoin:round;stroke:rgb(20%,20%,20%);stroke-opacity:0.301961;stroke-miterlimit:10;" d="M 298.261719 255.65625 C 298.261719 258.261719 294.351562 258.261719 294.351562 255.65625 C 294.351562 253.046875 298.261719 253.046875 298.261719 255.65625 "/>
<path style="fill-rule:nonzero;fill:rgb(20%,20%,20%);fill-opacity:0.301961;stroke-width:0.708661;stroke-linecap:round;stroke-linejoin:round;stroke:rgb(20%,20%,20%);stroke-opacity:0.301961;stroke-miterlimit:10;" d="M 298.261719 169.410156 C 298.261719 172.019531 294.351562 172.019531 294.351562 169.410156 C 294.351562 166.804688 298.261719 166.804688 298.261719 169.410156 "/>
<path style="fill:none;stroke-width:1.066978;stroke-linecap:butt;stroke-linejoin:round;stroke:rgb(20%,20%,20%);stroke-opacity:1;stroke-miterlimit:10;" d="M 296.304688 386.460938 L 296.304688 321.460938 "/>
<path style="fill:none;stroke-width:1.066978;stroke-linecap:butt;stroke-linejoin:round;stroke:rgb(20%,20%,20%);stroke-opacity:1;stroke-miterlimit:10;" d="M 296.304688 442.851562 L 296.304688 463.246094 "/>
<path style="fill-rule:nonzero;fill:rgb(14.117647%,29.803922%,43.921569%);fill-opacity:0.301961;stroke-width:1.066978;stroke-linecap:round;stroke-linejoin:round;stroke:rgb(20%,20%,20%);stroke-opacity:1;stroke-miterlimit:10;" d="M 270.222656 386.460938 L 270.222656 442.851562 L 322.390625 442.851562 L 322.390625 386.460938 Z M 270.222656 386.460938 "/>
<path style="fill:none;stroke-width:2.133957;stroke-linecap:butt;stroke-linejoin:round;stroke:rgb(20%,20%,20%);stroke-opacity:1;stroke-miterlimit:10;" d="M 270.222656 423.628906 L 322.390625 423.628906 "/>
<path style="fill-rule:nonzero;fill:rgb(20%,20%,20%);fill-opacity:0.301961;stroke-width:0.708661;stroke-linecap:round;stroke-linejoin:round;stroke:rgb(20%,20%,20%);stroke-opacity:0.301961;stroke-miterlimit:10;" d="M 367.820312 319.835938 C 367.820312 322.441406 363.910156 322.441406 363.910156 319.835938 C 363.910156 317.230469 367.820312 317.230469 367.820312 319.835938 "/>
<path style="fill-rule:nonzero;fill:rgb(20%,20%,20%);fill-opacity:0.301961;stroke-width:0.708661;stroke-linecap:round;stroke-linejoin:round;stroke:rgb(20%,20%,20%);stroke-opacity:0.301961;stroke-miterlimit:10;" d="M 367.820312 309.3125 C 367.820312 311.917969 363.910156 311.917969 363.910156 309.3125 C 363.910156 306.707031 367.820312 306.707031 367.820312 309.3125 "/>
<path style="fill-rule:nonzero;fill:rgb(20%,20%,20%);fill-opacity:0.301961;stroke-width:0.708661;stroke-linecap:round;stroke-linejoin:round;stroke:rgb(20%,20%,20%);stroke-opacity:0.301961;stroke-miterlimit:10;" d="M 367.820312 288.589844 C 367.820312 291.199219 363.910156 291.199219 363.910156 288.589844 C 363.910156 285.984375 367.820312 285.984375 367.820312 288.589844 "/>
<path style="fill-rule:nonzero;fill:rgb(20%,20%,20%);fill-opacity:0.301961;stroke-width:0.708661;stroke-linecap:round;stroke-linejoin:round;stroke:rgb(20%,20%,20%);stroke-opacity:0.301961;stroke-miterlimit:10;" d="M 367.820312 86.230469 C 367.820312 88.835938 363.910156 88.835938 363.910156 86.230469 C 363.910156 83.625 367.820312 83.625 367.820312 86.230469 "/>
<path style="fill-rule:nonzero;fill:rgb(20%,20%,20%);fill-opacity:0.301961;stroke-width:0.708661;stroke-linecap:round;stroke-linejoin:round;stroke:rgb(20%,20%,20%);stroke-opacity:0.301961;stroke-miterlimit:10;" d="M 367.820312 316.84375 C 367.820312 319.449219 363.910156 319.449219 363.910156 316.84375 C 363.910156 314.238281 367.820312 314.238281 367.820312 316.84375 "/>
<path style="fill-rule:nonzero;fill:rgb(20%,20%,20%);fill-opacity:0.301961;stroke-width:0.708661;stroke-linecap:round;stroke-linejoin:round;stroke:rgb(20%,20%,20%);stroke-opacity:0.301961;stroke-miterlimit:10;" d="M 367.820312 281.453125 C 367.820312 284.0625 363.910156 284.0625 363.910156 281.453125 C 363.910156 278.847656 367.820312 278.847656 367.820312 281.453125 "/>
<path style="fill:none;stroke-width:1.066978;stroke-linecap:butt;stroke-linejoin:round;stroke:rgb(20%,20%,20%);stroke-opacity:1;stroke-miterlimit:10;" d="M 365.867188 398.332031 L 365.867188 363.175781 "/>
<path style="fill:none;stroke-width:1.066978;stroke-linecap:butt;stroke-linejoin:round;stroke:rgb(20%,20%,20%);stroke-opacity:1;stroke-miterlimit:10;" d="M 365.867188 440.328125 L 365.867188 463.179688 "/>
<path style="fill-rule:nonzero;fill:rgb(16.470588%,34.509804%,50.196078%);fill-opacity:0.301961;stroke-width:1.066978;stroke-linecap:round;stroke-linejoin:round;stroke:rgb(20%,20%,20%);stroke-opacity:1;stroke-miterlimit:10;" d="M 339.78125 398.332031 L 339.78125 440.328125 L 391.949219 440.328125 L 391.949219 398.332031 Z M 339.78125 398.332031 "/>
<path style="fill:none;stroke-width:2.133957;stroke-linecap:butt;stroke-linejoin:round;stroke:rgb(20%,20%,20%);stroke-opacity:1;stroke-miterlimit:10;" d="M 339.78125 421.261719 L 391.949219 421.261719 "/>
<path style="fill-rule:nonzero;fill:rgb(20%,20%,20%);fill-opacity:0.301961;stroke-width:0.708661;stroke-linecap:round;stroke-linejoin:round;stroke:rgb(20%,20%,20%);stroke-opacity:0.301961;stroke-miterlimit:10;" d="M 437.378906 283.703125 C 437.378906 286.308594 433.472656 286.308594 433.472656 283.703125 C 433.472656 281.09375 437.378906 281.09375 437.378906 283.703125 "/>
<path style="fill-rule:nonzero;fill:rgb(20%,20%,20%);fill-opacity:0.301961;stroke-width:0.708661;stroke-linecap:round;stroke-linejoin:round;stroke:rgb(20%,20%,20%);stroke-opacity:0.301961;stroke-miterlimit:10;" d="M 437.378906 57.695312 C 437.378906 60.300781 433.472656 60.300781 433.472656 57.695312 C 433.472656 55.089844 437.378906 55.089844 437.378906 57.695312 "/>
<path style="fill-rule:nonzero;fill:rgb(20%,20%,20%);fill-opacity:0.301961;stroke-width:0.708661;stroke-linecap:round;stroke-linejoin:round;stroke:rgb(20%,20%,20%);stroke-opacity:0.301961;stroke-miterlimit:10;" d="M 437.378906 54.101562 C 437.378906 56.707031 433.472656 56.707031 433.472656 54.101562 C 433.472656 51.496094 437.378906 51.496094 437.378906 54.101562 "/>
<path style="fill-rule:nonzero;fill:rgb(20%,20%,20%);fill-opacity:0.301961;stroke-width:0.708661;stroke-linecap:round;stroke-linejoin:round;stroke:rgb(20%,20%,20%);stroke-opacity:0.301961;stroke-miterlimit:10;" d="M 437.378906 254.632812 C 437.378906 257.238281 433.472656 257.238281 433.472656 254.632812 C 433.472656 252.027344 437.378906 252.027344 437.378906 254.632812 "/>
<path style="fill:none;stroke-width:1.066978;stroke-linecap:butt;stroke-linejoin:round;stroke:rgb(20%,20%,20%);stroke-opacity:1;stroke-miterlimit:10;" d="M 435.425781 386.21875 L 435.425781 314.5 "/>
<path style="fill:none;stroke-width:1.066978;stroke-linecap:butt;stroke-linejoin:round;stroke:rgb(20%,20%,20%);stroke-opacity:1;stroke-miterlimit:10;" d="M 435.425781 442.503906 L 435.425781 460.082031 "/>
<path style="fill-rule:nonzero;fill:rgb(18.823529%,39.215686%,56.470588%);fill-opacity:0.301961;stroke-width:1.066978;stroke-linecap:round;stroke-linejoin:round;stroke:rgb(20%,20%,20%);stroke-opacity:1;stroke-miterlimit:10;" d="M 409.339844 386.21875 L 409.339844 442.503906 L 461.511719 442.503906 L 461.511719 386.21875 Z M 409.339844 386.21875 "/>
<path style="fill:none;stroke-width:2.133957;stroke-linecap:butt;stroke-linejoin:round;stroke:rgb(20%,20%,20%);stroke-opacity:1;stroke-miterlimit:10;" d="M 409.339844 426.542969 L 461.511719 426.542969 "/>
<path style="fill-rule:nonzero;fill:rgb(20%,20%,20%);fill-opacity:0.301961;stroke-width:0.708661;stroke-linecap:round;stroke-linejoin:round;stroke:rgb(20%,20%,20%);stroke-opacity:0.301961;stroke-miterlimit:10;" d="M 506.941406 234.800781 C 506.941406 237.410156 503.03125 237.410156 503.03125 234.800781 C 503.03125 232.195312 506.941406 232.195312 506.941406 234.800781 "/>
<path style="fill-rule:nonzero;fill:rgb(20%,20%,20%);fill-opacity:0.301961;stroke-width:0.708661;stroke-linecap:round;stroke-linejoin:round;stroke:rgb(20%,20%,20%);stroke-opacity:0.301961;stroke-miterlimit:10;" d="M 506.941406 256.8125 C 506.941406 259.421875 503.03125 259.421875 503.03125 256.8125 C 503.03125 254.207031 506.941406 254.207031 506.941406 256.8125 "/>
<path style="fill-rule:nonzero;fill:rgb(20%,20%,20%);fill-opacity:0.301961;stroke-width:0.708661;stroke-linecap:round;stroke-linejoin:round;stroke:rgb(20%,20%,20%);stroke-opacity:0.301961;stroke-miterlimit:10;" d="M 506.941406 298.671875 C 506.941406 301.277344 503.03125 301.277344 503.03125 298.671875 C 503.03125 296.0625 506.941406 296.0625 506.941406 298.671875 "/>
<path style="fill:none;stroke-width:1.066978;stroke-linecap:butt;stroke-linejoin:round;stroke:rgb(20%,20%,20%);stroke-opacity:1;stroke-miterlimit:10;" d="M 504.984375 387.488281 L 504.984375 317.066406 "/>
<path style="fill:none;stroke-width:1.066978;stroke-linecap:butt;stroke-linejoin:round;stroke:rgb(20%,20%,20%);stroke-opacity:1;stroke-miterlimit:10;" d="M 504.984375 437.796875 L 504.984375 463.6875 "/>
<path style="fill-rule:nonzero;fill:rgb(21.176471%,43.921569%,62.745098%);fill-opacity:0.301961;stroke-width:1.066978;stroke-linecap:round;stroke-linejoin:round;stroke:rgb(20%,20%,20%);stroke-opacity:1;stroke-miterlimit:10;" d="M 478.902344 387.488281 L 478.902344 437.796875 L 531.070312 437.796875 L 531.070312 387.488281 Z M 478.902344 387.488281 "/>
<path style="fill:none;stroke-width:2.133957;stroke-linecap:butt;stroke-linejoin:round;stroke:rgb(20%,20%,20%);stroke-opacity:1;stroke-miterlimit:10;" d="M 478.902344 414.0625 L 531.070312 414.0625 "/>
<path style="fill-rule:nonzero;fill:rgb(20%,20%,20%);fill-opacity:0.301961;stroke-width:0.708661;stroke-linecap:round;stroke-linejoin:round;stroke:rgb(20%,20%,20%);stroke-opacity:0.301961;stroke-miterlimit:10;" d="M 576.5 292.910156 C 576.5 295.515625 572.589844 295.515625 572.589844 292.910156 C 572.589844 290.304688 576.5 290.304688 576.5 292.910156 "/>
<path style="fill:none;stroke-width:1.066978;stroke-linecap:butt;stroke-linejoin:round;stroke:rgb(20%,20%,20%);stroke-opacity:1;stroke-miterlimit:10;" d="M 574.546875 401.671875 L 574.546875 385.246094 "/>
<path style="fill:none;stroke-width:1.066978;stroke-linecap:butt;stroke-linejoin:round;stroke:rgb(20%,20%,20%);stroke-opacity:1;stroke-miterlimit:10;" d="M 574.546875 434.992188 L 574.546875 461.648438 "/>
<path style="fill-rule:nonzero;fill:rgb(23.529412%,49.019608%,69.411765%);fill-opacity:0.301961;stroke-width:1.066978;stroke-linecap:round;stroke-linejoin:round;stroke:rgb(20%,20%,20%);stroke-opacity:1;stroke-miterlimit:10;" d="M 548.460938 401.671875 L 548.460938 434.992188 L 600.628906 434.992188 L 600.628906 401.671875 Z M 548.460938 401.671875 "/>
<path style="fill:none;stroke-width:2.133957;stroke-linecap:butt;stroke-linejoin:round;stroke:rgb(20%,20%,20%);stroke-opacity:1;stroke-miterlimit:10;" d="M 548.460938 418.429688 L 600.628906 418.429688 "/>
<path style="fill-rule:nonzero;fill:rgb(20%,20%,20%);fill-opacity:0.301961;stroke-width:0.708661;stroke-linecap:round;stroke-linejoin:round;stroke:rgb(20%,20%,20%);stroke-opacity:0.301961;stroke-miterlimit:10;" d="M 646.058594 331.0625 C 646.058594 333.667969 642.148438 333.667969 642.148438 331.0625 C 642.148438 328.453125 646.058594 328.453125 646.058594 331.0625 "/>
<path style="fill-rule:nonzero;fill:rgb(20%,20%,20%);fill-opacity:0.301961;stroke-width:0.708661;stroke-linecap:round;stroke-linejoin:round;stroke:rgb(20%,20%,20%);stroke-opacity:0.301961;stroke-miterlimit:10;" d="M 646.058594 365.109375 C 646.058594 367.714844 642.148438 367.714844 642.148438 365.109375 C 642.148438 362.503906 646.058594 362.503906 646.058594 365.109375 "/>
<path style="fill-rule:nonzero;fill:rgb(20%,20%,20%);fill-opacity:0.301961;stroke-width:0.708661;stroke-linecap:round;stroke-linejoin:round;stroke:rgb(20%,20%,20%);stroke-opacity:0.301961;stroke-miterlimit:10;" d="M 646.058594 342.617188 C 646.058594 345.222656 642.148438 345.222656 642.148438 342.617188 C 642.148438 340.011719 646.058594 340.011719 646.058594 342.617188 "/>
<path style="fill-rule:nonzero;fill:rgb(20%,20%,20%);fill-opacity:0.301961;stroke-width:0.708661;stroke-linecap:round;stroke-linejoin:round;stroke:rgb(20%,20%,20%);stroke-opacity:0.301961;stroke-miterlimit:10;" d="M 646.058594 348.332031 C 646.058594 350.941406 642.148438 350.941406 642.148438 348.332031 C 642.148438 345.726562 646.058594 345.726562 646.058594 348.332031 "/>
<path style="fill:none;stroke-width:1.066978;stroke-linecap:butt;stroke-linejoin:round;stroke:rgb(20%,20%,20%);stroke-opacity:1;stroke-miterlimit:10;" d="M 644.105469 414.6875 L 644.105469 392.050781 "/>
<path style="fill:none;stroke-width:1.066978;stroke-linecap:butt;stroke-linejoin:round;stroke:rgb(20%,20%,20%);stroke-opacity:1;stroke-miterlimit:10;" d="M 644.105469 446.390625 L 644.105469 463.878906 "/>
<path style="fill-rule:nonzero;fill:rgb(25.882353%,54.117647%,76.078431%);fill-opacity:0.301961;stroke-width:1.066978;stroke-linecap:round;stroke-linejoin:round;stroke:rgb(20%,20%,20%);stroke-opacity:1;stroke-miterlimit:10;" d="M 618.019531 414.6875 L 618.019531 446.390625 L 670.191406 446.390625 L 670.191406 414.6875 Z M 618.019531 414.6875 "/>
<path style="fill:none;stroke-width:2.133957;stroke-linecap:butt;stroke-linejoin:round;stroke:rgb(20%,20%,20%);stroke-opacity:1;stroke-miterlimit:10;" d="M 618.019531 423.535156 L 670.191406 423.535156 "/>
<path style="fill-rule:nonzero;fill:rgb(20%,20%,20%);fill-opacity:0.301961;stroke-width:0.708661;stroke-linecap:round;stroke-linejoin:round;stroke:rgb(20%,20%,20%);stroke-opacity:0.301961;stroke-miterlimit:10;" d="M 715.621094 208.082031 C 715.621094 210.6875 711.710938 210.6875 711.710938 208.082031 C 711.710938 205.476562 715.621094 205.476562 715.621094 208.082031 "/>
<path style="fill:none;stroke-width:1.066978;stroke-linecap:butt;stroke-linejoin:round;stroke:rgb(20%,20%,20%);stroke-opacity:1;stroke-miterlimit:10;" d="M 713.664062 345.820312 L 713.664062 224.464844 "/>
<path style="fill:none;stroke-width:1.066978;stroke-linecap:butt;stroke-linejoin:round;stroke:rgb(20%,20%,20%);stroke-opacity:1;stroke-miterlimit:10;" d="M 713.664062 435.722656 L 713.664062 463.453125 "/>
<path style="fill-rule:nonzero;fill:rgb(28.627451%,58.823529%,82.745098%);fill-opacity:0.301961;stroke-width:1.066978;stroke-linecap:round;stroke-linejoin:round;stroke:rgb(20%,20%,20%);stroke-opacity:1;stroke-miterlimit:10;" d="M 687.578125 345.820312 L 687.578125 435.722656 L 739.75 435.722656 L 739.75 345.820312 Z M 687.578125 345.820312 "/>
<path style="fill:none;stroke-width:2.133957;stroke-linecap:butt;stroke-linejoin:round;stroke:rgb(20%,20%,20%);stroke-opacity:1;stroke-miterlimit:10;" d="M 687.578125 417.417969 L 739.75 417.417969 "/>
<path style="fill:none;stroke-width:1.066978;stroke-linecap:butt;stroke-linejoin:round;stroke:rgb(20%,20%,20%);stroke-opacity:1;stroke-miterlimit:10;" d="M 783.226562 393.613281 L 783.226562 356.152344 "/>
<path style="fill:none;stroke-width:1.066978;stroke-linecap:butt;stroke-linejoin:round;stroke:rgb(20%,20%,20%);stroke-opacity:1;stroke-miterlimit:10;" d="M 783.226562 434.90625 L 783.226562 457.8125 "/>
<path style="fill-rule:nonzero;fill:rgb(30.980392%,64.313725%,89.803922%);fill-opacity:0.301961;stroke-width:1.066978;stroke-linecap:round;stroke-linejoin:round;stroke:rgb(20%,20%,20%);stroke-opacity:1;stroke-miterlimit:10;" d="M 757.140625 393.613281 L 757.140625 434.90625 L 809.308594 434.90625 L 809.308594 393.613281 Z M 757.140625 393.613281 "/>
<path style="fill:none;stroke-width:2.133957;stroke-linecap:butt;stroke-linejoin:round;stroke:rgb(20%,20%,20%);stroke-opacity:1;stroke-miterlimit:10;" d="M 757.140625 421.027344 L 809.308594 421.027344 "/>
<path style="fill-rule:nonzero;fill:rgb(20%,20%,20%);fill-opacity:0.301961;stroke-width:0.708661;stroke-linecap:round;stroke-linejoin:round;stroke:rgb(20%,20%,20%);stroke-opacity:0.301961;stroke-miterlimit:10;" d="M 854.738281 216.46875 C 854.738281 219.078125 850.828125 219.078125 850.828125 216.46875 C 850.828125 213.863281 854.738281 213.863281 854.738281 216.46875 "/>
<path style="fill-rule:nonzero;fill:rgb(20%,20%,20%);fill-opacity:0.301961;stroke-width:0.708661;stroke-linecap:round;stroke-linejoin:round;stroke:rgb(20%,20%,20%);stroke-opacity:0.301961;stroke-miterlimit:10;" d="M 854.738281 195.90625 C 854.738281 198.511719 850.828125 198.511719 850.828125 195.90625 C 850.828125 193.300781 854.738281 193.300781 854.738281 195.90625 "/>
<path style="fill:none;stroke-width:1.066978;stroke-linecap:butt;stroke-linejoin:round;stroke:rgb(20%,20%,20%);stroke-opacity:1;stroke-miterlimit:10;" d="M 852.785156 406.464844 L 852.785156 380.296875 "/>
<path style="fill:none;stroke-width:1.066978;stroke-linecap:butt;stroke-linejoin:round;stroke:rgb(20%,20%,20%);stroke-opacity:1;stroke-miterlimit:10;" d="M 852.785156 447.230469 L 852.785156 463.792969 "/>
<path style="fill-rule:nonzero;fill:rgb(33.72549%,69.411765%,96.862745%);fill-opacity:0.301961;stroke-width:1.066978;stroke-linecap:round;stroke-linejoin:round;stroke:rgb(20%,20%,20%);stroke-opacity:1;stroke-miterlimit:10;" d="M 826.699219 406.464844 L 826.699219 447.230469 L 878.871094 447.230469 L 878.871094 406.464844 Z M 826.699219 406.464844 "/>
<path style="fill:none;stroke-width:2.133957;stroke-linecap:butt;stroke-linejoin:round;stroke:rgb(20%,20%,20%);stroke-opacity:1;stroke-miterlimit:10;" d="M 826.699219 435.5 L 878.871094 435.5 "/>
<g style="fill:rgb(30.196078%,30.196078%,30.196078%);fill-opacity:1;">
  <use xlink:href="#glyph0-1" x="19.957031" y="468.046875"/>
  <use xlink:href="#glyph0-2" x="25.683594" y="468.046875"/>
  <use xlink:href="#glyph0-1" x="28.544922" y="468.046875"/>
  <use xlink:href="#glyph0-1" x="34.271484" y="468.046875"/>
</g>
<g style="fill:rgb(30.196078%,30.196078%,30.196078%);fill-opacity:1;">
  <use xlink:href="#glyph0-1" x="19.957031" y="358.042969"/>
  <use xlink:href="#glyph0-2" x="25.683594" y="358.042969"/>
  <use xlink:href="#glyph0-3" x="28.544922" y="358.042969"/>
  <use xlink:href="#glyph0-4" x="34.271484" y="358.042969"/>
</g>
<g style="fill:rgb(30.196078%,30.196078%,30.196078%);fill-opacity:1;">
  <use xlink:href="#glyph0-1" x="19.957031" y="248.042969"/>
  <use xlink:href="#glyph0-2" x="25.683594" y="248.042969"/>
  <use xlink:href="#glyph0-4" x="28.544922" y="248.042969"/>
  <use xlink:href="#glyph0-1" x="34.271484" y="248.042969"/>
</g>
<g style="fill:rgb(30.196078%,30.196078%,30.196078%);fill-opacity:1;">
  <use xlink:href="#glyph0-1" x="19.957031" y="138.042969"/>
  <use xlink:href="#glyph0-2" x="25.683594" y="138.042969"/>
  <use xlink:href="#glyph0-5" x="28.544922" y="138.042969"/>
  <use xlink:href="#glyph0-4" x="34.271484" y="138.042969"/>
</g>
<g style="fill:rgb(30.196078%,30.196078%,30.196078%);fill-opacity:1;">
  <use xlink:href="#glyph0-6" x="19.957031" y="28.042969"/>
  <use xlink:href="#glyph0-2" x="25.683594" y="28.042969"/>
  <use xlink:href="#glyph0-1" x="28.544922" y="28.042969"/>
  <use xlink:href="#glyph0-1" x="34.271484" y="28.042969"/>
</g>
<path style="fill:none;stroke-width:1.066978;stroke-linecap:butt;stroke-linejoin:round;stroke:rgb(20%,20%,20%);stroke-opacity:1;stroke-miterlimit:10;" d="M 43.152344 465.378906 L 45.890625 465.378906 "/>
<path style="fill:none;stroke-width:1.066978;stroke-linecap:butt;stroke-linejoin:round;stroke:rgb(20%,20%,20%);stroke-opacity:1;stroke-miterlimit:10;" d="M 43.152344 355.375 L 45.890625 355.375 "/>
<path style="fill:none;stroke-width:1.066978;stroke-linecap:butt;stroke-linejoin:round;stroke:rgb(20%,20%,20%);stroke-opacity:1;stroke-miterlimit:10;" d="M 43.152344 245.375 L 45.890625 245.375 "/>
<path style="fill:none;stroke-width:1.066978;stroke-linecap:butt;stroke-linejoin:round;stroke:rgb(20%,20%,20%);stroke-opacity:1;stroke-miterlimit:10;" d="M 43.152344 135.375 L 45.890625 135.375 "/>
<path style="fill:none;stroke-width:1.066978;stroke-linecap:butt;stroke-linejoin:round;stroke:rgb(20%,20%,20%);stroke-opacity:1;stroke-miterlimit:10;" d="M 43.152344 25.375 L 45.890625 25.375 "/>
<path style="fill:none;stroke-width:1.066978;stroke-linecap:butt;stroke-linejoin:round;stroke:rgb(20%,20%,20%);stroke-opacity:1;stroke-miterlimit:10;" d="M 87.625 487.597656 L 87.625 484.859375 "/>
<path style="fill:none;stroke-width:1.066978;stroke-linecap:butt;stroke-linejoin:round;stroke:rgb(20%,20%,20%);stroke-opacity:1;stroke-miterlimit:10;" d="M 157.1875 487.597656 L 157.1875 484.859375 "/>
<path style="fill:none;stroke-width:1.066978;stroke-linecap:butt;stroke-linejoin:round;stroke:rgb(20%,20%,20%);stroke-opacity:1;stroke-miterlimit:10;" d="M 226.746094 487.597656 L 226.746094 484.859375 "/>
<path style="fill:none;stroke-width:1.066978;stroke-linecap:butt;stroke-linejoin:round;stroke:rgb(20%,20%,20%);stroke-opacity:1;stroke-miterlimit:10;" d="M 296.304688 487.597656 L 296.304688 484.859375 "/>
<path style="fill:none;stroke-width:1.066978;stroke-linecap:butt;stroke-linejoin:round;stroke:rgb(20%,20%,20%);stroke-opacity:1;stroke-miterlimit:10;" d="M 365.867188 487.597656 L 365.867188 484.859375 "/>
<path style="fill:none;stroke-width:1.066978;stroke-linecap:butt;stroke-linejoin:round;stroke:rgb(20%,20%,20%);stroke-opacity:1;stroke-miterlimit:10;" d="M 435.425781 487.597656 L 435.425781 484.859375 "/>
<path style="fill:none;stroke-width:1.066978;stroke-linecap:butt;stroke-linejoin:round;stroke:rgb(20%,20%,20%);stroke-opacity:1;stroke-miterlimit:10;" d="M 504.984375 487.597656 L 504.984375 484.859375 "/>
<path style="fill:none;stroke-width:1.066978;stroke-linecap:butt;stroke-linejoin:round;stroke:rgb(20%,20%,20%);stroke-opacity:1;stroke-miterlimit:10;" d="M 574.546875 487.597656 L 574.546875 484.859375 "/>
<path style="fill:none;stroke-width:1.066978;stroke-linecap:butt;stroke-linejoin:round;stroke:rgb(20%,20%,20%);stroke-opacity:1;stroke-miterlimit:10;" d="M 644.105469 487.597656 L 644.105469 484.859375 "/>
<path style="fill:none;stroke-width:1.066978;stroke-linecap:butt;stroke-linejoin:round;stroke:rgb(20%,20%,20%);stroke-opacity:1;stroke-miterlimit:10;" d="M 713.664062 487.597656 L 713.664062 484.859375 "/>
<path style="fill:none;stroke-width:1.066978;stroke-linecap:butt;stroke-linejoin:round;stroke:rgb(20%,20%,20%);stroke-opacity:1;stroke-miterlimit:10;" d="M 783.226562 487.597656 L 783.226562 484.859375 "/>
<path style="fill:none;stroke-width:1.066978;stroke-linecap:butt;stroke-linejoin:round;stroke:rgb(20%,20%,20%);stroke-opacity:1;stroke-miterlimit:10;" d="M 852.785156 487.597656 L 852.785156 484.859375 "/>
<g style="fill:rgb(30.196078%,30.196078%,30.196078%);fill-opacity:1;">
  <use xlink:href="#glyph1-1" x="84.125" y="498.003906"/>
</g>
<g style="fill:rgb(30.196078%,30.196078%,30.196078%);fill-opacity:1;">
  <use xlink:href="#glyph1-2" x="153.6875" y="498.003906"/>
</g>
<g style="fill:rgb(30.196078%,30.196078%,30.196078%);fill-opacity:1;">
  <use xlink:href="#glyph1-3" x="223.246094" y="498.003906"/>
</g>
<g style="fill:rgb(30.196078%,30.196078%,30.196078%);fill-opacity:1;">
  <use xlink:href="#glyph1-4" x="292.804688" y="498.003906"/>
</g>
<g style="fill:rgb(30.196078%,30.196078%,30.196078%);fill-opacity:1;">
  <use xlink:href="#glyph1-5" x="362.367188" y="498.003906"/>
</g>
<g style="fill:rgb(30.196078%,30.196078%,30.196078%);fill-opacity:1;">
  <use xlink:href="#glyph1-6" x="431.925781" y="498.003906"/>
</g>
<g style="fill:rgb(30.196078%,30.196078%,30.196078%);fill-opacity:1;">
  <use xlink:href="#glyph1-7" x="501.484375" y="498.003906"/>
</g>
<g style="fill:rgb(30.196078%,30.196078%,30.196078%);fill-opacity:1;">
  <use xlink:href="#glyph1-8" x="571.046875" y="498.003906"/>
</g>
<g style="fill:rgb(30.196078%,30.196078%,30.196078%);fill-opacity:1;">
  <use xlink:href="#glyph1-9" x="640.605469" y="498.003906"/>
</g>
<g style="fill:rgb(30.196078%,30.196078%,30.196078%);fill-opacity:1;">
  <use xlink:href="#glyph1-10" x="710.164062" y="498.003906"/>
</g>
<g style="fill:rgb(30.196078%,30.196078%,30.196078%);fill-opacity:1;">
  <use xlink:href="#glyph1-2" x="776.226562" y="498.003906"/>
  <use xlink:href="#glyph1-1" x="783.225586" y="498.003906"/>
</g>
<g style="fill:rgb(30.196078%,30.196078%,30.196078%);fill-opacity:1;">
  <use xlink:href="#glyph1-2" x="845.785156" y="498.003906"/>
  <use xlink:href="#glyph1-2" x="852.78418" y="498.003906"/>
</g>
<g style="fill:rgb(0%,0%,0%);fill-opacity:1;">
  <use xlink:href="#glyph2-1" x="403.207031" y="512.480469"/>
  <use xlink:href="#glyph2-2" x="412.558594" y="512.480469"/>
  <use xlink:href="#glyph2-3" x="417.983398" y="512.480469"/>
  <use xlink:href="#glyph2-4" x="423.242188" y="512.480469"/>
  <use xlink:href="#glyph2-5" x="431.073242" y="512.480469"/>
  <use xlink:href="#glyph2-6" x="438.630859" y="512.480469"/>
  <use xlink:href="#glyph2-5" x="442.401367" y="512.480469"/>
  <use xlink:href="#glyph2-7" x="449.958984" y="512.480469"/>
  <use xlink:href="#glyph2-8" x="457.833008" y="512.480469"/>
  <use xlink:href="#glyph2-9" x="464.380859" y="512.480469"/>
  <use xlink:href="#glyph2-10" x="468.210938" y="512.480469"/>
  <use xlink:href="#glyph2-11" x="476.084961" y="512.480469"/>
  <use xlink:href="#glyph2-2" x="483.545898" y="512.480469"/>
  <use xlink:href="#glyph2-9" x="488.970703" y="512.480469"/>
  <use xlink:href="#glyph2-6" x="492.800781" y="512.480469"/>
  <use xlink:href="#glyph2-12" x="496.571289" y="512.480469"/>
  <use xlink:href="#glyph2-13" x="504.402344" y="512.480469"/>
  <use xlink:href="#glyph2-14" x="510.922852" y="512.480469"/>
  <use xlink:href="#glyph2-15" x="519.393555" y="512.480469"/>
  <use xlink:href="#glyph2-16" x="528.599609" y="512.480469"/>
</g>
<g style="fill:rgb(0%,0%,0%);fill-opacity:1;">
  <use xlink:href="#glyph3-1" x="13.691406" y="287.082031"/>
  <use xlink:href="#glyph3-2" x="13.691406" y="279.019531"/>
  <use xlink:href="#glyph3-3" x="13.691406" y="271.188477"/>
  <use xlink:href="#glyph3-4" x="13.691406" y="263.765625"/>
  <use xlink:href="#glyph3-5" x="13.691406" y="257.217773"/>
  <use xlink:href="#glyph3-6" x="13.691406" y="251.958984"/>
  <use xlink:href="#glyph3-7" x="13.691406" y="243.885742"/>
  <use xlink:href="#glyph3-8" x="13.691406" y="236.328125"/>
  <use xlink:href="#glyph3-4" x="13.691406" y="228.49707"/>
</g>
<g style="fill:rgb(0%,0%,0%);fill-opacity:1;">
  <use xlink:href="#glyph4-1" x="45.890625" y="13.619141"/>
  <use xlink:href="#glyph4-2" x="54.480469" y="13.619141"/>
  <use xlink:href="#glyph4-3" x="60.398438" y="13.619141"/>
  <use xlink:href="#glyph4-4" x="68.642578" y="13.619141"/>
  <use xlink:href="#glyph4-5" x="75.755859" y="13.619141"/>
  <use xlink:href="#glyph4-6" x="83.894531" y="13.619141"/>
  <use xlink:href="#glyph4-6" x="91.037109" y="13.619141"/>
  <use xlink:href="#glyph4-5" x="98.179688" y="13.619141"/>
  <use xlink:href="#glyph4-7" x="106.318359" y="13.619141"/>
  <use xlink:href="#glyph4-8" x="114.908203" y="13.619141"/>
  <use xlink:href="#glyph4-9" x="120.908203" y="13.619141"/>
  <use xlink:href="#glyph4-2" x="126.644531" y="13.619141"/>
  <use xlink:href="#glyph4-10" x="132.5625" y="13.619141"/>
  <use xlink:href="#glyph4-11" x="140.660156" y="13.619141"/>
  <use xlink:href="#glyph4-6" x="149.203125" y="13.619141"/>
  <use xlink:href="#glyph4-4" x="156.345703" y="13.619141"/>
  <use xlink:href="#glyph4-2" x="163.458984" y="13.619141"/>
  <use xlink:href="#glyph4-12" x="169.376953" y="13.619141"/>
  <use xlink:href="#glyph4-1" x="173.490234" y="13.619141"/>
  <use xlink:href="#glyph4-9" x="182.080078" y="13.619141"/>
  <use xlink:href="#glyph4-13" x="187.816406" y="13.619141"/>
  <use xlink:href="#glyph4-14" x="192.615234" y="13.619141"/>
  <use xlink:href="#glyph4-15" x="201.410156" y="13.619141"/>
  <use xlink:href="#glyph4-10" x="209.953125" y="13.619141"/>
  <use xlink:href="#glyph4-6" x="218.050781" y="13.619141"/>
  <use xlink:href="#glyph4-9" x="225.193359" y="13.619141"/>
  <use xlink:href="#glyph4-16" x="230.929688" y="13.619141"/>
  <use xlink:href="#glyph4-3" x="239.736328" y="13.619141"/>
  <use xlink:href="#glyph4-11" x="247.980469" y="13.619141"/>
  <use xlink:href="#glyph4-6" x="256.523438" y="13.619141"/>
</g>
</g>
</svg>
