<?xml version='1.0' encoding='utf-8'?>
<svg xmlns:xlink="http://www.w3.org/1999/xlink" xmlns="http://www.w3.org/2000/svg" id="chart-44e9d436-d490-4dd3-825a-d3cb69eaa53b" class="pygal-chart" viewBox="0 0 800 600"><!--Generated with pygal 2.3.0 (lxml) ©Kozea 2012-2016 on 2017-05-23--><!--http://pygal.org--><!--http://github.com/Kozea/pygal--><defs><style type="text/css">#chart-44e9d436-d490-4dd3-825a-d3cb69eaa53b{-webkit-user-select:none;-webkit-font-smoothing:antialiased;font-family:Consolas,"Liberation Mono",Menlo,Courier,monospace}#chart-44e9d436-d490-4dd3-825a-d3cb69eaa53b .title{font-family:Consolas,"Liberation Mono",Menlo,Courier,monospace;font-size:16px}#chart-44e9d436-d490-4dd3-825a-d3cb69eaa53b .legends .legend text{font-family:Consolas,"Liberation Mono",Menlo,Courier,monospace;font-size:14px}#chart-44e9d436-d490-4dd3-825a-d3cb69eaa53b .axis text{font-family:Consolas,"Liberation Mono",Menlo,Courier,monospace;font-size:10px}#chart-44e9d436-d490-4dd3-825a-d3cb69eaa53b .axis text.major{font-family:Consolas,"Liberation Mono",Menlo,Courier,monospace;font-size:10px}#chart-44e9d436-d490-4dd3-825a-d3cb69eaa53b .text-overlay text.value{font-family:Consolas,"Liberation Mono",Menlo,Courier,monospace;font-size:16px}#chart-44e9d436-d490-4dd3-825a-d3cb69eaa53b .text-overlay text.label{font-family:Consolas,"Liberation Mono",Menlo,Courier,monospace;font-size:10px}#chart-44e9d436-d490-4dd3-825a-d3cb69eaa53b .tooltip{font-family:Consolas,"Liberation Mono",Menlo,Courier,monospace;font-size:14px}#chart-44e9d436-d490-4dd3-825a-d3cb69eaa53b text.no_data{font-family:Consolas,"Liberation Mono",Menlo,Courier,monospace;font-size:64px}
#chart-44e9d436-d490-4dd3-825a-d3cb69eaa53b{background-color:rgba(249,249,249,1)}#chart-44e9d436-d490-4dd3-825a-d3cb69eaa53b path,#chart-44e9d436-d490-4dd3-825a-d3cb69eaa53b line,#chart-44e9d436-d490-4dd3-825a-d3cb69eaa53b rect,#chart-44e9d436-d490-4dd3-825a-d3cb69eaa53b circle{-webkit-transition:150ms;-moz-transition:150ms;transition:150ms}#chart-44e9d436-d490-4dd3-825a-d3cb69eaa53b .graph &gt; .background{fill:rgba(249,249,249,1)}#chart-44e9d436-d490-4dd3-825a-d3cb69eaa53b .plot &gt; .background{fill:rgba(255,255,255,1)}#chart-44e9d436-d490-4dd3-825a-d3cb69eaa53b .graph{fill:rgba(0,0,0,.87)}#chart-44e9d436-d490-4dd3-825a-d3cb69eaa53b text.no_data{fill:rgba(0,0,0,1)}#chart-44e9d436-d490-4dd3-825a-d3cb69eaa53b .title{fill:rgba(0,0,0,1)}#chart-44e9d436-d490-4dd3-825a-d3cb69eaa53b .legends .legend text{fill:rgba(0,0,0,.87)}#chart-44e9d436-d490-4dd3-825a-d3cb69eaa53b .legends .legend:hover text{fill:rgba(0,0,0,1)}#chart-44e9d436-d490-4dd3-825a-d3cb69eaa53b .axis .line{stroke:rgba(0,0,0,1)}#chart-44e9d436-d490-4dd3-825a-d3cb69eaa53b .axis .guide.line{stroke:rgba(0,0,0,.54)}#chart-44e9d436-d490-4dd3-825a-d3cb69eaa53b .axis .major.line{stroke:rgba(0,0,0,.87)}#chart-44e9d436-d490-4dd3-825a-d3cb69eaa53b .axis text.major{fill:rgba(0,0,0,1)}#chart-44e9d436-d490-4dd3-825a-d3cb69eaa53b .axis.y .guides:hover .guide.line,#chart-44e9d436-d490-4dd3-825a-d3cb69eaa53b .line-graph .axis.x .guides:hover .guide.line,#chart-44e9d436-d490-4dd3-825a-d3cb69eaa53b .stackedline-graph .axis.x .guides:hover .guide.line,#chart-44e9d436-d490-4dd3-825a-d3cb69eaa53b .xy-graph .axis.x .guides:hover .guide.line{stroke:rgba(0,0,0,1)}#chart-44e9d436-d490-4dd3-825a-d3cb69eaa53b .axis .guides:hover text{fill:rgba(0,0,0,1)}#chart-44e9d436-d490-4dd3-825a-d3cb69eaa53b .reactive{fill-opacity:.7;stroke-opacity:.8}#chart-44e9d436-d490-4dd3-825a-d3cb69eaa53b .ci{stroke:rgba(0,0,0,.87)}#chart-44e9d436-d490-4dd3-825a-d3cb69eaa53b .reactive.active,#chart-44e9d436-d490-4dd3-825a-d3cb69eaa53b .active .reactive{fill-opacity:.8;stroke-opacity:.9;stroke-width:4}#chart-44e9d436-d490-4dd3-825a-d3cb69eaa53b .ci .reactive.active{stroke-width:1.5}#chart-44e9d436-d490-4dd3-825a-d3cb69eaa53b .series text{fill:rgba(0,0,0,1)}#chart-44e9d436-d490-4dd3-825a-d3cb69eaa53b .tooltip rect{fill:rgba(255,255,255,1);stroke:rgba(0,0,0,1);-webkit-transition:opacity 150ms;-moz-transition:opacity 150ms;transition:opacity 150ms}#chart-44e9d436-d490-4dd3-825a-d3cb69eaa53b .tooltip .label{fill:rgba(0,0,0,.87)}#chart-44e9d436-d490-4dd3-825a-d3cb69eaa53b .tooltip .label{fill:rgba(0,0,0,.87)}#chart-44e9d436-d490-4dd3-825a-d3cb69eaa53b .tooltip .legend{font-size:.8em;fill:rgba(0,0,0,.54)}#chart-44e9d436-d490-4dd3-825a-d3cb69eaa53b .tooltip .x_label{font-size:.6em;fill:rgba(0,0,0,1)}#chart-44e9d436-d490-4dd3-825a-d3cb69eaa53b .tooltip .xlink{font-size:.5em;text-decoration:underline}#chart-44e9d436-d490-4dd3-825a-d3cb69eaa53b .tooltip .value{font-size:1.5em}#chart-44e9d436-d490-4dd3-825a-d3cb69eaa53b .bound{font-size:.5em}#chart-44e9d436-d490-4dd3-825a-d3cb69eaa53b .max-value{font-size:.75em;fill:rgba(0,0,0,.54)}#chart-44e9d436-d490-4dd3-825a-d3cb69eaa53b .map-element{fill:rgba(255,255,255,1);stroke:rgba(0,0,0,.54) !important}#chart-44e9d436-d490-4dd3-825a-d3cb69eaa53b .map-element .reactive{fill-opacity:inherit;stroke-opacity:inherit}#chart-44e9d436-d490-4dd3-825a-d3cb69eaa53b .color-0,#chart-44e9d436-d490-4dd3-825a-d3cb69eaa53b .color-0 a:visited{stroke:#F44336;fill:#F44336}#chart-44e9d436-d490-4dd3-825a-d3cb69eaa53b .color-1,#chart-44e9d436-d490-4dd3-825a-d3cb69eaa53b .color-1 a:visited{stroke:#3F51B5;fill:#3F51B5}#chart-44e9d436-d490-4dd3-825a-d3cb69eaa53b .color-2,#chart-44e9d436-d490-4dd3-825a-d3cb69eaa53b .color-2 a:visited{stroke:#009688;fill:#009688}#chart-44e9d436-d490-4dd3-825a-d3cb69eaa53b .color-3,#chart-44e9d436-d490-4dd3-825a-d3cb69eaa53b .color-3 a:visited{stroke:#FFC107;fill:#FFC107}#chart-44e9d436-d490-4dd3-825a-d3cb69eaa53b .color-4,#chart-44e9d436-d490-4dd3-825a-d3cb69eaa53b .color-4 a:visited{stroke:#FF5722;fill:#FF5722}#chart-44e9d436-d490-4dd3-825a-d3cb69eaa53b .color-5,#chart-44e9d436-d490-4dd3-825a-d3cb69eaa53b .color-5 a:visited{stroke:#9C27B0;fill:#9C27B0}#chart-44e9d436-d490-4dd3-825a-d3cb69eaa53b .color-6,#chart-44e9d436-d490-4dd3-825a-d3cb69eaa53b .color-6 a:visited{stroke:#03A9F4;fill:#03A9F4}#chart-44e9d436-d490-4dd3-825a-d3cb69eaa53b .color-7,#chart-44e9d436-d490-4dd3-825a-d3cb69eaa53b .color-7 a:visited{stroke:#8BC34A;fill:#8BC34A}#chart-44e9d436-d490-4dd3-825a-d3cb69eaa53b .color-8,#chart-44e9d436-d490-4dd3-825a-d3cb69eaa53b .color-8 a:visited{stroke:#FF9800;fill:#FF9800}#chart-44e9d436-d490-4dd3-825a-d3cb69eaa53b .color-9,#chart-44e9d436-d490-4dd3-825a-d3cb69eaa53b .color-9 a:visited{stroke:#E91E63;fill:#E91E63}#chart-44e9d436-d490-4dd3-825a-d3cb69eaa53b .color-10,#chart-44e9d436-d490-4dd3-825a-d3cb69eaa53b .color-10 a:visited{stroke:#2196F3;fill:#2196F3}#chart-44e9d436-d490-4dd3-825a-d3cb69eaa53b .color-11,#chart-44e9d436-d490-4dd3-825a-d3cb69eaa53b .color-11 a:visited{stroke:#4CAF50;fill:#4CAF50}#chart-44e9d436-d490-4dd3-825a-d3cb69eaa53b .color-12,#chart-44e9d436-d490-4dd3-825a-d3cb69eaa53b .color-12 a:visited{stroke:#FFEB3B;fill:#FFEB3B}#chart-44e9d436-d490-4dd3-825a-d3cb69eaa53b .text-overlay .color-0 text{fill:black}#chart-44e9d436-d490-4dd3-825a-d3cb69eaa53b .text-overlay .color-1 text{fill:black}#chart-44e9d436-d490-4dd3-825a-d3cb69eaa53b .text-overlay .color-2 text{fill:black}#chart-44e9d436-d490-4dd3-825a-d3cb69eaa53b .text-overlay .color-3 text{fill:black}#chart-44e9d436-d490-4dd3-825a-d3cb69eaa53b .text-overlay .color-4 text{fill:black}#chart-44e9d436-d490-4dd3-825a-d3cb69eaa53b .text-overlay .color-5 text{fill:black}#chart-44e9d436-d490-4dd3-825a-d3cb69eaa53b .text-overlay .color-6 text{fill:black}#chart-44e9d436-d490-4dd3-825a-d3cb69eaa53b .text-overlay .color-7 text{fill:black}#chart-44e9d436-d490-4dd3-825a-d3cb69eaa53b .text-overlay .color-8 text{fill:black}#chart-44e9d436-d490-4dd3-825a-d3cb69eaa53b .text-overlay .color-9 text{fill:black}#chart-44e9d436-d490-4dd3-825a-d3cb69eaa53b .text-overlay .color-10 text{fill:black}#chart-44e9d436-d490-4dd3-825a-d3cb69eaa53b .text-overlay .color-11 text{fill:black}#chart-44e9d436-d490-4dd3-825a-d3cb69eaa53b .text-overlay .color-12 text{fill:black}
#chart-44e9d436-d490-4dd3-825a-d3cb69eaa53b text.no_data{text-anchor:middle}#chart-44e9d436-d490-4dd3-825a-d3cb69eaa53b .guide.line{fill:none}#chart-44e9d436-d490-4dd3-825a-d3cb69eaa53b .centered{text-anchor:middle}#chart-44e9d436-d490-4dd3-825a-d3cb69eaa53b .title{text-anchor:middle}#chart-44e9d436-d490-4dd3-825a-d3cb69eaa53b .legends .legend text{fill-opacity:1}#chart-44e9d436-d490-4dd3-825a-d3cb69eaa53b .axis.x text{text-anchor:middle}#chart-44e9d436-d490-4dd3-825a-d3cb69eaa53b .axis.x:not(.web) text[transform]{text-anchor:start}#chart-44e9d436-d490-4dd3-825a-d3cb69eaa53b .axis.x:not(.web) text[transform].backwards{text-anchor:end}#chart-44e9d436-d490-4dd3-825a-d3cb69eaa53b .axis.y text{text-anchor:end}#chart-44e9d436-d490-4dd3-825a-d3cb69eaa53b .axis.y text[transform].backwards{text-anchor:start}#chart-44e9d436-d490-4dd3-825a-d3cb69eaa53b .axis.y2 text{text-anchor:start}#chart-44e9d436-d490-4dd3-825a-d3cb69eaa53b .axis.y2 text[transform].backwards{text-anchor:end}#chart-44e9d436-d490-4dd3-825a-d3cb69eaa53b .axis .guide.line{stroke-dasharray:4,4}#chart-44e9d436-d490-4dd3-825a-d3cb69eaa53b .axis .major.guide.line{stroke-dasharray:6,6}#chart-44e9d436-d490-4dd3-825a-d3cb69eaa53b .horizontal .axis.y .guide.line,#chart-44e9d436-d490-4dd3-825a-d3cb69eaa53b .horizontal .axis.y2 .guide.line,#chart-44e9d436-d490-4dd3-825a-d3cb69eaa53b .vertical .axis.x .guide.line{opacity:0}#chart-44e9d436-d490-4dd3-825a-d3cb69eaa53b .horizontal .axis.always_show .guide.line,#chart-44e9d436-d490-4dd3-825a-d3cb69eaa53b .vertical .axis.always_show .guide.line{opacity:1 !important}#chart-44e9d436-d490-4dd3-825a-d3cb69eaa53b .axis.y .guides:hover .guide.line,#chart-44e9d436-d490-4dd3-825a-d3cb69eaa53b .axis.y2 .guides:hover .guide.line,#chart-44e9d436-d490-4dd3-825a-d3cb69eaa53b .axis.x .guides:hover .guide.line{opacity:1}#chart-44e9d436-d490-4dd3-825a-d3cb69eaa53b .axis .guides:hover text{opacity:1}#chart-44e9d436-d490-4dd3-825a-d3cb69eaa53b .nofill{fill:none}#chart-44e9d436-d490-4dd3-825a-d3cb69eaa53b .subtle-fill{fill-opacity:.2}#chart-44e9d436-d490-4dd3-825a-d3cb69eaa53b .dot{stroke-width:1px;fill-opacity:1}#chart-44e9d436-d490-4dd3-825a-d3cb69eaa53b .dot.active{stroke-width:5px}#chart-44e9d436-d490-4dd3-825a-d3cb69eaa53b .dot.negative{fill:transparent}#chart-44e9d436-d490-4dd3-825a-d3cb69eaa53b text,#chart-44e9d436-d490-4dd3-825a-d3cb69eaa53b tspan{stroke:none !important}#chart-44e9d436-d490-4dd3-825a-d3cb69eaa53b .series text.active{opacity:1}#chart-44e9d436-d490-4dd3-825a-d3cb69eaa53b .tooltip rect{fill-opacity:.95;stroke-width:.5}#chart-44e9d436-d490-4dd3-825a-d3cb69eaa53b .tooltip text{fill-opacity:1}#chart-44e9d436-d490-4dd3-825a-d3cb69eaa53b .showable{visibility:hidden}#chart-44e9d436-d490-4dd3-825a-d3cb69eaa53b .showable.shown{visibility:visible}#chart-44e9d436-d490-4dd3-825a-d3cb69eaa53b .gauge-background{fill:rgba(229,229,229,1);stroke:none}#chart-44e9d436-d490-4dd3-825a-d3cb69eaa53b .bg-lines{stroke:rgba(249,249,249,1);stroke-width:2px}</style><script type="text/javascript">window.pygal = window.pygal || {};window.pygal.config = window.pygal.config || {};window.pygal.config['44e9d436-d490-4dd3-825a-d3cb69eaa53b'] = {"dynamic_print_values": false, "truncate_label": null, "inner_radius": 0, "print_values": false, "xrange": null, "box_mode": "extremes", "title": "Harboring of UCNE conserved elements", "legend_at_bottom_columns": null, "height": 600, "legend_at_bottom": false, "show_legend": true, "show_dots": true, "explicit_size": false, "y_labels_major": null, "show_minor_x_labels": true, "width": 800, "force_uri_protocol": "https", "half_pie": false, "style": {"major_label_font_family": "Consolas, \"Liberation Mono\", Menlo, Courier, monospace", "title_font_family": "Consolas, \"Liberation Mono\", Menlo, Courier, monospace", "stroke_opacity": ".8", "legend_font_family": "Consolas, \"Liberation Mono\", Menlo, Courier, monospace", "colors": ["#F44336", "#3F51B5", "#009688", "#FFC107", "#FF5722", "#9C27B0", "#03A9F4", "#8BC34A", "#FF9800", "#E91E63", "#2196F3", "#4CAF50", "#FFEB3B", "#673AB7", "#00BCD4", "#CDDC39", "#9E9E9E", "#607D8B"], "legend_font_size": 14, "no_data_font_family": "Consolas, \"Liberation Mono\", Menlo, Courier, monospace", "major_label_font_size": 10, "value_background": "rgba(229, 229, 229, 1)", "ci_colors": [], "label_font_family": "Consolas, \"Liberation Mono\", Menlo, Courier, monospace", "label_font_size": 10, "tooltip_font_size": 14, "value_font_size": 16, "font_family": "Consolas, \"Liberation Mono\", Menlo, Courier, monospace", "opacity": ".7", "foreground": "rgba(0, 0, 0, .87)", "plot_background": "rgba(255, 255, 255, 1)", "value_label_font_size": 10, "value_label_font_family": "Consolas, \"Liberation Mono\", Menlo, Courier, monospace", "background": "rgba(249, 249, 249, 1)", "no_data_font_size": 64, "value_colors": [], "guide_stroke_dasharray": "4,4", "transition": "150ms", "foreground_subtle": "rgba(0, 0, 0, .54)", "value_font_family": "Consolas, \"Liberation Mono\", Menlo, Courier, monospace", "tooltip_font_family": "Consolas, \"Liberation Mono\", Menlo, Courier, monospace", "title_font_size": 16, "stroke_opacity_hover": ".9", "major_guide_stroke_dasharray": "6,6", "opacity_hover": ".8", "foreground_strong": "rgba(0, 0, 0, 1)"}, "x_label_rotation": 0, "fill": false, "missing_value_fill_truncation": "x", "zero": 0, "margin_right": null, "interpolation_parameters": {}, "x_labels_major": null, "rounded_bars": null, "show_y_labels": true, "dots_size": 2.5, "show_y_guides": true, "show_minor_y_labels": true, "x_labels": null, "y_title": null, "order_min": null, "formatter": null, "disable_xml_declaration": false, "strict": false, "css": ["file://style.css", "file://graph.css"], "tooltip_fancy_mode": true, "defs": [], "show_only_major_dots": false, "y_label_rotation": 0, "show_x_labels": true, "min_scale": 4, "show_x_guides": false, "spacing": 10, "x_labels_major_count": null, "pretty_print": false, "tooltip_border_radius": 0, "interpolate": null, "js": ["//kozea.github.io/pygal.js/2.0.x/pygal-tooltips.min.js"], "y_labels": null, "stroke_style": null, "print_labels": false, "interpolation_precision": 250, "x_title": null, "y_labels_major_every": null, "logarithmic": false, "legends": ["Human_UCNE", "Human_VISTA", "Marmoset", "MacacaFascicularis", "GreenMonkey", "Atys", "Bonobo", "Chimp", "Gorilla", "Orangutan", "Rhesus", "Baboon", "Lemur"], "max_scale": 16, "print_zeroes": true, "no_data_text": "No data", "truncate_legend": null, "x_labels_major_every": null, "secondary_range": null, "legend_box_size": 12, "no_prefix": false, "stroke": true, "stack_from_top": false, "include_x_axis": false, "range": null, "classes": ["pygal-chart"], "margin_top": null, "margin_left": null, "y_labels_major_count": null, "margin_bottom": null, "inverse_y_axis": false, "margin": 20, "allow_interruptions": false, "print_values_position": "center"}</script><script type="text/javascript" xlink:href="https://kozea.github.io/pygal.js/2.0.x/pygal-tooltips.min.js"/></defs><title>Harboring of UCNE conserved elements</title><g class="graph bar-graph vertical"><rect class="background" height="600" width="800" x="0" y="0"/><g class="plot" transform="translate(190, 46)"><rect class="background" height="534" width="590.0" x="0" y="0"/><g class="axis y"><g class="guides"><path class="axis major line" d="M0.000000 523.730769 h590.000000"/><text class="major" x="-5" y="527.230769231">0</text><title>0</title></g><g class="guides"><path class="guide line" d="M0.000000 465.382867 h590.000000"/><text class="" x="-5" y="468.882867133">10</text><title>10</title></g><g class="guides"><path class="guide line" d="M0.000000 407.034965 h590.000000"/><text class="" x="-5" y="410.534965035">20</text><title>20</title></g><g class="guides"><path class="guide line" d="M0.000000 348.687063 h590.000000"/><text class="" x="-5" y="352.187062937">30</text><title>30</title></g><g class="guides"><path class="guide line" d="M0.000000 290.339161 h590.000000"/><text class="" x="-5" y="293.839160839">40</text><title>40</title></g><g class="guides"><path class="major guide line" d="M0.000000 231.991259 h590.000000"/><text class="major" x="-5" y="235.491258741">50</text><title>50</title></g><g class="guides"><path class="guide line" d="M0.000000 173.643357 h590.000000"/><text class="" x="-5" y="177.143356643">60</text><title>60</title></g><g class="guides"><path class="guide line" d="M0.000000 115.295455 h590.000000"/><text class="" x="-5" y="118.795454545">70</text><title>70</title></g><g class="guides"><path class="guide line" d="M0.000000 56.947552 h590.000000"/><text class="" x="-5" y="60.4475524476">80</text><title>80</title></g></g><g class="series serie-0 color-0"><g class="bars"><g class="bar"><rect class="rect reactive tooltip-trigger" height="513.461538462" rx="0" ry="0" width="33.7940828402" x="47.6887573964" y="10.2692307692"/><desc class="value">88</desc><desc class="x centered">64.5857988166</desc><desc class="y centered">267.0</desc></g></g></g><g class="series serie-1 color-1"><g class="bars"><g class="bar"><rect class="rect reactive tooltip-trigger" height="87.5218531469" rx="0" ry="0" width="33.7940828402" x="86.0911242604" y="436.208916084"/><desc class="value">15</desc><desc class="x centered">102.98816568</desc><desc class="y centered">479.969842657</desc></g></g></g><g class="series serie-2 color-2"><g class="bars"><g class="bar"><rect class="rect reactive tooltip-trigger" height="204.217657343" rx="0" ry="0" width="33.7940828402" x="124.493491124" y="319.513111888"/><desc class="value">35</desc><desc class="x centered">141.390532544</desc><desc class="y centered">421.621940559</desc></g></g></g><g class="series serie-3 color-3"><g class="bars"><g class="bar"><rect class="rect reactive tooltip-trigger" height="280.06993007" rx="0" ry="0" width="33.7940828402" x="162.895857988" y="243.660839161"/><desc class="value">48</desc><desc class="x centered">179.792899408</desc><desc class="y centered">383.695804196</desc></g></g></g><g class="series serie-4 color-4"><g class="bars"><g class="bar"><rect class="rect reactive tooltip-trigger" height="210.052447552" rx="0" ry="0" width="33.7940828402" x="201.298224852" y="313.678321678"/><desc class="value">36</desc><desc class="x centered">218.195266272</desc><desc class="y centered">418.704545455</desc></g></g></g><g class="series serie-5 color-5"><g class="bars"><g class="bar"><rect class="rect reactive tooltip-trigger" height="262.565559441" rx="0" ry="0" width="33.7940828402" x="239.700591716" y="261.16520979"/><desc class="value">45</desc><desc class="x centered">256.597633136</desc><desc class="y centered">392.44798951</desc></g></g></g><g class="series serie-6 color-6"><g class="bars"><g class="bar"><rect class="rect reactive tooltip-trigger" height="93.3566433566" rx="0" ry="0" width="33.7940828402" x="278.10295858" y="430.374125874"/><desc class="value">16</desc><desc class="x centered">295.0</desc><desc class="y centered">477.052447552</desc></g></g></g><g class="series serie-7 color-7"><g class="bars"><g class="bar"><rect class="rect reactive tooltip-trigger" height="309.243881119" rx="0" ry="0" width="33.7940828402" x="316.505325444" y="214.486888112"/><desc class="value">53</desc><desc class="x centered">333.402366864</desc><desc class="y centered">369.108828671</desc></g></g></g><g class="series serie-8 color-8"><g class="bars"><g class="bar"><rect class="rect reactive tooltip-trigger" height="204.217657343" rx="0" ry="0" width="33.7940828402" x="354.907692308" y="319.513111888"/><desc class="value">35</desc><desc class="x centered">371.804733728</desc><desc class="y centered">421.621940559</desc></g></g></g><g class="series serie-9 color-9"><g class="bars"><g class="bar"><rect class="rect reactive tooltip-trigger" height="110.861013986" rx="0" ry="0" width="33.7940828402" x="393.310059172" y="412.869755245"/><desc class="value">19</desc><desc class="x centered">410.207100592</desc><desc class="y centered">468.300262238</desc></g></g></g><g class="series serie-10 color-10"><g class="bars"><g class="bar"><rect class="rect reactive tooltip-trigger" height="192.548076923" rx="0" ry="0" width="33.7940828402" x="431.712426036" y="331.182692308"/><desc class="value">33</desc><desc class="x centered">448.609467456</desc><desc class="y centered">427.456730769</desc></g></g></g><g class="series serie-11 color-11"><g class="bars"><g class="bar"><rect class="rect reactive tooltip-trigger" height="309.243881119" rx="0" ry="0" width="33.7940828402" x="470.114792899" y="214.486888112"/><desc class="value">53</desc><desc class="x centered">487.01183432</desc><desc class="y centered">369.108828671</desc></g></g></g><g class="series serie-12 color-12"><g class="bars"><g class="bar"><rect class="rect reactive tooltip-trigger" height="163.374125874" rx="0" ry="0" width="33.7940828402" x="508.517159763" y="360.356643357"/><desc class="value">28</desc><desc class="x centered">525.414201183</desc><desc class="y centered">442.043706294</desc></g></g></g></g><g class="titles"><text class="title plot_title" x="400.0" y="26">Harboring of UCNE conserved elements</text></g><g class="plot overlay" transform="translate(190, 46)"><g class="series serie-0 color-0"/><g class="series serie-1 color-1"/><g class="series serie-2 color-2"/><g class="series serie-3 color-3"/><g class="series serie-4 color-4"/><g class="series serie-5 color-5"/><g class="series serie-6 color-6"/><g class="series serie-7 color-7"/><g class="series serie-8 color-8"/><g class="series serie-9 color-9"/><g class="series serie-10 color-10"/><g class="series serie-11 color-11"/><g class="series serie-12 color-12"/></g><g class="plot text-overlay" transform="translate(190, 46)"><g class="series serie-0 color-0"/><g class="series serie-1 color-1"/><g class="series serie-2 color-2"/><g class="series serie-3 color-3"/><g class="series serie-4 color-4"/><g class="series serie-5 color-5"/><g class="series serie-6 color-6"/><g class="series serie-7 color-7"/><g class="series serie-8 color-8"/><g class="series serie-9 color-9"/><g class="series serie-10 color-10"/><g class="series serie-11 color-11"/><g class="series serie-12 color-12"/></g><g class="plot tooltip-overlay" transform="translate(190, 46)"><g class="tooltip" style="opacity: 0" transform="translate(0 0)"><rect class="tooltip-box" height="0" rx="0" ry="0" width="0"/><g class="text"/></g></g><g class="legends" transform="translate(10, 56)"><g class="legend reactive activate-serie" id="activate-serie-0"><rect class="color-0 reactive" height="12" width="12" x="0.0" y="1.0"/><text x="17.0" y="11.2">Human_UCNE</text></g><g class="legend reactive activate-serie" id="activate-serie-1"><rect class="color-1 reactive" height="12" width="12" x="0.0" y="22.0"/><text x="17.0" y="32.2">Human_VISTA</text></g><g class="legend reactive activate-serie" id="activate-serie-2"><rect class="color-2 reactive" height="12" width="12" x="0.0" y="43.0"/><text x="17.0" y="53.2">Marmoset</text></g><g class="legend reactive activate-serie" id="activate-serie-3"><rect class="color-3 reactive" height="12" width="12" x="0.0" y="64.0"/><text x="17.0" y="74.2">MacacaFascicul…</text><title>MacacaFascicularis</title></g><g class="legend reactive activate-serie" id="activate-serie-4"><rect class="color-4 reactive" height="12" width="12" x="0.0" y="85.0"/><text x="17.0" y="95.2">GreenMonkey</text></g><g class="legend reactive activate-serie" id="activate-serie-5"><rect class="color-5 reactive" height="12" width="12" x="0.0" y="106.0"/><text x="17.0" y="116.2">Atys</text></g><g class="legend reactive activate-serie" id="activate-serie-6"><rect class="color-6 reactive" height="12" width="12" x="0.0" y="127.0"/><text x="17.0" y="137.2">Bonobo</text></g><g class="legend reactive activate-serie" id="activate-serie-7"><rect class="color-7 reactive" height="12" width="12" x="0.0" y="148.0"/><text x="17.0" y="158.2">Chimp</text></g><g class="legend reactive activate-serie" id="activate-serie-8"><rect class="color-8 reactive" height="12" width="12" x="0.0" y="169.0"/><text x="17.0" y="179.2">Gorilla</text></g><g class="legend reactive activate-serie" id="activate-serie-9"><rect class="color-9 reactive" height="12" width="12" x="0.0" y="190.0"/><text x="17.0" y="200.2">Orangutan</text></g><g class="legend reactive activate-serie" id="activate-serie-10"><rect class="color-10 reactive" height="12" width="12" x="0.0" y="211.0"/><text x="17.0" y="221.2">Rhesus</text></g><g class="legend reactive activate-serie" id="activate-serie-11"><rect class="color-11 reactive" height="12" width="12" x="0.0" y="232.0"/><text x="17.0" y="242.2">Baboon</text></g><g class="legend reactive activate-serie" id="activate-serie-12"><rect class="color-12 reactive" height="12" width="12" x="0.0" y="253.0"/><text x="17.0" y="263.2">Lemur</text></g></g><g class="legends" transform="translate(790, 56)"/></g></svg>