<?xml version='1.0' encoding='utf-8'?>
<svg xmlns:xlink="http://www.w3.org/1999/xlink" xmlns="http://www.w3.org/2000/svg" id="chart-82e1752c-cbec-49bf-a073-97b6ba62143a" class="pygal-chart" viewBox="0 0 800 600"><!--Generated with pygal 2.3.0 (lxml) ©Kozea 2012-2016 on 2017-05-23--><!--http://pygal.org--><!--http://github.com/Kozea/pygal--><defs><style type="text/css">#chart-82e1752c-cbec-49bf-a073-97b6ba62143a{-webkit-user-select:none;-webkit-font-smoothing:antialiased;font-family:Consolas,"Liberation Mono",Menlo,Courier,monospace}#chart-82e1752c-cbec-49bf-a073-97b6ba62143a .title{font-family:Consolas,"Liberation Mono",Menlo,Courier,monospace;font-size:16px}#chart-82e1752c-cbec-49bf-a073-97b6ba62143a .legends .legend text{font-family:Consolas,"Liberation Mono",Menlo,Courier,monospace;font-size:14px}#chart-82e1752c-cbec-49bf-a073-97b6ba62143a .axis text{font-family:Consolas,"Liberation Mono",Menlo,Courier,monospace;font-size:10px}#chart-82e1752c-cbec-49bf-a073-97b6ba62143a .axis text.major{font-family:Consolas,"Liberation Mono",Menlo,Courier,monospace;font-size:10px}#chart-82e1752c-cbec-49bf-a073-97b6ba62143a .text-overlay text.value{font-family:Consolas,"Liberation Mono",Menlo,Courier,monospace;font-size:16px}#chart-82e1752c-cbec-49bf-a073-97b6ba62143a .text-overlay text.label{font-family:Consolas,"Liberation Mono",Menlo,Courier,monospace;font-size:10px}#chart-82e1752c-cbec-49bf-a073-97b6ba62143a .tooltip{font-family:Consolas,"Liberation Mono",Menlo,Courier,monospace;font-size:14px}#chart-82e1752c-cbec-49bf-a073-97b6ba62143a text.no_data{font-family:Consolas,"Liberation Mono",Menlo,Courier,monospace;font-size:64px}
#chart-82e1752c-cbec-49bf-a073-97b6ba62143a{background-color:rgba(249,249,249,1)}#chart-82e1752c-cbec-49bf-a073-97b6ba62143a path,#chart-82e1752c-cbec-49bf-a073-97b6ba62143a line,#chart-82e1752c-cbec-49bf-a073-97b6ba62143a rect,#chart-82e1752c-cbec-49bf-a073-97b6ba62143a circle{-webkit-transition:150ms;-moz-transition:150ms;transition:150ms}#chart-82e1752c-cbec-49bf-a073-97b6ba62143a .graph &gt; .background{fill:rgba(249,249,249,1)}#chart-82e1752c-cbec-49bf-a073-97b6ba62143a .plot &gt; .background{fill:rgba(255,255,255,1)}#chart-82e1752c-cbec-49bf-a073-97b6ba62143a .graph{fill:rgba(0,0,0,.87)}#chart-82e1752c-cbec-49bf-a073-97b6ba62143a text.no_data{fill:rgba(0,0,0,1)}#chart-82e1752c-cbec-49bf-a073-97b6ba62143a .title{fill:rgba(0,0,0,1)}#chart-82e1752c-cbec-49bf-a073-97b6ba62143a .legends .legend text{fill:rgba(0,0,0,.87)}#chart-82e1752c-cbec-49bf-a073-97b6ba62143a .legends .legend:hover text{fill:rgba(0,0,0,1)}#chart-82e1752c-cbec-49bf-a073-97b6ba62143a .axis .line{stroke:rgba(0,0,0,1)}#chart-82e1752c-cbec-49bf-a073-97b6ba62143a .axis .guide.line{stroke:rgba(0,0,0,.54)}#chart-82e1752c-cbec-49bf-a073-97b6ba62143a .axis .major.line{stroke:rgba(0,0,0,.87)}#chart-82e1752c-cbec-49bf-a073-97b6ba62143a .axis text.major{fill:rgba(0,0,0,1)}#chart-82e1752c-cbec-49bf-a073-97b6ba62143a .axis.y .guides:hover .guide.line,#chart-82e1752c-cbec-49bf-a073-97b6ba62143a .line-graph .axis.x .guides:hover .guide.line,#chart-82e1752c-cbec-49bf-a073-97b6ba62143a .stackedline-graph .axis.x .guides:hover .guide.line,#chart-82e1752c-cbec-49bf-a073-97b6ba62143a .xy-graph .axis.x .guides:hover .guide.line{stroke:rgba(0,0,0,1)}#chart-82e1752c-cbec-49bf-a073-97b6ba62143a .axis .guides:hover text{fill:rgba(0,0,0,1)}#chart-82e1752c-cbec-49bf-a073-97b6ba62143a .reactive{fill-opacity:.7;stroke-opacity:.8}#chart-82e1752c-cbec-49bf-a073-97b6ba62143a .ci{stroke:rgba(0,0,0,.87)}#chart-82e1752c-cbec-49bf-a073-97b6ba62143a .reactive.active,#chart-82e1752c-cbec-49bf-a073-97b6ba62143a .active .reactive{fill-opacity:.8;stroke-opacity:.9;stroke-width:4}#chart-82e1752c-cbec-49bf-a073-97b6ba62143a .ci .reactive.active{stroke-width:1.5}#chart-82e1752c-cbec-49bf-a073-97b6ba62143a .series text{fill:rgba(0,0,0,1)}#chart-82e1752c-cbec-49bf-a073-97b6ba62143a .tooltip rect{fill:rgba(255,255,255,1);stroke:rgba(0,0,0,1);-webkit-transition:opacity 150ms;-moz-transition:opacity 150ms;transition:opacity 150ms}#chart-82e1752c-cbec-49bf-a073-97b6ba62143a .tooltip .label{fill:rgba(0,0,0,.87)}#chart-82e1752c-cbec-49bf-a073-97b6ba62143a .tooltip .label{fill:rgba(0,0,0,.87)}#chart-82e1752c-cbec-49bf-a073-97b6ba62143a .tooltip .legend{font-size:.8em;fill:rgba(0,0,0,.54)}#chart-82e1752c-cbec-49bf-a073-97b6ba62143a .tooltip .x_label{font-size:.6em;fill:rgba(0,0,0,1)}#chart-82e1752c-cbec-49bf-a073-97b6ba62143a .tooltip .xlink{font-size:.5em;text-decoration:underline}#chart-82e1752c-cbec-49bf-a073-97b6ba62143a .tooltip .value{font-size:1.5em}#chart-82e1752c-cbec-49bf-a073-97b6ba62143a .bound{font-size:.5em}#chart-82e1752c-cbec-49bf-a073-97b6ba62143a .max-value{font-size:.75em;fill:rgba(0,0,0,.54)}#chart-82e1752c-cbec-49bf-a073-97b6ba62143a .map-element{fill:rgba(255,255,255,1);stroke:rgba(0,0,0,.54) !important}#chart-82e1752c-cbec-49bf-a073-97b6ba62143a .map-element .reactive{fill-opacity:inherit;stroke-opacity:inherit}#chart-82e1752c-cbec-49bf-a073-97b6ba62143a .color-0,#chart-82e1752c-cbec-49bf-a073-97b6ba62143a .color-0 a:visited{stroke:#F44336;fill:#F44336}#chart-82e1752c-cbec-49bf-a073-97b6ba62143a .text-overlay .color-0 text{fill:black}
#chart-82e1752c-cbec-49bf-a073-97b6ba62143a text.no_data{text-anchor:middle}#chart-82e1752c-cbec-49bf-a073-97b6ba62143a .guide.line{fill:none}#chart-82e1752c-cbec-49bf-a073-97b6ba62143a .centered{text-anchor:middle}#chart-82e1752c-cbec-49bf-a073-97b6ba62143a .title{text-anchor:middle}#chart-82e1752c-cbec-49bf-a073-97b6ba62143a .legends .legend text{fill-opacity:1}#chart-82e1752c-cbec-49bf-a073-97b6ba62143a .axis.x text{text-anchor:middle}#chart-82e1752c-cbec-49bf-a073-97b6ba62143a .axis.x:not(.web) text[transform]{text-anchor:start}#chart-82e1752c-cbec-49bf-a073-97b6ba62143a .axis.x:not(.web) text[transform].backwards{text-anchor:end}#chart-82e1752c-cbec-49bf-a073-97b6ba62143a .axis.y text{text-anchor:end}#chart-82e1752c-cbec-49bf-a073-97b6ba62143a .axis.y text[transform].backwards{text-anchor:start}#chart-82e1752c-cbec-49bf-a073-97b6ba62143a .axis.y2 text{text-anchor:start}#chart-82e1752c-cbec-49bf-a073-97b6ba62143a .axis.y2 text[transform].backwards{text-anchor:end}#chart-82e1752c-cbec-49bf-a073-97b6ba62143a .axis .guide.line{stroke-dasharray:4,4}#chart-82e1752c-cbec-49bf-a073-97b6ba62143a .axis .major.guide.line{stroke-dasharray:6,6}#chart-82e1752c-cbec-49bf-a073-97b6ba62143a .horizontal .axis.y .guide.line,#chart-82e1752c-cbec-49bf-a073-97b6ba62143a .horizontal .axis.y2 .guide.line,#chart-82e1752c-cbec-49bf-a073-97b6ba62143a .vertical .axis.x .guide.line{opacity:0}#chart-82e1752c-cbec-49bf-a073-97b6ba62143a .horizontal .axis.always_show .guide.line,#chart-82e1752c-cbec-49bf-a073-97b6ba62143a .vertical .axis.always_show .guide.line{opacity:1 !important}#chart-82e1752c-cbec-49bf-a073-97b6ba62143a .axis.y .guides:hover .guide.line,#chart-82e1752c-cbec-49bf-a073-97b6ba62143a .axis.y2 .guides:hover .guide.line,#chart-82e1752c-cbec-49bf-a073-97b6ba62143a .axis.x .guides:hover .guide.line{opacity:1}#chart-82e1752c-cbec-49bf-a073-97b6ba62143a .axis .guides:hover text{opacity:1}#chart-82e1752c-cbec-49bf-a073-97b6ba62143a .nofill{fill:none}#chart-82e1752c-cbec-49bf-a073-97b6ba62143a .subtle-fill{fill-opacity:.2}#chart-82e1752c-cbec-49bf-a073-97b6ba62143a .dot{stroke-width:1px;fill-opacity:1}#chart-82e1752c-cbec-49bf-a073-97b6ba62143a .dot.active{stroke-width:5px}#chart-82e1752c-cbec-49bf-a073-97b6ba62143a .dot.negative{fill:transparent}#chart-82e1752c-cbec-49bf-a073-97b6ba62143a text,#chart-82e1752c-cbec-49bf-a073-97b6ba62143a tspan{stroke:none !important}#chart-82e1752c-cbec-49bf-a073-97b6ba62143a .series text.active{opacity:1}#chart-82e1752c-cbec-49bf-a073-97b6ba62143a .tooltip rect{fill-opacity:.95;stroke-width:.5}#chart-82e1752c-cbec-49bf-a073-97b6ba62143a .tooltip text{fill-opacity:1}#chart-82e1752c-cbec-49bf-a073-97b6ba62143a .showable{visibility:hidden}#chart-82e1752c-cbec-49bf-a073-97b6ba62143a .showable.shown{visibility:visible}#chart-82e1752c-cbec-49bf-a073-97b6ba62143a .gauge-background{fill:rgba(229,229,229,1);stroke:none}#chart-82e1752c-cbec-49bf-a073-97b6ba62143a .bg-lines{stroke:rgba(249,249,249,1);stroke-width:2px}</style><script type="text/javascript">window.pygal = window.pygal || {};window.pygal.config = window.pygal.config || {};window.pygal.config['82e1752c-cbec-49bf-a073-97b6ba62143a'] = {"dynamic_print_values": false, "truncate_label": null, "inner_radius": 0, "print_values": false, "xrange": null, "box_mode": "extremes", "title": "Unique Human lncRNA genes with the orthologs in %", "legend_at_bottom_columns": null, "height": 600, "legend_at_bottom": false, "show_legend": true, "show_dots": true, "explicit_size": false, "y_labels_major": null, "show_minor_x_labels": true, "width": 800, "force_uri_protocol": "https", "half_pie": false, "style": {"major_label_font_family": "Consolas, \"Liberation Mono\", Menlo, Courier, monospace", "title_font_family": "Consolas, \"Liberation Mono\", Menlo, Courier, monospace", "stroke_opacity": ".8", "legend_font_family": "Consolas, \"Liberation Mono\", Menlo, Courier, monospace", "colors": ["#F44336", "#3F51B5", "#009688", "#FFC107", "#FF5722", "#9C27B0", "#03A9F4", "#8BC34A", "#FF9800", "#E91E63", "#2196F3", "#4CAF50", "#FFEB3B", "#673AB7", "#00BCD4", "#CDDC39", "#9E9E9E", "#607D8B"], "legend_font_size": 14, "no_data_font_family": "Consolas, \"Liberation Mono\", Menlo, Courier, monospace", "major_label_font_size": 10, "value_background": "rgba(229, 229, 229, 1)", "ci_colors": [], "label_font_family": "Consolas, \"Liberation Mono\", Menlo, Courier, monospace", "label_font_size": 10, "tooltip_font_size": 14, "value_font_size": 16, "font_family": "Consolas, \"Liberation Mono\", Menlo, Courier, monospace", "opacity": ".7", "foreground": "rgba(0, 0, 0, .87)", "plot_background": "rgba(255, 255, 255, 1)", "value_label_font_size": 10, "value_label_font_family": "Consolas, \"Liberation Mono\", Menlo, Courier, monospace", "background": "rgba(249, 249, 249, 1)", "no_data_font_size": 64, "value_colors": [], "guide_stroke_dasharray": "4,4", "transition": "150ms", "foreground_subtle": "rgba(0, 0, 0, .54)", "value_font_family": "Consolas, \"Liberation Mono\", Menlo, Courier, monospace", "tooltip_font_family": "Consolas, \"Liberation Mono\", Menlo, Courier, monospace", "title_font_size": 16, "stroke_opacity_hover": ".9", "major_guide_stroke_dasharray": "6,6", "opacity_hover": ".8", "foreground_strong": "rgba(0, 0, 0, 1)"}, "x_label_rotation": 0, "fill": false, "missing_value_fill_truncation": "x", "zero": 0, "margin_right": null, "interpolation_parameters": {}, "x_labels_major": null, "rounded_bars": null, "show_y_labels": true, "dots_size": 2.5, "show_y_guides": true, "show_minor_y_labels": true, "x_labels": ["Marmoset", "MacacaFascicularis", "GreenMonkey", "Atys", "Bonobo", "Chimp", "Gorilla", "Orangutan", "Rhesus", "Baboon", "Lemur"], "y_title": null, "order_min": null, "formatter": null, "disable_xml_declaration": false, "strict": false, "css": ["file://style.css", "file://graph.css"], "tooltip_fancy_mode": true, "defs": [], "show_only_major_dots": false, "y_label_rotation": 0, "show_x_labels": true, "min_scale": 4, "show_x_guides": false, "spacing": 10, "x_labels_major_count": null, "pretty_print": false, "tooltip_border_radius": 0, "interpolate": null, "js": ["//kozea.github.io/pygal.js/2.0.x/pygal-tooltips.min.js"], "y_labels": null, "stroke_style": null, "print_labels": false, "interpolation_precision": 250, "x_title": null, "y_labels_major_every": null, "logarithmic": false, "legends": ["% of human genes with orthologs"], "max_scale": 16, "print_zeroes": true, "no_data_text": "No data", "truncate_legend": null, "x_labels_major_every": null, "secondary_range": null, "legend_box_size": 12, "no_prefix": false, "stroke": true, "stack_from_top": false, "include_x_axis": false, "range": null, "classes": ["pygal-chart"], "margin_top": null, "margin_left": null, "y_labels_major_count": null, "margin_bottom": null, "inverse_y_axis": false, "margin": 20, "allow_interruptions": false, "print_values_position": "center"}</script><script type="text/javascript" xlink:href="https://kozea.github.io/pygal.js/2.0.x/pygal-tooltips.min.js"/></defs><title>Unique Human lncRNA genes with the orthologs in %</title><g class="graph bar-graph vertical"><rect class="background" height="600" width="800" x="0" y="0"/><g class="plot" transform="translate(190, 46)"><rect class="background" height="514" width="590.0" x="0" y="0"/><g class="axis y"><g class="guides"><path class="axis major line" d="M0.000000 504.115385 h590.000000"/><text class="major" x="-5" y="507.615384615">0</text><title>0</title></g><g class="guides"><path class="guide line" d="M0.000000 412.079860 h590.000000"/><text class="" x="-5" y="415.579859619">10</text><title>10</title></g><g class="guides"><path class="guide line" d="M0.000000 320.044335 h590.000000"/><text class="" x="-5" y="323.544334623">20</text><title>20</title></g><g class="guides"><path class="guide line" d="M0.000000 228.008810 h590.000000"/><text class="" x="-5" y="231.508809626">30</text><title>30</title></g><g class="guides"><path class="guide line" d="M0.000000 135.973285 h590.000000"/><text class="" x="-5" y="139.47328463">40</text><title>40</title></g><g class="guides"><path class="major guide line" d="M0.000000 43.937760 h590.000000"/><text class="major" x="-5" y="47.4377596333">50</text><title>50</title></g></g><g class="axis x"><path class="line" d="M0.000000 0.000000 v514.000000"/><g class="guides"><path class="guide line" d="M37.132867 0.000000 v514.000000"/><text class="" x="37.1328671329" y="529.0">Marmoset</text></g><g class="guides"><path class="guide line" d="M88.706294 0.000000 v514.000000"/><text class="" x="88.7062937063" y="529.0">MacacaF…</text><title>MacacaFascicularis</title></g><g class="guides"><path class="guide line" d="M140.279720 0.000000 v514.000000"/><text class="" x="140.27972028" y="529.0">GreenMo…</text><title>GreenMonkey</title></g><g class="guides"><path class="guide line" d="M191.853147 0.000000 v514.000000"/><text class="" x="191.853146853" y="529.0">Atys</text></g><g class="guides"><path class="guide line" d="M243.426573 0.000000 v514.000000"/><text class="" x="243.426573427" y="529.0">Bonobo</text></g><g class="guides"><path class="guide line" d="M295.000000 0.000000 v514.000000"/><text class="" x="295.0" y="529.0">Chimp</text></g><g class="guides"><path class="guide line" d="M346.573427 0.000000 v514.000000"/><text class="" x="346.573426573" y="529.0">Gorilla</text></g><g class="guides"><path class="guide line" d="M398.146853 0.000000 v514.000000"/><text class="" x="398.146853147" y="529.0">Orangut…</text><title>Orangutan</title></g><g class="guides"><path class="guide line" d="M449.720280 0.000000 v514.000000"/><text class="" x="449.72027972" y="529.0">Rhesus</text></g><g class="guides"><path class="guide line" d="M501.293706 0.000000 v514.000000"/><text class="" x="501.293706294" y="529.0">Baboon</text></g><g class="guides"><path class="guide line" d="M552.867133 0.000000 v514.000000"/><text class="" x="552.867132867" y="529.0">Lemur</text></g></g><g class="series serie-0 color-0"><g class="bars"><g class="bar"><rect class="rect reactive tooltip-trigger" height="393.727975935" rx="0" ry="0" width="39.9384615385" x="17.1636363636" y="110.387408681"/><desc class="value">42.78</desc><desc class="x centered">37.1328671329</desc><desc class="y centered">307.251396648</desc><desc class="x_label">Marmoset</desc></g><g class="bar"><rect class="rect reactive tooltip-trigger" height="457.232488182" rx="0" ry="0" width="39.9384615385" x="68.7370629371" y="46.8828964332"/><desc class="value">49.68</desc><desc class="x centered">88.7062937063</desc><desc class="y centered">275.499140524</desc><desc class="x_label">MacacaFascicularis</desc></g><g class="bar"><rect class="rect reactive tooltip-trigger" height="355.717304111" rx="0" ry="0" width="39.9384615385" x="120.31048951" y="148.398080504"/><desc class="value">38.65</desc><desc class="x centered">140.27972028</desc><desc class="y centered">326.25673256</desc><desc class="x_label">GreenMonkey</desc></g><g class="bar"><rect class="rect reactive tooltip-trigger" height="397.68550351" rx="0" ry="0" width="39.9384615385" x="171.883916084" y="106.429881106"/><desc class="value">43.21</desc><desc class="x centered">191.853146853</desc><desc class="y centered">305.272632861</desc><desc class="x_label">Atys</desc></g><g class="bar"><rect class="rect reactive tooltip-trigger" height="198.888769517" rx="0" ry="0" width="39.9384615385" x="223.457342657" y="305.226615098"/><desc class="value">21.61</desc><desc class="x centered">243.426573427</desc><desc class="y centered">404.670999857</desc><desc class="x_label">Bonobo</desc></g><g class="bar"><rect class="rect reactive tooltip-trigger" height="494.230769231" rx="0" ry="0" width="39.9384615385" x="275.030769231" y="9.88461538462"/><desc class="value">53.7</desc><desc class="x centered">295.0</desc><desc class="y centered">257.0</desc><desc class="x_label">Chimp</desc></g><g class="bar"><rect class="rect reactive tooltip-trigger" height="390.87487466" rx="0" ry="0" width="39.9384615385" x="326.604195804" y="113.240509956"/><desc class="value">42.47</desc><desc class="x centered">346.573426573</desc><desc class="y centered">308.677947285</desc><desc class="x_label">Gorilla</desc></g><g class="bar"><rect class="rect reactive tooltip-trigger" height="231.653416416" rx="0" ry="0" width="39.9384615385" x="378.177622378" y="272.461968199"/><desc class="value">25.17</desc><desc class="x centered">398.146853147</desc><desc class="y centered">388.288676407</desc><desc class="x_label">Orangutan</desc></g><g class="bar"><rect class="rect reactive tooltip-trigger" height="287.795086664" rx="0" ry="0" width="39.9384615385" x="429.751048951" y="216.320297952"/><desc class="value">31.27</desc><desc class="x centered">449.72027972</desc><desc class="y centered">360.217841283</desc><desc class="x_label">Rhesus</desc></g><g class="bar"><rect class="rect reactive tooltip-trigger" height="445.359905458" rx="0" ry="0" width="39.9384615385" x="481.324475524" y="58.7554791577"/><desc class="value">48.39</desc><desc class="x centered">501.293706294</desc><desc class="y centered">281.435431887</desc><desc class="x_label">Baboon</desc></g><g class="bar"><rect class="rect reactive tooltip-trigger" height="214.074631142" rx="0" ry="0" width="39.9384615385" x="532.897902098" y="290.040753474"/><desc class="value">23.26</desc><desc class="x centered">552.867132867</desc><desc class="y centered">397.078069045</desc><desc class="x_label">Lemur</desc></g></g></g></g><g class="titles"><text class="title plot_title" x="400.0" y="26">Unique Human lncRNA genes with the orthologs in %</text></g><g class="plot overlay" transform="translate(190, 46)"><g class="series serie-0 color-0"/></g><g class="plot text-overlay" transform="translate(190, 46)"><g class="series serie-0 color-0"/></g><g class="plot tooltip-overlay" transform="translate(190, 46)"><g class="tooltip" style="opacity: 0" transform="translate(0 0)"><rect class="tooltip-box" height="0" rx="0" ry="0" width="0"/><g class="text"/></g></g><g class="legends" transform="translate(10, 56)"><g class="legend reactive activate-serie" id="activate-serie-0"><rect class="color-0 reactive" height="12" width="12" x="0.0" y="1.0"/><text x="17.0" y="11.2">% of human gen…</text><title>% of human genes with orthologs</title></g></g><g class="legends" transform="translate(790, 56)"/></g></svg>