<?xml version='1.0' encoding='utf-8'?>
<svg xmlns:xlink="http://www.w3.org/1999/xlink" xmlns="http://www.w3.org/2000/svg" id="chart-05f84b59-d146-4863-af61-2fc60a93c259" class="pygal-chart" viewBox="0 0 800 600"><!--Generated with pygal 2.3.0 (lxml) ©Kozea 2012-2016 on 2017-05-23--><!--http://pygal.org--><!--http://github.com/Kozea/pygal--><defs><style type="text/css">#chart-05f84b59-d146-4863-af61-2fc60a93c259{-webkit-user-select:none;-webkit-font-smoothing:antialiased;font-family:Consolas,"Liberation Mono",Menlo,Courier,monospace}#chart-05f84b59-d146-4863-af61-2fc60a93c259 .title{font-family:Consolas,"Liberation Mono",Menlo,Courier,monospace;font-size:16px}#chart-05f84b59-d146-4863-af61-2fc60a93c259 .legends .legend text{font-family:Consolas,"Liberation Mono",Menlo,Courier,monospace;font-size:14px}#chart-05f84b59-d146-4863-af61-2fc60a93c259 .axis text{font-family:Consolas,"Liberation Mono",Menlo,Courier,monospace;font-size:10px}#chart-05f84b59-d146-4863-af61-2fc60a93c259 .axis text.major{font-family:Consolas,"Liberation Mono",Menlo,Courier,monospace;font-size:10px}#chart-05f84b59-d146-4863-af61-2fc60a93c259 .text-overlay text.value{font-family:Consolas,"Liberation Mono",Menlo,Courier,monospace;font-size:16px}#chart-05f84b59-d146-4863-af61-2fc60a93c259 .text-overlay text.label{font-family:Consolas,"Liberation Mono",Menlo,Courier,monospace;font-size:10px}#chart-05f84b59-d146-4863-af61-2fc60a93c259 .tooltip{font-family:Consolas,"Liberation Mono",Menlo,Courier,monospace;font-size:14px}#chart-05f84b59-d146-4863-af61-2fc60a93c259 text.no_data{font-family:Consolas,"Liberation Mono",Menlo,Courier,monospace;font-size:64px}
#chart-05f84b59-d146-4863-af61-2fc60a93c259{background-color:rgba(249,249,249,1)}#chart-05f84b59-d146-4863-af61-2fc60a93c259 path,#chart-05f84b59-d146-4863-af61-2fc60a93c259 line,#chart-05f84b59-d146-4863-af61-2fc60a93c259 rect,#chart-05f84b59-d146-4863-af61-2fc60a93c259 circle{-webkit-transition:150ms;-moz-transition:150ms;transition:150ms}#chart-05f84b59-d146-4863-af61-2fc60a93c259 .graph &gt; .background{fill:rgba(249,249,249,1)}#chart-05f84b59-d146-4863-af61-2fc60a93c259 .plot &gt; .background{fill:rgba(255,255,255,1)}#chart-05f84b59-d146-4863-af61-2fc60a93c259 .graph{fill:rgba(0,0,0,.87)}#chart-05f84b59-d146-4863-af61-2fc60a93c259 text.no_data{fill:rgba(0,0,0,1)}#chart-05f84b59-d146-4863-af61-2fc60a93c259 .title{fill:rgba(0,0,0,1)}#chart-05f84b59-d146-4863-af61-2fc60a93c259 .legends .legend text{fill:rgba(0,0,0,.87)}#chart-05f84b59-d146-4863-af61-2fc60a93c259 .legends .legend:hover text{fill:rgba(0,0,0,1)}#chart-05f84b59-d146-4863-af61-2fc60a93c259 .axis .line{stroke:rgba(0,0,0,1)}#chart-05f84b59-d146-4863-af61-2fc60a93c259 .axis .guide.line{stroke:rgba(0,0,0,.54)}#chart-05f84b59-d146-4863-af61-2fc60a93c259 .axis .major.line{stroke:rgba(0,0,0,.87)}#chart-05f84b59-d146-4863-af61-2fc60a93c259 .axis text.major{fill:rgba(0,0,0,1)}#chart-05f84b59-d146-4863-af61-2fc60a93c259 .axis.y .guides:hover .guide.line,#chart-05f84b59-d146-4863-af61-2fc60a93c259 .line-graph .axis.x .guides:hover .guide.line,#chart-05f84b59-d146-4863-af61-2fc60a93c259 .stackedline-graph .axis.x .guides:hover .guide.line,#chart-05f84b59-d146-4863-af61-2fc60a93c259 .xy-graph .axis.x .guides:hover .guide.line{stroke:rgba(0,0,0,1)}#chart-05f84b59-d146-4863-af61-2fc60a93c259 .axis .guides:hover text{fill:rgba(0,0,0,1)}#chart-05f84b59-d146-4863-af61-2fc60a93c259 .reactive{fill-opacity:.7;stroke-opacity:.8}#chart-05f84b59-d146-4863-af61-2fc60a93c259 .ci{stroke:rgba(0,0,0,.87)}#chart-05f84b59-d146-4863-af61-2fc60a93c259 .reactive.active,#chart-05f84b59-d146-4863-af61-2fc60a93c259 .active .reactive{fill-opacity:.8;stroke-opacity:.9;stroke-width:4}#chart-05f84b59-d146-4863-af61-2fc60a93c259 .ci .reactive.active{stroke-width:1.5}#chart-05f84b59-d146-4863-af61-2fc60a93c259 .series text{fill:rgba(0,0,0,1)}#chart-05f84b59-d146-4863-af61-2fc60a93c259 .tooltip rect{fill:rgba(255,255,255,1);stroke:rgba(0,0,0,1);-webkit-transition:opacity 150ms;-moz-transition:opacity 150ms;transition:opacity 150ms}#chart-05f84b59-d146-4863-af61-2fc60a93c259 .tooltip .label{fill:rgba(0,0,0,.87)}#chart-05f84b59-d146-4863-af61-2fc60a93c259 .tooltip .label{fill:rgba(0,0,0,.87)}#chart-05f84b59-d146-4863-af61-2fc60a93c259 .tooltip .legend{font-size:.8em;fill:rgba(0,0,0,.54)}#chart-05f84b59-d146-4863-af61-2fc60a93c259 .tooltip .x_label{font-size:.6em;fill:rgba(0,0,0,1)}#chart-05f84b59-d146-4863-af61-2fc60a93c259 .tooltip .xlink{font-size:.5em;text-decoration:underline}#chart-05f84b59-d146-4863-af61-2fc60a93c259 .tooltip .value{font-size:1.5em}#chart-05f84b59-d146-4863-af61-2fc60a93c259 .bound{font-size:.5em}#chart-05f84b59-d146-4863-af61-2fc60a93c259 .max-value{font-size:.75em;fill:rgba(0,0,0,.54)}#chart-05f84b59-d146-4863-af61-2fc60a93c259 .map-element{fill:rgba(255,255,255,1);stroke:rgba(0,0,0,.54) !important}#chart-05f84b59-d146-4863-af61-2fc60a93c259 .map-element .reactive{fill-opacity:inherit;stroke-opacity:inherit}#chart-05f84b59-d146-4863-af61-2fc60a93c259 .color-0,#chart-05f84b59-d146-4863-af61-2fc60a93c259 .color-0 a:visited{stroke:#336676;fill:#336676}#chart-05f84b59-d146-4863-af61-2fc60a93c259 .text-overlay .color-0 text{fill:black}
#chart-05f84b59-d146-4863-af61-2fc60a93c259 text.no_data{text-anchor:middle}#chart-05f84b59-d146-4863-af61-2fc60a93c259 .guide.line{fill:none}#chart-05f84b59-d146-4863-af61-2fc60a93c259 .centered{text-anchor:middle}#chart-05f84b59-d146-4863-af61-2fc60a93c259 .title{text-anchor:middle}#chart-05f84b59-d146-4863-af61-2fc60a93c259 .legends .legend text{fill-opacity:1}#chart-05f84b59-d146-4863-af61-2fc60a93c259 .axis.x text{text-anchor:middle}#chart-05f84b59-d146-4863-af61-2fc60a93c259 .axis.x:not(.web) text[transform]{text-anchor:start}#chart-05f84b59-d146-4863-af61-2fc60a93c259 .axis.x:not(.web) text[transform].backwards{text-anchor:end}#chart-05f84b59-d146-4863-af61-2fc60a93c259 .axis.y text{text-anchor:end}#chart-05f84b59-d146-4863-af61-2fc60a93c259 .axis.y text[transform].backwards{text-anchor:start}#chart-05f84b59-d146-4863-af61-2fc60a93c259 .axis.y2 text{text-anchor:start}#chart-05f84b59-d146-4863-af61-2fc60a93c259 .axis.y2 text[transform].backwards{text-anchor:end}#chart-05f84b59-d146-4863-af61-2fc60a93c259 .axis .guide.line{stroke-dasharray:4,4}#chart-05f84b59-d146-4863-af61-2fc60a93c259 .axis .major.guide.line{stroke-dasharray:6,6}#chart-05f84b59-d146-4863-af61-2fc60a93c259 .horizontal .axis.y .guide.line,#chart-05f84b59-d146-4863-af61-2fc60a93c259 .horizontal .axis.y2 .guide.line,#chart-05f84b59-d146-4863-af61-2fc60a93c259 .vertical .axis.x .guide.line{opacity:0}#chart-05f84b59-d146-4863-af61-2fc60a93c259 .horizontal .axis.always_show .guide.line,#chart-05f84b59-d146-4863-af61-2fc60a93c259 .vertical .axis.always_show .guide.line{opacity:1 !important}#chart-05f84b59-d146-4863-af61-2fc60a93c259 .axis.y .guides:hover .guide.line,#chart-05f84b59-d146-4863-af61-2fc60a93c259 .axis.y2 .guides:hover .guide.line,#chart-05f84b59-d146-4863-af61-2fc60a93c259 .axis.x .guides:hover .guide.line{opacity:1}#chart-05f84b59-d146-4863-af61-2fc60a93c259 .axis .guides:hover text{opacity:1}#chart-05f84b59-d146-4863-af61-2fc60a93c259 .nofill{fill:none}#chart-05f84b59-d146-4863-af61-2fc60a93c259 .subtle-fill{fill-opacity:.2}#chart-05f84b59-d146-4863-af61-2fc60a93c259 .dot{stroke-width:1px;fill-opacity:1}#chart-05f84b59-d146-4863-af61-2fc60a93c259 .dot.active{stroke-width:5px}#chart-05f84b59-d146-4863-af61-2fc60a93c259 .dot.negative{fill:transparent}#chart-05f84b59-d146-4863-af61-2fc60a93c259 text,#chart-05f84b59-d146-4863-af61-2fc60a93c259 tspan{stroke:none !important}#chart-05f84b59-d146-4863-af61-2fc60a93c259 .series text.active{opacity:1}#chart-05f84b59-d146-4863-af61-2fc60a93c259 .tooltip rect{fill-opacity:.95;stroke-width:.5}#chart-05f84b59-d146-4863-af61-2fc60a93c259 .tooltip text{fill-opacity:1}#chart-05f84b59-d146-4863-af61-2fc60a93c259 .showable{visibility:hidden}#chart-05f84b59-d146-4863-af61-2fc60a93c259 .showable.shown{visibility:visible}#chart-05f84b59-d146-4863-af61-2fc60a93c259 .gauge-background{fill:rgba(229,229,229,1);stroke:none}#chart-05f84b59-d146-4863-af61-2fc60a93c259 .bg-lines{stroke:rgba(249,249,249,1);stroke-width:2px}</style><script type="text/javascript">window.pygal = window.pygal || {};window.pygal.config = window.pygal.config || {};window.pygal.config['05f84b59-d146-4863-af61-2fc60a93c259'] = {"dynamic_print_values": false, "truncate_label": null, "inner_radius": 0, "print_values": false, "xrange": null, "box_mode": "extremes", "title": "Unique Human lncRNAs genes with the orthologs", "legend_at_bottom_columns": null, "height": 600, "legend_at_bottom": false, "show_legend": true, "show_dots": true, "explicit_size": false, "y_labels_major": null, "show_minor_x_labels": true, "width": 800, "force_uri_protocol": "https", "half_pie": false, "style": {"major_label_font_family": "Consolas, \"Liberation Mono\", Menlo, Courier, monospace", "title_font_family": "Consolas, \"Liberation Mono\", Menlo, Courier, monospace", "stroke_opacity": ".8", "legend_font_family": "Consolas, \"Liberation Mono\", Menlo, Courier, monospace", "colors": ["#336676", "#3c778a", "#44889e", "#4d99b1", "#60a5ba", "#74b0c3", "#88bbcb", "#9bc6d4", "#afd2dc", "#c3dde5"], "legend_font_size": 14, "no_data_font_family": "Consolas, \"Liberation Mono\", Menlo, Courier, monospace", "major_label_font_size": 10, "value_background": "rgba(229, 229, 229, 1)", "ci_colors": [], "label_font_family": "Consolas, \"Liberation Mono\", Menlo, Courier, monospace", "label_font_size": 10, "tooltip_font_size": 14, "value_font_size": 16, "font_family": "Consolas, \"Liberation Mono\", Menlo, Courier, monospace", "opacity": ".7", "foreground": "rgba(0, 0, 0, .87)", "plot_background": "rgba(255, 255, 255, 1)", "value_label_font_size": 10, "value_label_font_family": "Consolas, \"Liberation Mono\", Menlo, Courier, monospace", "background": "rgba(249, 249, 249, 1)", "no_data_font_size": 64, "value_colors": [], "guide_stroke_dasharray": "4,4", "transition": "150ms", "foreground_subtle": "rgba(0, 0, 0, .54)", "value_font_family": "Consolas, \"Liberation Mono\", Menlo, Courier, monospace", "tooltip_font_family": "Consolas, \"Liberation Mono\", Menlo, Courier, monospace", "title_font_size": 16, "stroke_opacity_hover": ".9", "major_guide_stroke_dasharray": "6,6", "opacity_hover": ".8", "foreground_strong": "rgba(0, 0, 0, 1)"}, "x_label_rotation": 0, "fill": false, "missing_value_fill_truncation": "x", "zero": 0, "margin_right": null, "interpolation_parameters": {}, "x_labels_major": null, "rounded_bars": null, "show_y_labels": true, "dots_size": 2.5, "show_y_guides": true, "show_minor_y_labels": true, "x_labels": ["Marmoset", "MacacaFascicularis", "GreenMonkey", "Atys", "Bonobo", "Chimp", "Gorilla", "Orangutan", "Rhesus", "Baboon", "Lemur"], "y_title": null, "order_min": null, "formatter": null, "disable_xml_declaration": false, "strict": false, "css": ["file://style.css", "file://graph.css"], "tooltip_fancy_mode": true, "defs": [], "show_only_major_dots": false, "y_label_rotation": 0, "show_x_labels": true, "min_scale": 4, "show_x_guides": false, "spacing": 10, "x_labels_major_count": null, "pretty_print": false, "tooltip_border_radius": 0, "interpolate": null, "js": ["//kozea.github.io/pygal.js/2.0.x/pygal-tooltips.min.js"], "y_labels": null, "stroke_style": null, "print_labels": false, "interpolation_precision": 250, "x_title": null, "y_labels_major_every": null, "logarithmic": false, "legends": ["No of human lncRNA genes with orthologs"], "max_scale": 16, "print_zeroes": true, "no_data_text": "No data", "truncate_legend": null, "x_labels_major_every": null, "secondary_range": null, "legend_box_size": 12, "no_prefix": false, "stroke": true, "stack_from_top": false, "include_x_axis": false, "range": null, "classes": ["pygal-chart"], "margin_top": null, "margin_left": null, "y_labels_major_count": null, "margin_bottom": null, "inverse_y_axis": false, "margin": 20, "allow_interruptions": false, "print_values_position": "center"}</script><script type="text/javascript" xlink:href="https://kozea.github.io/pygal.js/2.0.x/pygal-tooltips.min.js"/></defs><title>Unique Human lncRNAs genes with the orthologs</title><g class="graph bar-graph vertical"><rect class="background" height="600" width="800" x="0" y="0"/><g class="plot" transform="translate(202, 46)"><rect class="background" height="514" width="578.0" x="0" y="0"/><g class="axis y"><g class="guides"><path class="axis major line" d="M0.000000 504.115385 h578.000000"/><text class="major" x="-5" y="507.615384615">0</text><title>0</title></g><g class="guides"><path class="guide line" d="M0.000000 470.664910 h578.000000"/><text class="" x="-5" y="474.164909541">200</text><title>200</title></g><g class="guides"><path class="guide line" d="M0.000000 437.214434 h578.000000"/><text class="" x="-5" y="440.714434466">400</text><title>400</title></g><g class="guides"><path class="guide line" d="M0.000000 403.763959 h578.000000"/><text class="" x="-5" y="407.263959391">600</text><title>600</title></g><g class="guides"><path class="guide line" d="M0.000000 370.313484 h578.000000"/><text class="" x="-5" y="373.813484316">800</text><title>800</title></g><g class="guides"><path class="major guide line" d="M0.000000 336.863009 h578.000000"/><text class="major" x="-5" y="340.363009241">1000</text><title>1000</title></g><g class="guides"><path class="guide line" d="M0.000000 303.412534 h578.000000"/><text class="" x="-5" y="306.912534166">1200</text><title>1200</title></g><g class="guides"><path class="guide line" d="M0.000000 269.962059 h578.000000"/><text class="" x="-5" y="273.462059092">1400</text><title>1400</title></g><g class="guides"><path class="guide line" d="M0.000000 236.511584 h578.000000"/><text class="" x="-5" y="240.011584017">1600</text><title>1600</title></g><g class="guides"><path class="guide line" d="M0.000000 203.061109 h578.000000"/><text class="" x="-5" y="206.561108942">1800</text><title>1800</title></g><g class="guides"><path class="major guide line" d="M0.000000 169.610634 h578.000000"/><text class="major" x="-5" y="173.110633867">2000</text><title>2000</title></g><g class="guides"><path class="guide line" d="M0.000000 136.160159 h578.000000"/><text class="" x="-5" y="139.660158792">2200</text><title>2200</title></g><g class="guides"><path class="guide line" d="M0.000000 102.709684 h578.000000"/><text class="" x="-5" y="106.209683717">2400</text><title>2400</title></g><g class="guides"><path class="guide line" d="M0.000000 69.259209 h578.000000"/><text class="" x="-5" y="72.7592086425">2600</text><title>2600</title></g><g class="guides"><path class="guide line" d="M0.000000 35.808734 h578.000000"/><text class="" x="-5" y="39.3087335676">2800</text><title>2800</title></g></g><g class="axis x"><path class="line" d="M0.000000 0.000000 v514.000000"/><g class="guides"><path class="guide line" d="M36.377622 0.000000 v514.000000"/><text class="" x="36.3776223776" y="529.0">Marmoset</text></g><g class="guides"><path class="guide line" d="M86.902098 0.000000 v514.000000"/><text class="" x="86.9020979021" y="529.0">MacacaF…</text><title>MacacaFascicularis</title></g><g class="guides"><path class="guide line" d="M137.426573 0.000000 v514.000000"/><text class="" x="137.426573427" y="529.0">GreenMo…</text><title>GreenMonkey</title></g><g class="guides"><path class="guide line" d="M187.951049 0.000000 v514.000000"/><text class="" x="187.951048951" y="529.0">Atys</text></g><g class="guides"><path class="guide line" d="M238.475524 0.000000 v514.000000"/><text class="" x="238.475524476" y="529.0">Bonobo</text></g><g class="guides"><path class="guide line" d="M289.000000 0.000000 v514.000000"/><text class="" x="289.0" y="529.0">Chimp</text></g><g class="guides"><path class="guide line" d="M339.524476 0.000000 v514.000000"/><text class="" x="339.524475524" y="529.0">Gorilla</text></g><g class="guides"><path class="guide line" d="M390.048951 0.000000 v514.000000"/><text class="" x="390.048951049" y="529.0">Orangut…</text><title>Orangutan</title></g><g class="guides"><path class="guide line" d="M440.573427 0.000000 v514.000000"/><text class="" x="440.573426573" y="529.0">Rhesus</text></g><g class="guides"><path class="guide line" d="M491.097902 0.000000 v514.000000"/><text class="" x="491.097902098" y="529.0">Baboon</text></g><g class="guides"><path class="guide line" d="M541.622378 0.000000 v514.000000"/><text class="" x="541.622377622" y="529.0">Lemur</text></g></g><g class="series serie-0 color-0"><g class="bars"><g class="bar"><rect class="rect reactive tooltip-trigger" height="393.712091631" rx="0" ry="0" width="39.1261538462" x="16.8145454545" y="110.403292985"/><desc class="value">2354</desc><desc class="x centered">36.3776223776</desc><desc class="y centered">307.2593388</desc><desc class="x_label">Marmoset</desc></g><g class="bar"><rect class="rect reactive tooltip-trigger" height="457.267994273" rx="0" ry="0" width="39.1261538462" x="67.339020979" y="46.8473903423"/><desc class="value">2734</desc><desc class="x centered">86.9020979021</desc><desc class="y centered">275.481387479</desc><desc class="x_label">MacacaFascicularis</desc></g><g class="bar"><rect class="rect reactive tooltip-trigger" height="355.745802421" rx="0" ry="0" width="39.1261538462" x="117.863496503" y="148.369582194"/><desc class="value">2127</desc><desc class="x centered">137.426573427</desc><desc class="y centered">326.242483405</desc><desc class="x_label">GreenMonkey</desc></g><g class="bar"><rect class="rect reactive tooltip-trigger" height="397.72614864" rx="0" ry="0" width="39.1261538462" x="168.387972028" y="106.389235976"/><desc class="value">2378</desc><desc class="x centered">187.951048951</desc><desc class="y centered">305.252310295</desc><desc class="x_label">Atys</desc></g><g class="bar"><rect class="rect reactive tooltip-trigger" height="198.86307432" rx="0" ry="0" width="39.1261538462" x="218.912447552" y="305.252310295"/><desc class="value">1189</desc><desc class="x centered">238.475524476</desc><desc class="y centered">404.683847455</desc><desc class="x_label">Bonobo</desc></g><g class="bar"><rect class="rect reactive tooltip-trigger" height="494.230769231" rx="0" ry="0" width="39.1261538462" x="269.436923077" y="9.88461538462"/><desc class="value">2955</desc><desc class="x centered">289.0</desc><desc class="y centered">257.0</desc><desc class="x_label">Chimp</desc></g><g class="bar"><rect class="rect reactive tooltip-trigger" height="390.86880125" rx="0" ry="0" width="39.1261538462" x="319.961398601" y="113.246583366"/><desc class="value">2337</desc><desc class="x centered">339.524475524</desc><desc class="y centered">308.680983991</desc><desc class="x_label">Gorilla</desc></g><g class="bar"><rect class="rect reactive tooltip-trigger" height="231.644539893" rx="0" ry="0" width="39.1261538462" x="370.485874126" y="272.470844722"/><desc class="value">1385</desc><desc class="x centered">390.048951049</desc><desc class="y centered">388.293114669</desc><desc class="x_label">Orangutan</desc></g><g class="bar"><rect class="rect reactive tooltip-trigger" height="287.841338019" rx="0" ry="0" width="39.1261538462" x="421.01034965" y="216.274046596"/><desc class="value">1721</desc><desc class="x centered">440.573426573</desc><desc class="y centered">360.194715606</desc><desc class="x_label">Rhesus</desc></g><g class="bar"><rect class="rect reactive tooltip-trigger" height="445.393075622" rx="0" ry="0" width="39.1261538462" x="471.534825175" y="58.7223089939"/><desc class="value">2663</desc><desc class="x centered">491.097902098</desc><desc class="y centered">281.418846805</desc><desc class="x_label">Baboon</desc></g><g class="bar"><rect class="rect reactive tooltip-trigger" height="214.083040479" rx="0" ry="0" width="39.1261538462" x="522.059300699" y="290.032344136"/><desc class="value">1280</desc><desc class="x centered">541.622377622</desc><desc class="y centered">397.073864376</desc><desc class="x_label">Lemur</desc></g></g></g></g><g class="titles"><text class="title plot_title" x="400.0" y="26">Unique Human lncRNAs genes with the orthologs</text></g><g class="plot overlay" transform="translate(202, 46)"><g class="series serie-0 color-0"/></g><g class="plot text-overlay" transform="translate(202, 46)"><g class="series serie-0 color-0"/></g><g class="plot tooltip-overlay" transform="translate(202, 46)"><g class="tooltip" style="opacity: 0" transform="translate(0 0)"><rect class="tooltip-box" height="0" rx="0" ry="0" width="0"/><g class="text"/></g></g><g class="legends" transform="translate(10, 56)"><g class="legend reactive activate-serie" id="activate-serie-0"><rect class="color-0 reactive" height="12" width="12" x="0.0" y="1.0"/><text x="17.0" y="11.2">No of human ln…</text><title>No of human lncRNA genes with orthologs</title></g></g><g class="legends" transform="translate(790, 56)"/></g></svg>