<?xml version='1.0' encoding='utf-8'?>
<svg xmlns:xlink="http://www.w3.org/1999/xlink" xmlns="http://www.w3.org/2000/svg" id="chart-9b5aaebd-b07d-4559-b6ed-51bba3224ef2" class="pygal-chart" viewBox="0 0 800 600"><!--Generated with pygal 2.3.0 (lxml) ©Kozea 2012-2016 on 2017-06-02--><!--http://pygal.org--><!--http://github.com/Kozea/pygal--><defs><style type="text/css">#chart-9b5aaebd-b07d-4559-b6ed-51bba3224ef2{-webkit-user-select:none;-webkit-font-smoothing:antialiased;font-family:Consolas,"Liberation Mono",Menlo,Courier,monospace}#chart-9b5aaebd-b07d-4559-b6ed-51bba3224ef2 .title{font-family:Consolas,"Liberation Mono",Menlo,Courier,monospace;font-size:16px}#chart-9b5aaebd-b07d-4559-b6ed-51bba3224ef2 .legends .legend text{font-family:Consolas,"Liberation Mono",Menlo,Courier,monospace;font-size:14px}#chart-9b5aaebd-b07d-4559-b6ed-51bba3224ef2 .axis text{font-family:Consolas,"Liberation Mono",Menlo,Courier,monospace;font-size:10px}#chart-9b5aaebd-b07d-4559-b6ed-51bba3224ef2 .axis text.major{font-family:Consolas,"Liberation Mono",Menlo,Courier,monospace;font-size:10px}#chart-9b5aaebd-b07d-4559-b6ed-51bba3224ef2 .text-overlay text.value{font-family:Consolas,"Liberation Mono",Menlo,Courier,monospace;font-size:16px}#chart-9b5aaebd-b07d-4559-b6ed-51bba3224ef2 .text-overlay text.label{font-family:Consolas,"Liberation Mono",Menlo,Courier,monospace;font-size:10px}#chart-9b5aaebd-b07d-4559-b6ed-51bba3224ef2 .tooltip{font-family:Consolas,"Liberation Mono",Menlo,Courier,monospace;font-size:14px}#chart-9b5aaebd-b07d-4559-b6ed-51bba3224ef2 text.no_data{font-family:Consolas,"Liberation Mono",Menlo,Courier,monospace;font-size:64px}
#chart-9b5aaebd-b07d-4559-b6ed-51bba3224ef2{background-color:rgba(249,249,249,1)}#chart-9b5aaebd-b07d-4559-b6ed-51bba3224ef2 path,#chart-9b5aaebd-b07d-4559-b6ed-51bba3224ef2 line,#chart-9b5aaebd-b07d-4559-b6ed-51bba3224ef2 rect,#chart-9b5aaebd-b07d-4559-b6ed-51bba3224ef2 circle{-webkit-transition:150ms;-moz-transition:150ms;transition:150ms}#chart-9b5aaebd-b07d-4559-b6ed-51bba3224ef2 .graph &gt; .background{fill:rgba(249,249,249,1)}#chart-9b5aaebd-b07d-4559-b6ed-51bba3224ef2 .plot &gt; .background{fill:rgba(255,255,255,1)}#chart-9b5aaebd-b07d-4559-b6ed-51bba3224ef2 .graph{fill:rgba(0,0,0,.87)}#chart-9b5aaebd-b07d-4559-b6ed-51bba3224ef2 text.no_data{fill:rgba(0,0,0,1)}#chart-9b5aaebd-b07d-4559-b6ed-51bba3224ef2 .title{fill:rgba(0,0,0,1)}#chart-9b5aaebd-b07d-4559-b6ed-51bba3224ef2 .legends .legend text{fill:rgba(0,0,0,.87)}#chart-9b5aaebd-b07d-4559-b6ed-51bba3224ef2 .legends .legend:hover text{fill:rgba(0,0,0,1)}#chart-9b5aaebd-b07d-4559-b6ed-51bba3224ef2 .axis .line{stroke:rgba(0,0,0,1)}#chart-9b5aaebd-b07d-4559-b6ed-51bba3224ef2 .axis .guide.line{stroke:rgba(0,0,0,.54)}#chart-9b5aaebd-b07d-4559-b6ed-51bba3224ef2 .axis .major.line{stroke:rgba(0,0,0,.87)}#chart-9b5aaebd-b07d-4559-b6ed-51bba3224ef2 .axis text.major{fill:rgba(0,0,0,1)}#chart-9b5aaebd-b07d-4559-b6ed-51bba3224ef2 .axis.y .guides:hover .guide.line,#chart-9b5aaebd-b07d-4559-b6ed-51bba3224ef2 .line-graph .axis.x .guides:hover .guide.line,#chart-9b5aaebd-b07d-4559-b6ed-51bba3224ef2 .stackedline-graph .axis.x .guides:hover .guide.line,#chart-9b5aaebd-b07d-4559-b6ed-51bba3224ef2 .xy-graph .axis.x .guides:hover .guide.line{stroke:rgba(0,0,0,1)}#chart-9b5aaebd-b07d-4559-b6ed-51bba3224ef2 .axis .guides:hover text{fill:rgba(0,0,0,1)}#chart-9b5aaebd-b07d-4559-b6ed-51bba3224ef2 .reactive{fill-opacity:.7;stroke-opacity:.8}#chart-9b5aaebd-b07d-4559-b6ed-51bba3224ef2 .ci{stroke:rgba(0,0,0,.87)}#chart-9b5aaebd-b07d-4559-b6ed-51bba3224ef2 .reactive.active,#chart-9b5aaebd-b07d-4559-b6ed-51bba3224ef2 .active .reactive{fill-opacity:.8;stroke-opacity:.9;stroke-width:4}#chart-9b5aaebd-b07d-4559-b6ed-51bba3224ef2 .ci .reactive.active{stroke-width:1.5}#chart-9b5aaebd-b07d-4559-b6ed-51bba3224ef2 .series text{fill:rgba(0,0,0,1)}#chart-9b5aaebd-b07d-4559-b6ed-51bba3224ef2 .tooltip rect{fill:rgba(255,255,255,1);stroke:rgba(0,0,0,1);-webkit-transition:opacity 150ms;-moz-transition:opacity 150ms;transition:opacity 150ms}#chart-9b5aaebd-b07d-4559-b6ed-51bba3224ef2 .tooltip .label{fill:rgba(0,0,0,.87)}#chart-9b5aaebd-b07d-4559-b6ed-51bba3224ef2 .tooltip .label{fill:rgba(0,0,0,.87)}#chart-9b5aaebd-b07d-4559-b6ed-51bba3224ef2 .tooltip .legend{font-size:.8em;fill:rgba(0,0,0,.54)}#chart-9b5aaebd-b07d-4559-b6ed-51bba3224ef2 .tooltip .x_label{font-size:.6em;fill:rgba(0,0,0,1)}#chart-9b5aaebd-b07d-4559-b6ed-51bba3224ef2 .tooltip .xlink{font-size:.5em;text-decoration:underline}#chart-9b5aaebd-b07d-4559-b6ed-51bba3224ef2 .tooltip .value{font-size:1.5em}#chart-9b5aaebd-b07d-4559-b6ed-51bba3224ef2 .bound{font-size:.5em}#chart-9b5aaebd-b07d-4559-b6ed-51bba3224ef2 .max-value{font-size:.75em;fill:rgba(0,0,0,.54)}#chart-9b5aaebd-b07d-4559-b6ed-51bba3224ef2 .map-element{fill:rgba(255,255,255,1);stroke:rgba(0,0,0,.54) !important}#chart-9b5aaebd-b07d-4559-b6ed-51bba3224ef2 .map-element .reactive{fill-opacity:inherit;stroke-opacity:inherit}#chart-9b5aaebd-b07d-4559-b6ed-51bba3224ef2 .color-0,#chart-9b5aaebd-b07d-4559-b6ed-51bba3224ef2 .color-0 a:visited{stroke:#f44336;fill:#f44336}#chart-9b5aaebd-b07d-4559-b6ed-51bba3224ef2 .color-1,#chart-9b5aaebd-b07d-4559-b6ed-51bba3224ef2 .color-1 a:visited{stroke:#3f51b5;fill:#3f51b5}#chart-9b5aaebd-b07d-4559-b6ed-51bba3224ef2 .color-2,#chart-9b5aaebd-b07d-4559-b6ed-51bba3224ef2 .color-2 a:visited{stroke:#009688;fill:#009688}#chart-9b5aaebd-b07d-4559-b6ed-51bba3224ef2 .color-3,#chart-9b5aaebd-b07d-4559-b6ed-51bba3224ef2 .color-3 a:visited{stroke:#ffc107;fill:#ffc107}#chart-9b5aaebd-b07d-4559-b6ed-51bba3224ef2 .color-4,#chart-9b5aaebd-b07d-4559-b6ed-51bba3224ef2 .color-4 a:visited{stroke:#ff5722;fill:#ff5722}#chart-9b5aaebd-b07d-4559-b6ed-51bba3224ef2 .color-5,#chart-9b5aaebd-b07d-4559-b6ed-51bba3224ef2 .color-5 a:visited{stroke:#9c27b0;fill:#9c27b0}#chart-9b5aaebd-b07d-4559-b6ed-51bba3224ef2 .color-6,#chart-9b5aaebd-b07d-4559-b6ed-51bba3224ef2 .color-6 a:visited{stroke:#03a9f4;fill:#03a9f4}#chart-9b5aaebd-b07d-4559-b6ed-51bba3224ef2 .color-7,#chart-9b5aaebd-b07d-4559-b6ed-51bba3224ef2 .color-7 a:visited{stroke:#8bc34a;fill:#8bc34a}#chart-9b5aaebd-b07d-4559-b6ed-51bba3224ef2 .color-8,#chart-9b5aaebd-b07d-4559-b6ed-51bba3224ef2 .color-8 a:visited{stroke:#ff9800;fill:#ff9800}#chart-9b5aaebd-b07d-4559-b6ed-51bba3224ef2 .color-9,#chart-9b5aaebd-b07d-4559-b6ed-51bba3224ef2 .color-9 a:visited{stroke:#e91e63;fill:#e91e63}#chart-9b5aaebd-b07d-4559-b6ed-51bba3224ef2 .color-10,#chart-9b5aaebd-b07d-4559-b6ed-51bba3224ef2 .color-10 a:visited{stroke:#2196f3;fill:#2196f3}#chart-9b5aaebd-b07d-4559-b6ed-51bba3224ef2 .color-11,#chart-9b5aaebd-b07d-4559-b6ed-51bba3224ef2 .color-11 a:visited{stroke:#4caf50;fill:#4caf50}#chart-9b5aaebd-b07d-4559-b6ed-51bba3224ef2 .color-12,#chart-9b5aaebd-b07d-4559-b6ed-51bba3224ef2 .color-12 a:visited{stroke:#ffeb3b;fill:#ffeb3b}#chart-9b5aaebd-b07d-4559-b6ed-51bba3224ef2 .color-13,#chart-9b5aaebd-b07d-4559-b6ed-51bba3224ef2 .color-13 a:visited{stroke:#673ab7;fill:#673ab7}#chart-9b5aaebd-b07d-4559-b6ed-51bba3224ef2 .color-14,#chart-9b5aaebd-b07d-4559-b6ed-51bba3224ef2 .color-14 a:visited{stroke:#00bcd4;fill:#00bcd4}#chart-9b5aaebd-b07d-4559-b6ed-51bba3224ef2 .color-15,#chart-9b5aaebd-b07d-4559-b6ed-51bba3224ef2 .color-15 a:visited{stroke:#cddc39;fill:#cddc39}#chart-9b5aaebd-b07d-4559-b6ed-51bba3224ef2 .color-16,#chart-9b5aaebd-b07d-4559-b6ed-51bba3224ef2 .color-16 a:visited{stroke:#9e9e9e;fill:#9e9e9e}#chart-9b5aaebd-b07d-4559-b6ed-51bba3224ef2 .color-17,#chart-9b5aaebd-b07d-4559-b6ed-51bba3224ef2 .color-17 a:visited{stroke:#607d8b;fill:#607d8b}#chart-9b5aaebd-b07d-4559-b6ed-51bba3224ef2 .color-18,#chart-9b5aaebd-b07d-4559-b6ed-51bba3224ef2 .color-18 a:visited{stroke:#7b0f07;fill:#7b0f07}#chart-9b5aaebd-b07d-4559-b6ed-51bba3224ef2 .color-19,#chart-9b5aaebd-b07d-4559-b6ed-51bba3224ef2 .color-19 a:visited{stroke:#141938;fill:#141938}#chart-9b5aaebd-b07d-4559-b6ed-51bba3224ef2 .text-overlay .color-0 text{fill:black}#chart-9b5aaebd-b07d-4559-b6ed-51bba3224ef2 .text-overlay .color-1 text{fill:black}#chart-9b5aaebd-b07d-4559-b6ed-51bba3224ef2 .text-overlay .color-2 text{fill:black}#chart-9b5aaebd-b07d-4559-b6ed-51bba3224ef2 .text-overlay .color-3 text{fill:black}#chart-9b5aaebd-b07d-4559-b6ed-51bba3224ef2 .text-overlay .color-4 text{fill:black}#chart-9b5aaebd-b07d-4559-b6ed-51bba3224ef2 .text-overlay .color-5 text{fill:black}#chart-9b5aaebd-b07d-4559-b6ed-51bba3224ef2 .text-overlay .color-6 text{fill:black}#chart-9b5aaebd-b07d-4559-b6ed-51bba3224ef2 .text-overlay .color-7 text{fill:black}#chart-9b5aaebd-b07d-4559-b6ed-51bba3224ef2 .text-overlay .color-8 text{fill:black}#chart-9b5aaebd-b07d-4559-b6ed-51bba3224ef2 .text-overlay .color-9 text{fill:black}#chart-9b5aaebd-b07d-4559-b6ed-51bba3224ef2 .text-overlay .color-10 text{fill:black}#chart-9b5aaebd-b07d-4559-b6ed-51bba3224ef2 .text-overlay .color-11 text{fill:black}#chart-9b5aaebd-b07d-4559-b6ed-51bba3224ef2 .text-overlay .color-12 text{fill:black}#chart-9b5aaebd-b07d-4559-b6ed-51bba3224ef2 .text-overlay .color-13 text{fill:black}#chart-9b5aaebd-b07d-4559-b6ed-51bba3224ef2 .text-overlay .color-14 text{fill:black}#chart-9b5aaebd-b07d-4559-b6ed-51bba3224ef2 .text-overlay .color-15 text{fill:black}#chart-9b5aaebd-b07d-4559-b6ed-51bba3224ef2 .text-overlay .color-16 text{fill:black}#chart-9b5aaebd-b07d-4559-b6ed-51bba3224ef2 .text-overlay .color-17 text{fill:black}#chart-9b5aaebd-b07d-4559-b6ed-51bba3224ef2 .text-overlay .color-18 text{fill:black}#chart-9b5aaebd-b07d-4559-b6ed-51bba3224ef2 .text-overlay .color-19 text{fill:white}
#chart-9b5aaebd-b07d-4559-b6ed-51bba3224ef2 text.no_data{text-anchor:middle}#chart-9b5aaebd-b07d-4559-b6ed-51bba3224ef2 .guide.line{fill:none}#chart-9b5aaebd-b07d-4559-b6ed-51bba3224ef2 .centered{text-anchor:middle}#chart-9b5aaebd-b07d-4559-b6ed-51bba3224ef2 .title{text-anchor:middle}#chart-9b5aaebd-b07d-4559-b6ed-51bba3224ef2 .legends .legend text{fill-opacity:1}#chart-9b5aaebd-b07d-4559-b6ed-51bba3224ef2 .axis.x text{text-anchor:middle}#chart-9b5aaebd-b07d-4559-b6ed-51bba3224ef2 .axis.x:not(.web) text[transform]{text-anchor:start}#chart-9b5aaebd-b07d-4559-b6ed-51bba3224ef2 .axis.x:not(.web) text[transform].backwards{text-anchor:end}#chart-9b5aaebd-b07d-4559-b6ed-51bba3224ef2 .axis.y text{text-anchor:end}#chart-9b5aaebd-b07d-4559-b6ed-51bba3224ef2 .axis.y text[transform].backwards{text-anchor:start}#chart-9b5aaebd-b07d-4559-b6ed-51bba3224ef2 .axis.y2 text{text-anchor:start}#chart-9b5aaebd-b07d-4559-b6ed-51bba3224ef2 .axis.y2 text[transform].backwards{text-anchor:end}#chart-9b5aaebd-b07d-4559-b6ed-51bba3224ef2 .axis .guide.line{stroke-dasharray:4,4}#chart-9b5aaebd-b07d-4559-b6ed-51bba3224ef2 .axis .major.guide.line{stroke-dasharray:6,6}#chart-9b5aaebd-b07d-4559-b6ed-51bba3224ef2 .horizontal .axis.y .guide.line,#chart-9b5aaebd-b07d-4559-b6ed-51bba3224ef2 .horizontal .axis.y2 .guide.line,#chart-9b5aaebd-b07d-4559-b6ed-51bba3224ef2 .vertical .axis.x .guide.line{opacity:0}#chart-9b5aaebd-b07d-4559-b6ed-51bba3224ef2 .horizontal .axis.always_show .guide.line,#chart-9b5aaebd-b07d-4559-b6ed-51bba3224ef2 .vertical .axis.always_show .guide.line{opacity:1 !important}#chart-9b5aaebd-b07d-4559-b6ed-51bba3224ef2 .axis.y .guides:hover .guide.line,#chart-9b5aaebd-b07d-4559-b6ed-51bba3224ef2 .axis.y2 .guides:hover .guide.line,#chart-9b5aaebd-b07d-4559-b6ed-51bba3224ef2 .axis.x .guides:hover .guide.line{opacity:1}#chart-9b5aaebd-b07d-4559-b6ed-51bba3224ef2 .axis .guides:hover text{opacity:1}#chart-9b5aaebd-b07d-4559-b6ed-51bba3224ef2 .nofill{fill:none}#chart-9b5aaebd-b07d-4559-b6ed-51bba3224ef2 .subtle-fill{fill-opacity:.2}#chart-9b5aaebd-b07d-4559-b6ed-51bba3224ef2 .dot{stroke-width:1px;fill-opacity:1}#chart-9b5aaebd-b07d-4559-b6ed-51bba3224ef2 .dot.active{stroke-width:5px}#chart-9b5aaebd-b07d-4559-b6ed-51bba3224ef2 .dot.negative{fill:transparent}#chart-9b5aaebd-b07d-4559-b6ed-51bba3224ef2 text,#chart-9b5aaebd-b07d-4559-b6ed-51bba3224ef2 tspan{stroke:none !important}#chart-9b5aaebd-b07d-4559-b6ed-51bba3224ef2 .series text.active{opacity:1}#chart-9b5aaebd-b07d-4559-b6ed-51bba3224ef2 .tooltip rect{fill-opacity:.95;stroke-width:.5}#chart-9b5aaebd-b07d-4559-b6ed-51bba3224ef2 .tooltip text{fill-opacity:1}#chart-9b5aaebd-b07d-4559-b6ed-51bba3224ef2 .showable{visibility:hidden}#chart-9b5aaebd-b07d-4559-b6ed-51bba3224ef2 .showable.shown{visibility:visible}#chart-9b5aaebd-b07d-4559-b6ed-51bba3224ef2 .gauge-background{fill:rgba(229,229,229,1);stroke:none}#chart-9b5aaebd-b07d-4559-b6ed-51bba3224ef2 .bg-lines{stroke:rgba(249,249,249,1);stroke-width:2px}</style><script type="text/javascript">window.pygal = window.pygal || {};window.pygal.config = window.pygal.config || {};window.pygal.config['9b5aaebd-b07d-4559-b6ed-51bba3224ef2'] = {"dynamic_print_values": false, "truncate_label": null, "inner_radius": 0, "print_values": true, "xrange": null, "box_mode": "extremes", "title": "Human lncRNA biotypes without orthologs", "legend_at_bottom_columns": null, "height": 600, "legend_at_bottom": false, "show_legend": true, "show_dots": true, "explicit_size": false, "y_labels_major": null, "show_minor_x_labels": true, "width": 800, "force_uri_protocol": "https", "half_pie": false, "style": {"major_label_font_family": "Consolas, \"Liberation Mono\", Menlo, Courier, monospace", "title_font_family": "Consolas, \"Liberation Mono\", Menlo, Courier, monospace", "stroke_opacity": ".8", "legend_font_family": "Consolas, \"Liberation Mono\", Menlo, Courier, monospace", "colors": ["#F44336", "#3F51B5", "#009688", "#FFC107", "#FF5722", "#9C27B0", "#03A9F4", "#8BC34A", "#FF9800", "#E91E63", "#2196F3", "#4CAF50", "#FFEB3B", "#673AB7", "#00BCD4", "#CDDC39", "#9E9E9E", "#607D8B"], "legend_font_size": 14, "no_data_font_family": "Consolas, \"Liberation Mono\", Menlo, Courier, monospace", "major_label_font_size": 10, "value_background": "rgba(229, 229, 229, 1)", "ci_colors": [], "label_font_family": "Consolas, \"Liberation Mono\", Menlo, Courier, monospace", "label_font_size": 10, "tooltip_font_size": 14, "value_font_size": 16, "font_family": "Consolas, \"Liberation Mono\", Menlo, Courier, monospace", "opacity": ".7", "foreground": "rgba(0, 0, 0, .87)", "plot_background": "rgba(255, 255, 255, 1)", "value_label_font_size": 10, "value_label_font_family": "Consolas, \"Liberation Mono\", Menlo, Courier, monospace", "background": "rgba(249, 249, 249, 1)", "no_data_font_size": 64, "value_colors": [], "guide_stroke_dasharray": "4,4", "transition": "150ms", "foreground_subtle": "rgba(0, 0, 0, .54)", "value_font_family": "Consolas, \"Liberation Mono\", Menlo, Courier, monospace", "tooltip_font_family": "Consolas, \"Liberation Mono\", Menlo, Courier, monospace", "title_font_size": 16, "stroke_opacity_hover": ".9", "major_guide_stroke_dasharray": "6,6", "opacity_hover": ".8", "foreground_strong": "rgba(0, 0, 0, 1)"}, "x_label_rotation": 0, "fill": false, "missing_value_fill_truncation": "x", "zero": 0, "margin_right": null, "interpolation_parameters": {}, "x_labels_major": null, "rounded_bars": null, "show_y_labels": true, "dots_size": 2.5, "show_y_guides": true, "show_minor_y_labels": true, "x_labels": null, "y_title": null, "order_min": null, "formatter": null, "disable_xml_declaration": false, "strict": false, "css": ["file://style.css", "file://graph.css"], "tooltip_fancy_mode": true, "defs": [], "show_only_major_dots": false, "y_label_rotation": 0, "show_x_labels": true, "min_scale": 4, "show_x_guides": false, "spacing": 10, "x_labels_major_count": null, "pretty_print": false, "tooltip_border_radius": 0, "interpolate": null, "js": ["//kozea.github.io/pygal.js/2.0.x/pygal-tooltips.min.js"], "y_labels": null, "stroke_style": null, "print_labels": false, "interpolation_precision": 250, "x_title": null, "y_labels_major_every": null, "logarithmic": false, "legends": ["\"\"", "\"3prime_overlapping_ncrna\"", "\"antisense\"", "\"lincRNA\"", "\"miRNA\"", "\"misc_RNA\"", "\"nonsense_mediated_decay\"", "\"processed_pseudogene\"", "\"processed_transcript\"", "\"protein_coding\"", "\"pseudogene\"", "\"retained_intron\"", "\"rRNA\"", "\"sense_intronic\"", "\"sense_overlapping\"", "\"snRNA\"", "\"transcribed_processed_pseudogene\"", "\"transcribed_unprocessed_pseudogene\"", "\"unitary_pseudogene\"", "\"unprocessed_pseudogene\""], "max_scale": 16, "print_zeroes": true, "no_data_text": "No data", "truncate_legend": null, "x_labels_major_every": null, "secondary_range": null, "legend_box_size": 12, "no_prefix": false, "stroke": true, "stack_from_top": false, "include_x_axis": false, "range": null, "classes": ["pygal-chart"], "margin_top": null, "margin_left": null, "y_labels_major_count": null, "margin_bottom": null, "inverse_y_axis": false, "margin": 20, "allow_interruptions": false, "print_values_position": "top"}</script><script type="text/javascript" xlink:href="https://kozea.github.io/pygal.js/2.0.x/pygal-tooltips.min.js"/></defs><title>Human lncRNA biotypes without orthologs</title><g class="graph bar-graph vertical"><rect class="background" height="600" width="800" x="0" y="0"/><g class="plot" transform="translate(196, 46)"><rect class="background" height="534" width="584.0" x="0" y="0"/><g class="axis y"><g class="guides"><path class="axis major line" d="M0.000000 523.730769 h584.000000"/><text class="major" x="-5" y="527.230769231">0</text><title>0</title></g><g class="guides"><path class="guide line" d="M0.000000 433.023027 h584.000000"/><text class="" x="-5" y="436.523026679">100</text><title>100</title></g><g class="guides"><path class="guide line" d="M0.000000 342.315284 h584.000000"/><text class="" x="-5" y="345.815284127">200</text><title>200</title></g><g class="guides"><path class="guide line" d="M0.000000 251.607542 h584.000000"/><text class="" x="-5" y="255.107541575">300</text><title>300</title></g><g class="guides"><path class="guide line" d="M0.000000 160.899799 h584.000000"/><text class="" x="-5" y="164.399799023">400</text><title>400</title></g><g class="guides"><path class="major guide line" d="M0.000000 70.192056 h584.000000"/><text class="major" x="-5" y="73.6920564707">500</text><title>500</title></g></g><g class="series serie-0 color-0"><g class="bars"><g class="bar"><rect class="rect reactive tooltip-trigger" height="41.7255615739" rx="0" ry="0" width="21.7427692308" x="46.4055384615" y="482.005207657"/><desc class="value">46</desc><desc class="x centered">57.2769230769</desc><desc class="y centered">502.867988444</desc></g></g></g><g class="series serie-1 color-1"><g class="bars"><g class="bar"><rect class="rect reactive tooltip-trigger" height="1.81415485104" rx="0" ry="0" width="21.7427692308" x="71.1132307692" y="521.91661438"/><desc class="value">2</desc><desc class="x centered">81.9846153846</desc><desc class="y centered">522.823691805</desc></g></g></g><g class="series serie-2 color-2"><g class="bars"><g class="bar"><rect class="rect reactive tooltip-trigger" height="46.2609487015" rx="0" ry="0" width="21.7427692308" x="95.8209230769" y="477.469820529"/><desc class="value">51</desc><desc class="x centered">106.692307692</desc><desc class="y centered">500.60029488</desc></g></g></g><g class="series serie-3 color-3"><g class="bars"><g class="bar"><rect class="rect reactive tooltip-trigger" height="35.3760195953" rx="0" ry="0" width="21.7427692308" x="120.528615385" y="488.354749635"/><desc class="value">39</desc><desc class="x centered">131.4</desc><desc class="y centered">506.042759433</desc></g></g></g><g class="series serie-4 color-4"><g class="bars"><g class="bar"><rect class="rect reactive tooltip-trigger" height="0.0" rx="0" ry="0" width="21.7427692308" x="145.236307692" y="523.730769231"/><desc class="value">0</desc><desc class="x centered">156.107692308</desc><desc class="y centered">523.730769231</desc></g></g></g><g class="series serie-5 color-5"><g class="bars"><g class="bar"><rect class="rect reactive tooltip-trigger" height="0.0" rx="0" ry="0" width="21.7427692308" x="169.944" y="523.730769231"/><desc class="value">0</desc><desc class="x centered">180.815384615</desc><desc class="y centered">523.730769231</desc></g></g></g><g class="series serie-6 color-6"><g class="bars"><g class="bar"><rect class="rect reactive tooltip-trigger" height="2.72123227656" rx="0" ry="0" width="21.7427692308" x="194.651692308" y="521.009536954"/><desc class="value">3</desc><desc class="x centered">205.523076923</desc><desc class="y centered">522.370153092</desc></g></g></g><g class="series serie-7 color-7"><g class="bars"><g class="bar"><rect class="rect reactive tooltip-trigger" height="0.90707742552" rx="0" ry="0" width="21.7427692308" x="219.359384615" y="522.823691805"/><desc class="value">1</desc><desc class="x centered">230.230769231</desc><desc class="y centered">523.277230518</desc></g></g></g><g class="series serie-8 color-8"><g class="bars"><g class="bar"><rect class="rect reactive tooltip-trigger" height="27.2123227656" rx="0" ry="0" width="21.7427692308" x="244.067076923" y="496.518446465"/><desc class="value">30</desc><desc class="x centered">254.938461538</desc><desc class="y centered">510.124607848</desc></g></g></g><g class="series serie-9 color-9"><g class="bars"><g class="bar"><rect class="rect reactive tooltip-trigger" height="36.2830970208" rx="0" ry="0" width="21.7427692308" x="268.774769231" y="487.44767221"/><desc class="value">40</desc><desc class="x centered">279.646153846</desc><desc class="y centered">505.58922072</desc></g></g></g><g class="series serie-10 color-10"><g class="bars"><g class="bar"><rect class="rect reactive tooltip-trigger" height="0.0" rx="0" ry="0" width="21.7427692308" x="293.482461538" y="523.730769231"/><desc class="value">0</desc><desc class="x centered">304.353846154</desc><desc class="y centered">523.730769231</desc></g></g></g><g class="series serie-11 color-11"><g class="bars"><g class="bar"><rect class="rect reactive tooltip-trigger" height="497.078429185" rx="0" ry="0" width="21.7427692308" x="318.190153846" y="26.6523400457"/><desc class="value">548</desc><desc class="x centered">329.061538462</desc><desc class="y centered">275.191554638</desc></g></g></g><g class="series serie-12 color-12"><g class="bars"><g class="bar"><rect class="rect reactive tooltip-trigger" height="0.0" rx="0" ry="0" width="21.7427692308" x="342.897846154" y="523.730769231"/><desc class="value">0</desc><desc class="x centered">353.769230769</desc><desc class="y centered">523.730769231</desc></g></g></g><g class="series serie-13 color-13"><g class="bars"><g class="bar"><rect class="rect reactive tooltip-trigger" height="14.5132388083" rx="0" ry="0" width="21.7427692308" x="367.605538462" y="509.217530422"/><desc class="value">16</desc><desc class="x centered">378.476923077</desc><desc class="y centered">516.474149827</desc></g></g></g><g class="series serie-14 color-14"><g class="bars"><g class="bar"><rect class="rect reactive tooltip-trigger" height="3.62830970208" rx="0" ry="0" width="21.7427692308" x="392.313230769" y="520.102459529"/><desc class="value">4</desc><desc class="x centered">403.184615385</desc><desc class="y centered">521.91661438</desc></g></g></g><g class="series serie-15 color-15"><g class="bars"><g class="bar"><rect class="rect reactive tooltip-trigger" height="0.0" rx="0" ry="0" width="21.7427692308" x="417.020923077" y="523.730769231"/><desc class="value">0</desc><desc class="x centered">427.892307692</desc><desc class="y centered">523.730769231</desc></g></g></g><g class="series serie-16 color-16"><g class="bars"><g class="bar"><rect class="rect reactive tooltip-trigger" height="0.0" rx="0" ry="0" width="21.7427692308" x="441.728615385" y="523.730769231"/><desc class="value">0</desc><desc class="x centered">452.6</desc><desc class="y centered">523.730769231</desc></g></g></g><g class="series serie-17 color-17"><g class="bars"><g class="bar"><rect class="rect reactive tooltip-trigger" height="0.0" rx="0" ry="0" width="21.7427692308" x="466.436307692" y="523.730769231"/><desc class="value">0</desc><desc class="x centered">477.307692308</desc><desc class="y centered">523.730769231</desc></g></g></g><g class="series serie-18 color-18"><g class="bars"><g class="bar"><rect class="rect reactive tooltip-trigger" height="0.90707742552" rx="0" ry="0" width="21.7427692308" x="491.144" y="522.823691805"/><desc class="value">1</desc><desc class="x centered">502.015384615</desc><desc class="y centered">523.277230518</desc></g></g></g><g class="series serie-19 color-19"><g class="bars"><g class="bar"><rect class="rect reactive tooltip-trigger" height="0.0" rx="0" ry="0" width="21.7427692308" x="515.851692308" y="523.730769231"/><desc class="value">0</desc><desc class="x centered">526.723076923</desc><desc class="y centered">523.730769231</desc></g></g></g></g><g class="titles"><text class="title plot_title" x="400.0" y="26">Human lncRNA biotypes without orthologs</text></g><g class="plot overlay" transform="translate(196, 46)"><g class="series serie-0 color-0"/><g class="series serie-1 color-1"/><g class="series serie-2 color-2"/><g class="series serie-3 color-3"/><g class="series serie-4 color-4"/><g class="series serie-5 color-5"/><g class="series serie-6 color-6"/><g class="series serie-7 color-7"/><g class="series serie-8 color-8"/><g class="series serie-9 color-9"/><g class="series serie-10 color-10"/><g class="series serie-11 color-11"/><g class="series serie-12 color-12"/><g class="series serie-13 color-13"/><g class="series serie-14 color-14"/><g class="series serie-15 color-15"/><g class="series serie-16 color-16"/><g class="series serie-17 color-17"/><g class="series serie-18 color-18"/><g class="series serie-19 color-19"/></g><g class="plot text-overlay" transform="translate(196, 46)"><g class="series serie-0 color-0"><text class="value" text-anchor="middle" x="57.2769230769" y="479.33854099">46</text></g><g class="series serie-1 color-1"><text class="value" text-anchor="middle" x="81.9846153846" y="519.249947713">2</text></g><g class="series serie-2 color-2"><text class="value" text-anchor="middle" x="106.692307692" y="474.803153863">51</text></g><g class="series serie-3 color-3"><text class="value" text-anchor="middle" x="131.4" y="485.688082969">39</text></g><g class="series serie-4 color-4"><text class="value" text-anchor="middle" x="156.107692308" y="521.064102564">0</text></g><g class="series serie-5 color-5"><text class="value" text-anchor="middle" x="180.815384615" y="521.064102564">0</text></g><g class="series serie-6 color-6"><text class="value" text-anchor="middle" x="205.523076923" y="518.342870288">3</text></g><g class="series serie-7 color-7"><text class="value" text-anchor="middle" x="230.230769231" y="520.157025139">1</text></g><g class="series serie-8 color-8"><text class="value" text-anchor="middle" x="254.938461538" y="493.851779798">30</text></g><g class="series serie-9 color-9"><text class="value" text-anchor="middle" x="279.646153846" y="484.781005543">40</text></g><g class="series serie-10 color-10"><text class="value" text-anchor="middle" x="304.353846154" y="521.064102564">0</text></g><g class="series serie-11 color-11"><text class="value" text-anchor="middle" x="329.061538462" y="23.9856733791">548</text></g><g class="series serie-12 color-12"><text class="value" text-anchor="middle" x="353.769230769" y="521.064102564">0</text></g><g class="series serie-13 color-13"><text class="value" text-anchor="middle" x="378.476923077" y="506.550863756">16</text></g><g class="series serie-14 color-14"><text class="value" text-anchor="middle" x="403.184615385" y="517.435792862">4</text></g><g class="series serie-15 color-15"><text class="value" text-anchor="middle" x="427.892307692" y="521.064102564">0</text></g><g class="series serie-16 color-16"><text class="value" text-anchor="middle" x="452.6" y="521.064102564">0</text></g><g class="series serie-17 color-17"><text class="value" text-anchor="middle" x="477.307692308" y="521.064102564">0</text></g><g class="series serie-18 color-18"><text class="value" text-anchor="middle" x="502.015384615" y="520.157025139">1</text></g><g class="series serie-19 color-19"><text class="value" text-anchor="middle" x="526.723076923" y="521.064102564">0</text></g></g><g class="plot tooltip-overlay" transform="translate(196, 46)"><g class="tooltip" style="opacity: 0" transform="translate(0 0)"><rect class="tooltip-box" height="0" rx="0" ry="0" width="0"/><g class="text"/></g></g><g class="legends" transform="translate(10, 56)"><g class="legend reactive activate-serie" id="activate-serie-0"><rect class="color-0 reactive" height="12" width="12" x="0.0" y="1.0"/><text x="17.0" y="11.2">""</text></g><g class="legend reactive activate-serie" id="activate-serie-1"><rect class="color-1 reactive" height="12" width="12" x="0.0" y="22.0"/><text x="17.0" y="32.2">"3prime_overla…</text><title>"3prime_overlapping_ncrna"</title></g><g class="legend reactive activate-serie" id="activate-serie-2"><rect class="color-2 reactive" height="12" width="12" x="0.0" y="43.0"/><text x="17.0" y="53.2">"antisense"</text></g><g class="legend reactive activate-serie" id="activate-serie-3"><rect class="color-3 reactive" height="12" width="12" x="0.0" y="64.0"/><text x="17.0" y="74.2">"lincRNA"</text></g><g class="legend reactive activate-serie" id="activate-serie-4"><rect class="color-4 reactive" height="12" width="12" x="0.0" y="85.0"/><text x="17.0" y="95.2">"miRNA"</text></g><g class="legend reactive activate-serie" id="activate-serie-5"><rect class="color-5 reactive" height="12" width="12" x="0.0" y="106.0"/><text x="17.0" y="116.2">"misc_RNA"</text></g><g class="legend reactive activate-serie" id="activate-serie-6"><rect class="color-6 reactive" height="12" width="12" x="0.0" y="127.0"/><text x="17.0" y="137.2">"nonsense_medi…</text><title>"nonsense_mediated_decay"</title></g><g class="legend reactive activate-serie" id="activate-serie-7"><rect class="color-7 reactive" height="12" width="12" x="0.0" y="148.0"/><text x="17.0" y="158.2">"processed_pse…</text><title>"processed_pseudogene"</title></g><g class="legend reactive activate-serie" id="activate-serie-8"><rect class="color-8 reactive" height="12" width="12" x="0.0" y="169.0"/><text x="17.0" y="179.2">"processed_tra…</text><title>"processed_transcript"</title></g><g class="legend reactive activate-serie" id="activate-serie-9"><rect class="color-9 reactive" height="12" width="12" x="0.0" y="190.0"/><text x="17.0" y="200.2">"protein_codin…</text><title>"protein_coding"</title></g><g class="legend reactive activate-serie" id="activate-serie-10"><rect class="color-10 reactive" height="12" width="12" x="0.0" y="211.0"/><text x="17.0" y="221.2">"pseudogene"</text></g><g class="legend reactive activate-serie" id="activate-serie-11"><rect class="color-11 reactive" height="12" width="12" x="0.0" y="232.0"/><text x="17.0" y="242.2">"retained_intr…</text><title>"retained_intron"</title></g><g class="legend reactive activate-serie" id="activate-serie-12"><rect class="color-12 reactive" height="12" width="12" x="0.0" y="253.0"/><text x="17.0" y="263.2">"rRNA"</text></g><g class="legend reactive activate-serie" id="activate-serie-13"><rect class="color-13 reactive" height="12" width="12" x="0.0" y="274.0"/><text x="17.0" y="284.2">"sense_introni…</text><title>"sense_intronic"</title></g><g class="legend reactive activate-serie" id="activate-serie-14"><rect class="color-14 reactive" height="12" width="12" x="0.0" y="295.0"/><text x="17.0" y="305.2">"sense_overlap…</text><title>"sense_overlapping"</title></g><g class="legend reactive activate-serie" id="activate-serie-15"><rect class="color-15 reactive" height="12" width="12" x="0.0" y="316.0"/><text x="17.0" y="326.2">"snRNA"</text></g><g class="legend reactive activate-serie" id="activate-serie-16"><rect class="color-16 reactive" height="12" width="12" x="0.0" y="337.0"/><text x="17.0" y="347.2">"transcribed_p…</text><title>"transcribed_processed_pseudogene"</title></g><g class="legend reactive activate-serie" id="activate-serie-17"><rect class="color-17 reactive" height="12" width="12" x="0.0" y="358.0"/><text x="17.0" y="368.2">"transcribed_u…</text><title>"transcribed_unprocessed_pseudogene"</title></g><g class="legend reactive activate-serie" id="activate-serie-18"><rect class="color-0 reactive" height="12" width="12" x="0.0" y="379.0"/><text x="17.0" y="389.2">"unitary_pseud…</text><title>"unitary_pseudogene"</title></g><g class="legend reactive activate-serie" id="activate-serie-19"><rect class="color-1 reactive" height="12" width="12" x="0.0" y="400.0"/><text x="17.0" y="410.2">"unprocessed_p…</text><title>"unprocessed_pseudogene"</title></g></g><g class="legends" transform="translate(790, 56)"/></g></svg>