<?xml version='1.0' encoding='utf-8'?>
<svg xmlns:xlink="http://www.w3.org/1999/xlink" xmlns="http://www.w3.org/2000/svg" id="chart-e999f843-1790-4df9-b141-f5cb7e46037a" class="pygal-chart" viewBox="0 0 800 600"><!--Generated with pygal 2.3.0 (lxml) ©Kozea 2012-2016 on 2017-06-02--><!--http://pygal.org--><!--http://github.com/Kozea/pygal--><defs><style type="text/css">#chart-e999f843-1790-4df9-b141-f5cb7e46037a{-webkit-user-select:none;-webkit-font-smoothing:antialiased;font-family:Consolas,"Liberation Mono",Menlo,Courier,monospace}#chart-e999f843-1790-4df9-b141-f5cb7e46037a .title{font-family:Consolas,"Liberation Mono",Menlo,Courier,monospace;font-size:16px}#chart-e999f843-1790-4df9-b141-f5cb7e46037a .legends .legend text{font-family:Consolas,"Liberation Mono",Menlo,Courier,monospace;font-size:14px}#chart-e999f843-1790-4df9-b141-f5cb7e46037a .axis text{font-family:Consolas,"Liberation Mono",Menlo,Courier,monospace;font-size:10px}#chart-e999f843-1790-4df9-b141-f5cb7e46037a .axis text.major{font-family:Consolas,"Liberation Mono",Menlo,Courier,monospace;font-size:10px}#chart-e999f843-1790-4df9-b141-f5cb7e46037a .text-overlay text.value{font-family:Consolas,"Liberation Mono",Menlo,Courier,monospace;font-size:16px}#chart-e999f843-1790-4df9-b141-f5cb7e46037a .text-overlay text.label{font-family:Consolas,"Liberation Mono",Menlo,Courier,monospace;font-size:10px}#chart-e999f843-1790-4df9-b141-f5cb7e46037a .tooltip{font-family:Consolas,"Liberation Mono",Menlo,Courier,monospace;font-size:14px}#chart-e999f843-1790-4df9-b141-f5cb7e46037a text.no_data{font-family:Consolas,"Liberation Mono",Menlo,Courier,monospace;font-size:64px}
#chart-e999f843-1790-4df9-b141-f5cb7e46037a{background-color:rgba(249,249,249,1)}#chart-e999f843-1790-4df9-b141-f5cb7e46037a path,#chart-e999f843-1790-4df9-b141-f5cb7e46037a line,#chart-e999f843-1790-4df9-b141-f5cb7e46037a rect,#chart-e999f843-1790-4df9-b141-f5cb7e46037a circle{-webkit-transition:150ms;-moz-transition:150ms;transition:150ms}#chart-e999f843-1790-4df9-b141-f5cb7e46037a .graph &gt; .background{fill:rgba(249,249,249,1)}#chart-e999f843-1790-4df9-b141-f5cb7e46037a .plot &gt; .background{fill:rgba(255,255,255,1)}#chart-e999f843-1790-4df9-b141-f5cb7e46037a .graph{fill:rgba(0,0,0,.87)}#chart-e999f843-1790-4df9-b141-f5cb7e46037a text.no_data{fill:rgba(0,0,0,1)}#chart-e999f843-1790-4df9-b141-f5cb7e46037a .title{fill:rgba(0,0,0,1)}#chart-e999f843-1790-4df9-b141-f5cb7e46037a .legends .legend text{fill:rgba(0,0,0,.87)}#chart-e999f843-1790-4df9-b141-f5cb7e46037a .legends .legend:hover text{fill:rgba(0,0,0,1)}#chart-e999f843-1790-4df9-b141-f5cb7e46037a .axis .line{stroke:rgba(0,0,0,1)}#chart-e999f843-1790-4df9-b141-f5cb7e46037a .axis .guide.line{stroke:rgba(0,0,0,.54)}#chart-e999f843-1790-4df9-b141-f5cb7e46037a .axis .major.line{stroke:rgba(0,0,0,.87)}#chart-e999f843-1790-4df9-b141-f5cb7e46037a .axis text.major{fill:rgba(0,0,0,1)}#chart-e999f843-1790-4df9-b141-f5cb7e46037a .axis.y .guides:hover .guide.line,#chart-e999f843-1790-4df9-b141-f5cb7e46037a .line-graph .axis.x .guides:hover .guide.line,#chart-e999f843-1790-4df9-b141-f5cb7e46037a .stackedline-graph .axis.x .guides:hover .guide.line,#chart-e999f843-1790-4df9-b141-f5cb7e46037a .xy-graph .axis.x .guides:hover .guide.line{stroke:rgba(0,0,0,1)}#chart-e999f843-1790-4df9-b141-f5cb7e46037a .axis .guides:hover text{fill:rgba(0,0,0,1)}#chart-e999f843-1790-4df9-b141-f5cb7e46037a .reactive{fill-opacity:.7;stroke-opacity:.8}#chart-e999f843-1790-4df9-b141-f5cb7e46037a .ci{stroke:rgba(0,0,0,.87)}#chart-e999f843-1790-4df9-b141-f5cb7e46037a .reactive.active,#chart-e999f843-1790-4df9-b141-f5cb7e46037a .active .reactive{fill-opacity:.8;stroke-opacity:.9;stroke-width:4}#chart-e999f843-1790-4df9-b141-f5cb7e46037a .ci .reactive.active{stroke-width:1.5}#chart-e999f843-1790-4df9-b141-f5cb7e46037a .series text{fill:rgba(0,0,0,1)}#chart-e999f843-1790-4df9-b141-f5cb7e46037a .tooltip rect{fill:rgba(255,255,255,1);stroke:rgba(0,0,0,1);-webkit-transition:opacity 150ms;-moz-transition:opacity 150ms;transition:opacity 150ms}#chart-e999f843-1790-4df9-b141-f5cb7e46037a .tooltip .label{fill:rgba(0,0,0,.87)}#chart-e999f843-1790-4df9-b141-f5cb7e46037a .tooltip .label{fill:rgba(0,0,0,.87)}#chart-e999f843-1790-4df9-b141-f5cb7e46037a .tooltip .legend{font-size:.8em;fill:rgba(0,0,0,.54)}#chart-e999f843-1790-4df9-b141-f5cb7e46037a .tooltip .x_label{font-size:.6em;fill:rgba(0,0,0,1)}#chart-e999f843-1790-4df9-b141-f5cb7e46037a .tooltip .xlink{font-size:.5em;text-decoration:underline}#chart-e999f843-1790-4df9-b141-f5cb7e46037a .tooltip .value{font-size:1.5em}#chart-e999f843-1790-4df9-b141-f5cb7e46037a .bound{font-size:.5em}#chart-e999f843-1790-4df9-b141-f5cb7e46037a .max-value{font-size:.75em;fill:rgba(0,0,0,.54)}#chart-e999f843-1790-4df9-b141-f5cb7e46037a .map-element{fill:rgba(255,255,255,1);stroke:rgba(0,0,0,.54) !important}#chart-e999f843-1790-4df9-b141-f5cb7e46037a .map-element .reactive{fill-opacity:inherit;stroke-opacity:inherit}#chart-e999f843-1790-4df9-b141-f5cb7e46037a .color-0,#chart-e999f843-1790-4df9-b141-f5cb7e46037a .color-0 a:visited{stroke:#f44336;fill:#f44336}#chart-e999f843-1790-4df9-b141-f5cb7e46037a .color-1,#chart-e999f843-1790-4df9-b141-f5cb7e46037a .color-1 a:visited{stroke:#3f51b5;fill:#3f51b5}#chart-e999f843-1790-4df9-b141-f5cb7e46037a .color-2,#chart-e999f843-1790-4df9-b141-f5cb7e46037a .color-2 a:visited{stroke:#009688;fill:#009688}#chart-e999f843-1790-4df9-b141-f5cb7e46037a .color-3,#chart-e999f843-1790-4df9-b141-f5cb7e46037a .color-3 a:visited{stroke:#ffc107;fill:#ffc107}#chart-e999f843-1790-4df9-b141-f5cb7e46037a .color-4,#chart-e999f843-1790-4df9-b141-f5cb7e46037a .color-4 a:visited{stroke:#ff5722;fill:#ff5722}#chart-e999f843-1790-4df9-b141-f5cb7e46037a .color-5,#chart-e999f843-1790-4df9-b141-f5cb7e46037a .color-5 a:visited{stroke:#9c27b0;fill:#9c27b0}#chart-e999f843-1790-4df9-b141-f5cb7e46037a .color-6,#chart-e999f843-1790-4df9-b141-f5cb7e46037a .color-6 a:visited{stroke:#03a9f4;fill:#03a9f4}#chart-e999f843-1790-4df9-b141-f5cb7e46037a .color-7,#chart-e999f843-1790-4df9-b141-f5cb7e46037a .color-7 a:visited{stroke:#8bc34a;fill:#8bc34a}#chart-e999f843-1790-4df9-b141-f5cb7e46037a .color-8,#chart-e999f843-1790-4df9-b141-f5cb7e46037a .color-8 a:visited{stroke:#ff9800;fill:#ff9800}#chart-e999f843-1790-4df9-b141-f5cb7e46037a .color-9,#chart-e999f843-1790-4df9-b141-f5cb7e46037a .color-9 a:visited{stroke:#e91e63;fill:#e91e63}#chart-e999f843-1790-4df9-b141-f5cb7e46037a .color-10,#chart-e999f843-1790-4df9-b141-f5cb7e46037a .color-10 a:visited{stroke:#2196f3;fill:#2196f3}#chart-e999f843-1790-4df9-b141-f5cb7e46037a .color-11,#chart-e999f843-1790-4df9-b141-f5cb7e46037a .color-11 a:visited{stroke:#4caf50;fill:#4caf50}#chart-e999f843-1790-4df9-b141-f5cb7e46037a .color-12,#chart-e999f843-1790-4df9-b141-f5cb7e46037a .color-12 a:visited{stroke:#ffeb3b;fill:#ffeb3b}#chart-e999f843-1790-4df9-b141-f5cb7e46037a .color-13,#chart-e999f843-1790-4df9-b141-f5cb7e46037a .color-13 a:visited{stroke:#673ab7;fill:#673ab7}#chart-e999f843-1790-4df9-b141-f5cb7e46037a .color-14,#chart-e999f843-1790-4df9-b141-f5cb7e46037a .color-14 a:visited{stroke:#00bcd4;fill:#00bcd4}#chart-e999f843-1790-4df9-b141-f5cb7e46037a .color-15,#chart-e999f843-1790-4df9-b141-f5cb7e46037a .color-15 a:visited{stroke:#cddc39;fill:#cddc39}#chart-e999f843-1790-4df9-b141-f5cb7e46037a .color-16,#chart-e999f843-1790-4df9-b141-f5cb7e46037a .color-16 a:visited{stroke:#9e9e9e;fill:#9e9e9e}#chart-e999f843-1790-4df9-b141-f5cb7e46037a .color-17,#chart-e999f843-1790-4df9-b141-f5cb7e46037a .color-17 a:visited{stroke:#607d8b;fill:#607d8b}#chart-e999f843-1790-4df9-b141-f5cb7e46037a .color-18,#chart-e999f843-1790-4df9-b141-f5cb7e46037a .color-18 a:visited{stroke:#7b0f07;fill:#7b0f07}#chart-e999f843-1790-4df9-b141-f5cb7e46037a .color-19,#chart-e999f843-1790-4df9-b141-f5cb7e46037a .color-19 a:visited{stroke:#141938;fill:#141938}#chart-e999f843-1790-4df9-b141-f5cb7e46037a .text-overlay .color-0 text{fill:black}#chart-e999f843-1790-4df9-b141-f5cb7e46037a .text-overlay .color-1 text{fill:black}#chart-e999f843-1790-4df9-b141-f5cb7e46037a .text-overlay .color-2 text{fill:black}#chart-e999f843-1790-4df9-b141-f5cb7e46037a .text-overlay .color-3 text{fill:black}#chart-e999f843-1790-4df9-b141-f5cb7e46037a .text-overlay .color-4 text{fill:black}#chart-e999f843-1790-4df9-b141-f5cb7e46037a .text-overlay .color-5 text{fill:black}#chart-e999f843-1790-4df9-b141-f5cb7e46037a .text-overlay .color-6 text{fill:black}#chart-e999f843-1790-4df9-b141-f5cb7e46037a .text-overlay .color-7 text{fill:black}#chart-e999f843-1790-4df9-b141-f5cb7e46037a .text-overlay .color-8 text{fill:black}#chart-e999f843-1790-4df9-b141-f5cb7e46037a .text-overlay .color-9 text{fill:black}#chart-e999f843-1790-4df9-b141-f5cb7e46037a .text-overlay .color-10 text{fill:black}#chart-e999f843-1790-4df9-b141-f5cb7e46037a .text-overlay .color-11 text{fill:black}#chart-e999f843-1790-4df9-b141-f5cb7e46037a .text-overlay .color-12 text{fill:black}#chart-e999f843-1790-4df9-b141-f5cb7e46037a .text-overlay .color-13 text{fill:black}#chart-e999f843-1790-4df9-b141-f5cb7e46037a .text-overlay .color-14 text{fill:black}#chart-e999f843-1790-4df9-b141-f5cb7e46037a .text-overlay .color-15 text{fill:black}#chart-e999f843-1790-4df9-b141-f5cb7e46037a .text-overlay .color-16 text{fill:black}#chart-e999f843-1790-4df9-b141-f5cb7e46037a .text-overlay .color-17 text{fill:black}#chart-e999f843-1790-4df9-b141-f5cb7e46037a .text-overlay .color-18 text{fill:black}#chart-e999f843-1790-4df9-b141-f5cb7e46037a .text-overlay .color-19 text{fill:white}
#chart-e999f843-1790-4df9-b141-f5cb7e46037a text.no_data{text-anchor:middle}#chart-e999f843-1790-4df9-b141-f5cb7e46037a .guide.line{fill:none}#chart-e999f843-1790-4df9-b141-f5cb7e46037a .centered{text-anchor:middle}#chart-e999f843-1790-4df9-b141-f5cb7e46037a .title{text-anchor:middle}#chart-e999f843-1790-4df9-b141-f5cb7e46037a .legends .legend text{fill-opacity:1}#chart-e999f843-1790-4df9-b141-f5cb7e46037a .axis.x text{text-anchor:middle}#chart-e999f843-1790-4df9-b141-f5cb7e46037a .axis.x:not(.web) text[transform]{text-anchor:start}#chart-e999f843-1790-4df9-b141-f5cb7e46037a .axis.x:not(.web) text[transform].backwards{text-anchor:end}#chart-e999f843-1790-4df9-b141-f5cb7e46037a .axis.y text{text-anchor:end}#chart-e999f843-1790-4df9-b141-f5cb7e46037a .axis.y text[transform].backwards{text-anchor:start}#chart-e999f843-1790-4df9-b141-f5cb7e46037a .axis.y2 text{text-anchor:start}#chart-e999f843-1790-4df9-b141-f5cb7e46037a .axis.y2 text[transform].backwards{text-anchor:end}#chart-e999f843-1790-4df9-b141-f5cb7e46037a .axis .guide.line{stroke-dasharray:4,4}#chart-e999f843-1790-4df9-b141-f5cb7e46037a .axis .major.guide.line{stroke-dasharray:6,6}#chart-e999f843-1790-4df9-b141-f5cb7e46037a .horizontal .axis.y .guide.line,#chart-e999f843-1790-4df9-b141-f5cb7e46037a .horizontal .axis.y2 .guide.line,#chart-e999f843-1790-4df9-b141-f5cb7e46037a .vertical .axis.x .guide.line{opacity:0}#chart-e999f843-1790-4df9-b141-f5cb7e46037a .horizontal .axis.always_show .guide.line,#chart-e999f843-1790-4df9-b141-f5cb7e46037a .vertical .axis.always_show .guide.line{opacity:1 !important}#chart-e999f843-1790-4df9-b141-f5cb7e46037a .axis.y .guides:hover .guide.line,#chart-e999f843-1790-4df9-b141-f5cb7e46037a .axis.y2 .guides:hover .guide.line,#chart-e999f843-1790-4df9-b141-f5cb7e46037a .axis.x .guides:hover .guide.line{opacity:1}#chart-e999f843-1790-4df9-b141-f5cb7e46037a .axis .guides:hover text{opacity:1}#chart-e999f843-1790-4df9-b141-f5cb7e46037a .nofill{fill:none}#chart-e999f843-1790-4df9-b141-f5cb7e46037a .subtle-fill{fill-opacity:.2}#chart-e999f843-1790-4df9-b141-f5cb7e46037a .dot{stroke-width:1px;fill-opacity:1}#chart-e999f843-1790-4df9-b141-f5cb7e46037a .dot.active{stroke-width:5px}#chart-e999f843-1790-4df9-b141-f5cb7e46037a .dot.negative{fill:transparent}#chart-e999f843-1790-4df9-b141-f5cb7e46037a text,#chart-e999f843-1790-4df9-b141-f5cb7e46037a tspan{stroke:none !important}#chart-e999f843-1790-4df9-b141-f5cb7e46037a .series text.active{opacity:1}#chart-e999f843-1790-4df9-b141-f5cb7e46037a .tooltip rect{fill-opacity:.95;stroke-width:.5}#chart-e999f843-1790-4df9-b141-f5cb7e46037a .tooltip text{fill-opacity:1}#chart-e999f843-1790-4df9-b141-f5cb7e46037a .showable{visibility:hidden}#chart-e999f843-1790-4df9-b141-f5cb7e46037a .showable.shown{visibility:visible}#chart-e999f843-1790-4df9-b141-f5cb7e46037a .gauge-background{fill:rgba(229,229,229,1);stroke:none}#chart-e999f843-1790-4df9-b141-f5cb7e46037a .bg-lines{stroke:rgba(249,249,249,1);stroke-width:2px}</style><script type="text/javascript">window.pygal = window.pygal || {};window.pygal.config = window.pygal.config || {};window.pygal.config['e999f843-1790-4df9-b141-f5cb7e46037a'] = {"dynamic_print_values": false, "truncate_label": null, "inner_radius": 0, "print_values": true, "xrange": null, "box_mode": "extremes", "title": "Human lncRNA transcript biotypes in percents from source for the same group", "legend_at_bottom_columns": null, "height": 600, "legend_at_bottom": false, "show_legend": true, "show_dots": true, "explicit_size": false, "y_labels_major": null, "show_minor_x_labels": true, "width": 800, "force_uri_protocol": "https", "half_pie": false, "style": {"major_label_font_family": "Consolas, \"Liberation Mono\", Menlo, Courier, monospace", "title_font_family": "Consolas, \"Liberation Mono\", Menlo, Courier, monospace", "stroke_opacity": ".8", "legend_font_family": "Consolas, \"Liberation Mono\", Menlo, Courier, monospace", "colors": ["#F44336", "#3F51B5", "#009688", "#FFC107", "#FF5722", "#9C27B0", "#03A9F4", "#8BC34A", "#FF9800", "#E91E63", "#2196F3", "#4CAF50", "#FFEB3B", "#673AB7", "#00BCD4", "#CDDC39", "#9E9E9E", "#607D8B"], "legend_font_size": 14, "no_data_font_family": "Consolas, \"Liberation Mono\", Menlo, Courier, monospace", "major_label_font_size": 10, "value_background": "rgba(229, 229, 229, 1)", "ci_colors": [], "label_font_family": "Consolas, \"Liberation Mono\", Menlo, Courier, monospace", "label_font_size": 10, "tooltip_font_size": 14, "value_font_size": 16, "font_family": "Consolas, \"Liberation Mono\", Menlo, Courier, monospace", "opacity": ".7", "foreground": "rgba(0, 0, 0, .87)", "plot_background": "rgba(255, 255, 255, 1)", "value_label_font_size": 10, "value_label_font_family": "Consolas, \"Liberation Mono\", Menlo, Courier, monospace", "background": "rgba(249, 249, 249, 1)", "no_data_font_size": 64, "value_colors": [], "guide_stroke_dasharray": "4,4", "transition": "150ms", "foreground_subtle": "rgba(0, 0, 0, .54)", "value_font_family": "Consolas, \"Liberation Mono\", Menlo, Courier, monospace", "tooltip_font_family": "Consolas, \"Liberation Mono\", Menlo, Courier, monospace", "title_font_size": 16, "stroke_opacity_hover": ".9", "major_guide_stroke_dasharray": "6,6", "opacity_hover": ".8", "foreground_strong": "rgba(0, 0, 0, 1)"}, "x_label_rotation": 0, "fill": false, "missing_value_fill_truncation": "x", "zero": 0, "margin_right": null, "interpolation_parameters": {}, "x_labels_major": null, "rounded_bars": null, "show_y_labels": true, "dots_size": 2.5, "show_y_guides": true, "show_minor_y_labels": true, "x_labels": null, "y_title": null, "order_min": null, "formatter": null, "disable_xml_declaration": false, "strict": false, "css": ["file://style.css", "file://graph.css"], "tooltip_fancy_mode": true, "defs": [], "show_only_major_dots": false, "y_label_rotation": 0, "show_x_labels": true, "min_scale": 4, "show_x_guides": false, "spacing": 10, "x_labels_major_count": null, "pretty_print": false, "tooltip_border_radius": 0, "interpolate": null, "js": ["//kozea.github.io/pygal.js/2.0.x/pygal-tooltips.min.js"], "y_labels": null, "stroke_style": null, "print_labels": false, "interpolation_precision": 250, "x_title": null, "y_labels_major_every": null, "logarithmic": false, "legends": ["\"\"", "\"3prime_overlapping_ncrna\"", "\"antisense\"", "\"lincRNA\"", "\"miRNA\"", "\"misc_RNA\"", "\"nonsense_mediated_decay\"", "\"processed_pseudogene\"", "\"processed_transcript\"", "\"protein_coding\"", "\"pseudogene\"", "\"retained_intron\"", "\"rRNA\"", "\"sense_intronic\"", "\"sense_overlapping\"", "\"snRNA\"", "\"transcribed_processed_pseudogene\"", "\"transcribed_unprocessed_pseudogene\"", "\"unitary_pseudogene\"", "\"unprocessed_pseudogene\""], "max_scale": 16, "print_zeroes": true, "no_data_text": "No data", "truncate_legend": null, "x_labels_major_every": null, "secondary_range": null, "legend_box_size": 12, "no_prefix": false, "stroke": true, "stack_from_top": false, "include_x_axis": false, "range": null, "classes": ["pygal-chart"], "margin_top": null, "margin_left": null, "y_labels_major_count": null, "margin_bottom": null, "inverse_y_axis": false, "margin": 20, "allow_interruptions": false, "print_values_position": "top"}</script><script type="text/javascript" xlink:href="https://kozea.github.io/pygal.js/2.0.x/pygal-tooltips.min.js"/></defs><title>Human lncRNA transcript biotypes in percents from source for the same group</title><g class="graph bar-graph vertical"><rect class="background" height="600" width="800" x="0" y="0"/><g class="plot" transform="translate(190, 46)"><rect class="background" height="534" width="590.0" x="0" y="0"/><g class="axis y"><g class="guides"><path class="axis major line" d="M0.000000 523.730769 h590.000000"/><text class="major" x="-5" y="527.230769231">0</text><title>0</title></g><g class="guides"><path class="guide line" d="M0.000000 424.315083 h590.000000"/><text class="" x="-5" y="427.815083394">10</text><title>10</title></g><g class="guides"><path class="guide line" d="M0.000000 324.899398 h590.000000"/><text class="" x="-5" y="328.399397557">20</text><title>20</title></g><g class="guides"><path class="guide line" d="M0.000000 225.483712 h590.000000"/><text class="" x="-5" y="228.98371172">30</text><title>30</title></g><g class="guides"><path class="guide line" d="M0.000000 126.068026 h590.000000"/><text class="" x="-5" y="129.568025883">40</text><title>40</title></g><g class="guides"><path class="major guide line" d="M0.000000 26.652340 h590.000000"/><text class="major" x="-5" y="30.1523400457">50</text><title>50</title></g></g><g class="series serie-0 color-0"><g class="bars"><g class="bar"><rect class="rect reactive tooltip-trigger" height="29.8247057511" rx="0" ry="0" width="21.9661538462" x="46.8823076923" y="493.90606348"/><desc class="value">3</desc><desc class="x centered">57.8653846154</desc><desc class="y centered">508.818416355</desc></g></g></g><g class="series serie-1 color-1"><g class="bars"><g class="bar"><rect class="rect reactive tooltip-trigger" height="0.0" rx="0" ry="0" width="21.9661538462" x="71.8438461538" y="523.730769231"/><desc class="value">0</desc><desc class="x centered">82.8269230769</desc><desc class="y centered">523.730769231</desc></g></g></g><g class="series serie-2 color-2"><g class="bars"><g class="bar"><rect class="rect reactive tooltip-trigger" height="59.6494115022" rx="0" ry="0" width="21.9661538462" x="96.8053846154" y="464.081357729"/><desc class="value">6</desc><desc class="x centered">107.788461538</desc><desc class="y centered">493.90606348</desc></g></g></g><g class="series serie-3 color-3"><g class="bars"><g class="bar"><rect class="rect reactive tooltip-trigger" height="69.5909800859" rx="0" ry="0" width="21.9661538462" x="121.766923077" y="454.139789145"/><desc class="value">7</desc><desc class="x centered">132.75</desc><desc class="y centered">488.935279188</desc></g></g></g><g class="series serie-4 color-4"><g class="bars"><g class="bar"><rect class="rect reactive tooltip-trigger" height="0.0" rx="0" ry="0" width="21.9661538462" x="146.728461538" y="523.730769231"/><desc class="value">0</desc><desc class="x centered">157.711538462</desc><desc class="y centered">523.730769231</desc></g></g></g><g class="series serie-5 color-5"><g class="bars"><g class="bar"><rect class="rect reactive tooltip-trigger" height="0.0" rx="0" ry="0" width="21.9661538462" x="171.69" y="523.730769231"/><desc class="value">0</desc><desc class="x centered">182.673076923</desc><desc class="y centered">523.730769231</desc></g></g></g><g class="series serie-6 color-6"><g class="bars"><g class="bar"><rect class="rect reactive tooltip-trigger" height="0.0" rx="0" ry="0" width="21.9661538462" x="196.651538462" y="523.730769231"/><desc class="value">0</desc><desc class="x centered">207.634615385</desc><desc class="y centered">523.730769231</desc></g></g></g><g class="series serie-7 color-7"><g class="bars"><g class="bar"><rect class="rect reactive tooltip-trigger" height="69.5909800859" rx="0" ry="0" width="21.9661538462" x="221.613076923" y="454.139789145"/><desc class="value">7</desc><desc class="x centered">232.596153846</desc><desc class="y centered">488.935279188</desc></g></g></g><g class="series serie-8 color-8"><g class="bars"><g class="bar"><rect class="rect reactive tooltip-trigger" height="79.5325486696" rx="0" ry="0" width="21.9661538462" x="246.574615385" y="444.198220561"/><desc class="value">8</desc><desc class="x centered">257.557692308</desc><desc class="y centered">483.964494896</desc></g></g></g><g class="series serie-9 color-9"><g class="bars"><g class="bar"><rect class="rect reactive tooltip-trigger" height="19.8831371674" rx="0" ry="0" width="21.9661538462" x="271.536153846" y="503.847632063"/><desc class="value">2</desc><desc class="x centered">282.519230769</desc><desc class="y centered">513.789200647</desc></g></g></g><g class="series serie-10 color-10"><g class="bars"><g class="bar"><rect class="rect reactive tooltip-trigger" height="0.0" rx="0" ry="0" width="21.9661538462" x="296.497692308" y="523.730769231"/><desc class="value">0</desc><desc class="x centered">307.480769231</desc><desc class="y centered">523.730769231</desc></g></g></g><g class="series serie-11 color-11"><g class="bars"><g class="bar"><rect class="rect reactive tooltip-trigger" height="29.8247057511" rx="0" ry="0" width="21.9661538462" x="321.459230769" y="493.90606348"/><desc class="value">3</desc><desc class="x centered">332.442307692</desc><desc class="y centered">508.818416355</desc></g></g></g><g class="series serie-12 color-12"><g class="bars"><g class="bar"><rect class="rect reactive tooltip-trigger" height="0.0" rx="0" ry="0" width="21.9661538462" x="346.420769231" y="523.730769231"/><desc class="value">0</desc><desc class="x centered">357.403846154</desc><desc class="y centered">523.730769231</desc></g></g></g><g class="series serie-13 color-13"><g class="bars"><g class="bar"><rect class="rect reactive tooltip-trigger" height="9.9415685837" rx="0" ry="0" width="21.9661538462" x="371.382307692" y="513.789200647"/><desc class="value">1</desc><desc class="x centered">382.365384615</desc><desc class="y centered">518.759984939</desc></g></g></g><g class="series serie-14 color-14"><g class="bars"><g class="bar"><rect class="rect reactive tooltip-trigger" height="89.4741172533" rx="0" ry="0" width="21.9661538462" x="396.343846154" y="434.256651977"/><desc class="value">9</desc><desc class="x centered">407.326923077</desc><desc class="y centered">478.993710604</desc></g></g></g><g class="series serie-15 color-15"><g class="bars"><g class="bar"><rect class="rect reactive tooltip-trigger" height="0.0" rx="0" ry="0" width="21.9661538462" x="421.305384615" y="523.730769231"/><desc class="value">0</desc><desc class="x centered">432.288461538</desc><desc class="y centered">523.730769231</desc></g></g></g><g class="series serie-16 color-16"><g class="bars"><g class="bar"><rect class="rect reactive tooltip-trigger" height="497.078429185" rx="0" ry="0" width="21.9661538462" x="446.266923077" y="26.6523400457"/><desc class="value">50</desc><desc class="x centered">457.25</desc><desc class="y centered">275.191554638</desc></g></g></g><g class="series serie-17 color-17"><g class="bars"><g class="bar"><rect class="rect reactive tooltip-trigger" height="497.078429185" rx="0" ry="0" width="21.9661538462" x="471.228461538" y="26.6523400457"/><desc class="value">50</desc><desc class="x centered">482.211538462</desc><desc class="y centered">275.191554638</desc></g></g></g><g class="series serie-18 color-18"><g class="bars"><g class="bar"><rect class="rect reactive tooltip-trigger" height="0.0" rx="0" ry="0" width="21.9661538462" x="496.19" y="523.730769231"/><desc class="value">0</desc><desc class="x centered">507.173076923</desc><desc class="y centered">523.730769231</desc></g></g></g><g class="series serie-19 color-19"><g class="bars"><g class="bar"><rect class="rect reactive tooltip-trigger" height="169.006665923" rx="0" ry="0" width="21.9661538462" x="521.151538462" y="354.724103308"/><desc class="value">17</desc><desc class="x centered">532.134615385</desc><desc class="y centered">439.227436269</desc></g></g></g></g><g class="titles"><text class="title plot_title" x="400.0" y="26">Human lncRNA transcript biotypes in percents from source for the same group</text></g><g class="plot overlay" transform="translate(190, 46)"><g class="series serie-0 color-0"/><g class="series serie-1 color-1"/><g class="series serie-2 color-2"/><g class="series serie-3 color-3"/><g class="series serie-4 color-4"/><g class="series serie-5 color-5"/><g class="series serie-6 color-6"/><g class="series serie-7 color-7"/><g class="series serie-8 color-8"/><g class="series serie-9 color-9"/><g class="series serie-10 color-10"/><g class="series serie-11 color-11"/><g class="series serie-12 color-12"/><g class="series serie-13 color-13"/><g class="series serie-14 color-14"/><g class="series serie-15 color-15"/><g class="series serie-16 color-16"/><g class="series serie-17 color-17"/><g class="series serie-18 color-18"/><g class="series serie-19 color-19"/></g><g class="plot text-overlay" transform="translate(190, 46)"><g class="series serie-0 color-0"><text class="value" text-anchor="middle" x="57.8653846154" y="491.239396813">3</text></g><g class="series serie-1 color-1"><text class="value" text-anchor="middle" x="82.8269230769" y="521.064102564">0</text></g><g class="series serie-2 color-2"><text class="value" text-anchor="middle" x="107.788461538" y="461.414691062">6</text></g><g class="series serie-3 color-3"><text class="value" text-anchor="middle" x="132.75" y="451.473122478">7</text></g><g class="series serie-4 color-4"><text class="value" text-anchor="middle" x="157.711538462" y="521.064102564">0</text></g><g class="series serie-5 color-5"><text class="value" text-anchor="middle" x="182.673076923" y="521.064102564">0</text></g><g class="series serie-6 color-6"><text class="value" text-anchor="middle" x="207.634615385" y="521.064102564">0</text></g><g class="series serie-7 color-7"><text class="value" text-anchor="middle" x="232.596153846" y="451.473122478">7</text></g><g class="series serie-8 color-8"><text class="value" text-anchor="middle" x="257.557692308" y="441.531553894">8</text></g><g class="series serie-9 color-9"><text class="value" text-anchor="middle" x="282.519230769" y="501.180965397">2</text></g><g class="series serie-10 color-10"><text class="value" text-anchor="middle" x="307.480769231" y="521.064102564">0</text></g><g class="series serie-11 color-11"><text class="value" text-anchor="middle" x="332.442307692" y="491.239396813">3</text></g><g class="series serie-12 color-12"><text class="value" text-anchor="middle" x="357.403846154" y="521.064102564">0</text></g><g class="series serie-13 color-13"><text class="value" text-anchor="middle" x="382.365384615" y="511.12253398">1</text></g><g class="series serie-14 color-14"><text class="value" text-anchor="middle" x="407.326923077" y="431.589985311">9</text></g><g class="series serie-15 color-15"><text class="value" text-anchor="middle" x="432.288461538" y="521.064102564">0</text></g><g class="series serie-16 color-16"><text class="value" text-anchor="middle" x="457.25" y="23.9856733791">50</text></g><g class="series serie-17 color-17"><text class="value" text-anchor="middle" x="482.211538462" y="23.9856733791">50</text></g><g class="series serie-18 color-18"><text class="value" text-anchor="middle" x="507.173076923" y="521.064102564">0</text></g><g class="series serie-19 color-19"><text class="value" text-anchor="middle" x="532.134615385" y="352.057436641">17</text></g></g><g class="plot tooltip-overlay" transform="translate(190, 46)"><g class="tooltip" style="opacity: 0" transform="translate(0 0)"><rect class="tooltip-box" height="0" rx="0" ry="0" width="0"/><g class="text"/></g></g><g class="legends" transform="translate(10, 56)"><g class="legend reactive activate-serie" id="activate-serie-0"><rect class="color-0 reactive" height="12" width="12" x="0.0" y="1.0"/><text x="17.0" y="11.2">""</text></g><g class="legend reactive activate-serie" id="activate-serie-1"><rect class="color-1 reactive" height="12" width="12" x="0.0" y="22.0"/><text x="17.0" y="32.2">"3prime_overla…</text><title>"3prime_overlapping_ncrna"</title></g><g class="legend reactive activate-serie" id="activate-serie-2"><rect class="color-2 reactive" height="12" width="12" x="0.0" y="43.0"/><text x="17.0" y="53.2">"antisense"</text></g><g class="legend reactive activate-serie" id="activate-serie-3"><rect class="color-3 reactive" height="12" width="12" x="0.0" y="64.0"/><text x="17.0" y="74.2">"lincRNA"</text></g><g class="legend reactive activate-serie" id="activate-serie-4"><rect class="color-4 reactive" height="12" width="12" x="0.0" y="85.0"/><text x="17.0" y="95.2">"miRNA"</text></g><g class="legend reactive activate-serie" id="activate-serie-5"><rect class="color-5 reactive" height="12" width="12" x="0.0" y="106.0"/><text x="17.0" y="116.2">"misc_RNA"</text></g><g class="legend reactive activate-serie" id="activate-serie-6"><rect class="color-6 reactive" height="12" width="12" x="0.0" y="127.0"/><text x="17.0" y="137.2">"nonsense_medi…</text><title>"nonsense_mediated_decay"</title></g><g class="legend reactive activate-serie" id="activate-serie-7"><rect class="color-7 reactive" height="12" width="12" x="0.0" y="148.0"/><text x="17.0" y="158.2">"processed_pse…</text><title>"processed_pseudogene"</title></g><g class="legend reactive activate-serie" id="activate-serie-8"><rect class="color-8 reactive" height="12" width="12" x="0.0" y="169.0"/><text x="17.0" y="179.2">"processed_tra…</text><title>"processed_transcript"</title></g><g class="legend reactive activate-serie" id="activate-serie-9"><rect class="color-9 reactive" height="12" width="12" x="0.0" y="190.0"/><text x="17.0" y="200.2">"protein_codin…</text><title>"protein_coding"</title></g><g class="legend reactive activate-serie" id="activate-serie-10"><rect class="color-10 reactive" height="12" width="12" x="0.0" y="211.0"/><text x="17.0" y="221.2">"pseudogene"</text></g><g class="legend reactive activate-serie" id="activate-serie-11"><rect class="color-11 reactive" height="12" width="12" x="0.0" y="232.0"/><text x="17.0" y="242.2">"retained_intr…</text><title>"retained_intron"</title></g><g class="legend reactive activate-serie" id="activate-serie-12"><rect class="color-12 reactive" height="12" width="12" x="0.0" y="253.0"/><text x="17.0" y="263.2">"rRNA"</text></g><g class="legend reactive activate-serie" id="activate-serie-13"><rect class="color-13 reactive" height="12" width="12" x="0.0" y="274.0"/><text x="17.0" y="284.2">"sense_introni…</text><title>"sense_intronic"</title></g><g class="legend reactive activate-serie" id="activate-serie-14"><rect class="color-14 reactive" height="12" width="12" x="0.0" y="295.0"/><text x="17.0" y="305.2">"sense_overlap…</text><title>"sense_overlapping"</title></g><g class="legend reactive activate-serie" id="activate-serie-15"><rect class="color-15 reactive" height="12" width="12" x="0.0" y="316.0"/><text x="17.0" y="326.2">"snRNA"</text></g><g class="legend reactive activate-serie" id="activate-serie-16"><rect class="color-16 reactive" height="12" width="12" x="0.0" y="337.0"/><text x="17.0" y="347.2">"transcribed_p…</text><title>"transcribed_processed_pseudogene"</title></g><g class="legend reactive activate-serie" id="activate-serie-17"><rect class="color-17 reactive" height="12" width="12" x="0.0" y="358.0"/><text x="17.0" y="368.2">"transcribed_u…</text><title>"transcribed_unprocessed_pseudogene"</title></g><g class="legend reactive activate-serie" id="activate-serie-18"><rect class="color-0 reactive" height="12" width="12" x="0.0" y="379.0"/><text x="17.0" y="389.2">"unitary_pseud…</text><title>"unitary_pseudogene"</title></g><g class="legend reactive activate-serie" id="activate-serie-19"><rect class="color-1 reactive" height="12" width="12" x="0.0" y="400.0"/><text x="17.0" y="410.2">"unprocessed_p…</text><title>"unprocessed_pseudogene"</title></g></g><g class="legends" transform="translate(790, 56)"/></g></svg>