<?xml version="1.0" encoding="UTF-8"?>
<svg xmlns="http://www.w3.org/2000/svg" xmlns:xlink="http://www.w3.org/1999/xlink" width="900pt" height="521pt" viewBox="0 0 900 521" version="1.1">
<defs>
<g>
<symbol overflow="visible" id="glyph0-0">
<path style="stroke:none;" d="M 0.453125 1.59375 L 0.453125 -6.34375 L 4.953125 -6.34375 L 4.953125 1.59375 Z M 0.953125 1.09375 L 4.453125 1.09375 L 4.453125 -5.84375 L 0.953125 -5.84375 Z M 0.953125 1.09375 "/>
</symbol>
<symbol overflow="visible" id="glyph0-1">
<path style="stroke:none;" d="M 0.4375 -2.828125 L 2.8125 -2.828125 L 2.8125 -2.109375 L 0.4375 -2.109375 Z M 0.4375 -2.828125 "/>
</symbol>
<symbol overflow="visible" id="glyph0-2">
<path style="stroke:none;" d="M 1.109375 -0.75 L 2.5625 -0.75 L 2.5625 -5.75 L 0.984375 -5.4375 L 0.984375 -6.25 L 2.5625 -6.5625 L 3.453125 -6.5625 L 3.453125 -0.75 L 4.890625 -0.75 L 4.890625 0 L 1.109375 0 Z M 1.109375 -0.75 "/>
</symbol>
<symbol overflow="visible" id="glyph0-3">
<path style="stroke:none;" d="M 2.859375 -5.984375 C 2.398438 -5.984375 2.054688 -5.753906 1.828125 -5.296875 C 1.597656 -4.847656 1.484375 -4.175781 1.484375 -3.28125 C 1.484375 -2.375 1.597656 -1.695312 1.828125 -1.25 C 2.054688 -0.800781 2.398438 -0.578125 2.859375 -0.578125 C 3.316406 -0.578125 3.660156 -0.800781 3.890625 -1.25 C 4.117188 -1.695312 4.234375 -2.375 4.234375 -3.28125 C 4.234375 -4.175781 4.117188 -4.847656 3.890625 -5.296875 C 3.660156 -5.753906 3.316406 -5.984375 2.859375 -5.984375 Z M 2.859375 -6.6875 C 3.597656 -6.6875 4.160156 -6.394531 4.546875 -5.8125 C 4.929688 -5.226562 5.125 -4.382812 5.125 -3.28125 C 5.125 -2.175781 4.929688 -1.332031 4.546875 -0.75 C 4.160156 -0.164062 3.597656 0.125 2.859375 0.125 C 2.128906 0.125 1.566406 -0.164062 1.171875 -0.75 C 0.785156 -1.332031 0.59375 -2.175781 0.59375 -3.28125 C 0.59375 -4.382812 0.785156 -5.226562 1.171875 -5.8125 C 1.566406 -6.394531 2.128906 -6.6875 2.859375 -6.6875 Z M 2.859375 -6.6875 "/>
</symbol>
<symbol overflow="visible" id="glyph0-4">
<path style="stroke:none;" d="M 1.734375 -0.75 L 4.828125 -0.75 L 4.828125 0 L 0.65625 0 L 0.65625 -0.75 C 1 -1.09375 1.457031 -1.554688 2.03125 -2.140625 C 2.613281 -2.734375 2.984375 -3.113281 3.140625 -3.28125 C 3.421875 -3.601562 3.613281 -3.875 3.71875 -4.09375 C 3.832031 -4.320312 3.890625 -4.539062 3.890625 -4.75 C 3.890625 -5.101562 3.769531 -5.390625 3.53125 -5.609375 C 3.289062 -5.828125 2.972656 -5.9375 2.578125 -5.9375 C 2.296875 -5.9375 2 -5.882812 1.6875 -5.78125 C 1.382812 -5.6875 1.054688 -5.539062 0.703125 -5.34375 L 0.703125 -6.25 C 1.054688 -6.382812 1.390625 -6.488281 1.703125 -6.5625 C 2.015625 -6.644531 2.300781 -6.6875 2.5625 -6.6875 C 3.238281 -6.6875 3.78125 -6.515625 4.1875 -6.171875 C 4.59375 -5.828125 4.796875 -5.375 4.796875 -4.8125 C 4.796875 -4.539062 4.742188 -4.28125 4.640625 -4.03125 C 4.535156 -3.789062 4.351562 -3.507812 4.09375 -3.1875 C 4.019531 -3.101562 3.785156 -2.859375 3.390625 -2.453125 C 2.992188 -2.046875 2.441406 -1.476562 1.734375 -0.75 Z M 1.734375 -0.75 "/>
</symbol>
<symbol overflow="visible" id="glyph1-0">
<path style="stroke:none;" d="M 0.546875 1.9375 L 0.546875 -7.75 L 6.046875 -7.75 L 6.046875 1.9375 Z M 1.171875 1.328125 L 5.4375 1.328125 L 5.4375 -7.140625 L 1.171875 -7.140625 Z M 1.171875 1.328125 "/>
</symbol>
<symbol overflow="visible" id="glyph1-1">
<path style="stroke:none;" d="M 1.359375 -0.90625 L 3.140625 -0.90625 L 3.140625 -7.03125 L 1.203125 -6.640625 L 1.203125 -7.625 L 3.125 -8.015625 L 4.21875 -8.015625 L 4.21875 -0.90625 L 5.984375 -0.90625 L 5.984375 0 L 1.359375 0 Z M 1.359375 -0.90625 "/>
</symbol>
<symbol overflow="visible" id="glyph1-2">
<path style="stroke:none;" d="M 1.203125 -0.171875 L 1.203125 -1.15625 C 1.472656 -1.03125 1.75 -0.929688 2.03125 -0.859375 C 2.3125 -0.785156 2.585938 -0.75 2.859375 -0.75 C 3.578125 -0.75 4.125 -0.988281 4.5 -1.46875 C 4.875 -1.957031 5.085938 -2.691406 5.140625 -3.671875 C 4.929688 -3.367188 4.664062 -3.132812 4.34375 -2.96875 C 4.03125 -2.800781 3.679688 -2.71875 3.296875 -2.71875 C 2.492188 -2.71875 1.859375 -2.957031 1.390625 -3.4375 C 0.921875 -3.925781 0.6875 -4.59375 0.6875 -5.4375 C 0.6875 -6.257812 0.929688 -6.921875 1.421875 -7.421875 C 1.910156 -7.921875 2.5625 -8.171875 3.375 -8.171875 C 4.300781 -8.171875 5.003906 -7.8125 5.484375 -7.09375 C 5.972656 -6.382812 6.21875 -5.351562 6.21875 -4 C 6.21875 -2.738281 5.914062 -1.726562 5.3125 -0.96875 C 4.71875 -0.21875 3.914062 0.15625 2.90625 0.15625 C 2.632812 0.15625 2.359375 0.128906 2.078125 0.078125 C 1.796875 0.0234375 1.503906 -0.0546875 1.203125 -0.171875 Z M 3.375 -3.5625 C 3.851562 -3.5625 4.234375 -3.726562 4.515625 -4.0625 C 4.804688 -4.394531 4.953125 -4.851562 4.953125 -5.4375 C 4.953125 -6.007812 4.804688 -6.460938 4.515625 -6.796875 C 4.234375 -7.140625 3.851562 -7.3125 3.375 -7.3125 C 2.882812 -7.3125 2.492188 -7.140625 2.203125 -6.796875 C 1.921875 -6.460938 1.78125 -6.007812 1.78125 -5.4375 C 1.78125 -4.851562 1.921875 -4.394531 2.203125 -4.0625 C 2.492188 -3.726562 2.882812 -3.5625 3.375 -3.5625 Z M 3.375 -3.5625 "/>
</symbol>
<symbol overflow="visible" id="glyph1-3">
<path style="stroke:none;" d="M 3.5 -7.3125 C 2.9375 -7.3125 2.515625 -7.035156 2.234375 -6.484375 C 1.953125 -5.929688 1.8125 -5.101562 1.8125 -4 C 1.8125 -2.90625 1.953125 -2.082031 2.234375 -1.53125 C 2.515625 -0.976562 2.9375 -0.703125 3.5 -0.703125 C 4.0625 -0.703125 4.484375 -0.976562 4.765625 -1.53125 C 5.046875 -2.082031 5.1875 -2.90625 5.1875 -4 C 5.1875 -5.101562 5.046875 -5.929688 4.765625 -6.484375 C 4.484375 -7.035156 4.0625 -7.3125 3.5 -7.3125 Z M 3.5 -8.171875 C 4.394531 -8.171875 5.078125 -7.8125 5.546875 -7.09375 C 6.023438 -6.382812 6.265625 -5.351562 6.265625 -4 C 6.265625 -2.65625 6.023438 -1.625 5.546875 -0.90625 C 5.078125 -0.195312 4.394531 0.15625 3.5 0.15625 C 2.601562 0.15625 1.914062 -0.195312 1.4375 -0.90625 C 0.957031 -1.625 0.71875 -2.65625 0.71875 -4 C 0.71875 -5.351562 0.957031 -6.382812 1.4375 -7.09375 C 1.914062 -7.8125 2.601562 -8.171875 3.5 -8.171875 Z M 3.5 -8.171875 "/>
</symbol>
<symbol overflow="visible" id="glyph1-4">
<path style="stroke:none;" d="M 3.5 -3.8125 C 2.976562 -3.8125 2.570312 -3.671875 2.28125 -3.390625 C 1.988281 -3.117188 1.84375 -2.738281 1.84375 -2.25 C 1.84375 -1.769531 1.988281 -1.390625 2.28125 -1.109375 C 2.570312 -0.835938 2.976562 -0.703125 3.5 -0.703125 C 4.007812 -0.703125 4.410156 -0.835938 4.703125 -1.109375 C 5.003906 -1.390625 5.15625 -1.769531 5.15625 -2.25 C 5.15625 -2.738281 5.007812 -3.117188 4.71875 -3.390625 C 4.425781 -3.671875 4.019531 -3.8125 3.5 -3.8125 Z M 2.40625 -4.265625 C 1.945312 -4.378906 1.585938 -4.59375 1.328125 -4.90625 C 1.066406 -5.226562 0.9375 -5.617188 0.9375 -6.078125 C 0.9375 -6.722656 1.160156 -7.234375 1.609375 -7.609375 C 2.066406 -7.984375 2.695312 -8.171875 3.5 -8.171875 C 4.289062 -8.171875 4.914062 -7.984375 5.375 -7.609375 C 5.832031 -7.234375 6.0625 -6.722656 6.0625 -6.078125 C 6.0625 -5.617188 5.929688 -5.226562 5.671875 -4.90625 C 5.410156 -4.59375 5.050781 -4.378906 4.59375 -4.265625 C 5.113281 -4.148438 5.519531 -3.914062 5.8125 -3.5625 C 6.101562 -3.207031 6.25 -2.769531 6.25 -2.25 C 6.25 -1.476562 6.007812 -0.882812 5.53125 -0.46875 C 5.0625 -0.0507812 4.382812 0.15625 3.5 0.15625 C 2.613281 0.15625 1.929688 -0.0507812 1.453125 -0.46875 C 0.984375 -0.882812 0.75 -1.476562 0.75 -2.25 C 0.75 -2.769531 0.894531 -3.207031 1.1875 -3.5625 C 1.476562 -3.914062 1.882812 -4.148438 2.40625 -4.265625 Z M 2.015625 -5.984375 C 2.015625 -5.566406 2.144531 -5.238281 2.40625 -5 C 2.664062 -4.769531 3.03125 -4.65625 3.5 -4.65625 C 3.957031 -4.65625 4.316406 -4.769531 4.578125 -5 C 4.847656 -5.238281 4.984375 -5.566406 4.984375 -5.984375 C 4.984375 -6.398438 4.847656 -6.722656 4.578125 -6.953125 C 4.316406 -7.191406 3.957031 -7.3125 3.5 -7.3125 C 3.03125 -7.3125 2.664062 -7.191406 2.40625 -6.953125 C 2.144531 -6.722656 2.015625 -6.398438 2.015625 -5.984375 Z M 2.015625 -5.984375 "/>
</symbol>
<symbol overflow="visible" id="glyph1-5">
<path style="stroke:none;" d="M 2.109375 -0.90625 L 5.890625 -0.90625 L 5.890625 0 L 0.8125 0 L 0.8125 -0.90625 C 1.21875 -1.332031 1.773438 -1.90625 2.484375 -2.625 C 3.203125 -3.34375 3.648438 -3.804688 3.828125 -4.015625 C 4.171875 -4.410156 4.410156 -4.742188 4.546875 -5.015625 C 4.691406 -5.285156 4.765625 -5.550781 4.765625 -5.8125 C 4.765625 -6.238281 4.613281 -6.582031 4.3125 -6.84375 C 4.019531 -7.113281 3.628906 -7.25 3.140625 -7.25 C 2.804688 -7.25 2.445312 -7.1875 2.0625 -7.0625 C 1.6875 -6.945312 1.285156 -6.769531 0.859375 -6.53125 L 0.859375 -7.625 C 1.296875 -7.800781 1.703125 -7.9375 2.078125 -8.03125 C 2.460938 -8.125 2.8125 -8.171875 3.125 -8.171875 C 3.957031 -8.171875 4.617188 -7.960938 5.109375 -7.546875 C 5.609375 -7.128906 5.859375 -6.570312 5.859375 -5.875 C 5.859375 -5.539062 5.796875 -5.226562 5.671875 -4.9375 C 5.546875 -4.644531 5.320312 -4.296875 5 -3.890625 C 4.90625 -3.785156 4.617188 -3.484375 4.140625 -2.984375 C 3.660156 -2.492188 2.984375 -1.800781 2.109375 -0.90625 Z M 2.109375 -0.90625 "/>
</symbol>
<symbol overflow="visible" id="glyph1-6">
<path style="stroke:none;" d="M 1.1875 -8.015625 L 5.453125 -8.015625 L 5.453125 -7.109375 L 2.1875 -7.109375 L 2.1875 -5.140625 C 2.34375 -5.191406 2.5 -5.226562 2.65625 -5.25 C 2.8125 -5.28125 2.96875 -5.296875 3.125 -5.296875 C 4.019531 -5.296875 4.726562 -5.050781 5.25 -4.5625 C 5.769531 -4.070312 6.03125 -3.410156 6.03125 -2.578125 C 6.03125 -1.710938 5.757812 -1.039062 5.21875 -0.5625 C 4.6875 -0.0820312 3.929688 0.15625 2.953125 0.15625 C 2.617188 0.15625 2.273438 0.125 1.921875 0.0625 C 1.578125 0.0078125 1.21875 -0.0703125 0.84375 -0.1875 L 0.84375 -1.28125 C 1.164062 -1.101562 1.5 -0.96875 1.84375 -0.875 C 2.1875 -0.789062 2.550781 -0.75 2.9375 -0.75 C 3.5625 -0.75 4.050781 -0.910156 4.40625 -1.234375 C 4.769531 -1.566406 4.953125 -2.015625 4.953125 -2.578125 C 4.953125 -3.128906 4.769531 -3.566406 4.40625 -3.890625 C 4.050781 -4.222656 3.5625 -4.390625 2.9375 -4.390625 C 2.644531 -4.390625 2.351562 -4.351562 2.0625 -4.28125 C 1.78125 -4.21875 1.488281 -4.117188 1.1875 -3.984375 Z M 1.1875 -8.015625 "/>
</symbol>
<symbol overflow="visible" id="glyph1-7">
<path style="stroke:none;" d="M 3.625 -4.4375 C 3.144531 -4.4375 2.757812 -4.269531 2.46875 -3.9375 C 2.1875 -3.601562 2.046875 -3.148438 2.046875 -2.578125 C 2.046875 -1.992188 2.1875 -1.535156 2.46875 -1.203125 C 2.757812 -0.867188 3.144531 -0.703125 3.625 -0.703125 C 4.113281 -0.703125 4.5 -0.867188 4.78125 -1.203125 C 5.070312 -1.535156 5.21875 -1.992188 5.21875 -2.578125 C 5.21875 -3.148438 5.070312 -3.601562 4.78125 -3.9375 C 4.5 -4.269531 4.113281 -4.4375 3.625 -4.4375 Z M 5.78125 -7.84375 L 5.78125 -6.859375 C 5.507812 -6.984375 5.234375 -7.078125 4.953125 -7.140625 C 4.679688 -7.210938 4.410156 -7.25 4.140625 -7.25 C 3.421875 -7.25 2.867188 -7.003906 2.484375 -6.515625 C 2.109375 -6.035156 1.894531 -5.304688 1.84375 -4.328125 C 2.0625 -4.640625 2.328125 -4.878906 2.640625 -5.046875 C 2.960938 -5.210938 3.316406 -5.296875 3.703125 -5.296875 C 4.503906 -5.296875 5.140625 -5.050781 5.609375 -4.5625 C 6.078125 -4.070312 6.3125 -3.410156 6.3125 -2.578125 C 6.3125 -1.753906 6.066406 -1.09375 5.578125 -0.59375 C 5.085938 -0.09375 4.4375 0.15625 3.625 0.15625 C 2.695312 0.15625 1.988281 -0.195312 1.5 -0.90625 C 1.007812 -1.625 0.765625 -2.65625 0.765625 -4 C 0.765625 -5.269531 1.066406 -6.28125 1.671875 -7.03125 C 2.273438 -7.789062 3.082031 -8.171875 4.09375 -8.171875 C 4.363281 -8.171875 4.632812 -8.140625 4.90625 -8.078125 C 5.1875 -8.023438 5.476562 -7.945312 5.78125 -7.84375 Z M 5.78125 -7.84375 "/>
</symbol>
<symbol overflow="visible" id="glyph1-8">
<path style="stroke:none;" d="M 4.15625 -7.078125 L 1.421875 -2.796875 L 4.15625 -2.796875 Z M 3.875 -8.015625 L 5.234375 -8.015625 L 5.234375 -2.796875 L 6.375 -2.796875 L 6.375 -1.890625 L 5.234375 -1.890625 L 5.234375 0 L 4.15625 0 L 4.15625 -1.890625 L 0.53125 -1.890625 L 0.53125 -2.9375 Z M 3.875 -8.015625 "/>
</symbol>
<symbol overflow="visible" id="glyph1-9">
<path style="stroke:none;" d="M 4.46875 -4.328125 C 4.988281 -4.210938 5.394531 -3.976562 5.6875 -3.625 C 5.976562 -3.28125 6.125 -2.847656 6.125 -2.328125 C 6.125 -1.535156 5.847656 -0.921875 5.296875 -0.484375 C 4.753906 -0.0546875 3.984375 0.15625 2.984375 0.15625 C 2.640625 0.15625 2.289062 0.117188 1.9375 0.046875 C 1.582031 -0.015625 1.21875 -0.109375 0.84375 -0.234375 L 0.84375 -1.296875 C 1.144531 -1.117188 1.472656 -0.984375 1.828125 -0.890625 C 2.179688 -0.796875 2.554688 -0.75 2.953125 -0.75 C 3.628906 -0.75 4.144531 -0.882812 4.5 -1.15625 C 4.851562 -1.425781 5.03125 -1.816406 5.03125 -2.328125 C 5.03125 -2.804688 4.863281 -3.175781 4.53125 -3.4375 C 4.207031 -3.707031 3.75 -3.84375 3.15625 -3.84375 L 2.21875 -3.84375 L 2.21875 -4.734375 L 3.203125 -4.734375 C 3.734375 -4.734375 4.140625 -4.835938 4.421875 -5.046875 C 4.703125 -5.265625 4.84375 -5.570312 4.84375 -5.96875 C 4.84375 -6.382812 4.695312 -6.703125 4.40625 -6.921875 C 4.113281 -7.140625 3.695312 -7.25 3.15625 -7.25 C 2.863281 -7.25 2.546875 -7.21875 2.203125 -7.15625 C 1.859375 -7.09375 1.484375 -6.992188 1.078125 -6.859375 L 1.078125 -7.828125 C 1.492188 -7.941406 1.878906 -8.023438 2.234375 -8.078125 C 2.597656 -8.140625 2.9375 -8.171875 3.25 -8.171875 C 4.070312 -8.171875 4.722656 -7.984375 5.203125 -7.609375 C 5.691406 -7.234375 5.9375 -6.722656 5.9375 -6.078125 C 5.9375 -5.640625 5.804688 -5.265625 5.546875 -4.953125 C 5.296875 -4.648438 4.9375 -4.441406 4.46875 -4.328125 Z M 4.46875 -4.328125 "/>
</symbol>
<symbol overflow="visible" id="glyph1-10">
<path style="stroke:none;" d="M 0.90625 -8.015625 L 6.0625 -8.015625 L 6.0625 -7.5625 L 3.140625 0 L 2.015625 0 L 4.75 -7.109375 L 0.90625 -7.109375 Z M 0.90625 -8.015625 "/>
</symbol>
<symbol overflow="visible" id="glyph2-0">
<path style="stroke:none;" d="M 0.546875 1.9375 L 0.546875 -7.75 L 6.046875 -7.75 L 6.046875 1.9375 Z M 1.171875 1.328125 L 5.4375 1.328125 L 5.4375 -7.140625 L 1.171875 -7.140625 Z M 1.171875 1.328125 "/>
</symbol>
<symbol overflow="visible" id="glyph2-1">
<path style="stroke:none;" d="M 4.671875 -6.671875 C 4.046875 -6.671875 3.554688 -6.4375 3.203125 -5.96875 C 2.859375 -5.5 2.6875 -4.84375 2.6875 -4 C 2.6875 -3.15625 2.859375 -2.5 3.203125 -2.03125 C 3.554688 -1.570312 4.046875 -1.34375 4.671875 -1.34375 C 5.304688 -1.34375 5.796875 -1.570312 6.140625 -2.03125 C 6.492188 -2.5 6.671875 -3.15625 6.671875 -4 C 6.671875 -4.84375 6.492188 -5.5 6.140625 -5.96875 C 5.796875 -6.4375 5.304688 -6.671875 4.671875 -6.671875 Z M 4.671875 -8.171875 C 5.960938 -8.171875 6.972656 -7.800781 7.703125 -7.0625 C 8.429688 -6.320312 8.796875 -5.300781 8.796875 -4 C 8.796875 -2.707031 8.429688 -1.691406 7.703125 -0.953125 C 6.972656 -0.210938 5.960938 0.15625 4.671875 0.15625 C 3.390625 0.15625 2.378906 -0.210938 1.640625 -0.953125 C 0.910156 -1.691406 0.546875 -2.707031 0.546875 -4 C 0.546875 -5.300781 0.910156 -6.320312 1.640625 -7.0625 C 2.378906 -7.800781 3.390625 -8.171875 4.671875 -8.171875 Z M 4.671875 -8.171875 "/>
</symbol>
<symbol overflow="visible" id="glyph2-2">
<path style="stroke:none;" d="M 5.390625 -4.375 C 5.222656 -4.457031 5.054688 -4.515625 4.890625 -4.546875 C 4.722656 -4.585938 4.554688 -4.609375 4.390625 -4.609375 C 3.890625 -4.609375 3.503906 -4.445312 3.234375 -4.125 C 2.972656 -3.8125 2.84375 -3.359375 2.84375 -2.765625 L 2.84375 0 L 0.921875 0 L 0.921875 -6.015625 L 2.84375 -6.015625 L 2.84375 -5.03125 C 3.09375 -5.425781 3.375 -5.710938 3.6875 -5.890625 C 4.007812 -6.066406 4.394531 -6.15625 4.84375 -6.15625 C 4.914062 -6.15625 4.988281 -6.148438 5.0625 -6.140625 C 5.132812 -6.140625 5.242188 -6.132812 5.390625 -6.125 Z M 5.390625 -4.375 "/>
</symbol>
<symbol overflow="visible" id="glyph2-3">
<path style="stroke:none;" d="M 3.03125 -7.71875 L 3.03125 -6.015625 L 5 -6.015625 L 5 -4.640625 L 3.03125 -4.640625 L 3.03125 -2.09375 C 3.03125 -1.8125 3.082031 -1.617188 3.1875 -1.515625 C 3.300781 -1.421875 3.519531 -1.375 3.84375 -1.375 L 4.84375 -1.375 L 4.84375 0 L 3.1875 0 C 2.425781 0 1.882812 -0.15625 1.5625 -0.46875 C 1.25 -0.789062 1.09375 -1.332031 1.09375 -2.09375 L 1.09375 -4.640625 L 0.140625 -4.640625 L 0.140625 -6.015625 L 1.09375 -6.015625 L 1.09375 -7.71875 Z M 3.03125 -7.71875 "/>
</symbol>
<symbol overflow="visible" id="glyph2-4">
<path style="stroke:none;" d="M 6.96875 -3.65625 L 6.96875 0 L 5.03125 0 L 5.03125 -2.796875 C 5.03125 -3.316406 5.019531 -3.675781 5 -3.875 C 4.976562 -4.070312 4.9375 -4.21875 4.875 -4.3125 C 4.800781 -4.4375 4.703125 -4.53125 4.578125 -4.59375 C 4.453125 -4.664062 4.304688 -4.703125 4.140625 -4.703125 C 3.734375 -4.703125 3.414062 -4.546875 3.1875 -4.234375 C 2.957031 -3.929688 2.84375 -3.503906 2.84375 -2.953125 L 2.84375 0 L 0.921875 0 L 0.921875 -8.359375 L 2.84375 -8.359375 L 2.84375 -5.140625 C 3.132812 -5.484375 3.441406 -5.738281 3.765625 -5.90625 C 4.097656 -6.070312 4.457031 -6.15625 4.84375 -6.15625 C 5.539062 -6.15625 6.066406 -5.941406 6.421875 -5.515625 C 6.785156 -5.085938 6.96875 -4.46875 6.96875 -3.65625 Z M 6.96875 -3.65625 "/>
</symbol>
<symbol overflow="visible" id="glyph2-5">
<path style="stroke:none;" d="M 3.78125 -4.78125 C 3.351562 -4.78125 3.023438 -4.628906 2.796875 -4.328125 C 2.578125 -4.023438 2.46875 -3.582031 2.46875 -3 C 2.46875 -2.425781 2.578125 -1.984375 2.796875 -1.671875 C 3.023438 -1.367188 3.351562 -1.21875 3.78125 -1.21875 C 4.207031 -1.21875 4.53125 -1.367188 4.75 -1.671875 C 4.96875 -1.984375 5.078125 -2.425781 5.078125 -3 C 5.078125 -3.582031 4.96875 -4.023438 4.75 -4.328125 C 4.53125 -4.628906 4.207031 -4.78125 3.78125 -4.78125 Z M 3.78125 -6.15625 C 4.820312 -6.15625 5.628906 -5.875 6.203125 -5.3125 C 6.785156 -4.757812 7.078125 -3.988281 7.078125 -3 C 7.078125 -2.007812 6.785156 -1.234375 6.203125 -0.671875 C 5.628906 -0.117188 4.820312 0.15625 3.78125 0.15625 C 2.75 0.15625 1.9375 -0.117188 1.34375 -0.671875 C 0.757812 -1.234375 0.46875 -2.007812 0.46875 -3 C 0.46875 -3.988281 0.757812 -4.757812 1.34375 -5.3125 C 1.9375 -5.875 2.75 -6.15625 3.78125 -6.15625 Z M 3.78125 -6.15625 "/>
</symbol>
<symbol overflow="visible" id="glyph2-6">
<path style="stroke:none;" d="M 0.921875 -8.359375 L 2.84375 -8.359375 L 2.84375 0 L 0.921875 0 Z M 0.921875 -8.359375 "/>
</symbol>
<symbol overflow="visible" id="glyph2-7">
<path style="stroke:none;" d="M 5.015625 -1.015625 C 4.753906 -0.671875 4.460938 -0.414062 4.140625 -0.25 C 3.816406 -0.0820312 3.445312 0 3.03125 0 C 2.300781 0 1.695312 -0.285156 1.21875 -0.859375 C 0.738281 -1.441406 0.5 -2.179688 0.5 -3.078125 C 0.5 -3.972656 0.738281 -4.707031 1.21875 -5.28125 C 1.695312 -5.863281 2.300781 -6.15625 3.03125 -6.15625 C 3.445312 -6.15625 3.816406 -6.070312 4.140625 -5.90625 C 4.460938 -5.738281 4.753906 -5.476562 5.015625 -5.125 L 5.015625 -6.015625 L 6.953125 -6.015625 L 6.953125 -0.609375 C 6.953125 0.359375 6.644531 1.097656 6.03125 1.609375 C 5.425781 2.117188 4.539062 2.375 3.375 2.375 C 3 2.375 2.632812 2.34375 2.28125 2.28125 C 1.9375 2.226562 1.585938 2.144531 1.234375 2.03125 L 1.234375 0.53125 C 1.566406 0.71875 1.894531 0.859375 2.21875 0.953125 C 2.539062 1.046875 2.863281 1.09375 3.1875 1.09375 C 3.820312 1.09375 4.285156 0.957031 4.578125 0.6875 C 4.867188 0.414062 5.015625 -0.015625 5.015625 -0.609375 Z M 3.75 -4.765625 C 3.351562 -4.765625 3.039062 -4.617188 2.8125 -4.328125 C 2.59375 -4.035156 2.484375 -3.617188 2.484375 -3.078125 C 2.484375 -2.523438 2.585938 -2.101562 2.796875 -1.8125 C 3.015625 -1.53125 3.332031 -1.390625 3.75 -1.390625 C 4.144531 -1.390625 4.453125 -1.535156 4.671875 -1.828125 C 4.898438 -2.128906 5.015625 -2.546875 5.015625 -3.078125 C 5.015625 -3.617188 4.898438 -4.035156 4.671875 -4.328125 C 4.453125 -4.617188 4.144531 -4.765625 3.75 -4.765625 Z M 3.75 -4.765625 "/>
</symbol>
<symbol overflow="visible" id="glyph2-8">
<path style="stroke:none;" d="M 5.625 -5.828125 L 5.625 -4.359375 C 5.207031 -4.535156 4.804688 -4.664062 4.421875 -4.75 C 4.046875 -4.832031 3.6875 -4.875 3.34375 -4.875 C 2.976562 -4.875 2.707031 -4.828125 2.53125 -4.734375 C 2.351562 -4.648438 2.265625 -4.515625 2.265625 -4.328125 C 2.265625 -4.171875 2.332031 -4.050781 2.46875 -3.96875 C 2.601562 -3.882812 2.84375 -3.820312 3.1875 -3.78125 L 3.53125 -3.734375 C 4.507812 -3.609375 5.171875 -3.398438 5.515625 -3.109375 C 5.859375 -2.828125 6.03125 -2.378906 6.03125 -1.765625 C 6.03125 -1.128906 5.789062 -0.648438 5.3125 -0.328125 C 4.84375 -0.00390625 4.140625 0.15625 3.203125 0.15625 C 2.804688 0.15625 2.394531 0.125 1.96875 0.0625 C 1.539062 0 1.101562 -0.09375 0.65625 -0.21875 L 0.65625 -1.6875 C 1.039062 -1.5 1.429688 -1.359375 1.828125 -1.265625 C 2.234375 -1.171875 2.644531 -1.125 3.0625 -1.125 C 3.4375 -1.125 3.71875 -1.175781 3.90625 -1.28125 C 4.101562 -1.382812 4.203125 -1.535156 4.203125 -1.734375 C 4.203125 -1.910156 4.132812 -2.039062 4 -2.125 C 3.875 -2.207031 3.613281 -2.273438 3.21875 -2.328125 L 2.890625 -2.359375 C 2.023438 -2.472656 1.421875 -2.671875 1.078125 -2.953125 C 0.734375 -3.242188 0.5625 -3.6875 0.5625 -4.28125 C 0.5625 -4.914062 0.78125 -5.382812 1.21875 -5.6875 C 1.65625 -6 2.328125 -6.15625 3.234375 -6.15625 C 3.585938 -6.15625 3.957031 -6.128906 4.34375 -6.078125 C 4.738281 -6.023438 5.164062 -5.941406 5.625 -5.828125 Z M 5.625 -5.828125 "/>
</symbol>
<symbol overflow="visible" id="glyph2-9">
<path style="stroke:none;" d=""/>
</symbol>
<symbol overflow="visible" id="glyph2-10">
<path style="stroke:none;" d="M 2.84375 -0.875 L 2.84375 2.28125 L 0.921875 2.28125 L 0.921875 -6.015625 L 2.84375 -6.015625 L 2.84375 -5.140625 C 3.113281 -5.484375 3.410156 -5.738281 3.734375 -5.90625 C 4.054688 -6.070312 4.425781 -6.15625 4.84375 -6.15625 C 5.582031 -6.15625 6.1875 -5.859375 6.65625 -5.265625 C 7.132812 -4.679688 7.375 -3.925781 7.375 -3 C 7.375 -2.070312 7.132812 -1.3125 6.65625 -0.71875 C 6.1875 -0.132812 5.582031 0.15625 4.84375 0.15625 C 4.425781 0.15625 4.054688 0.0703125 3.734375 -0.09375 C 3.410156 -0.257812 3.113281 -0.519531 2.84375 -0.875 Z M 4.125 -4.765625 C 3.707031 -4.765625 3.390625 -4.613281 3.171875 -4.3125 C 2.953125 -4.007812 2.84375 -3.570312 2.84375 -3 C 2.84375 -2.4375 2.953125 -2 3.171875 -1.6875 C 3.390625 -1.382812 3.707031 -1.234375 4.125 -1.234375 C 4.539062 -1.234375 4.851562 -1.382812 5.0625 -1.6875 C 5.28125 -1.988281 5.390625 -2.425781 5.390625 -3 C 5.390625 -3.570312 5.28125 -4.007812 5.0625 -4.3125 C 4.851562 -4.613281 4.539062 -4.765625 4.125 -4.765625 Z M 4.125 -4.765625 "/>
</symbol>
<symbol overflow="visible" id="glyph2-11">
<path style="stroke:none;" d="M 6.921875 -3.03125 L 6.921875 -2.46875 L 2.4375 -2.46875 C 2.476562 -2.019531 2.640625 -1.679688 2.921875 -1.453125 C 3.203125 -1.234375 3.59375 -1.125 4.09375 -1.125 C 4.5 -1.125 4.910156 -1.179688 5.328125 -1.296875 C 5.753906 -1.421875 6.191406 -1.601562 6.640625 -1.84375 L 6.640625 -0.359375 C 6.191406 -0.191406 5.738281 -0.0664062 5.28125 0.015625 C 4.820312 0.109375 4.367188 0.15625 3.921875 0.15625 C 2.828125 0.15625 1.976562 -0.117188 1.375 -0.671875 C 0.769531 -1.222656 0.46875 -2 0.46875 -3 C 0.46875 -3.976562 0.765625 -4.75 1.359375 -5.3125 C 1.953125 -5.875 2.769531 -6.15625 3.8125 -6.15625 C 4.75 -6.15625 5.5 -5.867188 6.0625 -5.296875 C 6.632812 -4.734375 6.921875 -3.976562 6.921875 -3.03125 Z M 4.953125 -3.65625 C 4.953125 -4.03125 4.84375 -4.328125 4.625 -4.546875 C 4.414062 -4.765625 4.140625 -4.875 3.796875 -4.875 C 3.421875 -4.875 3.117188 -4.769531 2.890625 -4.5625 C 2.660156 -4.351562 2.515625 -4.050781 2.453125 -3.65625 Z M 4.953125 -3.65625 "/>
</symbol>
<symbol overflow="visible" id="glyph2-12">
<path style="stroke:none;" d="M 6.96875 -3.65625 L 6.96875 0 L 5.03125 0 L 5.03125 -2.796875 C 5.03125 -3.316406 5.019531 -3.675781 5 -3.875 C 4.976562 -4.070312 4.9375 -4.21875 4.875 -4.3125 C 4.800781 -4.4375 4.703125 -4.53125 4.578125 -4.59375 C 4.453125 -4.664062 4.304688 -4.703125 4.140625 -4.703125 C 3.734375 -4.703125 3.414062 -4.546875 3.1875 -4.234375 C 2.957031 -3.929688 2.84375 -3.503906 2.84375 -2.953125 L 2.84375 0 L 0.921875 0 L 0.921875 -6.015625 L 2.84375 -6.015625 L 2.84375 -5.140625 C 3.132812 -5.484375 3.441406 -5.738281 3.765625 -5.90625 C 4.097656 -6.070312 4.457031 -6.15625 4.84375 -6.15625 C 5.539062 -6.15625 6.066406 -5.941406 6.421875 -5.515625 C 6.785156 -5.085938 6.96875 -4.46875 6.96875 -3.65625 Z M 6.96875 -3.65625 "/>
</symbol>
<symbol overflow="visible" id="glyph2-13">
<path style="stroke:none;" d="M 5.78125 -5.828125 L 5.78125 -4.265625 C 5.519531 -4.441406 5.257812 -4.570312 5 -4.65625 C 4.738281 -4.738281 4.460938 -4.78125 4.171875 -4.78125 C 3.640625 -4.78125 3.222656 -4.625 2.921875 -4.3125 C 2.617188 -4 2.46875 -3.5625 2.46875 -3 C 2.46875 -2.4375 2.617188 -2 2.921875 -1.6875 C 3.222656 -1.375 3.640625 -1.21875 4.171875 -1.21875 C 4.472656 -1.21875 4.757812 -1.257812 5.03125 -1.34375 C 5.300781 -1.4375 5.550781 -1.570312 5.78125 -1.75 L 5.78125 -0.171875 C 5.476562 -0.0664062 5.171875 0.0078125 4.859375 0.0625 C 4.554688 0.125 4.25 0.15625 3.9375 0.15625 C 2.851562 0.15625 2.003906 -0.117188 1.390625 -0.671875 C 0.773438 -1.234375 0.46875 -2.007812 0.46875 -3 C 0.46875 -3.988281 0.773438 -4.757812 1.390625 -5.3125 C 2.003906 -5.875 2.851562 -6.15625 3.9375 -6.15625 C 4.25 -6.15625 4.554688 -6.128906 4.859375 -6.078125 C 5.171875 -6.023438 5.476562 -5.941406 5.78125 -5.828125 Z M 5.78125 -5.828125 "/>
</symbol>
<symbol overflow="visible" id="glyph2-14">
<path style="stroke:none;" d="M 3.953125 -4.46875 C 4.378906 -4.46875 4.6875 -4.546875 4.875 -4.703125 C 5.0625 -4.867188 5.15625 -5.132812 5.15625 -5.5 C 5.15625 -5.863281 5.0625 -6.125 4.875 -6.28125 C 4.6875 -6.4375 4.378906 -6.515625 3.953125 -6.515625 L 3.078125 -6.515625 L 3.078125 -4.46875 Z M 3.078125 -3.03125 L 3.078125 0 L 1.015625 0 L 1.015625 -8.015625 L 4.171875 -8.015625 C 5.222656 -8.015625 5.992188 -7.835938 6.484375 -7.484375 C 6.984375 -7.128906 7.234375 -6.570312 7.234375 -5.8125 C 7.234375 -5.28125 7.101562 -4.84375 6.84375 -4.5 C 6.59375 -4.15625 6.207031 -3.90625 5.6875 -3.75 C 5.96875 -3.6875 6.21875 -3.539062 6.4375 -3.3125 C 6.664062 -3.082031 6.894531 -2.738281 7.125 -2.28125 L 8.25 0 L 6.046875 0 L 5.078125 -2 C 4.878906 -2.394531 4.675781 -2.664062 4.46875 -2.8125 C 4.269531 -2.957031 4 -3.03125 3.65625 -3.03125 Z M 3.078125 -3.03125 "/>
</symbol>
<symbol overflow="visible" id="glyph2-15">
<path style="stroke:none;" d="M 1.015625 -8.015625 L 3.3125 -8.015625 L 6.234375 -2.515625 L 6.234375 -8.015625 L 8.203125 -8.015625 L 8.203125 0 L 5.890625 0 L 2.96875 -5.5 L 2.96875 0 L 1.015625 0 Z M 1.015625 -8.015625 "/>
</symbol>
<symbol overflow="visible" id="glyph2-16">
<path style="stroke:none;" d="M 5.875 -1.46875 L 2.640625 -1.46875 L 2.125 0 L 0.046875 0 L 3.03125 -8.015625 L 5.484375 -8.015625 L 8.453125 0 L 6.375 0 Z M 3.15625 -2.953125 L 5.359375 -2.953125 L 4.265625 -6.140625 Z M 3.15625 -2.953125 "/>
</symbol>
<symbol overflow="visible" id="glyph3-0">
<path style="stroke:none;" d="M 1.9375 -0.546875 L -7.75 -0.546875 L -7.75 -6.046875 L 1.9375 -6.046875 Z M 1.328125 -1.171875 L 1.328125 -5.4375 L -7.140625 -5.4375 L -7.140625 -1.171875 Z M 1.328125 -1.171875 "/>
</symbol>
<symbol overflow="visible" id="glyph3-1">
<path style="stroke:none;" d="M -8.015625 -1.015625 L -8.015625 -4.4375 C -8.015625 -5.457031 -7.785156 -6.238281 -7.328125 -6.78125 C -6.878906 -7.332031 -6.238281 -7.609375 -5.40625 -7.609375 C -4.5625 -7.609375 -3.910156 -7.332031 -3.453125 -6.78125 C -3.003906 -6.238281 -2.78125 -5.457031 -2.78125 -4.4375 L -2.78125 -3.078125 L 0 -3.078125 L 0 -1.015625 Z M -6.515625 -3.078125 L -4.28125 -3.078125 L -4.28125 -4.21875 C -4.28125 -4.625 -4.375 -4.9375 -4.5625 -5.15625 C -4.757812 -5.375 -5.039062 -5.484375 -5.40625 -5.484375 C -5.757812 -5.484375 -6.03125 -5.375 -6.21875 -5.15625 C -6.414062 -4.9375 -6.515625 -4.625 -6.515625 -4.21875 Z M -6.515625 -3.078125 "/>
</symbol>
<symbol overflow="visible" id="glyph3-2">
<path style="stroke:none;" d="M -3.65625 -6.96875 L 0 -6.96875 L 0 -5.03125 L -2.796875 -5.03125 C -3.316406 -5.03125 -3.675781 -5.019531 -3.875 -5 C -4.070312 -4.976562 -4.21875 -4.9375 -4.3125 -4.875 C -4.4375 -4.800781 -4.53125 -4.703125 -4.59375 -4.578125 C -4.664062 -4.453125 -4.703125 -4.304688 -4.703125 -4.140625 C -4.703125 -3.734375 -4.546875 -3.414062 -4.234375 -3.1875 C -3.929688 -2.957031 -3.503906 -2.84375 -2.953125 -2.84375 L 0 -2.84375 L 0 -0.921875 L -8.359375 -0.921875 L -8.359375 -2.84375 L -5.140625 -2.84375 C -5.484375 -3.132812 -5.738281 -3.441406 -5.90625 -3.765625 C -6.070312 -4.097656 -6.15625 -4.457031 -6.15625 -4.84375 C -6.15625 -5.539062 -5.941406 -6.066406 -5.515625 -6.421875 C -5.085938 -6.785156 -4.46875 -6.96875 -3.65625 -6.96875 Z M -3.65625 -6.96875 "/>
</symbol>
<symbol overflow="visible" id="glyph3-3">
<path style="stroke:none;" d="M -6.015625 -0.140625 L -6.015625 -2.0625 L -1.9375 -3.671875 L -6.015625 -5.046875 L -6.015625 -6.96875 L 0.5625 -4.4375 C 1.238281 -4.1875 1.707031 -3.890625 1.96875 -3.546875 C 2.238281 -3.210938 2.375 -2.769531 2.375 -2.21875 L 2.375 -1.09375 L 1.109375 -1.09375 L 1.109375 -1.703125 C 1.109375 -2.023438 1.054688 -2.257812 0.953125 -2.40625 C 0.847656 -2.5625 0.660156 -2.679688 0.390625 -2.765625 L 0.234375 -2.8125 Z M -6.015625 -0.140625 "/>
</symbol>
<symbol overflow="visible" id="glyph3-4">
<path style="stroke:none;" d="M -8.359375 -0.921875 L -8.359375 -2.84375 L 0 -2.84375 L 0 -0.921875 Z M -8.359375 -0.921875 "/>
</symbol>
<symbol overflow="visible" id="glyph3-5">
<path style="stroke:none;" d="M -4.78125 -3.78125 C -4.78125 -3.351562 -4.628906 -3.023438 -4.328125 -2.796875 C -4.023438 -2.578125 -3.582031 -2.46875 -3 -2.46875 C -2.425781 -2.46875 -1.984375 -2.578125 -1.671875 -2.796875 C -1.367188 -3.023438 -1.21875 -3.351562 -1.21875 -3.78125 C -1.21875 -4.207031 -1.367188 -4.53125 -1.671875 -4.75 C -1.984375 -4.96875 -2.425781 -5.078125 -3 -5.078125 C -3.582031 -5.078125 -4.023438 -4.96875 -4.328125 -4.75 C -4.628906 -4.53125 -4.78125 -4.207031 -4.78125 -3.78125 Z M -6.15625 -3.78125 C -6.15625 -4.820312 -5.875 -5.628906 -5.3125 -6.203125 C -4.757812 -6.785156 -3.988281 -7.078125 -3 -7.078125 C -2.007812 -7.078125 -1.234375 -6.785156 -0.671875 -6.203125 C -0.117188 -5.628906 0.15625 -4.820312 0.15625 -3.78125 C 0.15625 -2.75 -0.117188 -1.9375 -0.671875 -1.34375 C -1.234375 -0.757812 -2.007812 -0.46875 -3 -0.46875 C -3.988281 -0.46875 -4.757812 -0.757812 -5.3125 -1.34375 C -5.875 -1.9375 -6.15625 -2.75 -6.15625 -3.78125 Z M -6.15625 -3.78125 "/>
</symbol>
<symbol overflow="visible" id="glyph3-6">
<path style="stroke:none;" d="M -0.875 -2.84375 L 2.28125 -2.84375 L 2.28125 -0.921875 L -6.015625 -0.921875 L -6.015625 -2.84375 L -5.140625 -2.84375 C -5.484375 -3.113281 -5.738281 -3.410156 -5.90625 -3.734375 C -6.070312 -4.054688 -6.15625 -4.425781 -6.15625 -4.84375 C -6.15625 -5.582031 -5.859375 -6.1875 -5.265625 -6.65625 C -4.679688 -7.132812 -3.925781 -7.375 -3 -7.375 C -2.070312 -7.375 -1.3125 -7.132812 -0.71875 -6.65625 C -0.132812 -6.1875 0.15625 -5.582031 0.15625 -4.84375 C 0.15625 -4.425781 0.0703125 -4.054688 -0.09375 -3.734375 C -0.257812 -3.410156 -0.519531 -3.113281 -0.875 -2.84375 Z M -4.765625 -4.125 C -4.765625 -3.707031 -4.613281 -3.390625 -4.3125 -3.171875 C -4.007812 -2.953125 -3.570312 -2.84375 -3 -2.84375 C -2.4375 -2.84375 -2 -2.953125 -1.6875 -3.171875 C -1.382812 -3.390625 -1.234375 -3.707031 -1.234375 -4.125 C -1.234375 -4.539062 -1.382812 -4.851562 -1.6875 -5.0625 C -1.988281 -5.28125 -2.425781 -5.390625 -3 -5.390625 C -3.570312 -5.390625 -4.007812 -5.28125 -4.3125 -5.0625 C -4.613281 -4.851562 -4.765625 -4.539062 -4.765625 -4.125 Z M -4.765625 -4.125 "/>
</symbol>
<symbol overflow="visible" id="glyph4-0">
<path style="stroke:none;" d="M 0.59375 2.125 L 0.59375 -8.46875 L 6.59375 -8.46875 L 6.59375 2.125 Z M 1.265625 1.453125 L 5.9375 1.453125 L 5.9375 -7.78125 L 1.265625 -7.78125 Z M 1.265625 1.453125 "/>
</symbol>
<symbol overflow="visible" id="glyph4-1">
<path style="stroke:none;" d="M 1.109375 -8.75 L 3.625 -8.75 L 6.796875 -2.75 L 6.796875 -8.75 L 8.9375 -8.75 L 8.9375 0 L 6.421875 0 L 3.234375 -6 L 3.234375 0 L 1.109375 0 Z M 1.109375 -8.75 "/>
</symbol>
<symbol overflow="visible" id="glyph4-2">
<path style="stroke:none;" d="M 4.125 -5.21875 C 3.664062 -5.21875 3.3125 -5.050781 3.0625 -4.71875 C 2.820312 -4.382812 2.703125 -3.90625 2.703125 -3.28125 C 2.703125 -2.644531 2.820312 -2.160156 3.0625 -1.828125 C 3.3125 -1.492188 3.664062 -1.328125 4.125 -1.328125 C 4.582031 -1.328125 4.929688 -1.492188 5.171875 -1.828125 C 5.421875 -2.160156 5.546875 -2.644531 5.546875 -3.28125 C 5.546875 -3.90625 5.421875 -4.382812 5.171875 -4.71875 C 4.929688 -5.050781 4.582031 -5.21875 4.125 -5.21875 Z M 4.125 -6.71875 C 5.257812 -6.71875 6.144531 -6.410156 6.78125 -5.796875 C 7.414062 -5.191406 7.734375 -4.351562 7.734375 -3.28125 C 7.734375 -2.195312 7.414062 -1.347656 6.78125 -0.734375 C 6.144531 -0.128906 5.257812 0.171875 4.125 0.171875 C 3 0.171875 2.113281 -0.128906 1.46875 -0.734375 C 0.832031 -1.347656 0.515625 -2.195312 0.515625 -3.28125 C 0.515625 -4.351562 0.832031 -5.191406 1.46875 -5.796875 C 2.113281 -6.410156 3 -6.71875 4.125 -6.71875 Z M 4.125 -6.71875 "/>
</symbol>
<symbol overflow="visible" id="glyph4-3">
<path style="stroke:none;" d="M 0.1875 -6.5625 L 2.28125 -6.5625 L 3.921875 -2.03125 L 5.546875 -6.5625 L 7.640625 -6.5625 L 5.0625 0 L 2.765625 0 Z M 0.1875 -6.5625 "/>
</symbol>
<symbol overflow="visible" id="glyph4-4">
<path style="stroke:none;" d="M 7.5625 -3.296875 L 7.5625 -2.703125 L 2.65625 -2.703125 C 2.707031 -2.210938 2.882812 -1.84375 3.1875 -1.59375 C 3.488281 -1.34375 3.914062 -1.21875 4.46875 -1.21875 C 4.90625 -1.21875 5.351562 -1.285156 5.8125 -1.421875 C 6.28125 -1.554688 6.757812 -1.753906 7.25 -2.015625 L 7.25 -0.40625 C 6.75 -0.21875 6.25 -0.078125 5.75 0.015625 C 5.257812 0.117188 4.765625 0.171875 4.265625 0.171875 C 3.078125 0.171875 2.15625 -0.128906 1.5 -0.734375 C 0.84375 -1.335938 0.515625 -2.1875 0.515625 -3.28125 C 0.515625 -4.34375 0.835938 -5.179688 1.484375 -5.796875 C 2.128906 -6.410156 3.019531 -6.71875 4.15625 -6.71875 C 5.1875 -6.71875 6.007812 -6.40625 6.625 -5.78125 C 7.25 -5.164062 7.5625 -4.335938 7.5625 -3.296875 Z M 5.40625 -4 C 5.40625 -4.394531 5.285156 -4.710938 5.046875 -4.953125 C 4.816406 -5.203125 4.515625 -5.328125 4.140625 -5.328125 C 3.734375 -5.328125 3.398438 -5.210938 3.140625 -4.984375 C 2.890625 -4.753906 2.734375 -4.425781 2.671875 -4 Z M 5.40625 -4 "/>
</symbol>
<symbol overflow="visible" id="glyph4-5">
<path style="stroke:none;" d="M 1.015625 -9.125 L 3.109375 -9.125 L 3.109375 0 L 1.015625 0 Z M 1.015625 -9.125 "/>
</symbol>
<symbol overflow="visible" id="glyph4-6">
<path style="stroke:none;" d="M 1.34375 -6.5625 L 3.453125 -6.5625 L 3.453125 -4.296875 L 1.34375 -4.296875 Z M 1.34375 -2.265625 L 3.453125 -2.265625 L 3.453125 0 L 1.34375 0 Z M 1.34375 -2.265625 "/>
</symbol>
<symbol overflow="visible" id="glyph4-7">
<path style="stroke:none;" d="M 1.109375 -8.75 L 4.84375 -8.75 C 5.957031 -8.75 6.8125 -8.5 7.40625 -8 C 8 -7.507812 8.296875 -6.804688 8.296875 -5.890625 C 8.296875 -4.972656 8 -4.265625 7.40625 -3.765625 C 6.8125 -3.273438 5.957031 -3.03125 4.84375 -3.03125 L 3.359375 -3.03125 L 3.359375 0 L 1.109375 0 Z M 3.359375 -7.109375 L 3.359375 -4.671875 L 4.609375 -4.671875 C 5.046875 -4.671875 5.382812 -4.773438 5.625 -4.984375 C 5.863281 -5.203125 5.984375 -5.503906 5.984375 -5.890625 C 5.984375 -6.285156 5.863281 -6.585938 5.625 -6.796875 C 5.382812 -7.003906 5.046875 -7.109375 4.609375 -7.109375 Z M 3.359375 -7.109375 "/>
</symbol>
<symbol overflow="visible" id="glyph4-8">
<path style="stroke:none;" d="M 7.609375 -4 L 7.609375 0 L 5.5 0 L 5.5 -3.046875 C 5.5 -3.617188 5.484375 -4.007812 5.453125 -4.21875 C 5.429688 -4.4375 5.390625 -4.597656 5.328125 -4.703125 C 5.242188 -4.835938 5.128906 -4.941406 4.984375 -5.015625 C 4.847656 -5.097656 4.691406 -5.140625 4.515625 -5.140625 C 4.078125 -5.140625 3.734375 -4.96875 3.484375 -4.625 C 3.234375 -4.289062 3.109375 -3.828125 3.109375 -3.234375 L 3.109375 0 L 1.015625 0 L 1.015625 -9.125 L 3.109375 -9.125 L 3.109375 -5.609375 C 3.421875 -5.984375 3.753906 -6.257812 4.109375 -6.4375 C 4.460938 -6.625 4.859375 -6.71875 5.296875 -6.71875 C 6.046875 -6.71875 6.617188 -6.484375 7.015625 -6.015625 C 7.410156 -5.554688 7.609375 -4.882812 7.609375 -4 Z M 7.609375 -4 "/>
</symbol>
<symbol overflow="visible" id="glyph4-9">
<path style="stroke:none;" d="M 0.140625 -6.5625 L 2.25 -6.5625 L 4.015625 -2.109375 L 5.515625 -6.5625 L 7.609375 -6.5625 L 4.84375 0.625 C 4.570312 1.351562 4.25 1.863281 3.875 2.15625 C 3.507812 2.445312 3.023438 2.59375 2.421875 2.59375 L 1.203125 2.59375 L 1.203125 1.21875 L 1.859375 1.21875 C 2.210938 1.21875 2.46875 1.160156 2.625 1.046875 C 2.789062 0.929688 2.921875 0.726562 3.015625 0.4375 L 3.078125 0.25 Z M 0.140625 -6.5625 "/>
</symbol>
<symbol overflow="visible" id="glyph4-10">
<path style="stroke:none;" d="M 3.109375 -0.953125 L 3.109375 2.5 L 1.015625 2.5 L 1.015625 -6.5625 L 3.109375 -6.5625 L 3.109375 -5.609375 C 3.398438 -5.984375 3.71875 -6.257812 4.0625 -6.4375 C 4.414062 -6.625 4.820312 -6.71875 5.28125 -6.71875 C 6.09375 -6.71875 6.753906 -6.394531 7.265625 -5.75 C 7.785156 -5.113281 8.046875 -4.289062 8.046875 -3.28125 C 8.046875 -2.269531 7.785156 -1.441406 7.265625 -0.796875 C 6.753906 -0.148438 6.09375 0.171875 5.28125 0.171875 C 4.820312 0.171875 4.414062 0.0820312 4.0625 -0.09375 C 3.71875 -0.28125 3.398438 -0.566406 3.109375 -0.953125 Z M 4.5 -5.203125 C 4.050781 -5.203125 3.707031 -5.035156 3.46875 -4.703125 C 3.226562 -4.367188 3.109375 -3.894531 3.109375 -3.28125 C 3.109375 -2.65625 3.226562 -2.175781 3.46875 -1.84375 C 3.707031 -1.519531 4.050781 -1.359375 4.5 -1.359375 C 4.945312 -1.359375 5.289062 -1.519531 5.53125 -1.84375 C 5.769531 -2.175781 5.890625 -2.65625 5.890625 -3.28125 C 5.890625 -3.90625 5.769531 -4.378906 5.53125 -4.703125 C 5.289062 -5.035156 4.945312 -5.203125 4.5 -5.203125 Z M 4.5 -5.203125 "/>
</symbol>
</g>
<clipPath id="clip1">
  <path d="M 36.140625 23.304688 L 895 23.304688 L 895 485 L 36.140625 485 Z M 36.140625 23.304688 "/>
</clipPath>
<clipPath id="clip2">
  <path d="M 36.140625 420 L 895 420 L 895 422 L 36.140625 422 Z M 36.140625 420 "/>
</clipPath>
<clipPath id="clip3">
  <path d="M 36.140625 299 L 895 299 L 895 301 L 36.140625 301 Z M 36.140625 299 "/>
</clipPath>
<clipPath id="clip4">
  <path d="M 36.140625 178 L 895 178 L 895 179 L 36.140625 179 Z M 36.140625 178 "/>
</clipPath>
<clipPath id="clip5">
  <path d="M 36.140625 56 L 895 56 L 895 58 L 36.140625 58 Z M 36.140625 56 "/>
</clipPath>
<clipPath id="clip6">
  <path d="M 36.140625 481 L 895.519531 481 L 895.519531 483 L 36.140625 483 Z M 36.140625 481 "/>
</clipPath>
<clipPath id="clip7">
  <path d="M 36.140625 359 L 895.519531 359 L 895.519531 361 L 36.140625 361 Z M 36.140625 359 "/>
</clipPath>
<clipPath id="clip8">
  <path d="M 36.140625 238 L 895.519531 238 L 895.519531 240 L 36.140625 240 Z M 36.140625 238 "/>
</clipPath>
<clipPath id="clip9">
  <path d="M 36.140625 117 L 895.519531 117 L 895.519531 119 L 36.140625 119 Z M 36.140625 117 "/>
</clipPath>
<clipPath id="clip10">
  <path d="M 77 23.304688 L 79 23.304688 L 79 485.859375 L 77 485.859375 Z M 77 23.304688 "/>
</clipPath>
<clipPath id="clip11">
  <path d="M 148 23.304688 L 150 23.304688 L 150 485.859375 L 148 485.859375 Z M 148 23.304688 "/>
</clipPath>
<clipPath id="clip12">
  <path d="M 218 23.304688 L 220 23.304688 L 220 485.859375 L 218 485.859375 Z M 218 23.304688 "/>
</clipPath>
<clipPath id="clip13">
  <path d="M 288 23.304688 L 290 23.304688 L 290 485.859375 L 288 485.859375 Z M 288 23.304688 "/>
</clipPath>
<clipPath id="clip14">
  <path d="M 359 23.304688 L 361 23.304688 L 361 485.859375 L 359 485.859375 Z M 359 23.304688 "/>
</clipPath>
<clipPath id="clip15">
  <path d="M 429 23.304688 L 431 23.304688 L 431 485.859375 L 429 485.859375 Z M 429 23.304688 "/>
</clipPath>
<clipPath id="clip16">
  <path d="M 499 23.304688 L 502 23.304688 L 502 485.859375 L 499 485.859375 Z M 499 23.304688 "/>
</clipPath>
<clipPath id="clip17">
  <path d="M 570 23.304688 L 572 23.304688 L 572 485.859375 L 570 485.859375 Z M 570 23.304688 "/>
</clipPath>
<clipPath id="clip18">
  <path d="M 640 23.304688 L 642 23.304688 L 642 485.859375 L 640 485.859375 Z M 640 23.304688 "/>
</clipPath>
<clipPath id="clip19">
  <path d="M 711 23.304688 L 713 23.304688 L 713 485.859375 L 711 485.859375 Z M 711 23.304688 "/>
</clipPath>
<clipPath id="clip20">
  <path d="M 781 23.304688 L 783 23.304688 L 783 485.859375 L 781 485.859375 Z M 781 23.304688 "/>
</clipPath>
<clipPath id="clip21">
  <path d="M 851 23.304688 L 853 23.304688 L 853 485.859375 L 851 485.859375 Z M 851 23.304688 "/>
</clipPath>
</defs>
<g id="surface7147">
<rect x="0" y="0" width="900" height="521" style="fill:rgb(100%,100%,100%);fill-opacity:1;stroke:none;"/>
<rect x="0" y="0" width="900" height="521" style="fill:rgb(100%,100%,100%);fill-opacity:1;stroke:none;"/>
<path style="fill:none;stroke-width:1.066978;stroke-linecap:round;stroke-linejoin:round;stroke:rgb(100%,100%,100%);stroke-opacity:1;stroke-miterlimit:10;" d="M 0 521 L 900 521 L 900 0 L 0 0 Z M 0 521 "/>
<g clip-path="url(#clip1)" clip-rule="nonzero">
<path style=" stroke:none;fill-rule:nonzero;fill:rgb(92.156863%,92.156863%,92.156863%);fill-opacity:1;" d="M 36.140625 484.859375 L 894.519531 484.859375 L 894.519531 23.304688 L 36.140625 23.304688 Z M 36.140625 484.859375 "/>
</g>
<g clip-path="url(#clip2)" clip-rule="nonzero">
<path style="fill:none;stroke-width:0.533489;stroke-linecap:butt;stroke-linejoin:round;stroke:rgb(100%,100%,100%);stroke-opacity:1;stroke-miterlimit:10;" d="M 36.140625 421.070312 L 894.519531 421.070312 "/>
</g>
<g clip-path="url(#clip3)" clip-rule="nonzero">
<path style="fill:none;stroke-width:0.533489;stroke-linecap:butt;stroke-linejoin:round;stroke:rgb(100%,100%,100%);stroke-opacity:1;stroke-miterlimit:10;" d="M 36.140625 299.800781 L 894.519531 299.800781 "/>
</g>
<g clip-path="url(#clip4)" clip-rule="nonzero">
<path style="fill:none;stroke-width:0.533489;stroke-linecap:butt;stroke-linejoin:round;stroke:rgb(100%,100%,100%);stroke-opacity:1;stroke-miterlimit:10;" d="M 36.140625 178.53125 L 894.519531 178.53125 "/>
</g>
<g clip-path="url(#clip5)" clip-rule="nonzero">
<path style="fill:none;stroke-width:0.533489;stroke-linecap:butt;stroke-linejoin:round;stroke:rgb(100%,100%,100%);stroke-opacity:1;stroke-miterlimit:10;" d="M 36.140625 57.261719 L 894.519531 57.261719 "/>
</g>
<g clip-path="url(#clip6)" clip-rule="nonzero">
<path style="fill:none;stroke-width:1.066978;stroke-linecap:butt;stroke-linejoin:round;stroke:rgb(100%,100%,100%);stroke-opacity:1;stroke-miterlimit:10;" d="M 36.140625 481.707031 L 894.519531 481.707031 "/>
</g>
<g clip-path="url(#clip7)" clip-rule="nonzero">
<path style="fill:none;stroke-width:1.066978;stroke-linecap:butt;stroke-linejoin:round;stroke:rgb(100%,100%,100%);stroke-opacity:1;stroke-miterlimit:10;" d="M 36.140625 360.4375 L 894.519531 360.4375 "/>
</g>
<g clip-path="url(#clip8)" clip-rule="nonzero">
<path style="fill:none;stroke-width:1.066978;stroke-linecap:butt;stroke-linejoin:round;stroke:rgb(100%,100%,100%);stroke-opacity:1;stroke-miterlimit:10;" d="M 36.140625 239.164062 L 894.519531 239.164062 "/>
</g>
<g clip-path="url(#clip9)" clip-rule="nonzero">
<path style="fill:none;stroke-width:1.066978;stroke-linecap:butt;stroke-linejoin:round;stroke:rgb(100%,100%,100%);stroke-opacity:1;stroke-miterlimit:10;" d="M 36.140625 117.894531 L 894.519531 117.894531 "/>
</g>
<g clip-path="url(#clip10)" clip-rule="nonzero">
<path style="fill:none;stroke-width:1.066978;stroke-linecap:butt;stroke-linejoin:round;stroke:rgb(100%,100%,100%);stroke-opacity:1;stroke-miterlimit:10;" d="M 78.355469 484.859375 L 78.355469 23.304688 "/>
</g>
<g clip-path="url(#clip11)" clip-rule="nonzero">
<path style="fill:none;stroke-width:1.066978;stroke-linecap:butt;stroke-linejoin:round;stroke:rgb(100%,100%,100%);stroke-opacity:1;stroke-miterlimit:10;" d="M 148.714844 484.859375 L 148.714844 23.304688 "/>
</g>
<g clip-path="url(#clip12)" clip-rule="nonzero">
<path style="fill:none;stroke-width:1.066978;stroke-linecap:butt;stroke-linejoin:round;stroke:rgb(100%,100%,100%);stroke-opacity:1;stroke-miterlimit:10;" d="M 219.074219 484.859375 L 219.074219 23.304688 "/>
</g>
<g clip-path="url(#clip13)" clip-rule="nonzero">
<path style="fill:none;stroke-width:1.066978;stroke-linecap:butt;stroke-linejoin:round;stroke:rgb(100%,100%,100%);stroke-opacity:1;stroke-miterlimit:10;" d="M 289.433594 484.859375 L 289.433594 23.304688 "/>
</g>
<g clip-path="url(#clip14)" clip-rule="nonzero">
<path style="fill:none;stroke-width:1.066978;stroke-linecap:butt;stroke-linejoin:round;stroke:rgb(100%,100%,100%);stroke-opacity:1;stroke-miterlimit:10;" d="M 359.792969 484.859375 L 359.792969 23.304688 "/>
</g>
<g clip-path="url(#clip15)" clip-rule="nonzero">
<path style="fill:none;stroke-width:1.066978;stroke-linecap:butt;stroke-linejoin:round;stroke:rgb(100%,100%,100%);stroke-opacity:1;stroke-miterlimit:10;" d="M 430.152344 484.859375 L 430.152344 23.304688 "/>
</g>
<g clip-path="url(#clip16)" clip-rule="nonzero">
<path style="fill:none;stroke-width:1.066978;stroke-linecap:butt;stroke-linejoin:round;stroke:rgb(100%,100%,100%);stroke-opacity:1;stroke-miterlimit:10;" d="M 500.511719 484.859375 L 500.511719 23.304688 "/>
</g>
<g clip-path="url(#clip17)" clip-rule="nonzero">
<path style="fill:none;stroke-width:1.066978;stroke-linecap:butt;stroke-linejoin:round;stroke:rgb(100%,100%,100%);stroke-opacity:1;stroke-miterlimit:10;" d="M 570.867188 484.859375 L 570.867188 23.304688 "/>
</g>
<g clip-path="url(#clip18)" clip-rule="nonzero">
<path style="fill:none;stroke-width:1.066978;stroke-linecap:butt;stroke-linejoin:round;stroke:rgb(100%,100%,100%);stroke-opacity:1;stroke-miterlimit:10;" d="M 641.226562 484.859375 L 641.226562 23.304688 "/>
</g>
<g clip-path="url(#clip19)" clip-rule="nonzero">
<path style="fill:none;stroke-width:1.066978;stroke-linecap:butt;stroke-linejoin:round;stroke:rgb(100%,100%,100%);stroke-opacity:1;stroke-miterlimit:10;" d="M 711.585938 484.859375 L 711.585938 23.304688 "/>
</g>
<g clip-path="url(#clip20)" clip-rule="nonzero">
<path style="fill:none;stroke-width:1.066978;stroke-linecap:butt;stroke-linejoin:round;stroke:rgb(100%,100%,100%);stroke-opacity:1;stroke-miterlimit:10;" d="M 781.945312 484.859375 L 781.945312 23.304688 "/>
</g>
<g clip-path="url(#clip21)" clip-rule="nonzero">
<path style="fill:none;stroke-width:1.066978;stroke-linecap:butt;stroke-linejoin:round;stroke:rgb(100%,100%,100%);stroke-opacity:1;stroke-miterlimit:10;" d="M 852.304688 484.859375 L 852.304688 23.304688 "/>
</g>
<path style="fill:none;stroke-width:1.066978;stroke-linecap:butt;stroke-linejoin:round;stroke:rgb(20%,20%,20%);stroke-opacity:1;stroke-miterlimit:10;" d="M 78.355469 360.679688 L 78.355469 351.703125 "/>
<path style="fill:none;stroke-width:1.066978;stroke-linecap:butt;stroke-linejoin:round;stroke:rgb(20%,20%,20%);stroke-opacity:1;stroke-miterlimit:10;" d="M 78.355469 387.480469 L 78.355469 406.035156 "/>
<path style="fill-rule:nonzero;fill:rgb(33.72549%,69.411765%,96.862745%);fill-opacity:0.301961;stroke-width:1.066978;stroke-linecap:round;stroke-linejoin:round;stroke:rgb(20%,20%,20%);stroke-opacity:1;stroke-miterlimit:10;" d="M 51.972656 360.679688 L 51.972656 387.480469 L 104.742188 387.480469 L 104.742188 360.679688 Z M 51.972656 360.679688 "/>
<path style="fill:none;stroke-width:2.133957;stroke-linecap:butt;stroke-linejoin:round;stroke:rgb(20%,20%,20%);stroke-opacity:1;stroke-miterlimit:10;" d="M 51.972656 364.316406 L 104.742188 364.316406 "/>
<path style="fill-rule:nonzero;fill:rgb(20%,20%,20%);fill-opacity:0.301961;stroke-width:0.708661;stroke-linecap:round;stroke-linejoin:round;stroke:rgb(20%,20%,20%);stroke-opacity:0.301961;stroke-miterlimit:10;" d="M 150.667969 463.878906 C 150.667969 466.484375 146.761719 466.484375 146.761719 463.878906 C 146.761719 461.273438 150.667969 461.273438 150.667969 463.878906 "/>
<path style="fill-rule:nonzero;fill:rgb(20%,20%,20%);fill-opacity:0.301961;stroke-width:0.708661;stroke-linecap:round;stroke-linejoin:round;stroke:rgb(20%,20%,20%);stroke-opacity:0.301961;stroke-miterlimit:10;" d="M 150.667969 249.109375 C 150.667969 251.714844 146.761719 251.714844 146.761719 249.109375 C 146.761719 246.503906 150.667969 246.503906 150.667969 249.109375 "/>
<path style="fill:none;stroke-width:1.066978;stroke-linecap:butt;stroke-linejoin:round;stroke:rgb(20%,20%,20%);stroke-opacity:1;stroke-miterlimit:10;" d="M 148.714844 363.769531 L 148.714844 359.222656 "/>
<path style="fill:none;stroke-width:1.066978;stroke-linecap:butt;stroke-linejoin:round;stroke:rgb(20%,20%,20%);stroke-opacity:1;stroke-miterlimit:10;" d="M 148.714844 389.296875 L 148.714844 400.089844 "/>
<path style="fill-rule:nonzero;fill:rgb(28.627451%,58.823529%,82.745098%);fill-opacity:0.301961;stroke-width:1.066978;stroke-linecap:round;stroke-linejoin:round;stroke:rgb(20%,20%,20%);stroke-opacity:1;stroke-miterlimit:10;" d="M 122.332031 363.769531 L 122.332031 389.296875 L 175.097656 389.296875 L 175.097656 363.769531 Z M 122.332031 363.769531 "/>
<path style="fill:none;stroke-width:2.133957;stroke-linecap:butt;stroke-linejoin:round;stroke:rgb(20%,20%,20%);stroke-opacity:1;stroke-miterlimit:10;" d="M 122.332031 374.019531 L 175.097656 374.019531 "/>
<path style="fill-rule:nonzero;fill:rgb(20%,20%,20%);fill-opacity:0.301961;stroke-width:0.708661;stroke-linecap:round;stroke-linejoin:round;stroke:rgb(20%,20%,20%);stroke-opacity:0.301961;stroke-miterlimit:10;" d="M 221.027344 345.882812 C 221.027344 348.488281 217.117188 348.488281 217.117188 345.882812 C 217.117188 343.277344 221.027344 343.277344 221.027344 345.882812 "/>
<path style="fill-rule:nonzero;fill:rgb(20%,20%,20%);fill-opacity:0.301961;stroke-width:0.708661;stroke-linecap:round;stroke-linejoin:round;stroke:rgb(20%,20%,20%);stroke-opacity:0.301961;stroke-miterlimit:10;" d="M 221.027344 383.113281 C 221.027344 385.71875 217.117188 385.71875 217.117188 383.113281 C 217.117188 380.507812 221.027344 380.507812 221.027344 383.113281 "/>
<path style="fill-rule:nonzero;fill:rgb(20%,20%,20%);fill-opacity:0.301961;stroke-width:0.708661;stroke-linecap:round;stroke-linejoin:round;stroke:rgb(20%,20%,20%);stroke-opacity:0.301961;stroke-miterlimit:10;" d="M 221.027344 380.6875 C 221.027344 383.292969 217.117188 383.292969 217.117188 380.6875 C 217.117188 378.082031 221.027344 378.082031 221.027344 380.6875 "/>
<path style="fill-rule:nonzero;fill:rgb(20%,20%,20%);fill-opacity:0.301961;stroke-width:0.708661;stroke-linecap:round;stroke-linejoin:round;stroke:rgb(20%,20%,20%);stroke-opacity:0.301961;stroke-miterlimit:10;" d="M 221.027344 395.484375 C 221.027344 398.089844 217.117188 398.089844 217.117188 395.484375 C 217.117188 392.878906 221.027344 392.878906 221.027344 395.484375 "/>
<path style="fill-rule:nonzero;fill:rgb(20%,20%,20%);fill-opacity:0.301961;stroke-width:0.708661;stroke-linecap:round;stroke-linejoin:round;stroke:rgb(20%,20%,20%);stroke-opacity:0.301961;stroke-miterlimit:10;" d="M 221.027344 387.359375 C 221.027344 389.964844 217.117188 389.964844 217.117188 387.359375 C 217.117188 384.75 221.027344 384.75 221.027344 387.359375 "/>
<path style="fill-rule:nonzero;fill:rgb(20%,20%,20%);fill-opacity:0.301961;stroke-width:0.708661;stroke-linecap:round;stroke-linejoin:round;stroke:rgb(20%,20%,20%);stroke-opacity:0.301961;stroke-miterlimit:10;" d="M 221.027344 347.824219 C 221.027344 350.429688 217.117188 350.429688 217.117188 347.824219 C 217.117188 345.21875 221.027344 345.21875 221.027344 347.824219 "/>
<path style="fill-rule:nonzero;fill:rgb(20%,20%,20%);fill-opacity:0.301961;stroke-width:0.708661;stroke-linecap:round;stroke-linejoin:round;stroke:rgb(20%,20%,20%);stroke-opacity:0.301961;stroke-miterlimit:10;" d="M 221.027344 419.617188 C 221.027344 422.222656 217.117188 422.222656 217.117188 419.617188 C 217.117188 417.007812 221.027344 417.007812 221.027344 419.617188 "/>
<path style="fill-rule:nonzero;fill:rgb(20%,20%,20%);fill-opacity:0.301961;stroke-width:0.708661;stroke-linecap:round;stroke-linejoin:round;stroke:rgb(20%,20%,20%);stroke-opacity:0.301961;stroke-miterlimit:10;" d="M 221.027344 327.207031 C 221.027344 329.816406 217.117188 329.816406 217.117188 327.207031 C 217.117188 324.601562 221.027344 324.601562 221.027344 327.207031 "/>
<path style="fill-rule:nonzero;fill:rgb(20%,20%,20%);fill-opacity:0.301961;stroke-width:0.708661;stroke-linecap:round;stroke-linejoin:round;stroke:rgb(20%,20%,20%);stroke-opacity:0.301961;stroke-miterlimit:10;" d="M 221.027344 318.597656 C 221.027344 321.203125 217.117188 321.203125 217.117188 318.597656 C 217.117188 315.992188 221.027344 315.992188 221.027344 318.597656 "/>
<path style="fill-rule:nonzero;fill:rgb(20%,20%,20%);fill-opacity:0.301961;stroke-width:0.708661;stroke-linecap:round;stroke-linejoin:round;stroke:rgb(20%,20%,20%);stroke-opacity:0.301961;stroke-miterlimit:10;" d="M 221.027344 346.246094 C 221.027344 348.855469 217.117188 348.855469 217.117188 346.246094 C 217.117188 343.640625 221.027344 343.640625 221.027344 346.246094 "/>
<path style="fill-rule:nonzero;fill:rgb(20%,20%,20%);fill-opacity:0.301961;stroke-width:0.708661;stroke-linecap:round;stroke-linejoin:round;stroke:rgb(20%,20%,20%);stroke-opacity:0.301961;stroke-miterlimit:10;" d="M 221.027344 342.125 C 221.027344 344.730469 217.117188 344.730469 217.117188 342.125 C 217.117188 339.519531 221.027344 339.519531 221.027344 342.125 "/>
<path style="fill-rule:nonzero;fill:rgb(20%,20%,20%);fill-opacity:0.301961;stroke-width:0.708661;stroke-linecap:round;stroke-linejoin:round;stroke:rgb(20%,20%,20%);stroke-opacity:0.301961;stroke-miterlimit:10;" d="M 221.027344 392.9375 C 221.027344 395.542969 217.117188 395.542969 217.117188 392.9375 C 217.117188 390.332031 221.027344 390.332031 221.027344 392.9375 "/>
<path style="fill-rule:nonzero;fill:rgb(20%,20%,20%);fill-opacity:0.301961;stroke-width:0.708661;stroke-linecap:round;stroke-linejoin:round;stroke:rgb(20%,20%,20%);stroke-opacity:0.301961;stroke-miterlimit:10;" d="M 221.027344 390.996094 C 221.027344 393.601562 217.117188 393.601562 217.117188 390.996094 C 217.117188 388.390625 221.027344 388.390625 221.027344 390.996094 "/>
<path style="fill-rule:nonzero;fill:rgb(20%,20%,20%);fill-opacity:0.301961;stroke-width:0.708661;stroke-linecap:round;stroke-linejoin:round;stroke:rgb(20%,20%,20%);stroke-opacity:0.301961;stroke-miterlimit:10;" d="M 221.027344 438.292969 C 221.027344 440.898438 217.117188 440.898438 217.117188 438.292969 C 217.117188 435.683594 221.027344 435.683594 221.027344 438.292969 "/>
<path style="fill:none;stroke-width:1.066978;stroke-linecap:butt;stroke-linejoin:round;stroke:rgb(20%,20%,20%);stroke-opacity:1;stroke-miterlimit:10;" d="M 219.074219 360.4375 L 219.074219 351.339844 "/>
<path style="fill:none;stroke-width:1.066978;stroke-linecap:butt;stroke-linejoin:round;stroke:rgb(20%,20%,20%);stroke-opacity:1;stroke-miterlimit:10;" d="M 219.074219 367.589844 L 219.074219 373.898438 "/>
<path style="fill-rule:nonzero;fill:rgb(7.45098%,16.862745%,26.27451%);fill-opacity:0.301961;stroke-width:1.066978;stroke-linecap:round;stroke-linejoin:round;stroke:rgb(20%,20%,20%);stroke-opacity:1;stroke-miterlimit:10;" d="M 192.6875 360.4375 L 192.6875 367.589844 L 245.457031 367.589844 L 245.457031 360.4375 Z M 192.6875 360.4375 "/>
<path style="fill:none;stroke-width:2.133957;stroke-linecap:butt;stroke-linejoin:round;stroke:rgb(20%,20%,20%);stroke-opacity:1;stroke-miterlimit:10;" d="M 192.6875 360.4375 L 245.457031 360.4375 "/>
<path style="fill-rule:nonzero;fill:rgb(20%,20%,20%);fill-opacity:0.301961;stroke-width:0.708661;stroke-linecap:round;stroke-linejoin:round;stroke:rgb(20%,20%,20%);stroke-opacity:0.301961;stroke-miterlimit:10;" d="M 291.386719 347.339844 C 291.386719 349.945312 287.476562 349.945312 287.476562 347.339844 C 287.476562 344.734375 291.386719 344.734375 291.386719 347.339844 "/>
<path style="fill:none;stroke-width:1.066978;stroke-linecap:butt;stroke-linejoin:round;stroke:rgb(20%,20%,20%);stroke-opacity:1;stroke-miterlimit:10;" d="M 289.433594 360.921875 L 289.433594 356.796875 "/>
<path style="fill:none;stroke-width:1.066978;stroke-linecap:butt;stroke-linejoin:round;stroke:rgb(20%,20%,20%);stroke-opacity:1;stroke-miterlimit:10;" d="M 289.433594 368.683594 L 289.433594 379.597656 "/>
<path style="fill-rule:nonzero;fill:rgb(25.882353%,54.117647%,76.078431%);fill-opacity:0.301961;stroke-width:1.066978;stroke-linecap:round;stroke-linejoin:round;stroke:rgb(20%,20%,20%);stroke-opacity:1;stroke-miterlimit:10;" d="M 263.046875 360.921875 L 263.046875 368.683594 L 315.816406 368.683594 L 315.816406 360.921875 Z M 263.046875 360.921875 "/>
<path style="fill:none;stroke-width:2.133957;stroke-linecap:butt;stroke-linejoin:round;stroke:rgb(20%,20%,20%);stroke-opacity:1;stroke-miterlimit:10;" d="M 263.046875 363.589844 L 315.816406 363.589844 "/>
<path style="fill-rule:nonzero;fill:rgb(20%,20%,20%);fill-opacity:0.301961;stroke-width:0.708661;stroke-linecap:round;stroke-linejoin:round;stroke:rgb(20%,20%,20%);stroke-opacity:0.301961;stroke-miterlimit:10;" d="M 361.746094 419.132812 C 361.746094 421.738281 357.835938 421.738281 357.835938 419.132812 C 357.835938 416.523438 361.746094 416.523438 361.746094 419.132812 "/>
<path style="fill-rule:nonzero;fill:rgb(20%,20%,20%);fill-opacity:0.301961;stroke-width:0.708661;stroke-linecap:round;stroke-linejoin:round;stroke:rgb(20%,20%,20%);stroke-opacity:0.301961;stroke-miterlimit:10;" d="M 361.746094 305.984375 C 361.746094 308.59375 357.835938 308.59375 357.835938 305.984375 C 357.835938 303.378906 361.746094 303.378906 361.746094 305.984375 "/>
<path style="fill-rule:nonzero;fill:rgb(20%,20%,20%);fill-opacity:0.301961;stroke-width:0.708661;stroke-linecap:round;stroke-linejoin:round;stroke:rgb(20%,20%,20%);stroke-opacity:0.301961;stroke-miterlimit:10;" d="M 361.746094 305.378906 C 361.746094 307.984375 357.835938 307.984375 357.835938 305.378906 C 357.835938 302.773438 361.746094 302.773438 361.746094 305.378906 "/>
<path style="fill-rule:nonzero;fill:rgb(20%,20%,20%);fill-opacity:0.301961;stroke-width:0.708661;stroke-linecap:round;stroke-linejoin:round;stroke:rgb(20%,20%,20%);stroke-opacity:0.301961;stroke-miterlimit:10;" d="M 361.746094 305.742188 C 361.746094 308.351562 357.835938 308.351562 357.835938 305.742188 C 357.835938 303.136719 361.746094 303.136719 361.746094 305.742188 "/>
<path style="fill-rule:nonzero;fill:rgb(20%,20%,20%);fill-opacity:0.301961;stroke-width:0.708661;stroke-linecap:round;stroke-linejoin:round;stroke:rgb(20%,20%,20%);stroke-opacity:0.301961;stroke-miterlimit:10;" d="M 361.746094 312.050781 C 361.746094 314.65625 357.835938 314.65625 357.835938 312.050781 C 357.835938 309.441406 361.746094 309.441406 361.746094 312.050781 "/>
<path style="fill:none;stroke-width:1.066978;stroke-linecap:butt;stroke-linejoin:round;stroke:rgb(20%,20%,20%);stroke-opacity:1;stroke-miterlimit:10;" d="M 359.792969 354.738281 L 359.792969 336.0625 "/>
<path style="fill:none;stroke-width:1.066978;stroke-linecap:butt;stroke-linejoin:round;stroke:rgb(20%,20%,20%);stroke-opacity:1;stroke-miterlimit:10;" d="M 359.792969 376.777344 L 359.792969 395.363281 "/>
<path style="fill-rule:nonzero;fill:rgb(9.411765%,21.176471%,32.156863%);fill-opacity:0.301961;stroke-width:1.066978;stroke-linecap:round;stroke-linejoin:round;stroke:rgb(20%,20%,20%);stroke-opacity:1;stroke-miterlimit:10;" d="M 333.40625 354.738281 L 333.40625 376.777344 L 386.175781 376.777344 L 386.175781 354.738281 Z M 333.40625 354.738281 "/>
<path style="fill:none;stroke-width:2.133957;stroke-linecap:butt;stroke-linejoin:round;stroke:rgb(20%,20%,20%);stroke-opacity:1;stroke-miterlimit:10;" d="M 333.40625 363.46875 L 386.175781 363.46875 "/>
<path style="fill-rule:nonzero;fill:rgb(20%,20%,20%);fill-opacity:0.301961;stroke-width:0.708661;stroke-linecap:round;stroke-linejoin:round;stroke:rgb(20%,20%,20%);stroke-opacity:0.301961;stroke-miterlimit:10;" d="M 432.105469 167.738281 C 432.105469 170.34375 428.195312 170.34375 428.195312 167.738281 C 428.195312 165.132812 432.105469 165.132812 432.105469 167.738281 "/>
<path style="fill-rule:nonzero;fill:rgb(20%,20%,20%);fill-opacity:0.301961;stroke-width:0.708661;stroke-linecap:round;stroke-linejoin:round;stroke:rgb(20%,20%,20%);stroke-opacity:0.301961;stroke-miterlimit:10;" d="M 432.105469 405.914062 C 432.105469 408.519531 428.195312 408.519531 428.195312 405.914062 C 428.195312 403.304688 432.105469 403.304688 432.105469 405.914062 "/>
<path style="fill-rule:nonzero;fill:rgb(20%,20%,20%);fill-opacity:0.301961;stroke-width:0.708661;stroke-linecap:round;stroke-linejoin:round;stroke:rgb(20%,20%,20%);stroke-opacity:0.301961;stroke-miterlimit:10;" d="M 432.105469 439.140625 C 432.105469 441.746094 428.195312 441.746094 428.195312 439.140625 C 428.195312 436.535156 432.105469 436.535156 432.105469 439.140625 "/>
<path style="fill-rule:nonzero;fill:rgb(20%,20%,20%);fill-opacity:0.301961;stroke-width:0.708661;stroke-linecap:round;stroke-linejoin:round;stroke:rgb(20%,20%,20%);stroke-opacity:0.301961;stroke-miterlimit:10;" d="M 432.105469 414.402344 C 432.105469 417.007812 428.195312 417.007812 428.195312 414.402344 C 428.195312 411.796875 432.105469 411.796875 432.105469 414.402344 "/>
<path style="fill:none;stroke-width:1.066978;stroke-linecap:butt;stroke-linejoin:round;stroke:rgb(20%,20%,20%);stroke-opacity:1;stroke-miterlimit:10;" d="M 430.152344 355.707031 L 430.152344 331.453125 "/>
<path style="fill:none;stroke-width:1.066978;stroke-linecap:butt;stroke-linejoin:round;stroke:rgb(20%,20%,20%);stroke-opacity:1;stroke-miterlimit:10;" d="M 430.152344 375.445312 L 430.152344 396.695312 "/>
<path style="fill-rule:nonzero;fill:rgb(11.764706%,25.490196%,37.647059%);fill-opacity:0.301961;stroke-width:1.066978;stroke-linecap:round;stroke-linejoin:round;stroke:rgb(20%,20%,20%);stroke-opacity:1;stroke-miterlimit:10;" d="M 403.765625 355.707031 L 403.765625 375.445312 L 456.535156 375.445312 L 456.535156 355.707031 Z M 403.765625 355.707031 "/>
<path style="fill:none;stroke-width:2.133957;stroke-linecap:butt;stroke-linejoin:round;stroke:rgb(20%,20%,20%);stroke-opacity:1;stroke-miterlimit:10;" d="M 403.765625 364.863281 L 456.535156 364.863281 "/>
<path style="fill-rule:nonzero;fill:rgb(20%,20%,20%);fill-opacity:0.301961;stroke-width:0.708661;stroke-linecap:round;stroke-linejoin:round;stroke:rgb(20%,20%,20%);stroke-opacity:0.301961;stroke-miterlimit:10;" d="M 502.464844 444.234375 C 502.464844 446.839844 498.554688 446.839844 498.554688 444.234375 C 498.554688 441.628906 502.464844 441.628906 502.464844 444.234375 "/>
<path style="fill-rule:nonzero;fill:rgb(20%,20%,20%);fill-opacity:0.301961;stroke-width:0.708661;stroke-linecap:round;stroke-linejoin:round;stroke:rgb(20%,20%,20%);stroke-opacity:0.301961;stroke-miterlimit:10;" d="M 502.464844 286.824219 C 502.464844 289.429688 498.554688 289.429688 498.554688 286.824219 C 498.554688 284.21875 502.464844 284.21875 502.464844 286.824219 "/>
<path style="fill-rule:nonzero;fill:rgb(20%,20%,20%);fill-opacity:0.301961;stroke-width:0.708661;stroke-linecap:round;stroke-linejoin:round;stroke:rgb(20%,20%,20%);stroke-opacity:0.301961;stroke-miterlimit:10;" d="M 502.464844 412.21875 C 502.464844 414.824219 498.554688 414.824219 498.554688 412.21875 C 498.554688 409.613281 502.464844 409.613281 502.464844 412.21875 "/>
<path style="fill-rule:nonzero;fill:rgb(20%,20%,20%);fill-opacity:0.301961;stroke-width:0.708661;stroke-linecap:round;stroke-linejoin:round;stroke:rgb(20%,20%,20%);stroke-opacity:0.301961;stroke-miterlimit:10;" d="M 502.464844 328.664062 C 502.464844 331.269531 498.554688 331.269531 498.554688 328.664062 C 498.554688 326.058594 502.464844 326.058594 502.464844 328.664062 "/>
<path style="fill:none;stroke-width:1.066978;stroke-linecap:butt;stroke-linejoin:round;stroke:rgb(20%,20%,20%);stroke-opacity:1;stroke-miterlimit:10;" d="M 500.511719 352.433594 L 500.511719 334.847656 "/>
<path style="fill:none;stroke-width:1.066978;stroke-linecap:butt;stroke-linejoin:round;stroke:rgb(20%,20%,20%);stroke-opacity:1;stroke-miterlimit:10;" d="M 500.511719 367.773438 L 500.511719 390.269531 "/>
<path style="fill-rule:nonzero;fill:rgb(18.823529%,39.215686%,56.470588%);fill-opacity:0.301961;stroke-width:1.066978;stroke-linecap:round;stroke-linejoin:round;stroke:rgb(20%,20%,20%);stroke-opacity:1;stroke-miterlimit:10;" d="M 474.125 352.433594 L 474.125 367.773438 L 526.894531 367.773438 L 526.894531 352.433594 Z M 474.125 352.433594 "/>
<path style="fill:none;stroke-width:2.133957;stroke-linecap:butt;stroke-linejoin:round;stroke:rgb(20%,20%,20%);stroke-opacity:1;stroke-miterlimit:10;" d="M 474.125 361.527344 L 526.894531 361.527344 "/>
<path style="fill-rule:nonzero;fill:rgb(20%,20%,20%);fill-opacity:0.301961;stroke-width:0.708661;stroke-linecap:round;stroke-linejoin:round;stroke:rgb(20%,20%,20%);stroke-opacity:0.301961;stroke-miterlimit:10;" d="M 572.824219 418.160156 C 572.824219 420.765625 568.914062 420.765625 568.914062 418.160156 C 568.914062 415.554688 572.824219 415.554688 572.824219 418.160156 "/>
<path style="fill:none;stroke-width:1.066978;stroke-linecap:butt;stroke-linejoin:round;stroke:rgb(20%,20%,20%);stroke-opacity:1;stroke-miterlimit:10;" d="M 570.867188 347.945312 L 570.867188 323.8125 "/>
<path style="fill:none;stroke-width:1.066978;stroke-linecap:butt;stroke-linejoin:round;stroke:rgb(20%,20%,20%);stroke-opacity:1;stroke-miterlimit:10;" d="M 570.867188 368.441406 L 570.867188 380.324219 "/>
<path style="fill-rule:nonzero;fill:rgb(21.176471%,43.921569%,62.745098%);fill-opacity:0.301961;stroke-width:1.066978;stroke-linecap:round;stroke-linejoin:round;stroke:rgb(20%,20%,20%);stroke-opacity:1;stroke-miterlimit:10;" d="M 544.484375 347.945312 L 544.484375 368.441406 L 597.253906 368.441406 L 597.253906 347.945312 Z M 544.484375 347.945312 "/>
<path style="fill:none;stroke-width:2.133957;stroke-linecap:butt;stroke-linejoin:round;stroke:rgb(20%,20%,20%);stroke-opacity:1;stroke-miterlimit:10;" d="M 544.484375 360.4375 L 597.253906 360.4375 "/>
<path style="fill-rule:nonzero;fill:rgb(20%,20%,20%);fill-opacity:0.301961;stroke-width:0.708661;stroke-linecap:round;stroke-linejoin:round;stroke:rgb(20%,20%,20%);stroke-opacity:0.301961;stroke-miterlimit:10;" d="M 643.183594 174.894531 C 643.183594 177.5 639.273438 177.5 639.273438 174.894531 C 639.273438 172.285156 643.183594 172.285156 643.183594 174.894531 "/>
<path style="fill-rule:nonzero;fill:rgb(20%,20%,20%);fill-opacity:0.301961;stroke-width:0.708661;stroke-linecap:round;stroke-linejoin:round;stroke:rgb(20%,20%,20%);stroke-opacity:0.301961;stroke-miterlimit:10;" d="M 643.183594 326.964844 C 643.183594 329.570312 639.273438 329.570312 639.273438 326.964844 C 639.273438 324.359375 643.183594 324.359375 643.183594 326.964844 "/>
<path style="fill-rule:nonzero;fill:rgb(20%,20%,20%);fill-opacity:0.301961;stroke-width:0.708661;stroke-linecap:round;stroke-linejoin:round;stroke:rgb(20%,20%,20%);stroke-opacity:0.301961;stroke-miterlimit:10;" d="M 643.183594 326.964844 C 643.183594 329.570312 639.273438 329.570312 639.273438 326.964844 C 639.273438 324.359375 643.183594 324.359375 643.183594 326.964844 "/>
<path style="fill-rule:nonzero;fill:rgb(20%,20%,20%);fill-opacity:0.301961;stroke-width:0.708661;stroke-linecap:round;stroke-linejoin:round;stroke:rgb(20%,20%,20%);stroke-opacity:0.301961;stroke-miterlimit:10;" d="M 643.183594 436.957031 C 643.183594 439.5625 639.273438 439.5625 639.273438 436.957031 C 639.273438 434.351562 643.183594 434.351562 643.183594 436.957031 "/>
<path style="fill-rule:nonzero;fill:rgb(20%,20%,20%);fill-opacity:0.301961;stroke-width:0.708661;stroke-linecap:round;stroke-linejoin:round;stroke:rgb(20%,20%,20%);stroke-opacity:0.301961;stroke-miterlimit:10;" d="M 643.183594 436.230469 C 643.183594 438.835938 639.273438 438.835938 639.273438 436.230469 C 639.273438 433.625 643.183594 433.625 643.183594 436.230469 "/>
<path style="fill-rule:nonzero;fill:rgb(20%,20%,20%);fill-opacity:0.301961;stroke-width:0.708661;stroke-linecap:round;stroke-linejoin:round;stroke:rgb(20%,20%,20%);stroke-opacity:0.301961;stroke-miterlimit:10;" d="M 643.183594 428.347656 C 643.183594 430.953125 639.273438 430.953125 639.273438 428.347656 C 639.273438 425.742188 643.183594 425.742188 643.183594 428.347656 "/>
<path style="fill:none;stroke-width:1.066978;stroke-linecap:butt;stroke-linejoin:round;stroke:rgb(20%,20%,20%);stroke-opacity:1;stroke-miterlimit:10;" d="M 641.226562 352.613281 L 641.226562 349.035156 "/>
<path style="fill:none;stroke-width:1.066978;stroke-linecap:butt;stroke-linejoin:round;stroke:rgb(20%,20%,20%);stroke-opacity:1;stroke-miterlimit:10;" d="M 641.226562 369.226562 L 641.226562 371.109375 "/>
<path style="fill-rule:nonzero;fill:rgb(30.980392%,64.313725%,89.803922%);fill-opacity:0.301961;stroke-width:1.066978;stroke-linecap:round;stroke-linejoin:round;stroke:rgb(20%,20%,20%);stroke-opacity:1;stroke-miterlimit:10;" d="M 614.84375 352.613281 L 614.84375 369.226562 L 667.613281 369.226562 L 667.613281 352.613281 Z M 614.84375 352.613281 "/>
<path style="fill:none;stroke-width:2.133957;stroke-linecap:butt;stroke-linejoin:round;stroke:rgb(20%,20%,20%);stroke-opacity:1;stroke-miterlimit:10;" d="M 614.84375 361.527344 L 667.613281 361.527344 "/>
<path style="fill-rule:nonzero;fill:rgb(20%,20%,20%);fill-opacity:0.301961;stroke-width:0.708661;stroke-linecap:round;stroke-linejoin:round;stroke:rgb(20%,20%,20%);stroke-opacity:0.301961;stroke-miterlimit:10;" d="M 713.542969 273.605469 C 713.542969 276.214844 709.632812 276.214844 709.632812 273.605469 C 709.632812 271 713.542969 271 713.542969 273.605469 "/>
<path style="fill-rule:nonzero;fill:rgb(20%,20%,20%);fill-opacity:0.301961;stroke-width:0.708661;stroke-linecap:round;stroke-linejoin:round;stroke:rgb(20%,20%,20%);stroke-opacity:0.301961;stroke-miterlimit:10;" d="M 713.542969 451.632812 C 713.542969 454.238281 709.632812 454.238281 709.632812 451.632812 C 709.632812 449.023438 713.542969 449.023438 713.542969 451.632812 "/>
<path style="fill-rule:nonzero;fill:rgb(20%,20%,20%);fill-opacity:0.301961;stroke-width:0.708661;stroke-linecap:round;stroke-linejoin:round;stroke:rgb(20%,20%,20%);stroke-opacity:0.301961;stroke-miterlimit:10;" d="M 713.542969 309.867188 C 713.542969 312.472656 709.632812 312.472656 709.632812 309.867188 C 709.632812 307.261719 713.542969 307.261719 713.542969 309.867188 "/>
<path style="fill-rule:nonzero;fill:rgb(20%,20%,20%);fill-opacity:0.301961;stroke-width:0.708661;stroke-linecap:round;stroke-linejoin:round;stroke:rgb(20%,20%,20%);stroke-opacity:0.301961;stroke-miterlimit:10;" d="M 713.542969 170.164062 C 713.542969 172.769531 709.632812 172.769531 709.632812 170.164062 C 709.632812 167.558594 713.542969 167.558594 713.542969 170.164062 "/>
<path style="fill:none;stroke-width:1.066978;stroke-linecap:butt;stroke-linejoin:round;stroke:rgb(20%,20%,20%);stroke-opacity:1;stroke-miterlimit:10;" d="M 711.585938 348.308594 L 711.585938 331.453125 "/>
<path style="fill:none;stroke-width:1.066978;stroke-linecap:butt;stroke-linejoin:round;stroke:rgb(20%,20%,20%);stroke-opacity:1;stroke-miterlimit:10;" d="M 711.585938 363.527344 L 711.585938 384.570312 "/>
<path style="fill-rule:nonzero;fill:rgb(16.470588%,34.509804%,50.196078%);fill-opacity:0.301961;stroke-width:1.066978;stroke-linecap:round;stroke-linejoin:round;stroke:rgb(20%,20%,20%);stroke-opacity:1;stroke-miterlimit:10;" d="M 685.203125 348.308594 L 685.203125 363.527344 L 737.972656 363.527344 L 737.972656 348.308594 Z M 685.203125 348.308594 "/>
<path style="fill:none;stroke-width:2.133957;stroke-linecap:butt;stroke-linejoin:round;stroke:rgb(20%,20%,20%);stroke-opacity:1;stroke-miterlimit:10;" d="M 685.203125 360.4375 L 737.972656 360.4375 "/>
<path style="fill-rule:nonzero;fill:rgb(20%,20%,20%);fill-opacity:0.301961;stroke-width:0.708661;stroke-linecap:round;stroke-linejoin:round;stroke:rgb(20%,20%,20%);stroke-opacity:0.301961;stroke-miterlimit:10;" d="M 783.902344 255.902344 C 783.902344 258.507812 779.992188 258.507812 779.992188 255.902344 C 779.992188 253.292969 783.902344 253.292969 783.902344 255.902344 "/>
<path style="fill-rule:nonzero;fill:rgb(20%,20%,20%);fill-opacity:0.301961;stroke-width:0.708661;stroke-linecap:round;stroke-linejoin:round;stroke:rgb(20%,20%,20%);stroke-opacity:0.301961;stroke-miterlimit:10;" d="M 783.902344 448.355469 C 783.902344 450.964844 779.992188 450.964844 779.992188 448.355469 C 779.992188 445.75 783.902344 445.75 783.902344 448.355469 "/>
<path style="fill-rule:nonzero;fill:rgb(20%,20%,20%);fill-opacity:0.301961;stroke-width:0.708661;stroke-linecap:round;stroke-linejoin:round;stroke:rgb(20%,20%,20%);stroke-opacity:0.301961;stroke-miterlimit:10;" d="M 783.902344 413.917969 C 783.902344 416.523438 779.992188 416.523438 779.992188 413.917969 C 779.992188 411.308594 783.902344 411.308594 783.902344 413.917969 "/>
<path style="fill-rule:nonzero;fill:rgb(20%,20%,20%);fill-opacity:0.301961;stroke-width:0.708661;stroke-linecap:round;stroke-linejoin:round;stroke:rgb(20%,20%,20%);stroke-opacity:0.301961;stroke-miterlimit:10;" d="M 783.902344 44.285156 C 783.902344 46.890625 779.992188 46.890625 779.992188 44.285156 C 779.992188 41.679688 783.902344 41.679688 783.902344 44.285156 "/>
<path style="fill:none;stroke-width:1.066978;stroke-linecap:butt;stroke-linejoin:round;stroke:rgb(20%,20%,20%);stroke-opacity:1;stroke-miterlimit:10;" d="M 781.945312 344.671875 L 781.945312 308.652344 "/>
<path style="fill:none;stroke-width:1.066978;stroke-linecap:butt;stroke-linejoin:round;stroke:rgb(20%,20%,20%);stroke-opacity:1;stroke-miterlimit:10;" d="M 781.945312 370.746094 L 781.945312 407.609375 "/>
<path style="fill-rule:nonzero;fill:rgb(14.117647%,29.803922%,43.921569%);fill-opacity:0.301961;stroke-width:1.066978;stroke-linecap:round;stroke-linejoin:round;stroke:rgb(20%,20%,20%);stroke-opacity:1;stroke-miterlimit:10;" d="M 755.5625 344.671875 L 755.5625 370.746094 L 808.332031 370.746094 L 808.332031 344.671875 Z M 755.5625 344.671875 "/>
<path style="fill:none;stroke-width:2.133957;stroke-linecap:butt;stroke-linejoin:round;stroke:rgb(20%,20%,20%);stroke-opacity:1;stroke-miterlimit:10;" d="M 755.5625 360.074219 L 808.332031 360.074219 "/>
<path style="fill-rule:nonzero;fill:rgb(20%,20%,20%);fill-opacity:0.301961;stroke-width:0.708661;stroke-linecap:round;stroke-linejoin:round;stroke:rgb(20%,20%,20%);stroke-opacity:0.301961;stroke-miterlimit:10;" d="M 854.261719 260.386719 C 854.261719 262.996094 850.351562 262.996094 850.351562 260.386719 C 850.351562 257.78125 854.261719 257.78125 854.261719 260.386719 "/>
<path style="fill:none;stroke-width:1.066978;stroke-linecap:butt;stroke-linejoin:round;stroke:rgb(20%,20%,20%);stroke-opacity:1;stroke-miterlimit:10;" d="M 852.304688 335.484375 L 852.304688 333.757812 "/>
<path style="fill:none;stroke-width:1.066978;stroke-linecap:butt;stroke-linejoin:round;stroke:rgb(20%,20%,20%);stroke-opacity:1;stroke-miterlimit:10;" d="M 852.304688 358.769531 L 852.304688 381.171875 "/>
<path style="fill-rule:nonzero;fill:rgb(23.529412%,49.019608%,69.411765%);fill-opacity:0.301961;stroke-width:1.066978;stroke-linecap:round;stroke-linejoin:round;stroke:rgb(20%,20%,20%);stroke-opacity:1;stroke-miterlimit:10;" d="M 825.921875 335.484375 L 825.921875 358.769531 L 878.691406 358.769531 L 878.691406 335.484375 Z M 825.921875 335.484375 "/>
<path style="fill:none;stroke-width:2.133957;stroke-linecap:butt;stroke-linejoin:round;stroke:rgb(20%,20%,20%);stroke-opacity:1;stroke-miterlimit:10;" d="M 825.921875 351.824219 L 878.691406 351.824219 "/>
<g style="fill:rgb(30.196078%,30.196078%,30.196078%);fill-opacity:1;">
  <use xlink:href="#glyph0-1" x="22.207031" y="484.375"/>
  <use xlink:href="#glyph0-2" x="25.455078" y="484.375"/>
</g>
<g style="fill:rgb(30.196078%,30.196078%,30.196078%);fill-opacity:1;">
  <use xlink:href="#glyph0-3" x="25.207031" y="363.105469"/>
</g>
<g style="fill:rgb(30.196078%,30.196078%,30.196078%);fill-opacity:1;">
  <use xlink:href="#glyph0-2" x="25.207031" y="241.832031"/>
</g>
<g style="fill:rgb(30.196078%,30.196078%,30.196078%);fill-opacity:1;">
  <use xlink:href="#glyph0-4" x="25.207031" y="120.5625"/>
</g>
<path style="fill:none;stroke-width:1.066978;stroke-linecap:butt;stroke-linejoin:round;stroke:rgb(20%,20%,20%);stroke-opacity:1;stroke-miterlimit:10;" d="M 33.402344 481.707031 L 36.140625 481.707031 "/>
<path style="fill:none;stroke-width:1.066978;stroke-linecap:butt;stroke-linejoin:round;stroke:rgb(20%,20%,20%);stroke-opacity:1;stroke-miterlimit:10;" d="M 33.402344 360.4375 L 36.140625 360.4375 "/>
<path style="fill:none;stroke-width:1.066978;stroke-linecap:butt;stroke-linejoin:round;stroke:rgb(20%,20%,20%);stroke-opacity:1;stroke-miterlimit:10;" d="M 33.402344 239.164062 L 36.140625 239.164062 "/>
<path style="fill:none;stroke-width:1.066978;stroke-linecap:butt;stroke-linejoin:round;stroke:rgb(20%,20%,20%);stroke-opacity:1;stroke-miterlimit:10;" d="M 33.402344 117.894531 L 36.140625 117.894531 "/>
<path style="fill:none;stroke-width:1.066978;stroke-linecap:butt;stroke-linejoin:round;stroke:rgb(20%,20%,20%);stroke-opacity:1;stroke-miterlimit:10;" d="M 78.355469 487.597656 L 78.355469 484.859375 "/>
<path style="fill:none;stroke-width:1.066978;stroke-linecap:butt;stroke-linejoin:round;stroke:rgb(20%,20%,20%);stroke-opacity:1;stroke-miterlimit:10;" d="M 148.714844 487.597656 L 148.714844 484.859375 "/>
<path style="fill:none;stroke-width:1.066978;stroke-linecap:butt;stroke-linejoin:round;stroke:rgb(20%,20%,20%);stroke-opacity:1;stroke-miterlimit:10;" d="M 219.074219 487.597656 L 219.074219 484.859375 "/>
<path style="fill:none;stroke-width:1.066978;stroke-linecap:butt;stroke-linejoin:round;stroke:rgb(20%,20%,20%);stroke-opacity:1;stroke-miterlimit:10;" d="M 289.433594 487.597656 L 289.433594 484.859375 "/>
<path style="fill:none;stroke-width:1.066978;stroke-linecap:butt;stroke-linejoin:round;stroke:rgb(20%,20%,20%);stroke-opacity:1;stroke-miterlimit:10;" d="M 359.792969 487.597656 L 359.792969 484.859375 "/>
<path style="fill:none;stroke-width:1.066978;stroke-linecap:butt;stroke-linejoin:round;stroke:rgb(20%,20%,20%);stroke-opacity:1;stroke-miterlimit:10;" d="M 430.152344 487.597656 L 430.152344 484.859375 "/>
<path style="fill:none;stroke-width:1.066978;stroke-linecap:butt;stroke-linejoin:round;stroke:rgb(20%,20%,20%);stroke-opacity:1;stroke-miterlimit:10;" d="M 500.511719 487.597656 L 500.511719 484.859375 "/>
<path style="fill:none;stroke-width:1.066978;stroke-linecap:butt;stroke-linejoin:round;stroke:rgb(20%,20%,20%);stroke-opacity:1;stroke-miterlimit:10;" d="M 570.867188 487.597656 L 570.867188 484.859375 "/>
<path style="fill:none;stroke-width:1.066978;stroke-linecap:butt;stroke-linejoin:round;stroke:rgb(20%,20%,20%);stroke-opacity:1;stroke-miterlimit:10;" d="M 641.226562 487.597656 L 641.226562 484.859375 "/>
<path style="fill:none;stroke-width:1.066978;stroke-linecap:butt;stroke-linejoin:round;stroke:rgb(20%,20%,20%);stroke-opacity:1;stroke-miterlimit:10;" d="M 711.585938 487.597656 L 711.585938 484.859375 "/>
<path style="fill:none;stroke-width:1.066978;stroke-linecap:butt;stroke-linejoin:round;stroke:rgb(20%,20%,20%);stroke-opacity:1;stroke-miterlimit:10;" d="M 781.945312 487.597656 L 781.945312 484.859375 "/>
<path style="fill:none;stroke-width:1.066978;stroke-linecap:butt;stroke-linejoin:round;stroke:rgb(20%,20%,20%);stroke-opacity:1;stroke-miterlimit:10;" d="M 852.304688 487.597656 L 852.304688 484.859375 "/>
<g style="fill:rgb(30.196078%,30.196078%,30.196078%);fill-opacity:1;">
  <use xlink:href="#glyph1-1" x="71.355469" y="498.003906"/>
  <use xlink:href="#glyph1-1" x="78.354492" y="498.003906"/>
</g>
<g style="fill:rgb(30.196078%,30.196078%,30.196078%);fill-opacity:1;">
  <use xlink:href="#glyph1-2" x="145.214844" y="498.003906"/>
</g>
<g style="fill:rgb(30.196078%,30.196078%,30.196078%);fill-opacity:1;">
  <use xlink:href="#glyph1-3" x="215.574219" y="498.003906"/>
</g>
<g style="fill:rgb(30.196078%,30.196078%,30.196078%);fill-opacity:1;">
  <use xlink:href="#glyph1-4" x="285.933594" y="498.003906"/>
</g>
<g style="fill:rgb(30.196078%,30.196078%,30.196078%);fill-opacity:1;">
  <use xlink:href="#glyph1-1" x="356.292969" y="498.003906"/>
</g>
<g style="fill:rgb(30.196078%,30.196078%,30.196078%);fill-opacity:1;">
  <use xlink:href="#glyph1-5" x="426.652344" y="498.003906"/>
</g>
<g style="fill:rgb(30.196078%,30.196078%,30.196078%);fill-opacity:1;">
  <use xlink:href="#glyph1-6" x="497.011719" y="498.003906"/>
</g>
<g style="fill:rgb(30.196078%,30.196078%,30.196078%);fill-opacity:1;">
  <use xlink:href="#glyph1-7" x="567.367188" y="498.003906"/>
</g>
<g style="fill:rgb(30.196078%,30.196078%,30.196078%);fill-opacity:1;">
  <use xlink:href="#glyph1-1" x="634.226562" y="498.003906"/>
  <use xlink:href="#glyph1-3" x="641.225586" y="498.003906"/>
</g>
<g style="fill:rgb(30.196078%,30.196078%,30.196078%);fill-opacity:1;">
  <use xlink:href="#glyph1-8" x="708.085938" y="498.003906"/>
</g>
<g style="fill:rgb(30.196078%,30.196078%,30.196078%);fill-opacity:1;">
  <use xlink:href="#glyph1-9" x="778.445312" y="498.003906"/>
</g>
<g style="fill:rgb(30.196078%,30.196078%,30.196078%);fill-opacity:1;">
  <use xlink:href="#glyph1-10" x="848.804688" y="498.003906"/>
</g>
<g style="fill:rgb(0%,0%,0%);fill-opacity:1;">
  <use xlink:href="#glyph2-1" x="398.332031" y="512.480469"/>
  <use xlink:href="#glyph2-2" x="407.683594" y="512.480469"/>
  <use xlink:href="#glyph2-3" x="413.108398" y="512.480469"/>
  <use xlink:href="#glyph2-4" x="418.367188" y="512.480469"/>
  <use xlink:href="#glyph2-5" x="426.198242" y="512.480469"/>
  <use xlink:href="#glyph2-6" x="433.755859" y="512.480469"/>
  <use xlink:href="#glyph2-5" x="437.526367" y="512.480469"/>
  <use xlink:href="#glyph2-7" x="445.083984" y="512.480469"/>
  <use xlink:href="#glyph2-8" x="452.958008" y="512.480469"/>
  <use xlink:href="#glyph2-9" x="459.505859" y="512.480469"/>
  <use xlink:href="#glyph2-10" x="463.335938" y="512.480469"/>
  <use xlink:href="#glyph2-11" x="471.209961" y="512.480469"/>
  <use xlink:href="#glyph2-2" x="478.670898" y="512.480469"/>
  <use xlink:href="#glyph2-9" x="484.095703" y="512.480469"/>
  <use xlink:href="#glyph2-6" x="487.925781" y="512.480469"/>
  <use xlink:href="#glyph2-12" x="491.696289" y="512.480469"/>
  <use xlink:href="#glyph2-13" x="499.527344" y="512.480469"/>
  <use xlink:href="#glyph2-14" x="506.047852" y="512.480469"/>
  <use xlink:href="#glyph2-15" x="514.518555" y="512.480469"/>
  <use xlink:href="#glyph2-16" x="523.724609" y="512.480469"/>
</g>
<g style="fill:rgb(0%,0%,0%);fill-opacity:1;">
  <use xlink:href="#glyph3-1" x="13.691406" y="275.582031"/>
  <use xlink:href="#glyph3-2" x="13.691406" y="267.519531"/>
  <use xlink:href="#glyph3-3" x="13.691406" y="259.688477"/>
  <use xlink:href="#glyph3-4" x="13.691406" y="252.517578"/>
  <use xlink:href="#glyph3-5" x="13.691406" y="248.74707"/>
  <use xlink:href="#glyph3-6" x="13.691406" y="241.189453"/>
</g>
<g style="fill:rgb(0%,0%,0%);fill-opacity:1;">
  <use xlink:href="#glyph4-1" x="36.140625" y="13.619141"/>
  <use xlink:href="#glyph4-2" x="46.183594" y="13.619141"/>
  <use xlink:href="#glyph4-3" x="54.427734" y="13.619141"/>
  <use xlink:href="#glyph4-4" x="62.25" y="13.619141"/>
  <use xlink:href="#glyph4-5" x="70.388672" y="13.619141"/>
  <use xlink:href="#glyph4-6" x="74.501953" y="13.619141"/>
  <use xlink:href="#glyph4-7" x="79.300781" y="13.619141"/>
  <use xlink:href="#glyph4-8" x="88.095703" y="13.619141"/>
  <use xlink:href="#glyph4-9" x="96.638672" y="13.619141"/>
  <use xlink:href="#glyph4-5" x="104.460938" y="13.619141"/>
  <use xlink:href="#glyph4-2" x="108.574219" y="13.619141"/>
  <use xlink:href="#glyph4-10" x="116.818359" y="13.619141"/>
</g>
</g>
</svg>
