<?xml version='1.0' encoding='utf-8'?>
<svg xmlns:xlink="http://www.w3.org/1999/xlink" xmlns="http://www.w3.org/2000/svg" id="chart-2358b086-f4a0-4d2c-abdc-7d658b914f50" class="pygal-chart" viewBox="0 0 800 600"><!--Generated with pygal 2.3.0 (lxml) ©Kozea 2012-2016 on 2017-05-23--><!--http://pygal.org--><!--http://github.com/Kozea/pygal--><defs><style type="text/css">#chart-2358b086-f4a0-4d2c-abdc-7d658b914f50{-webkit-user-select:none;-webkit-font-smoothing:antialiased;font-family:Consolas,"Liberation Mono",Menlo,Courier,monospace}#chart-2358b086-f4a0-4d2c-abdc-7d658b914f50 .title{font-family:Consolas,"Liberation Mono",Menlo,Courier,monospace;font-size:16px}#chart-2358b086-f4a0-4d2c-abdc-7d658b914f50 .legends .legend text{font-family:Consolas,"Liberation Mono",Menlo,Courier,monospace;font-size:14px}#chart-2358b086-f4a0-4d2c-abdc-7d658b914f50 .axis text{font-family:Consolas,"Liberation Mono",Menlo,Courier,monospace;font-size:10px}#chart-2358b086-f4a0-4d2c-abdc-7d658b914f50 .axis text.major{font-family:Consolas,"Liberation Mono",Menlo,Courier,monospace;font-size:10px}#chart-2358b086-f4a0-4d2c-abdc-7d658b914f50 .text-overlay text.value{font-family:Consolas,"Liberation Mono",Menlo,Courier,monospace;font-size:16px}#chart-2358b086-f4a0-4d2c-abdc-7d658b914f50 .text-overlay text.label{font-family:Consolas,"Liberation Mono",Menlo,Courier,monospace;font-size:10px}#chart-2358b086-f4a0-4d2c-abdc-7d658b914f50 .tooltip{font-family:Consolas,"Liberation Mono",Menlo,Courier,monospace;font-size:14px}#chart-2358b086-f4a0-4d2c-abdc-7d658b914f50 text.no_data{font-family:Consolas,"Liberation Mono",Menlo,Courier,monospace;font-size:64px}
#chart-2358b086-f4a0-4d2c-abdc-7d658b914f50{background-color:rgba(249,249,249,1)}#chart-2358b086-f4a0-4d2c-abdc-7d658b914f50 path,#chart-2358b086-f4a0-4d2c-abdc-7d658b914f50 line,#chart-2358b086-f4a0-4d2c-abdc-7d658b914f50 rect,#chart-2358b086-f4a0-4d2c-abdc-7d658b914f50 circle{-webkit-transition:150ms;-moz-transition:150ms;transition:150ms}#chart-2358b086-f4a0-4d2c-abdc-7d658b914f50 .graph &gt; .background{fill:rgba(249,249,249,1)}#chart-2358b086-f4a0-4d2c-abdc-7d658b914f50 .plot &gt; .background{fill:rgba(255,255,255,1)}#chart-2358b086-f4a0-4d2c-abdc-7d658b914f50 .graph{fill:rgba(0,0,0,.87)}#chart-2358b086-f4a0-4d2c-abdc-7d658b914f50 text.no_data{fill:rgba(0,0,0,1)}#chart-2358b086-f4a0-4d2c-abdc-7d658b914f50 .title{fill:rgba(0,0,0,1)}#chart-2358b086-f4a0-4d2c-abdc-7d658b914f50 .legends .legend text{fill:rgba(0,0,0,.87)}#chart-2358b086-f4a0-4d2c-abdc-7d658b914f50 .legends .legend:hover text{fill:rgba(0,0,0,1)}#chart-2358b086-f4a0-4d2c-abdc-7d658b914f50 .axis .line{stroke:rgba(0,0,0,1)}#chart-2358b086-f4a0-4d2c-abdc-7d658b914f50 .axis .guide.line{stroke:rgba(0,0,0,.54)}#chart-2358b086-f4a0-4d2c-abdc-7d658b914f50 .axis .major.line{stroke:rgba(0,0,0,.87)}#chart-2358b086-f4a0-4d2c-abdc-7d658b914f50 .axis text.major{fill:rgba(0,0,0,1)}#chart-2358b086-f4a0-4d2c-abdc-7d658b914f50 .axis.y .guides:hover .guide.line,#chart-2358b086-f4a0-4d2c-abdc-7d658b914f50 .line-graph .axis.x .guides:hover .guide.line,#chart-2358b086-f4a0-4d2c-abdc-7d658b914f50 .stackedline-graph .axis.x .guides:hover .guide.line,#chart-2358b086-f4a0-4d2c-abdc-7d658b914f50 .xy-graph .axis.x .guides:hover .guide.line{stroke:rgba(0,0,0,1)}#chart-2358b086-f4a0-4d2c-abdc-7d658b914f50 .axis .guides:hover text{fill:rgba(0,0,0,1)}#chart-2358b086-f4a0-4d2c-abdc-7d658b914f50 .reactive{fill-opacity:.7;stroke-opacity:.8}#chart-2358b086-f4a0-4d2c-abdc-7d658b914f50 .ci{stroke:rgba(0,0,0,.87)}#chart-2358b086-f4a0-4d2c-abdc-7d658b914f50 .reactive.active,#chart-2358b086-f4a0-4d2c-abdc-7d658b914f50 .active .reactive{fill-opacity:.8;stroke-opacity:.9;stroke-width:4}#chart-2358b086-f4a0-4d2c-abdc-7d658b914f50 .ci .reactive.active{stroke-width:1.5}#chart-2358b086-f4a0-4d2c-abdc-7d658b914f50 .series text{fill:rgba(0,0,0,1)}#chart-2358b086-f4a0-4d2c-abdc-7d658b914f50 .tooltip rect{fill:rgba(255,255,255,1);stroke:rgba(0,0,0,1);-webkit-transition:opacity 150ms;-moz-transition:opacity 150ms;transition:opacity 150ms}#chart-2358b086-f4a0-4d2c-abdc-7d658b914f50 .tooltip .label{fill:rgba(0,0,0,.87)}#chart-2358b086-f4a0-4d2c-abdc-7d658b914f50 .tooltip .label{fill:rgba(0,0,0,.87)}#chart-2358b086-f4a0-4d2c-abdc-7d658b914f50 .tooltip .legend{font-size:.8em;fill:rgba(0,0,0,.54)}#chart-2358b086-f4a0-4d2c-abdc-7d658b914f50 .tooltip .x_label{font-size:.6em;fill:rgba(0,0,0,1)}#chart-2358b086-f4a0-4d2c-abdc-7d658b914f50 .tooltip .xlink{font-size:.5em;text-decoration:underline}#chart-2358b086-f4a0-4d2c-abdc-7d658b914f50 .tooltip .value{font-size:1.5em}#chart-2358b086-f4a0-4d2c-abdc-7d658b914f50 .bound{font-size:.5em}#chart-2358b086-f4a0-4d2c-abdc-7d658b914f50 .max-value{font-size:.75em;fill:rgba(0,0,0,.54)}#chart-2358b086-f4a0-4d2c-abdc-7d658b914f50 .map-element{fill:rgba(255,255,255,1);stroke:rgba(0,0,0,.54) !important}#chart-2358b086-f4a0-4d2c-abdc-7d658b914f50 .map-element .reactive{fill-opacity:inherit;stroke-opacity:inherit}#chart-2358b086-f4a0-4d2c-abdc-7d658b914f50 .color-0,#chart-2358b086-f4a0-4d2c-abdc-7d658b914f50 .color-0 a:visited{stroke:#F44336;fill:#F44336}#chart-2358b086-f4a0-4d2c-abdc-7d658b914f50 .color-1,#chart-2358b086-f4a0-4d2c-abdc-7d658b914f50 .color-1 a:visited{stroke:#3F51B5;fill:#3F51B5}#chart-2358b086-f4a0-4d2c-abdc-7d658b914f50 .color-2,#chart-2358b086-f4a0-4d2c-abdc-7d658b914f50 .color-2 a:visited{stroke:#009688;fill:#009688}#chart-2358b086-f4a0-4d2c-abdc-7d658b914f50 .color-3,#chart-2358b086-f4a0-4d2c-abdc-7d658b914f50 .color-3 a:visited{stroke:#FFC107;fill:#FFC107}#chart-2358b086-f4a0-4d2c-abdc-7d658b914f50 .color-4,#chart-2358b086-f4a0-4d2c-abdc-7d658b914f50 .color-4 a:visited{stroke:#FF5722;fill:#FF5722}#chart-2358b086-f4a0-4d2c-abdc-7d658b914f50 .color-5,#chart-2358b086-f4a0-4d2c-abdc-7d658b914f50 .color-5 a:visited{stroke:#9C27B0;fill:#9C27B0}#chart-2358b086-f4a0-4d2c-abdc-7d658b914f50 .color-6,#chart-2358b086-f4a0-4d2c-abdc-7d658b914f50 .color-6 a:visited{stroke:#03A9F4;fill:#03A9F4}#chart-2358b086-f4a0-4d2c-abdc-7d658b914f50 .color-7,#chart-2358b086-f4a0-4d2c-abdc-7d658b914f50 .color-7 a:visited{stroke:#8BC34A;fill:#8BC34A}#chart-2358b086-f4a0-4d2c-abdc-7d658b914f50 .color-8,#chart-2358b086-f4a0-4d2c-abdc-7d658b914f50 .color-8 a:visited{stroke:#FF9800;fill:#FF9800}#chart-2358b086-f4a0-4d2c-abdc-7d658b914f50 .color-9,#chart-2358b086-f4a0-4d2c-abdc-7d658b914f50 .color-9 a:visited{stroke:#E91E63;fill:#E91E63}#chart-2358b086-f4a0-4d2c-abdc-7d658b914f50 .color-10,#chart-2358b086-f4a0-4d2c-abdc-7d658b914f50 .color-10 a:visited{stroke:#2196F3;fill:#2196F3}#chart-2358b086-f4a0-4d2c-abdc-7d658b914f50 .text-overlay .color-0 text{fill:black}#chart-2358b086-f4a0-4d2c-abdc-7d658b914f50 .text-overlay .color-1 text{fill:black}#chart-2358b086-f4a0-4d2c-abdc-7d658b914f50 .text-overlay .color-2 text{fill:black}#chart-2358b086-f4a0-4d2c-abdc-7d658b914f50 .text-overlay .color-3 text{fill:black}#chart-2358b086-f4a0-4d2c-abdc-7d658b914f50 .text-overlay .color-4 text{fill:black}#chart-2358b086-f4a0-4d2c-abdc-7d658b914f50 .text-overlay .color-5 text{fill:black}#chart-2358b086-f4a0-4d2c-abdc-7d658b914f50 .text-overlay .color-6 text{fill:black}#chart-2358b086-f4a0-4d2c-abdc-7d658b914f50 .text-overlay .color-7 text{fill:black}#chart-2358b086-f4a0-4d2c-abdc-7d658b914f50 .text-overlay .color-8 text{fill:black}#chart-2358b086-f4a0-4d2c-abdc-7d658b914f50 .text-overlay .color-9 text{fill:black}#chart-2358b086-f4a0-4d2c-abdc-7d658b914f50 .text-overlay .color-10 text{fill:black}
#chart-2358b086-f4a0-4d2c-abdc-7d658b914f50 text.no_data{text-anchor:middle}#chart-2358b086-f4a0-4d2c-abdc-7d658b914f50 .guide.line{fill:none}#chart-2358b086-f4a0-4d2c-abdc-7d658b914f50 .centered{text-anchor:middle}#chart-2358b086-f4a0-4d2c-abdc-7d658b914f50 .title{text-anchor:middle}#chart-2358b086-f4a0-4d2c-abdc-7d658b914f50 .legends .legend text{fill-opacity:1}#chart-2358b086-f4a0-4d2c-abdc-7d658b914f50 .axis.x text{text-anchor:middle}#chart-2358b086-f4a0-4d2c-abdc-7d658b914f50 .axis.x:not(.web) text[transform]{text-anchor:start}#chart-2358b086-f4a0-4d2c-abdc-7d658b914f50 .axis.x:not(.web) text[transform].backwards{text-anchor:end}#chart-2358b086-f4a0-4d2c-abdc-7d658b914f50 .axis.y text{text-anchor:end}#chart-2358b086-f4a0-4d2c-abdc-7d658b914f50 .axis.y text[transform].backwards{text-anchor:start}#chart-2358b086-f4a0-4d2c-abdc-7d658b914f50 .axis.y2 text{text-anchor:start}#chart-2358b086-f4a0-4d2c-abdc-7d658b914f50 .axis.y2 text[transform].backwards{text-anchor:end}#chart-2358b086-f4a0-4d2c-abdc-7d658b914f50 .axis .guide.line{stroke-dasharray:4,4}#chart-2358b086-f4a0-4d2c-abdc-7d658b914f50 .axis .major.guide.line{stroke-dasharray:6,6}#chart-2358b086-f4a0-4d2c-abdc-7d658b914f50 .horizontal .axis.y .guide.line,#chart-2358b086-f4a0-4d2c-abdc-7d658b914f50 .horizontal .axis.y2 .guide.line,#chart-2358b086-f4a0-4d2c-abdc-7d658b914f50 .vertical .axis.x .guide.line{opacity:0}#chart-2358b086-f4a0-4d2c-abdc-7d658b914f50 .horizontal .axis.always_show .guide.line,#chart-2358b086-f4a0-4d2c-abdc-7d658b914f50 .vertical .axis.always_show .guide.line{opacity:1 !important}#chart-2358b086-f4a0-4d2c-abdc-7d658b914f50 .axis.y .guides:hover .guide.line,#chart-2358b086-f4a0-4d2c-abdc-7d658b914f50 .axis.y2 .guides:hover .guide.line,#chart-2358b086-f4a0-4d2c-abdc-7d658b914f50 .axis.x .guides:hover .guide.line{opacity:1}#chart-2358b086-f4a0-4d2c-abdc-7d658b914f50 .axis .guides:hover text{opacity:1}#chart-2358b086-f4a0-4d2c-abdc-7d658b914f50 .nofill{fill:none}#chart-2358b086-f4a0-4d2c-abdc-7d658b914f50 .subtle-fill{fill-opacity:.2}#chart-2358b086-f4a0-4d2c-abdc-7d658b914f50 .dot{stroke-width:1px;fill-opacity:1}#chart-2358b086-f4a0-4d2c-abdc-7d658b914f50 .dot.active{stroke-width:5px}#chart-2358b086-f4a0-4d2c-abdc-7d658b914f50 .dot.negative{fill:transparent}#chart-2358b086-f4a0-4d2c-abdc-7d658b914f50 text,#chart-2358b086-f4a0-4d2c-abdc-7d658b914f50 tspan{stroke:none !important}#chart-2358b086-f4a0-4d2c-abdc-7d658b914f50 .series text.active{opacity:1}#chart-2358b086-f4a0-4d2c-abdc-7d658b914f50 .tooltip rect{fill-opacity:.95;stroke-width:.5}#chart-2358b086-f4a0-4d2c-abdc-7d658b914f50 .tooltip text{fill-opacity:1}#chart-2358b086-f4a0-4d2c-abdc-7d658b914f50 .showable{visibility:hidden}#chart-2358b086-f4a0-4d2c-abdc-7d658b914f50 .showable.shown{visibility:visible}#chart-2358b086-f4a0-4d2c-abdc-7d658b914f50 .gauge-background{fill:rgba(229,229,229,1);stroke:none}#chart-2358b086-f4a0-4d2c-abdc-7d658b914f50 .bg-lines{stroke:rgba(249,249,249,1);stroke-width:2px}</style><script type="text/javascript">window.pygal = window.pygal || {};window.pygal.config = window.pygal.config || {};window.pygal.config['2358b086-f4a0-4d2c-abdc-7d658b914f50'] = {"dynamic_print_values": false, "truncate_label": null, "inner_radius": 0, "print_values": false, "xrange": null, "box_mode": "extremes", "title": "LncRNAs from uniqe RAW pairs with the ortholog and PhastCons score =&gt; 0.5", "legend_at_bottom_columns": null, "height": 600, "legend_at_bottom": false, "show_legend": true, "show_dots": true, "explicit_size": false, "y_labels_major": null, "show_minor_x_labels": true, "width": 800, "force_uri_protocol": "https", "half_pie": false, "style": {"major_label_font_family": "Consolas, \"Liberation Mono\", Menlo, Courier, monospace", "title_font_family": "Consolas, \"Liberation Mono\", Menlo, Courier, monospace", "stroke_opacity": ".8", "legend_font_family": "Consolas, \"Liberation Mono\", Menlo, Courier, monospace", "colors": ["#F44336", "#3F51B5", "#009688", "#FFC107", "#FF5722", "#9C27B0", "#03A9F4", "#8BC34A", "#FF9800", "#E91E63", "#2196F3", "#4CAF50", "#FFEB3B", "#673AB7", "#00BCD4", "#CDDC39", "#9E9E9E", "#607D8B"], "legend_font_size": 14, "no_data_font_family": "Consolas, \"Liberation Mono\", Menlo, Courier, monospace", "major_label_font_size": 10, "value_background": "rgba(229, 229, 229, 1)", "ci_colors": [], "label_font_family": "Consolas, \"Liberation Mono\", Menlo, Courier, monospace", "label_font_size": 10, "tooltip_font_size": 14, "value_font_size": 16, "font_family": "Consolas, \"Liberation Mono\", Menlo, Courier, monospace", "opacity": ".7", "foreground": "rgba(0, 0, 0, .87)", "plot_background": "rgba(255, 255, 255, 1)", "value_label_font_size": 10, "value_label_font_family": "Consolas, \"Liberation Mono\", Menlo, Courier, monospace", "background": "rgba(249, 249, 249, 1)", "no_data_font_size": 64, "value_colors": [], "guide_stroke_dasharray": "4,4", "transition": "150ms", "foreground_subtle": "rgba(0, 0, 0, .54)", "value_font_family": "Consolas, \"Liberation Mono\", Menlo, Courier, monospace", "tooltip_font_family": "Consolas, \"Liberation Mono\", Menlo, Courier, monospace", "title_font_size": 16, "stroke_opacity_hover": ".9", "major_guide_stroke_dasharray": "6,6", "opacity_hover": ".8", "foreground_strong": "rgba(0, 0, 0, 1)"}, "x_label_rotation": 0, "fill": false, "missing_value_fill_truncation": "x", "zero": 0, "margin_right": null, "interpolation_parameters": {}, "x_labels_major": null, "rounded_bars": null, "show_y_labels": true, "dots_size": 2.5, "show_y_guides": true, "show_minor_y_labels": true, "x_labels": null, "y_title": null, "order_min": null, "formatter": null, "disable_xml_declaration": false, "strict": false, "css": ["file://style.css", "file://graph.css"], "tooltip_fancy_mode": true, "defs": [], "show_only_major_dots": false, "y_label_rotation": 0, "show_x_labels": true, "min_scale": 4, "show_x_guides": false, "spacing": 10, "x_labels_major_count": null, "pretty_print": false, "tooltip_border_radius": 0, "interpolate": null, "js": ["//kozea.github.io/pygal.js/2.0.x/pygal-tooltips.min.js"], "y_labels": null, "stroke_style": null, "print_labels": false, "interpolation_precision": 250, "x_title": null, "y_labels_major_every": null, "logarithmic": false, "legends": ["Atys", "Baboon", "Bonobo", "Chimp", "Gorilla", "GreenMonkey", "Lemur", "MacacaFascicularis", "Marmoset", "Orangutan", "Rhesus"], "max_scale": 16, "print_zeroes": true, "no_data_text": "No data", "truncate_legend": null, "x_labels_major_every": null, "secondary_range": null, "legend_box_size": 12, "no_prefix": false, "stroke": true, "stack_from_top": false, "include_x_axis": false, "range": null, "classes": ["pygal-chart"], "margin_top": null, "margin_left": null, "y_labels_major_count": null, "margin_bottom": null, "inverse_y_axis": false, "margin": 20, "allow_interruptions": false, "print_values_position": "center"}</script><script type="text/javascript" xlink:href="https://kozea.github.io/pygal.js/2.0.x/pygal-tooltips.min.js"/></defs><title>LncRNAs from uniqe RAW pairs with the ortholog and PhastCons score =&gt; 0.5</title><g class="graph bar-graph vertical"><rect class="background" height="600" width="800" x="0" y="0"/><g class="plot" transform="translate(196, 46)"><rect class="background" height="534" width="584.0" x="0" y="0"/><g class="axis y"><g class="guides"><path class="axis major line" d="M0.000000 523.730769 h584.000000"/><text class="major" x="-5" y="527.230769231">0</text><title>0</title></g><g class="guides"><path class="guide line" d="M0.000000 488.441316 h584.000000"/><text class="" x="-5" y="491.941316416">20</text><title>20</title></g><g class="guides"><path class="guide line" d="M0.000000 453.151864 h584.000000"/><text class="" x="-5" y="456.6518636">40</text><title>40</title></g><g class="guides"><path class="guide line" d="M0.000000 417.862411 h584.000000"/><text class="" x="-5" y="421.362410785">60</text><title>60</title></g><g class="guides"><path class="guide line" d="M0.000000 382.572958 h584.000000"/><text class="" x="-5" y="386.07295797">80</text><title>80</title></g><g class="guides"><path class="major guide line" d="M0.000000 347.283505 h584.000000"/><text class="major" x="-5" y="350.783505155">100</text><title>100</title></g><g class="guides"><path class="guide line" d="M0.000000 311.994052 h584.000000"/><text class="" x="-5" y="315.494052339">120</text><title>120</title></g><g class="guides"><path class="guide line" d="M0.000000 276.704600 h584.000000"/><text class="" x="-5" y="280.204599524">140</text><title>140</title></g><g class="guides"><path class="guide line" d="M0.000000 241.415147 h584.000000"/><text class="" x="-5" y="244.915146709">160</text><title>160</title></g><g class="guides"><path class="guide line" d="M0.000000 206.125694 h584.000000"/><text class="" x="-5" y="209.625693894">180</text><title>180</title></g><g class="guides"><path class="major guide line" d="M0.000000 170.836241 h584.000000"/><text class="major" x="-5" y="174.336241079">200</text><title>200</title></g><g class="guides"><path class="guide line" d="M0.000000 135.546788 h584.000000"/><text class="" x="-5" y="139.046788263">220</text><title>220</title></g><g class="guides"><path class="guide line" d="M0.000000 100.257335 h584.000000"/><text class="" x="-5" y="103.757335448">240</text><title>240</title></g><g class="guides"><path class="guide line" d="M0.000000 64.967883 h584.000000"/><text class="" x="-5" y="68.4678826328">260</text><title>260</title></g><g class="guides"><path class="guide line" d="M0.000000 29.678430 h584.000000"/><text class="" x="-5" y="33.1784298176">280</text><title>280</title></g></g><g class="series serie-0 color-0"><g class="bars"><g class="bar"><rect class="rect reactive tooltip-trigger" height="225.852498017" rx="0" ry="0" width="39.5323076923" x="47.6184615385" y="297.878271213"/><desc class="value">128</desc><desc class="x centered">67.3846153846</desc><desc class="y centered">410.804520222</desc></g></g></g><g class="series serie-1 color-1"><g class="bars"><g class="bar"><rect class="rect reactive tooltip-trigger" height="317.605075337" rx="0" ry="0" width="39.5323076923" x="92.5415384615" y="206.125693894"/><desc class="value">180</desc><desc class="x centered">112.307692308</desc><desc class="y centered">364.928231562</desc></g></g></g><g class="series serie-2 color-2"><g class="bars"><g class="bar"><rect class="rect reactive tooltip-trigger" height="102.339413164" rx="0" ry="0" width="39.5323076923" x="137.464615385" y="421.391356067"/><desc class="value">58</desc><desc class="x centered">157.230769231</desc><desc class="y centered">472.561062649</desc></g></g></g><g class="series serie-3 color-3"><g class="bars"><g class="bar"><rect class="rect reactive tooltip-trigger" height="386.419508327" rx="0" ry="0" width="39.5323076923" x="182.387692308" y="137.311260904"/><desc class="value">219</desc><desc class="x centered">202.153846154</desc><desc class="y centered">330.521015067</desc></g></g></g><g class="series serie-4 color-4"><g class="bars"><g class="bar"><rect class="rect reactive tooltip-trigger" height="174.682791435" rx="0" ry="0" width="39.5323076923" x="227.310769231" y="349.047977795"/><desc class="value">99</desc><desc class="x centered">247.076923077</desc><desc class="y centered">436.389373513</desc></g></g></g><g class="series serie-5 color-5"><g class="bars"><g class="bar"><rect class="rect reactive tooltip-trigger" height="513.461538462" rx="0" ry="0" width="39.5323076923" x="272.233846154" y="10.2692307692"/><desc class="value">291</desc><desc class="x centered">292.0</desc><desc class="y centered">267.0</desc></g></g></g><g class="series serie-6 color-6"><g class="bars"><g class="bar"><rect class="rect reactive tooltip-trigger" height="89.9881046788" rx="0" ry="0" width="39.5323076923" x="317.156923077" y="433.742664552"/><desc class="value">51</desc><desc class="x centered">336.923076923</desc><desc class="y centered">478.736716891</desc></g></g></g><g class="series serie-7 color-7"><g class="bars"><g class="bar"><rect class="rect reactive tooltip-trigger" height="328.191911182" rx="0" ry="0" width="39.5323076923" x="362.08" y="195.538858049"/><desc class="value">186</desc><desc class="x centered">381.846153846</desc><desc class="y centered">359.63481364</desc></g></g></g><g class="series serie-8 color-8"><g class="bars"><g class="bar"><rect class="rect reactive tooltip-trigger" height="291.137985726" rx="0" ry="0" width="39.5323076923" x="407.003076923" y="232.592783505"/><desc class="value">165</desc><desc class="x centered">426.769230769</desc><desc class="y centered">378.161776368</desc></g></g></g><g class="series serie-9 color-9"><g class="bars"><g class="bar"><rect class="rect reactive tooltip-trigger" height="135.864393339" rx="0" ry="0" width="39.5323076923" x="451.926153846" y="387.866375892"/><desc class="value">77</desc><desc class="x centered">471.692307692</desc><desc class="y centered">455.798572561</desc></g></g></g><g class="series serie-10 color-10"><g class="bars"><g class="bar"><rect class="rect reactive tooltip-trigger" height="153.509119746" rx="0" ry="0" width="39.5323076923" x="496.849230769" y="370.221649485"/><desc class="value">87</desc><desc class="x centered">516.615384615</desc><desc class="y centered">446.976209358</desc></g></g></g></g><g class="titles"><text class="title plot_title" x="400.0" y="26">LncRNAs from uniqe RAW pairs with the ortholog and PhastCons score =&gt; 0.5</text></g><g class="plot overlay" transform="translate(196, 46)"><g class="series serie-0 color-0"/><g class="series serie-1 color-1"/><g class="series serie-2 color-2"/><g class="series serie-3 color-3"/><g class="series serie-4 color-4"/><g class="series serie-5 color-5"/><g class="series serie-6 color-6"/><g class="series serie-7 color-7"/><g class="series serie-8 color-8"/><g class="series serie-9 color-9"/><g class="series serie-10 color-10"/></g><g class="plot text-overlay" transform="translate(196, 46)"><g class="series serie-0 color-0"/><g class="series serie-1 color-1"/><g class="series serie-2 color-2"/><g class="series serie-3 color-3"/><g class="series serie-4 color-4"/><g class="series serie-5 color-5"/><g class="series serie-6 color-6"/><g class="series serie-7 color-7"/><g class="series serie-8 color-8"/><g class="series serie-9 color-9"/><g class="series serie-10 color-10"/></g><g class="plot tooltip-overlay" transform="translate(196, 46)"><g class="tooltip" style="opacity: 0" transform="translate(0 0)"><rect class="tooltip-box" height="0" rx="0" ry="0" width="0"/><g class="text"/></g></g><g class="legends" transform="translate(10, 56)"><g class="legend reactive activate-serie" id="activate-serie-0"><rect class="color-0 reactive" height="12" width="12" x="0.0" y="1.0"/><text x="17.0" y="11.2">Atys</text></g><g class="legend reactive activate-serie" id="activate-serie-1"><rect class="color-1 reactive" height="12" width="12" x="0.0" y="22.0"/><text x="17.0" y="32.2">Baboon</text></g><g class="legend reactive activate-serie" id="activate-serie-2"><rect class="color-2 reactive" height="12" width="12" x="0.0" y="43.0"/><text x="17.0" y="53.2">Bonobo</text></g><g class="legend reactive activate-serie" id="activate-serie-3"><rect class="color-3 reactive" height="12" width="12" x="0.0" y="64.0"/><text x="17.0" y="74.2">Chimp</text></g><g class="legend reactive activate-serie" id="activate-serie-4"><rect class="color-4 reactive" height="12" width="12" x="0.0" y="85.0"/><text x="17.0" y="95.2">Gorilla</text></g><g class="legend reactive activate-serie" id="activate-serie-5"><rect class="color-5 reactive" height="12" width="12" x="0.0" y="106.0"/><text x="17.0" y="116.2">GreenMonkey</text></g><g class="legend reactive activate-serie" id="activate-serie-6"><rect class="color-6 reactive" height="12" width="12" x="0.0" y="127.0"/><text x="17.0" y="137.2">Lemur</text></g><g class="legend reactive activate-serie" id="activate-serie-7"><rect class="color-7 reactive" height="12" width="12" x="0.0" y="148.0"/><text x="17.0" y="158.2">MacacaFascicul…</text><title>MacacaFascicularis</title></g><g class="legend reactive activate-serie" id="activate-serie-8"><rect class="color-8 reactive" height="12" width="12" x="0.0" y="169.0"/><text x="17.0" y="179.2">Marmoset</text></g><g class="legend reactive activate-serie" id="activate-serie-9"><rect class="color-9 reactive" height="12" width="12" x="0.0" y="190.0"/><text x="17.0" y="200.2">Orangutan</text></g><g class="legend reactive activate-serie" id="activate-serie-10"><rect class="color-10 reactive" height="12" width="12" x="0.0" y="211.0"/><text x="17.0" y="221.2">Rhesus</text></g></g><g class="legends" transform="translate(790, 56)"/></g></svg>