<?xml version="1.0" encoding="UTF-8"?>
<svg xmlns="http://www.w3.org/2000/svg" xmlns:xlink="http://www.w3.org/1999/xlink" width="900pt" height="521pt" viewBox="0 0 900 521" version="1.1">
<defs>
<g>
<symbol overflow="visible" id="glyph0-0">
<path style="stroke:none;" d="M 0.453125 1.59375 L 0.453125 -6.34375 L 4.953125 -6.34375 L 4.953125 1.59375 Z M 0.953125 1.09375 L 4.453125 1.09375 L 4.453125 -5.84375 L 0.953125 -5.84375 Z M 0.953125 1.09375 "/>
</symbol>
<symbol overflow="visible" id="glyph0-1">
<path style="stroke:none;" d="M 2.859375 -5.984375 C 2.398438 -5.984375 2.054688 -5.753906 1.828125 -5.296875 C 1.597656 -4.847656 1.484375 -4.175781 1.484375 -3.28125 C 1.484375 -2.375 1.597656 -1.695312 1.828125 -1.25 C 2.054688 -0.800781 2.398438 -0.578125 2.859375 -0.578125 C 3.316406 -0.578125 3.660156 -0.800781 3.890625 -1.25 C 4.117188 -1.695312 4.234375 -2.375 4.234375 -3.28125 C 4.234375 -4.175781 4.117188 -4.847656 3.890625 -5.296875 C 3.660156 -5.753906 3.316406 -5.984375 2.859375 -5.984375 Z M 2.859375 -6.6875 C 3.597656 -6.6875 4.160156 -6.394531 4.546875 -5.8125 C 4.929688 -5.226562 5.125 -4.382812 5.125 -3.28125 C 5.125 -2.175781 4.929688 -1.332031 4.546875 -0.75 C 4.160156 -0.164062 3.597656 0.125 2.859375 0.125 C 2.128906 0.125 1.566406 -0.164062 1.171875 -0.75 C 0.785156 -1.332031 0.59375 -2.175781 0.59375 -3.28125 C 0.59375 -4.382812 0.785156 -5.226562 1.171875 -5.8125 C 1.566406 -6.394531 2.128906 -6.6875 2.859375 -6.6875 Z M 2.859375 -6.6875 "/>
</symbol>
<symbol overflow="visible" id="glyph0-2">
<path style="stroke:none;" d="M 1.109375 -0.75 L 2.5625 -0.75 L 2.5625 -5.75 L 0.984375 -5.4375 L 0.984375 -6.25 L 2.5625 -6.5625 L 3.453125 -6.5625 L 3.453125 -0.75 L 4.890625 -0.75 L 4.890625 0 L 1.109375 0 Z M 1.109375 -0.75 "/>
</symbol>
<symbol overflow="visible" id="glyph0-3">
<path style="stroke:none;" d="M 1.734375 -0.75 L 4.828125 -0.75 L 4.828125 0 L 0.65625 0 L 0.65625 -0.75 C 1 -1.09375 1.457031 -1.554688 2.03125 -2.140625 C 2.613281 -2.734375 2.984375 -3.113281 3.140625 -3.28125 C 3.421875 -3.601562 3.613281 -3.875 3.71875 -4.09375 C 3.832031 -4.320312 3.890625 -4.539062 3.890625 -4.75 C 3.890625 -5.101562 3.769531 -5.390625 3.53125 -5.609375 C 3.289062 -5.828125 2.972656 -5.9375 2.578125 -5.9375 C 2.296875 -5.9375 2 -5.882812 1.6875 -5.78125 C 1.382812 -5.6875 1.054688 -5.539062 0.703125 -5.34375 L 0.703125 -6.25 C 1.054688 -6.382812 1.390625 -6.488281 1.703125 -6.5625 C 2.015625 -6.644531 2.300781 -6.6875 2.5625 -6.6875 C 3.238281 -6.6875 3.78125 -6.515625 4.1875 -6.171875 C 4.59375 -5.828125 4.796875 -5.375 4.796875 -4.8125 C 4.796875 -4.539062 4.742188 -4.28125 4.640625 -4.03125 C 4.535156 -3.789062 4.351562 -3.507812 4.09375 -3.1875 C 4.019531 -3.101562 3.785156 -2.859375 3.390625 -2.453125 C 2.992188 -2.046875 2.441406 -1.476562 1.734375 -0.75 Z M 1.734375 -0.75 "/>
</symbol>
<symbol overflow="visible" id="glyph0-4">
<path style="stroke:none;" d="M 3.65625 -3.53125 C 4.082031 -3.445312 4.410156 -3.257812 4.640625 -2.96875 C 4.878906 -2.6875 5 -2.332031 5 -1.90625 C 5 -1.257812 4.773438 -0.757812 4.328125 -0.40625 C 3.890625 -0.0507812 3.257812 0.125 2.4375 0.125 C 2.164062 0.125 1.882812 0.0976562 1.59375 0.046875 C 1.300781 -0.00390625 1 -0.0859375 0.6875 -0.203125 L 0.6875 -1.0625 C 0.9375 -0.914062 1.207031 -0.804688 1.5 -0.734375 C 1.789062 -0.660156 2.09375 -0.625 2.40625 -0.625 C 2.96875 -0.625 3.394531 -0.734375 3.6875 -0.953125 C 3.976562 -1.171875 4.125 -1.488281 4.125 -1.90625 C 4.125 -2.289062 3.988281 -2.59375 3.71875 -2.8125 C 3.445312 -3.03125 3.066406 -3.140625 2.578125 -3.140625 L 1.8125 -3.140625 L 1.8125 -3.875 L 2.625 -3.875 C 3.0625 -3.875 3.394531 -3.957031 3.625 -4.125 C 3.851562 -4.300781 3.96875 -4.554688 3.96875 -4.890625 C 3.96875 -5.222656 3.847656 -5.476562 3.609375 -5.65625 C 3.367188 -5.84375 3.023438 -5.9375 2.578125 -5.9375 C 2.335938 -5.9375 2.078125 -5.910156 1.796875 -5.859375 C 1.523438 -5.804688 1.222656 -5.722656 0.890625 -5.609375 L 0.890625 -6.40625 C 1.222656 -6.5 1.535156 -6.566406 1.828125 -6.609375 C 2.117188 -6.660156 2.394531 -6.6875 2.65625 -6.6875 C 3.332031 -6.6875 3.867188 -6.53125 4.265625 -6.21875 C 4.660156 -5.914062 4.859375 -5.503906 4.859375 -4.984375 C 4.859375 -4.617188 4.753906 -4.3125 4.546875 -4.0625 C 4.335938 -3.8125 4.039062 -3.632812 3.65625 -3.53125 Z M 3.65625 -3.53125 "/>
</symbol>
<symbol overflow="visible" id="glyph0-5">
<path style="stroke:none;" d="M 3.40625 -5.78125 L 1.15625 -2.28125 L 3.40625 -2.28125 Z M 3.171875 -6.5625 L 4.28125 -6.5625 L 4.28125 -2.28125 L 5.21875 -2.28125 L 5.21875 -1.546875 L 4.28125 -1.546875 L 4.28125 0 L 3.40625 0 L 3.40625 -1.546875 L 0.4375 -1.546875 L 0.4375 -2.40625 Z M 3.171875 -6.5625 "/>
</symbol>
<symbol overflow="visible" id="glyph0-6">
<path style="stroke:none;" d="M 0.96875 -6.5625 L 4.453125 -6.5625 L 4.453125 -5.8125 L 1.78125 -5.8125 L 1.78125 -4.203125 C 1.914062 -4.242188 2.046875 -4.273438 2.171875 -4.296875 C 2.296875 -4.328125 2.425781 -4.34375 2.5625 -4.34375 C 3.289062 -4.34375 3.867188 -4.140625 4.296875 -3.734375 C 4.722656 -3.335938 4.9375 -2.796875 4.9375 -2.109375 C 4.9375 -1.398438 4.71875 -0.847656 4.28125 -0.453125 C 3.84375 -0.0664062 3.222656 0.125 2.421875 0.125 C 2.148438 0.125 1.867188 0.0976562 1.578125 0.046875 C 1.296875 0.00390625 1 -0.0625 0.6875 -0.15625 L 0.6875 -1.046875 C 0.957031 -0.898438 1.234375 -0.789062 1.515625 -0.71875 C 1.796875 -0.65625 2.09375 -0.625 2.40625 -0.625 C 2.914062 -0.625 3.316406 -0.753906 3.609375 -1.015625 C 3.898438 -1.285156 4.046875 -1.648438 4.046875 -2.109375 C 4.046875 -2.566406 3.898438 -2.925781 3.609375 -3.1875 C 3.316406 -3.457031 2.914062 -3.59375 2.40625 -3.59375 C 2.164062 -3.59375 1.925781 -3.566406 1.6875 -3.515625 C 1.457031 -3.460938 1.21875 -3.378906 0.96875 -3.265625 Z M 0.96875 -6.5625 "/>
</symbol>
<symbol overflow="visible" id="glyph1-0">
<path style="stroke:none;" d="M 0.546875 1.9375 L 0.546875 -7.75 L 6.046875 -7.75 L 6.046875 1.9375 Z M 1.171875 1.328125 L 5.4375 1.328125 L 5.4375 -7.140625 L 1.171875 -7.140625 Z M 1.171875 1.328125 "/>
</symbol>
<symbol overflow="visible" id="glyph1-1">
<path style="stroke:none;" d="M 1.359375 -0.90625 L 3.140625 -0.90625 L 3.140625 -7.03125 L 1.203125 -6.640625 L 1.203125 -7.625 L 3.125 -8.015625 L 4.21875 -8.015625 L 4.21875 -0.90625 L 5.984375 -0.90625 L 5.984375 0 L 1.359375 0 Z M 1.359375 -0.90625 "/>
</symbol>
<symbol overflow="visible" id="glyph1-2">
<path style="stroke:none;" d="M 3.5 -3.8125 C 2.976562 -3.8125 2.570312 -3.671875 2.28125 -3.390625 C 1.988281 -3.117188 1.84375 -2.738281 1.84375 -2.25 C 1.84375 -1.769531 1.988281 -1.390625 2.28125 -1.109375 C 2.570312 -0.835938 2.976562 -0.703125 3.5 -0.703125 C 4.007812 -0.703125 4.410156 -0.835938 4.703125 -1.109375 C 5.003906 -1.390625 5.15625 -1.769531 5.15625 -2.25 C 5.15625 -2.738281 5.007812 -3.117188 4.71875 -3.390625 C 4.425781 -3.671875 4.019531 -3.8125 3.5 -3.8125 Z M 2.40625 -4.265625 C 1.945312 -4.378906 1.585938 -4.59375 1.328125 -4.90625 C 1.066406 -5.226562 0.9375 -5.617188 0.9375 -6.078125 C 0.9375 -6.722656 1.160156 -7.234375 1.609375 -7.609375 C 2.066406 -7.984375 2.695312 -8.171875 3.5 -8.171875 C 4.289062 -8.171875 4.914062 -7.984375 5.375 -7.609375 C 5.832031 -7.234375 6.0625 -6.722656 6.0625 -6.078125 C 6.0625 -5.617188 5.929688 -5.226562 5.671875 -4.90625 C 5.410156 -4.59375 5.050781 -4.378906 4.59375 -4.265625 C 5.113281 -4.148438 5.519531 -3.914062 5.8125 -3.5625 C 6.101562 -3.207031 6.25 -2.769531 6.25 -2.25 C 6.25 -1.476562 6.007812 -0.882812 5.53125 -0.46875 C 5.0625 -0.0507812 4.382812 0.15625 3.5 0.15625 C 2.613281 0.15625 1.929688 -0.0507812 1.453125 -0.46875 C 0.984375 -0.882812 0.75 -1.476562 0.75 -2.25 C 0.75 -2.769531 0.894531 -3.207031 1.1875 -3.5625 C 1.476562 -3.914062 1.882812 -4.148438 2.40625 -4.265625 Z M 2.015625 -5.984375 C 2.015625 -5.566406 2.144531 -5.238281 2.40625 -5 C 2.664062 -4.769531 3.03125 -4.65625 3.5 -4.65625 C 3.957031 -4.65625 4.316406 -4.769531 4.578125 -5 C 4.847656 -5.238281 4.984375 -5.566406 4.984375 -5.984375 C 4.984375 -6.398438 4.847656 -6.722656 4.578125 -6.953125 C 4.316406 -7.191406 3.957031 -7.3125 3.5 -7.3125 C 3.03125 -7.3125 2.664062 -7.191406 2.40625 -6.953125 C 2.144531 -6.722656 2.015625 -6.398438 2.015625 -5.984375 Z M 2.015625 -5.984375 "/>
</symbol>
<symbol overflow="visible" id="glyph1-3">
<path style="stroke:none;" d="M 3.5 -7.3125 C 2.9375 -7.3125 2.515625 -7.035156 2.234375 -6.484375 C 1.953125 -5.929688 1.8125 -5.101562 1.8125 -4 C 1.8125 -2.90625 1.953125 -2.082031 2.234375 -1.53125 C 2.515625 -0.976562 2.9375 -0.703125 3.5 -0.703125 C 4.0625 -0.703125 4.484375 -0.976562 4.765625 -1.53125 C 5.046875 -2.082031 5.1875 -2.90625 5.1875 -4 C 5.1875 -5.101562 5.046875 -5.929688 4.765625 -6.484375 C 4.484375 -7.035156 4.0625 -7.3125 3.5 -7.3125 Z M 3.5 -8.171875 C 4.394531 -8.171875 5.078125 -7.8125 5.546875 -7.09375 C 6.023438 -6.382812 6.265625 -5.351562 6.265625 -4 C 6.265625 -2.65625 6.023438 -1.625 5.546875 -0.90625 C 5.078125 -0.195312 4.394531 0.15625 3.5 0.15625 C 2.601562 0.15625 1.914062 -0.195312 1.4375 -0.90625 C 0.957031 -1.625 0.71875 -2.65625 0.71875 -4 C 0.71875 -5.351562 0.957031 -6.382812 1.4375 -7.09375 C 1.914062 -7.8125 2.601562 -8.171875 3.5 -8.171875 Z M 3.5 -8.171875 "/>
</symbol>
<symbol overflow="visible" id="glyph1-4">
<path style="stroke:none;" d="M 3.625 -4.4375 C 3.144531 -4.4375 2.757812 -4.269531 2.46875 -3.9375 C 2.1875 -3.601562 2.046875 -3.148438 2.046875 -2.578125 C 2.046875 -1.992188 2.1875 -1.535156 2.46875 -1.203125 C 2.757812 -0.867188 3.144531 -0.703125 3.625 -0.703125 C 4.113281 -0.703125 4.5 -0.867188 4.78125 -1.203125 C 5.070312 -1.535156 5.21875 -1.992188 5.21875 -2.578125 C 5.21875 -3.148438 5.070312 -3.601562 4.78125 -3.9375 C 4.5 -4.269531 4.113281 -4.4375 3.625 -4.4375 Z M 5.78125 -7.84375 L 5.78125 -6.859375 C 5.507812 -6.984375 5.234375 -7.078125 4.953125 -7.140625 C 4.679688 -7.210938 4.410156 -7.25 4.140625 -7.25 C 3.421875 -7.25 2.867188 -7.003906 2.484375 -6.515625 C 2.109375 -6.035156 1.894531 -5.304688 1.84375 -4.328125 C 2.0625 -4.640625 2.328125 -4.878906 2.640625 -5.046875 C 2.960938 -5.210938 3.316406 -5.296875 3.703125 -5.296875 C 4.503906 -5.296875 5.140625 -5.050781 5.609375 -4.5625 C 6.078125 -4.070312 6.3125 -3.410156 6.3125 -2.578125 C 6.3125 -1.753906 6.066406 -1.09375 5.578125 -0.59375 C 5.085938 -0.09375 4.4375 0.15625 3.625 0.15625 C 2.695312 0.15625 1.988281 -0.195312 1.5 -0.90625 C 1.007812 -1.625 0.765625 -2.65625 0.765625 -4 C 0.765625 -5.269531 1.066406 -6.28125 1.671875 -7.03125 C 2.273438 -7.789062 3.082031 -8.171875 4.09375 -8.171875 C 4.363281 -8.171875 4.632812 -8.140625 4.90625 -8.078125 C 5.1875 -8.023438 5.476562 -7.945312 5.78125 -7.84375 Z M 5.78125 -7.84375 "/>
</symbol>
<symbol overflow="visible" id="glyph1-5">
<path style="stroke:none;" d="M 4.15625 -7.078125 L 1.421875 -2.796875 L 4.15625 -2.796875 Z M 3.875 -8.015625 L 5.234375 -8.015625 L 5.234375 -2.796875 L 6.375 -2.796875 L 6.375 -1.890625 L 5.234375 -1.890625 L 5.234375 0 L 4.15625 0 L 4.15625 -1.890625 L 0.53125 -1.890625 L 0.53125 -2.9375 Z M 3.875 -8.015625 "/>
</symbol>
<symbol overflow="visible" id="glyph1-6">
<path style="stroke:none;" d="M 4.46875 -4.328125 C 4.988281 -4.210938 5.394531 -3.976562 5.6875 -3.625 C 5.976562 -3.28125 6.125 -2.847656 6.125 -2.328125 C 6.125 -1.535156 5.847656 -0.921875 5.296875 -0.484375 C 4.753906 -0.0546875 3.984375 0.15625 2.984375 0.15625 C 2.640625 0.15625 2.289062 0.117188 1.9375 0.046875 C 1.582031 -0.015625 1.21875 -0.109375 0.84375 -0.234375 L 0.84375 -1.296875 C 1.144531 -1.117188 1.472656 -0.984375 1.828125 -0.890625 C 2.179688 -0.796875 2.554688 -0.75 2.953125 -0.75 C 3.628906 -0.75 4.144531 -0.882812 4.5 -1.15625 C 4.851562 -1.425781 5.03125 -1.816406 5.03125 -2.328125 C 5.03125 -2.804688 4.863281 -3.175781 4.53125 -3.4375 C 4.207031 -3.707031 3.75 -3.84375 3.15625 -3.84375 L 2.21875 -3.84375 L 2.21875 -4.734375 L 3.203125 -4.734375 C 3.734375 -4.734375 4.140625 -4.835938 4.421875 -5.046875 C 4.703125 -5.265625 4.84375 -5.570312 4.84375 -5.96875 C 4.84375 -6.382812 4.695312 -6.703125 4.40625 -6.921875 C 4.113281 -7.140625 3.695312 -7.25 3.15625 -7.25 C 2.863281 -7.25 2.546875 -7.21875 2.203125 -7.15625 C 1.859375 -7.09375 1.484375 -6.992188 1.078125 -6.859375 L 1.078125 -7.828125 C 1.492188 -7.941406 1.878906 -8.023438 2.234375 -8.078125 C 2.597656 -8.140625 2.9375 -8.171875 3.25 -8.171875 C 4.070312 -8.171875 4.722656 -7.984375 5.203125 -7.609375 C 5.691406 -7.234375 5.9375 -6.722656 5.9375 -6.078125 C 5.9375 -5.640625 5.804688 -5.265625 5.546875 -4.953125 C 5.296875 -4.648438 4.9375 -4.441406 4.46875 -4.328125 Z M 4.46875 -4.328125 "/>
</symbol>
<symbol overflow="visible" id="glyph1-7">
<path style="stroke:none;" d="M 2.109375 -0.90625 L 5.890625 -0.90625 L 5.890625 0 L 0.8125 0 L 0.8125 -0.90625 C 1.21875 -1.332031 1.773438 -1.90625 2.484375 -2.625 C 3.203125 -3.34375 3.648438 -3.804688 3.828125 -4.015625 C 4.171875 -4.410156 4.410156 -4.742188 4.546875 -5.015625 C 4.691406 -5.285156 4.765625 -5.550781 4.765625 -5.8125 C 4.765625 -6.238281 4.613281 -6.582031 4.3125 -6.84375 C 4.019531 -7.113281 3.628906 -7.25 3.140625 -7.25 C 2.804688 -7.25 2.445312 -7.1875 2.0625 -7.0625 C 1.6875 -6.945312 1.285156 -6.769531 0.859375 -6.53125 L 0.859375 -7.625 C 1.296875 -7.800781 1.703125 -7.9375 2.078125 -8.03125 C 2.460938 -8.125 2.8125 -8.171875 3.125 -8.171875 C 3.957031 -8.171875 4.617188 -7.960938 5.109375 -7.546875 C 5.609375 -7.128906 5.859375 -6.570312 5.859375 -5.875 C 5.859375 -5.539062 5.796875 -5.226562 5.671875 -4.9375 C 5.546875 -4.644531 5.320312 -4.296875 5 -3.890625 C 4.90625 -3.785156 4.617188 -3.484375 4.140625 -2.984375 C 3.660156 -2.492188 2.984375 -1.800781 2.109375 -0.90625 Z M 2.109375 -0.90625 "/>
</symbol>
<symbol overflow="visible" id="glyph1-8">
<path style="stroke:none;" d="M 1.203125 -0.171875 L 1.203125 -1.15625 C 1.472656 -1.03125 1.75 -0.929688 2.03125 -0.859375 C 2.3125 -0.785156 2.585938 -0.75 2.859375 -0.75 C 3.578125 -0.75 4.125 -0.988281 4.5 -1.46875 C 4.875 -1.957031 5.085938 -2.691406 5.140625 -3.671875 C 4.929688 -3.367188 4.664062 -3.132812 4.34375 -2.96875 C 4.03125 -2.800781 3.679688 -2.71875 3.296875 -2.71875 C 2.492188 -2.71875 1.859375 -2.957031 1.390625 -3.4375 C 0.921875 -3.925781 0.6875 -4.59375 0.6875 -5.4375 C 0.6875 -6.257812 0.929688 -6.921875 1.421875 -7.421875 C 1.910156 -7.921875 2.5625 -8.171875 3.375 -8.171875 C 4.300781 -8.171875 5.003906 -7.8125 5.484375 -7.09375 C 5.972656 -6.382812 6.21875 -5.351562 6.21875 -4 C 6.21875 -2.738281 5.914062 -1.726562 5.3125 -0.96875 C 4.71875 -0.21875 3.914062 0.15625 2.90625 0.15625 C 2.632812 0.15625 2.359375 0.128906 2.078125 0.078125 C 1.796875 0.0234375 1.503906 -0.0546875 1.203125 -0.171875 Z M 3.375 -3.5625 C 3.851562 -3.5625 4.234375 -3.726562 4.515625 -4.0625 C 4.804688 -4.394531 4.953125 -4.851562 4.953125 -5.4375 C 4.953125 -6.007812 4.804688 -6.460938 4.515625 -6.796875 C 4.234375 -7.140625 3.851562 -7.3125 3.375 -7.3125 C 2.882812 -7.3125 2.492188 -7.140625 2.203125 -6.796875 C 1.921875 -6.460938 1.78125 -6.007812 1.78125 -5.4375 C 1.78125 -4.851562 1.921875 -4.394531 2.203125 -4.0625 C 2.492188 -3.726562 2.882812 -3.5625 3.375 -3.5625 Z M 3.375 -3.5625 "/>
</symbol>
<symbol overflow="visible" id="glyph1-9">
<path style="stroke:none;" d="M 0.90625 -8.015625 L 6.0625 -8.015625 L 6.0625 -7.5625 L 3.140625 0 L 2.015625 0 L 4.75 -7.109375 L 0.90625 -7.109375 Z M 0.90625 -8.015625 "/>
</symbol>
<symbol overflow="visible" id="glyph1-10">
<path style="stroke:none;" d="M 1.1875 -8.015625 L 5.453125 -8.015625 L 5.453125 -7.109375 L 2.1875 -7.109375 L 2.1875 -5.140625 C 2.34375 -5.191406 2.5 -5.226562 2.65625 -5.25 C 2.8125 -5.28125 2.96875 -5.296875 3.125 -5.296875 C 4.019531 -5.296875 4.726562 -5.050781 5.25 -4.5625 C 5.769531 -4.070312 6.03125 -3.410156 6.03125 -2.578125 C 6.03125 -1.710938 5.757812 -1.039062 5.21875 -0.5625 C 4.6875 -0.0820312 3.929688 0.15625 2.953125 0.15625 C 2.617188 0.15625 2.273438 0.125 1.921875 0.0625 C 1.578125 0.0078125 1.21875 -0.0703125 0.84375 -0.1875 L 0.84375 -1.28125 C 1.164062 -1.101562 1.5 -0.96875 1.84375 -0.875 C 2.1875 -0.789062 2.550781 -0.75 2.9375 -0.75 C 3.5625 -0.75 4.050781 -0.910156 4.40625 -1.234375 C 4.769531 -1.566406 4.953125 -2.015625 4.953125 -2.578125 C 4.953125 -3.128906 4.769531 -3.566406 4.40625 -3.890625 C 4.050781 -4.222656 3.5625 -4.390625 2.9375 -4.390625 C 2.644531 -4.390625 2.351562 -4.351562 2.0625 -4.28125 C 1.78125 -4.21875 1.488281 -4.117188 1.1875 -3.984375 Z M 1.1875 -8.015625 "/>
</symbol>
<symbol overflow="visible" id="glyph2-0">
<path style="stroke:none;" d="M 0.546875 1.9375 L 0.546875 -7.75 L 6.046875 -7.75 L 6.046875 1.9375 Z M 1.171875 1.328125 L 5.4375 1.328125 L 5.4375 -7.140625 L 1.171875 -7.140625 Z M 1.171875 1.328125 "/>
</symbol>
<symbol overflow="visible" id="glyph2-1">
<path style="stroke:none;" d="M 4.671875 -6.671875 C 4.046875 -6.671875 3.554688 -6.4375 3.203125 -5.96875 C 2.859375 -5.5 2.6875 -4.84375 2.6875 -4 C 2.6875 -3.15625 2.859375 -2.5 3.203125 -2.03125 C 3.554688 -1.570312 4.046875 -1.34375 4.671875 -1.34375 C 5.304688 -1.34375 5.796875 -1.570312 6.140625 -2.03125 C 6.492188 -2.5 6.671875 -3.15625 6.671875 -4 C 6.671875 -4.84375 6.492188 -5.5 6.140625 -5.96875 C 5.796875 -6.4375 5.304688 -6.671875 4.671875 -6.671875 Z M 4.671875 -8.171875 C 5.960938 -8.171875 6.972656 -7.800781 7.703125 -7.0625 C 8.429688 -6.320312 8.796875 -5.300781 8.796875 -4 C 8.796875 -2.707031 8.429688 -1.691406 7.703125 -0.953125 C 6.972656 -0.210938 5.960938 0.15625 4.671875 0.15625 C 3.390625 0.15625 2.378906 -0.210938 1.640625 -0.953125 C 0.910156 -1.691406 0.546875 -2.707031 0.546875 -4 C 0.546875 -5.300781 0.910156 -6.320312 1.640625 -7.0625 C 2.378906 -7.800781 3.390625 -8.171875 4.671875 -8.171875 Z M 4.671875 -8.171875 "/>
</symbol>
<symbol overflow="visible" id="glyph2-2">
<path style="stroke:none;" d="M 5.390625 -4.375 C 5.222656 -4.457031 5.054688 -4.515625 4.890625 -4.546875 C 4.722656 -4.585938 4.554688 -4.609375 4.390625 -4.609375 C 3.890625 -4.609375 3.503906 -4.445312 3.234375 -4.125 C 2.972656 -3.8125 2.84375 -3.359375 2.84375 -2.765625 L 2.84375 0 L 0.921875 0 L 0.921875 -6.015625 L 2.84375 -6.015625 L 2.84375 -5.03125 C 3.09375 -5.425781 3.375 -5.710938 3.6875 -5.890625 C 4.007812 -6.066406 4.394531 -6.15625 4.84375 -6.15625 C 4.914062 -6.15625 4.988281 -6.148438 5.0625 -6.140625 C 5.132812 -6.140625 5.242188 -6.132812 5.390625 -6.125 Z M 5.390625 -4.375 "/>
</symbol>
<symbol overflow="visible" id="glyph2-3">
<path style="stroke:none;" d="M 3.03125 -7.71875 L 3.03125 -6.015625 L 5 -6.015625 L 5 -4.640625 L 3.03125 -4.640625 L 3.03125 -2.09375 C 3.03125 -1.8125 3.082031 -1.617188 3.1875 -1.515625 C 3.300781 -1.421875 3.519531 -1.375 3.84375 -1.375 L 4.84375 -1.375 L 4.84375 0 L 3.1875 0 C 2.425781 0 1.882812 -0.15625 1.5625 -0.46875 C 1.25 -0.789062 1.09375 -1.332031 1.09375 -2.09375 L 1.09375 -4.640625 L 0.140625 -4.640625 L 0.140625 -6.015625 L 1.09375 -6.015625 L 1.09375 -7.71875 Z M 3.03125 -7.71875 "/>
</symbol>
<symbol overflow="visible" id="glyph2-4">
<path style="stroke:none;" d="M 6.96875 -3.65625 L 6.96875 0 L 5.03125 0 L 5.03125 -2.796875 C 5.03125 -3.316406 5.019531 -3.675781 5 -3.875 C 4.976562 -4.070312 4.9375 -4.21875 4.875 -4.3125 C 4.800781 -4.4375 4.703125 -4.53125 4.578125 -4.59375 C 4.453125 -4.664062 4.304688 -4.703125 4.140625 -4.703125 C 3.734375 -4.703125 3.414062 -4.546875 3.1875 -4.234375 C 2.957031 -3.929688 2.84375 -3.503906 2.84375 -2.953125 L 2.84375 0 L 0.921875 0 L 0.921875 -8.359375 L 2.84375 -8.359375 L 2.84375 -5.140625 C 3.132812 -5.484375 3.441406 -5.738281 3.765625 -5.90625 C 4.097656 -6.070312 4.457031 -6.15625 4.84375 -6.15625 C 5.539062 -6.15625 6.066406 -5.941406 6.421875 -5.515625 C 6.785156 -5.085938 6.96875 -4.46875 6.96875 -3.65625 Z M 6.96875 -3.65625 "/>
</symbol>
<symbol overflow="visible" id="glyph2-5">
<path style="stroke:none;" d="M 3.78125 -4.78125 C 3.351562 -4.78125 3.023438 -4.628906 2.796875 -4.328125 C 2.578125 -4.023438 2.46875 -3.582031 2.46875 -3 C 2.46875 -2.425781 2.578125 -1.984375 2.796875 -1.671875 C 3.023438 -1.367188 3.351562 -1.21875 3.78125 -1.21875 C 4.207031 -1.21875 4.53125 -1.367188 4.75 -1.671875 C 4.96875 -1.984375 5.078125 -2.425781 5.078125 -3 C 5.078125 -3.582031 4.96875 -4.023438 4.75 -4.328125 C 4.53125 -4.628906 4.207031 -4.78125 3.78125 -4.78125 Z M 3.78125 -6.15625 C 4.820312 -6.15625 5.628906 -5.875 6.203125 -5.3125 C 6.785156 -4.757812 7.078125 -3.988281 7.078125 -3 C 7.078125 -2.007812 6.785156 -1.234375 6.203125 -0.671875 C 5.628906 -0.117188 4.820312 0.15625 3.78125 0.15625 C 2.75 0.15625 1.9375 -0.117188 1.34375 -0.671875 C 0.757812 -1.234375 0.46875 -2.007812 0.46875 -3 C 0.46875 -3.988281 0.757812 -4.757812 1.34375 -5.3125 C 1.9375 -5.875 2.75 -6.15625 3.78125 -6.15625 Z M 3.78125 -6.15625 "/>
</symbol>
<symbol overflow="visible" id="glyph2-6">
<path style="stroke:none;" d="M 0.921875 -8.359375 L 2.84375 -8.359375 L 2.84375 0 L 0.921875 0 Z M 0.921875 -8.359375 "/>
</symbol>
<symbol overflow="visible" id="glyph2-7">
<path style="stroke:none;" d="M 5.015625 -1.015625 C 4.753906 -0.671875 4.460938 -0.414062 4.140625 -0.25 C 3.816406 -0.0820312 3.445312 0 3.03125 0 C 2.300781 0 1.695312 -0.285156 1.21875 -0.859375 C 0.738281 -1.441406 0.5 -2.179688 0.5 -3.078125 C 0.5 -3.972656 0.738281 -4.707031 1.21875 -5.28125 C 1.695312 -5.863281 2.300781 -6.15625 3.03125 -6.15625 C 3.445312 -6.15625 3.816406 -6.070312 4.140625 -5.90625 C 4.460938 -5.738281 4.753906 -5.476562 5.015625 -5.125 L 5.015625 -6.015625 L 6.953125 -6.015625 L 6.953125 -0.609375 C 6.953125 0.359375 6.644531 1.097656 6.03125 1.609375 C 5.425781 2.117188 4.539062 2.375 3.375 2.375 C 3 2.375 2.632812 2.34375 2.28125 2.28125 C 1.9375 2.226562 1.585938 2.144531 1.234375 2.03125 L 1.234375 0.53125 C 1.566406 0.71875 1.894531 0.859375 2.21875 0.953125 C 2.539062 1.046875 2.863281 1.09375 3.1875 1.09375 C 3.820312 1.09375 4.285156 0.957031 4.578125 0.6875 C 4.867188 0.414062 5.015625 -0.015625 5.015625 -0.609375 Z M 3.75 -4.765625 C 3.351562 -4.765625 3.039062 -4.617188 2.8125 -4.328125 C 2.59375 -4.035156 2.484375 -3.617188 2.484375 -3.078125 C 2.484375 -2.523438 2.585938 -2.101562 2.796875 -1.8125 C 3.015625 -1.53125 3.332031 -1.390625 3.75 -1.390625 C 4.144531 -1.390625 4.453125 -1.535156 4.671875 -1.828125 C 4.898438 -2.128906 5.015625 -2.546875 5.015625 -3.078125 C 5.015625 -3.617188 4.898438 -4.035156 4.671875 -4.328125 C 4.453125 -4.617188 4.144531 -4.765625 3.75 -4.765625 Z M 3.75 -4.765625 "/>
</symbol>
<symbol overflow="visible" id="glyph2-8">
<path style="stroke:none;" d="M 5.625 -5.828125 L 5.625 -4.359375 C 5.207031 -4.535156 4.804688 -4.664062 4.421875 -4.75 C 4.046875 -4.832031 3.6875 -4.875 3.34375 -4.875 C 2.976562 -4.875 2.707031 -4.828125 2.53125 -4.734375 C 2.351562 -4.648438 2.265625 -4.515625 2.265625 -4.328125 C 2.265625 -4.171875 2.332031 -4.050781 2.46875 -3.96875 C 2.601562 -3.882812 2.84375 -3.820312 3.1875 -3.78125 L 3.53125 -3.734375 C 4.507812 -3.609375 5.171875 -3.398438 5.515625 -3.109375 C 5.859375 -2.828125 6.03125 -2.378906 6.03125 -1.765625 C 6.03125 -1.128906 5.789062 -0.648438 5.3125 -0.328125 C 4.84375 -0.00390625 4.140625 0.15625 3.203125 0.15625 C 2.804688 0.15625 2.394531 0.125 1.96875 0.0625 C 1.539062 0 1.101562 -0.09375 0.65625 -0.21875 L 0.65625 -1.6875 C 1.039062 -1.5 1.429688 -1.359375 1.828125 -1.265625 C 2.234375 -1.171875 2.644531 -1.125 3.0625 -1.125 C 3.4375 -1.125 3.71875 -1.175781 3.90625 -1.28125 C 4.101562 -1.382812 4.203125 -1.535156 4.203125 -1.734375 C 4.203125 -1.910156 4.132812 -2.039062 4 -2.125 C 3.875 -2.207031 3.613281 -2.273438 3.21875 -2.328125 L 2.890625 -2.359375 C 2.023438 -2.472656 1.421875 -2.671875 1.078125 -2.953125 C 0.734375 -3.242188 0.5625 -3.6875 0.5625 -4.28125 C 0.5625 -4.914062 0.78125 -5.382812 1.21875 -5.6875 C 1.65625 -6 2.328125 -6.15625 3.234375 -6.15625 C 3.585938 -6.15625 3.957031 -6.128906 4.34375 -6.078125 C 4.738281 -6.023438 5.164062 -5.941406 5.625 -5.828125 Z M 5.625 -5.828125 "/>
</symbol>
<symbol overflow="visible" id="glyph2-9">
<path style="stroke:none;" d=""/>
</symbol>
<symbol overflow="visible" id="glyph2-10">
<path style="stroke:none;" d="M 2.84375 -0.875 L 2.84375 2.28125 L 0.921875 2.28125 L 0.921875 -6.015625 L 2.84375 -6.015625 L 2.84375 -5.140625 C 3.113281 -5.484375 3.410156 -5.738281 3.734375 -5.90625 C 4.054688 -6.070312 4.425781 -6.15625 4.84375 -6.15625 C 5.582031 -6.15625 6.1875 -5.859375 6.65625 -5.265625 C 7.132812 -4.679688 7.375 -3.925781 7.375 -3 C 7.375 -2.070312 7.132812 -1.3125 6.65625 -0.71875 C 6.1875 -0.132812 5.582031 0.15625 4.84375 0.15625 C 4.425781 0.15625 4.054688 0.0703125 3.734375 -0.09375 C 3.410156 -0.257812 3.113281 -0.519531 2.84375 -0.875 Z M 4.125 -4.765625 C 3.707031 -4.765625 3.390625 -4.613281 3.171875 -4.3125 C 2.953125 -4.007812 2.84375 -3.570312 2.84375 -3 C 2.84375 -2.4375 2.953125 -2 3.171875 -1.6875 C 3.390625 -1.382812 3.707031 -1.234375 4.125 -1.234375 C 4.539062 -1.234375 4.851562 -1.382812 5.0625 -1.6875 C 5.28125 -1.988281 5.390625 -2.425781 5.390625 -3 C 5.390625 -3.570312 5.28125 -4.007812 5.0625 -4.3125 C 4.851562 -4.613281 4.539062 -4.765625 4.125 -4.765625 Z M 4.125 -4.765625 "/>
</symbol>
<symbol overflow="visible" id="glyph2-11">
<path style="stroke:none;" d="M 6.921875 -3.03125 L 6.921875 -2.46875 L 2.4375 -2.46875 C 2.476562 -2.019531 2.640625 -1.679688 2.921875 -1.453125 C 3.203125 -1.234375 3.59375 -1.125 4.09375 -1.125 C 4.5 -1.125 4.910156 -1.179688 5.328125 -1.296875 C 5.753906 -1.421875 6.191406 -1.601562 6.640625 -1.84375 L 6.640625 -0.359375 C 6.191406 -0.191406 5.738281 -0.0664062 5.28125 0.015625 C 4.820312 0.109375 4.367188 0.15625 3.921875 0.15625 C 2.828125 0.15625 1.976562 -0.117188 1.375 -0.671875 C 0.769531 -1.222656 0.46875 -2 0.46875 -3 C 0.46875 -3.976562 0.765625 -4.75 1.359375 -5.3125 C 1.953125 -5.875 2.769531 -6.15625 3.8125 -6.15625 C 4.75 -6.15625 5.5 -5.867188 6.0625 -5.296875 C 6.632812 -4.734375 6.921875 -3.976562 6.921875 -3.03125 Z M 4.953125 -3.65625 C 4.953125 -4.03125 4.84375 -4.328125 4.625 -4.546875 C 4.414062 -4.765625 4.140625 -4.875 3.796875 -4.875 C 3.421875 -4.875 3.117188 -4.769531 2.890625 -4.5625 C 2.660156 -4.351562 2.515625 -4.050781 2.453125 -3.65625 Z M 4.953125 -3.65625 "/>
</symbol>
<symbol overflow="visible" id="glyph2-12">
<path style="stroke:none;" d="M 6.96875 -3.65625 L 6.96875 0 L 5.03125 0 L 5.03125 -2.796875 C 5.03125 -3.316406 5.019531 -3.675781 5 -3.875 C 4.976562 -4.070312 4.9375 -4.21875 4.875 -4.3125 C 4.800781 -4.4375 4.703125 -4.53125 4.578125 -4.59375 C 4.453125 -4.664062 4.304688 -4.703125 4.140625 -4.703125 C 3.734375 -4.703125 3.414062 -4.546875 3.1875 -4.234375 C 2.957031 -3.929688 2.84375 -3.503906 2.84375 -2.953125 L 2.84375 0 L 0.921875 0 L 0.921875 -6.015625 L 2.84375 -6.015625 L 2.84375 -5.140625 C 3.132812 -5.484375 3.441406 -5.738281 3.765625 -5.90625 C 4.097656 -6.070312 4.457031 -6.15625 4.84375 -6.15625 C 5.539062 -6.15625 6.066406 -5.941406 6.421875 -5.515625 C 6.785156 -5.085938 6.96875 -4.46875 6.96875 -3.65625 Z M 6.96875 -3.65625 "/>
</symbol>
<symbol overflow="visible" id="glyph2-13">
<path style="stroke:none;" d="M 5.78125 -5.828125 L 5.78125 -4.265625 C 5.519531 -4.441406 5.257812 -4.570312 5 -4.65625 C 4.738281 -4.738281 4.460938 -4.78125 4.171875 -4.78125 C 3.640625 -4.78125 3.222656 -4.625 2.921875 -4.3125 C 2.617188 -4 2.46875 -3.5625 2.46875 -3 C 2.46875 -2.4375 2.617188 -2 2.921875 -1.6875 C 3.222656 -1.375 3.640625 -1.21875 4.171875 -1.21875 C 4.472656 -1.21875 4.757812 -1.257812 5.03125 -1.34375 C 5.300781 -1.4375 5.550781 -1.570312 5.78125 -1.75 L 5.78125 -0.171875 C 5.476562 -0.0664062 5.171875 0.0078125 4.859375 0.0625 C 4.554688 0.125 4.25 0.15625 3.9375 0.15625 C 2.851562 0.15625 2.003906 -0.117188 1.390625 -0.671875 C 0.773438 -1.234375 0.46875 -2.007812 0.46875 -3 C 0.46875 -3.988281 0.773438 -4.757812 1.390625 -5.3125 C 2.003906 -5.875 2.851562 -6.15625 3.9375 -6.15625 C 4.25 -6.15625 4.554688 -6.128906 4.859375 -6.078125 C 5.171875 -6.023438 5.476562 -5.941406 5.78125 -5.828125 Z M 5.78125 -5.828125 "/>
</symbol>
<symbol overflow="visible" id="glyph2-14">
<path style="stroke:none;" d="M 3.953125 -4.46875 C 4.378906 -4.46875 4.6875 -4.546875 4.875 -4.703125 C 5.0625 -4.867188 5.15625 -5.132812 5.15625 -5.5 C 5.15625 -5.863281 5.0625 -6.125 4.875 -6.28125 C 4.6875 -6.4375 4.378906 -6.515625 3.953125 -6.515625 L 3.078125 -6.515625 L 3.078125 -4.46875 Z M 3.078125 -3.03125 L 3.078125 0 L 1.015625 0 L 1.015625 -8.015625 L 4.171875 -8.015625 C 5.222656 -8.015625 5.992188 -7.835938 6.484375 -7.484375 C 6.984375 -7.128906 7.234375 -6.570312 7.234375 -5.8125 C 7.234375 -5.28125 7.101562 -4.84375 6.84375 -4.5 C 6.59375 -4.15625 6.207031 -3.90625 5.6875 -3.75 C 5.96875 -3.6875 6.21875 -3.539062 6.4375 -3.3125 C 6.664062 -3.082031 6.894531 -2.738281 7.125 -2.28125 L 8.25 0 L 6.046875 0 L 5.078125 -2 C 4.878906 -2.394531 4.675781 -2.664062 4.46875 -2.8125 C 4.269531 -2.957031 4 -3.03125 3.65625 -3.03125 Z M 3.078125 -3.03125 "/>
</symbol>
<symbol overflow="visible" id="glyph2-15">
<path style="stroke:none;" d="M 1.015625 -8.015625 L 3.3125 -8.015625 L 6.234375 -2.515625 L 6.234375 -8.015625 L 8.203125 -8.015625 L 8.203125 0 L 5.890625 0 L 2.96875 -5.5 L 2.96875 0 L 1.015625 0 Z M 1.015625 -8.015625 "/>
</symbol>
<symbol overflow="visible" id="glyph2-16">
<path style="stroke:none;" d="M 5.875 -1.46875 L 2.640625 -1.46875 L 2.125 0 L 0.046875 0 L 3.03125 -8.015625 L 5.484375 -8.015625 L 8.453125 0 L 6.375 0 Z M 3.15625 -2.953125 L 5.359375 -2.953125 L 4.265625 -6.140625 Z M 3.15625 -2.953125 "/>
</symbol>
<symbol overflow="visible" id="glyph3-0">
<path style="stroke:none;" d="M 1.9375 -0.546875 L -7.75 -0.546875 L -7.75 -6.046875 L 1.9375 -6.046875 Z M 1.328125 -1.171875 L 1.328125 -5.4375 L -7.140625 -5.4375 L -7.140625 -1.171875 Z M 1.328125 -1.171875 "/>
</symbol>
<symbol overflow="visible" id="glyph3-1">
<path style="stroke:none;" d="M -8.015625 -1.015625 L -8.015625 -4.4375 C -8.015625 -5.457031 -7.785156 -6.238281 -7.328125 -6.78125 C -6.878906 -7.332031 -6.238281 -7.609375 -5.40625 -7.609375 C -4.5625 -7.609375 -3.910156 -7.332031 -3.453125 -6.78125 C -3.003906 -6.238281 -2.78125 -5.457031 -2.78125 -4.4375 L -2.78125 -3.078125 L 0 -3.078125 L 0 -1.015625 Z M -6.515625 -3.078125 L -4.28125 -3.078125 L -4.28125 -4.21875 C -4.28125 -4.625 -4.375 -4.9375 -4.5625 -5.15625 C -4.757812 -5.375 -5.039062 -5.484375 -5.40625 -5.484375 C -5.757812 -5.484375 -6.03125 -5.375 -6.21875 -5.15625 C -6.414062 -4.9375 -6.515625 -4.625 -6.515625 -4.21875 Z M -6.515625 -3.078125 "/>
</symbol>
<symbol overflow="visible" id="glyph3-2">
<path style="stroke:none;" d="M -3.65625 -6.96875 L 0 -6.96875 L 0 -5.03125 L -2.796875 -5.03125 C -3.316406 -5.03125 -3.675781 -5.019531 -3.875 -5 C -4.070312 -4.976562 -4.21875 -4.9375 -4.3125 -4.875 C -4.4375 -4.800781 -4.53125 -4.703125 -4.59375 -4.578125 C -4.664062 -4.453125 -4.703125 -4.304688 -4.703125 -4.140625 C -4.703125 -3.734375 -4.546875 -3.414062 -4.234375 -3.1875 C -3.929688 -2.957031 -3.503906 -2.84375 -2.953125 -2.84375 L 0 -2.84375 L 0 -0.921875 L -8.359375 -0.921875 L -8.359375 -2.84375 L -5.140625 -2.84375 C -5.484375 -3.132812 -5.738281 -3.441406 -5.90625 -3.765625 C -6.070312 -4.097656 -6.15625 -4.457031 -6.15625 -4.84375 C -6.15625 -5.539062 -5.941406 -6.066406 -5.515625 -6.421875 C -5.085938 -6.785156 -4.46875 -6.96875 -3.65625 -6.96875 Z M -3.65625 -6.96875 "/>
</symbol>
<symbol overflow="visible" id="glyph3-3">
<path style="stroke:none;" d="M -6.015625 -0.140625 L -6.015625 -2.0625 L -1.9375 -3.671875 L -6.015625 -5.046875 L -6.015625 -6.96875 L 0.5625 -4.4375 C 1.238281 -4.1875 1.707031 -3.890625 1.96875 -3.546875 C 2.238281 -3.210938 2.375 -2.769531 2.375 -2.21875 L 2.375 -1.09375 L 1.109375 -1.09375 L 1.109375 -1.703125 C 1.109375 -2.023438 1.054688 -2.257812 0.953125 -2.40625 C 0.847656 -2.5625 0.660156 -2.679688 0.390625 -2.765625 L 0.234375 -2.8125 Z M -6.015625 -0.140625 "/>
</symbol>
<symbol overflow="visible" id="glyph3-4">
<path style="stroke:none;" d="M -8.359375 -0.921875 L -8.359375 -2.84375 L 0 -2.84375 L 0 -0.921875 Z M -8.359375 -0.921875 "/>
</symbol>
<symbol overflow="visible" id="glyph3-5">
<path style="stroke:none;" d="M -4.78125 -3.78125 C -4.78125 -3.351562 -4.628906 -3.023438 -4.328125 -2.796875 C -4.023438 -2.578125 -3.582031 -2.46875 -3 -2.46875 C -2.425781 -2.46875 -1.984375 -2.578125 -1.671875 -2.796875 C -1.367188 -3.023438 -1.21875 -3.351562 -1.21875 -3.78125 C -1.21875 -4.207031 -1.367188 -4.53125 -1.671875 -4.75 C -1.984375 -4.96875 -2.425781 -5.078125 -3 -5.078125 C -3.582031 -5.078125 -4.023438 -4.96875 -4.328125 -4.75 C -4.628906 -4.53125 -4.78125 -4.207031 -4.78125 -3.78125 Z M -6.15625 -3.78125 C -6.15625 -4.820312 -5.875 -5.628906 -5.3125 -6.203125 C -4.757812 -6.785156 -3.988281 -7.078125 -3 -7.078125 C -2.007812 -7.078125 -1.234375 -6.785156 -0.671875 -6.203125 C -0.117188 -5.628906 0.15625 -4.820312 0.15625 -3.78125 C 0.15625 -2.75 -0.117188 -1.9375 -0.671875 -1.34375 C -1.234375 -0.757812 -2.007812 -0.46875 -3 -0.46875 C -3.988281 -0.46875 -4.757812 -0.757812 -5.3125 -1.34375 C -5.875 -1.9375 -6.15625 -2.75 -6.15625 -3.78125 Z M -6.15625 -3.78125 "/>
</symbol>
<symbol overflow="visible" id="glyph3-6">
<path style="stroke:none;" d="M -0.875 -2.84375 L 2.28125 -2.84375 L 2.28125 -0.921875 L -6.015625 -0.921875 L -6.015625 -2.84375 L -5.140625 -2.84375 C -5.484375 -3.113281 -5.738281 -3.410156 -5.90625 -3.734375 C -6.070312 -4.054688 -6.15625 -4.425781 -6.15625 -4.84375 C -6.15625 -5.582031 -5.859375 -6.1875 -5.265625 -6.65625 C -4.679688 -7.132812 -3.925781 -7.375 -3 -7.375 C -2.070312 -7.375 -1.3125 -7.132812 -0.71875 -6.65625 C -0.132812 -6.1875 0.15625 -5.582031 0.15625 -4.84375 C 0.15625 -4.425781 0.0703125 -4.054688 -0.09375 -3.734375 C -0.257812 -3.410156 -0.519531 -3.113281 -0.875 -2.84375 Z M -4.765625 -4.125 C -4.765625 -3.707031 -4.613281 -3.390625 -4.3125 -3.171875 C -4.007812 -2.953125 -3.570312 -2.84375 -3 -2.84375 C -2.4375 -2.84375 -2 -2.953125 -1.6875 -3.171875 C -1.382812 -3.390625 -1.234375 -3.707031 -1.234375 -4.125 C -1.234375 -4.539062 -1.382812 -4.851562 -1.6875 -5.0625 C -1.988281 -5.28125 -2.425781 -5.390625 -3 -5.390625 C -3.570312 -5.390625 -4.007812 -5.28125 -4.3125 -5.0625 C -4.613281 -4.851562 -4.765625 -4.539062 -4.765625 -4.125 Z M -4.765625 -4.125 "/>
</symbol>
<symbol overflow="visible" id="glyph4-0">
<path style="stroke:none;" d="M 0.59375 2.125 L 0.59375 -8.46875 L 6.59375 -8.46875 L 6.59375 2.125 Z M 1.265625 1.453125 L 5.9375 1.453125 L 5.9375 -7.78125 L 1.265625 -7.78125 Z M 1.265625 1.453125 "/>
</symbol>
<symbol overflow="visible" id="glyph4-1">
<path style="stroke:none;" d="M 3.109375 -0.953125 L 3.109375 2.5 L 1.015625 2.5 L 1.015625 -6.5625 L 3.109375 -6.5625 L 3.109375 -5.609375 C 3.398438 -5.984375 3.71875 -6.257812 4.0625 -6.4375 C 4.414062 -6.625 4.820312 -6.71875 5.28125 -6.71875 C 6.09375 -6.71875 6.753906 -6.394531 7.265625 -5.75 C 7.785156 -5.113281 8.046875 -4.289062 8.046875 -3.28125 C 8.046875 -2.269531 7.785156 -1.441406 7.265625 -0.796875 C 6.753906 -0.148438 6.09375 0.171875 5.28125 0.171875 C 4.820312 0.171875 4.414062 0.0820312 4.0625 -0.09375 C 3.71875 -0.28125 3.398438 -0.566406 3.109375 -0.953125 Z M 4.5 -5.203125 C 4.050781 -5.203125 3.707031 -5.035156 3.46875 -4.703125 C 3.226562 -4.367188 3.109375 -3.894531 3.109375 -3.28125 C 3.109375 -2.65625 3.226562 -2.175781 3.46875 -1.84375 C 3.707031 -1.519531 4.050781 -1.359375 4.5 -1.359375 C 4.945312 -1.359375 5.289062 -1.519531 5.53125 -1.84375 C 5.769531 -2.175781 5.890625 -2.65625 5.890625 -3.28125 C 5.890625 -3.90625 5.769531 -4.378906 5.53125 -4.703125 C 5.289062 -5.035156 4.945312 -5.203125 4.5 -5.203125 Z M 4.5 -5.203125 "/>
</symbol>
<symbol overflow="visible" id="glyph4-2">
<path style="stroke:none;" d="M 5.890625 -4.78125 C 5.703125 -4.863281 5.515625 -4.925781 5.328125 -4.96875 C 5.148438 -5.007812 4.96875 -5.03125 4.78125 -5.03125 C 4.25 -5.03125 3.835938 -4.851562 3.546875 -4.5 C 3.253906 -4.15625 3.109375 -3.664062 3.109375 -3.03125 L 3.109375 0 L 1.015625 0 L 1.015625 -6.5625 L 3.109375 -6.5625 L 3.109375 -5.484375 C 3.378906 -5.910156 3.6875 -6.222656 4.03125 -6.421875 C 4.382812 -6.617188 4.804688 -6.71875 5.296875 -6.71875 C 5.359375 -6.71875 5.429688 -6.710938 5.515625 -6.703125 C 5.597656 -6.703125 5.71875 -6.691406 5.875 -6.671875 Z M 5.890625 -4.78125 "/>
</symbol>
<symbol overflow="visible" id="glyph4-3">
<path style="stroke:none;" d="M 4.125 -5.21875 C 3.664062 -5.21875 3.3125 -5.050781 3.0625 -4.71875 C 2.820312 -4.382812 2.703125 -3.90625 2.703125 -3.28125 C 2.703125 -2.644531 2.820312 -2.160156 3.0625 -1.828125 C 3.3125 -1.492188 3.664062 -1.328125 4.125 -1.328125 C 4.582031 -1.328125 4.929688 -1.492188 5.171875 -1.828125 C 5.421875 -2.160156 5.546875 -2.644531 5.546875 -3.28125 C 5.546875 -3.90625 5.421875 -4.382812 5.171875 -4.71875 C 4.929688 -5.050781 4.582031 -5.21875 4.125 -5.21875 Z M 4.125 -6.71875 C 5.257812 -6.71875 6.144531 -6.410156 6.78125 -5.796875 C 7.414062 -5.191406 7.734375 -4.351562 7.734375 -3.28125 C 7.734375 -2.195312 7.414062 -1.347656 6.78125 -0.734375 C 6.144531 -0.128906 5.257812 0.171875 4.125 0.171875 C 3 0.171875 2.113281 -0.128906 1.46875 -0.734375 C 0.832031 -1.347656 0.515625 -2.195312 0.515625 -3.28125 C 0.515625 -4.351562 0.832031 -5.191406 1.46875 -5.796875 C 2.113281 -6.410156 3 -6.71875 4.125 -6.71875 Z M 4.125 -6.71875 "/>
</symbol>
<symbol overflow="visible" id="glyph4-4">
<path style="stroke:none;" d="M 6.3125 -6.359375 L 6.3125 -4.640625 C 6.03125 -4.835938 5.742188 -4.984375 5.453125 -5.078125 C 5.160156 -5.171875 4.863281 -5.21875 4.5625 -5.21875 C 3.976562 -5.21875 3.519531 -5.046875 3.1875 -4.703125 C 2.863281 -4.367188 2.703125 -3.894531 2.703125 -3.28125 C 2.703125 -2.664062 2.863281 -2.1875 3.1875 -1.84375 C 3.519531 -1.5 3.976562 -1.328125 4.5625 -1.328125 C 4.882812 -1.328125 5.191406 -1.375 5.484375 -1.46875 C 5.785156 -1.570312 6.0625 -1.71875 6.3125 -1.90625 L 6.3125 -0.1875 C 5.976562 -0.0703125 5.644531 0.015625 5.3125 0.078125 C 4.976562 0.140625 4.640625 0.171875 4.296875 0.171875 C 3.109375 0.171875 2.179688 -0.128906 1.515625 -0.734375 C 0.847656 -1.347656 0.515625 -2.195312 0.515625 -3.28125 C 0.515625 -4.363281 0.847656 -5.207031 1.515625 -5.8125 C 2.179688 -6.414062 3.109375 -6.71875 4.296875 -6.71875 C 4.640625 -6.71875 4.976562 -6.6875 5.3125 -6.625 C 5.644531 -6.570312 5.976562 -6.484375 6.3125 -6.359375 Z M 6.3125 -6.359375 "/>
</symbol>
<symbol overflow="visible" id="glyph4-5">
<path style="stroke:none;" d="M 7.5625 -3.296875 L 7.5625 -2.703125 L 2.65625 -2.703125 C 2.707031 -2.210938 2.882812 -1.84375 3.1875 -1.59375 C 3.488281 -1.34375 3.914062 -1.21875 4.46875 -1.21875 C 4.90625 -1.21875 5.351562 -1.285156 5.8125 -1.421875 C 6.28125 -1.554688 6.757812 -1.753906 7.25 -2.015625 L 7.25 -0.40625 C 6.75 -0.21875 6.25 -0.078125 5.75 0.015625 C 5.257812 0.117188 4.765625 0.171875 4.265625 0.171875 C 3.078125 0.171875 2.15625 -0.128906 1.5 -0.734375 C 0.84375 -1.335938 0.515625 -2.1875 0.515625 -3.28125 C 0.515625 -4.34375 0.835938 -5.179688 1.484375 -5.796875 C 2.128906 -6.410156 3.019531 -6.71875 4.15625 -6.71875 C 5.1875 -6.71875 6.007812 -6.40625 6.625 -5.78125 C 7.25 -5.164062 7.5625 -4.335938 7.5625 -3.296875 Z M 5.40625 -4 C 5.40625 -4.394531 5.285156 -4.710938 5.046875 -4.953125 C 4.816406 -5.203125 4.515625 -5.328125 4.140625 -5.328125 C 3.734375 -5.328125 3.398438 -5.210938 3.140625 -4.984375 C 2.890625 -4.753906 2.734375 -4.425781 2.671875 -4 Z M 5.40625 -4 "/>
</symbol>
<symbol overflow="visible" id="glyph4-6">
<path style="stroke:none;" d="M 6.140625 -6.359375 L 6.140625 -4.765625 C 5.691406 -4.953125 5.253906 -5.09375 4.828125 -5.1875 C 4.410156 -5.28125 4.019531 -5.328125 3.65625 -5.328125 C 3.25 -5.328125 2.945312 -5.273438 2.75 -5.171875 C 2.5625 -5.078125 2.46875 -4.925781 2.46875 -4.71875 C 2.46875 -4.550781 2.539062 -4.421875 2.6875 -4.328125 C 2.832031 -4.242188 3.097656 -4.175781 3.484375 -4.125 L 3.84375 -4.078125 C 4.925781 -3.941406 5.648438 -3.71875 6.015625 -3.40625 C 6.390625 -3.09375 6.578125 -2.601562 6.578125 -1.9375 C 6.578125 -1.238281 6.316406 -0.710938 5.796875 -0.359375 C 5.285156 -0.00390625 4.519531 0.171875 3.5 0.171875 C 3.0625 0.171875 2.609375 0.132812 2.140625 0.0625 C 1.679688 0 1.207031 -0.0976562 0.71875 -0.234375 L 0.71875 -1.828125 C 1.132812 -1.628906 1.5625 -1.476562 2 -1.375 C 2.445312 -1.269531 2.894531 -1.21875 3.34375 -1.21875 C 3.757812 -1.21875 4.066406 -1.273438 4.265625 -1.390625 C 4.472656 -1.503906 4.578125 -1.675781 4.578125 -1.90625 C 4.578125 -2.09375 4.503906 -2.226562 4.359375 -2.3125 C 4.222656 -2.40625 3.941406 -2.476562 3.515625 -2.53125 L 3.140625 -2.578125 C 2.210938 -2.691406 1.5625 -2.90625 1.1875 -3.21875 C 0.8125 -3.539062 0.625 -4.023438 0.625 -4.671875 C 0.625 -5.367188 0.859375 -5.882812 1.328125 -6.21875 C 1.804688 -6.550781 2.539062 -6.71875 3.53125 -6.71875 C 3.914062 -6.71875 4.320312 -6.6875 4.75 -6.625 C 5.175781 -6.570312 5.640625 -6.484375 6.140625 -6.359375 Z M 6.140625 -6.359375 "/>
</symbol>
<symbol overflow="visible" id="glyph4-7">
<path style="stroke:none;" d="M 5.46875 -5.609375 L 5.46875 -9.125 L 7.578125 -9.125 L 7.578125 0 L 5.46875 0 L 5.46875 -0.953125 C 5.1875 -0.566406 4.867188 -0.28125 4.515625 -0.09375 C 4.171875 0.0820312 3.769531 0.171875 3.3125 0.171875 C 2.5 0.171875 1.832031 -0.148438 1.3125 -0.796875 C 0.800781 -1.441406 0.546875 -2.269531 0.546875 -3.28125 C 0.546875 -4.289062 0.800781 -5.113281 1.3125 -5.75 C 1.832031 -6.394531 2.5 -6.71875 3.3125 -6.71875 C 3.757812 -6.71875 4.160156 -6.625 4.515625 -6.4375 C 4.867188 -6.257812 5.1875 -5.984375 5.46875 -5.609375 Z M 4.09375 -1.359375 C 4.539062 -1.359375 4.878906 -1.519531 5.109375 -1.84375 C 5.347656 -2.175781 5.46875 -2.65625 5.46875 -3.28125 C 5.46875 -3.90625 5.347656 -4.378906 5.109375 -4.703125 C 4.878906 -5.035156 4.539062 -5.203125 4.09375 -5.203125 C 3.644531 -5.203125 3.300781 -5.035156 3.0625 -4.703125 C 2.832031 -4.378906 2.71875 -3.90625 2.71875 -3.28125 C 2.71875 -2.65625 2.832031 -2.175781 3.0625 -1.84375 C 3.300781 -1.519531 3.644531 -1.359375 4.09375 -1.359375 Z M 4.09375 -1.359375 "/>
</symbol>
<symbol overflow="visible" id="glyph4-8">
<path style="stroke:none;" d="M 6 1.71875 L 6 2.828125 L 0 2.828125 L 0 1.71875 Z M 6 1.71875 "/>
</symbol>
<symbol overflow="visible" id="glyph4-9">
<path style="stroke:none;" d="M 3.296875 -8.421875 L 3.296875 -6.5625 L 5.46875 -6.5625 L 5.46875 -5.0625 L 3.296875 -5.0625 L 3.296875 -2.28125 C 3.296875 -1.976562 3.351562 -1.769531 3.46875 -1.65625 C 3.59375 -1.550781 3.835938 -1.5 4.203125 -1.5 L 5.28125 -1.5 L 5.28125 0 L 3.484375 0 C 2.648438 0 2.0625 -0.171875 1.71875 -0.515625 C 1.375 -0.859375 1.203125 -1.445312 1.203125 -2.28125 L 1.203125 -5.0625 L 0.15625 -5.0625 L 0.15625 -6.5625 L 1.203125 -6.5625 L 1.203125 -8.421875 Z M 3.296875 -8.421875 "/>
</symbol>
<symbol overflow="visible" id="glyph4-10">
<path style="stroke:none;" d="M 3.953125 -2.953125 C 3.515625 -2.953125 3.179688 -2.878906 2.953125 -2.734375 C 2.734375 -2.585938 2.625 -2.367188 2.625 -2.078125 C 2.625 -1.804688 2.710938 -1.59375 2.890625 -1.4375 C 3.078125 -1.289062 3.328125 -1.21875 3.640625 -1.21875 C 4.035156 -1.21875 4.367188 -1.359375 4.640625 -1.640625 C 4.910156 -1.929688 5.046875 -2.289062 5.046875 -2.71875 L 5.046875 -2.953125 Z M 7.15625 -3.75 L 7.15625 0 L 5.046875 0 L 5.046875 -0.96875 C 4.765625 -0.570312 4.445312 -0.28125 4.09375 -0.09375 C 3.738281 0.0820312 3.3125 0.171875 2.8125 0.171875 C 2.125 0.171875 1.566406 -0.0234375 1.140625 -0.421875 C 0.722656 -0.816406 0.515625 -1.332031 0.515625 -1.96875 C 0.515625 -2.738281 0.78125 -3.300781 1.3125 -3.65625 C 1.84375 -4.019531 2.671875 -4.203125 3.796875 -4.203125 L 5.046875 -4.203125 L 5.046875 -4.359375 C 5.046875 -4.691406 4.910156 -4.9375 4.640625 -5.09375 C 4.378906 -5.25 3.972656 -5.328125 3.421875 -5.328125 C 2.972656 -5.328125 2.554688 -5.28125 2.171875 -5.1875 C 1.785156 -5.101562 1.425781 -4.96875 1.09375 -4.78125 L 1.09375 -6.390625 C 1.539062 -6.492188 1.988281 -6.570312 2.4375 -6.625 C 2.894531 -6.6875 3.347656 -6.71875 3.796875 -6.71875 C 4.984375 -6.71875 5.835938 -6.484375 6.359375 -6.015625 C 6.890625 -5.554688 7.15625 -4.800781 7.15625 -3.75 Z M 7.15625 -3.75 "/>
</symbol>
<symbol overflow="visible" id="glyph4-11">
<path style="stroke:none;" d="M 7.609375 -4 L 7.609375 0 L 5.5 0 L 5.5 -3.0625 C 5.5 -3.625 5.484375 -4.007812 5.453125 -4.21875 C 5.429688 -4.4375 5.390625 -4.597656 5.328125 -4.703125 C 5.242188 -4.835938 5.128906 -4.941406 4.984375 -5.015625 C 4.847656 -5.097656 4.691406 -5.140625 4.515625 -5.140625 C 4.078125 -5.140625 3.734375 -4.96875 3.484375 -4.625 C 3.234375 -4.289062 3.109375 -3.828125 3.109375 -3.234375 L 3.109375 0 L 1.015625 0 L 1.015625 -6.5625 L 3.109375 -6.5625 L 3.109375 -5.609375 C 3.421875 -5.984375 3.753906 -6.257812 4.109375 -6.4375 C 4.460938 -6.625 4.859375 -6.71875 5.296875 -6.71875 C 6.046875 -6.71875 6.617188 -6.484375 7.015625 -6.015625 C 7.410156 -5.554688 7.609375 -4.882812 7.609375 -4 Z M 7.609375 -4 "/>
</symbol>
<symbol overflow="visible" id="glyph4-12">
<path style="stroke:none;" d="M 1.015625 -6.5625 L 3.109375 -6.5625 L 3.109375 0 L 1.015625 0 Z M 1.015625 -9.125 L 3.109375 -9.125 L 3.109375 -7.40625 L 1.015625 -7.40625 Z M 1.015625 -9.125 "/>
</symbol>
<symbol overflow="visible" id="glyph4-13">
<path style="stroke:none;" d="M 1.34375 -6.5625 L 3.453125 -6.5625 L 3.453125 -4.296875 L 1.34375 -4.296875 Z M 1.34375 -2.265625 L 3.453125 -2.265625 L 3.453125 0 L 1.34375 0 Z M 1.34375 -2.265625 "/>
</symbol>
<symbol overflow="visible" id="glyph4-14">
<path style="stroke:none;" d="M 1.109375 -8.75 L 4.84375 -8.75 C 5.957031 -8.75 6.8125 -8.5 7.40625 -8 C 8 -7.507812 8.296875 -6.804688 8.296875 -5.890625 C 8.296875 -4.972656 8 -4.265625 7.40625 -3.765625 C 6.8125 -3.273438 5.957031 -3.03125 4.84375 -3.03125 L 3.359375 -3.03125 L 3.359375 0 L 1.109375 0 Z M 3.359375 -7.109375 L 3.359375 -4.671875 L 4.609375 -4.671875 C 5.046875 -4.671875 5.382812 -4.773438 5.625 -4.984375 C 5.863281 -5.203125 5.984375 -5.503906 5.984375 -5.890625 C 5.984375 -6.285156 5.863281 -6.585938 5.625 -6.796875 C 5.382812 -7.003906 5.046875 -7.109375 4.609375 -7.109375 Z M 3.359375 -7.109375 "/>
</symbol>
<symbol overflow="visible" id="glyph4-15">
<path style="stroke:none;" d="M 7.609375 -4 L 7.609375 0 L 5.5 0 L 5.5 -3.046875 C 5.5 -3.617188 5.484375 -4.007812 5.453125 -4.21875 C 5.429688 -4.4375 5.390625 -4.597656 5.328125 -4.703125 C 5.242188 -4.835938 5.128906 -4.941406 4.984375 -5.015625 C 4.847656 -5.097656 4.691406 -5.140625 4.515625 -5.140625 C 4.078125 -5.140625 3.734375 -4.96875 3.484375 -4.625 C 3.234375 -4.289062 3.109375 -3.828125 3.109375 -3.234375 L 3.109375 0 L 1.015625 0 L 1.015625 -9.125 L 3.109375 -9.125 L 3.109375 -5.609375 C 3.421875 -5.984375 3.753906 -6.257812 4.109375 -6.4375 C 4.460938 -6.625 4.859375 -6.71875 5.296875 -6.71875 C 6.046875 -6.71875 6.617188 -6.484375 7.015625 -6.015625 C 7.410156 -5.554688 7.609375 -4.882812 7.609375 -4 Z M 7.609375 -4 "/>
</symbol>
<symbol overflow="visible" id="glyph4-16">
<path style="stroke:none;" d="M 0.140625 -6.5625 L 2.25 -6.5625 L 4.015625 -2.109375 L 5.515625 -6.5625 L 7.609375 -6.5625 L 4.84375 0.625 C 4.570312 1.351562 4.25 1.863281 3.875 2.15625 C 3.507812 2.445312 3.023438 2.59375 2.421875 2.59375 L 1.203125 2.59375 L 1.203125 1.21875 L 1.859375 1.21875 C 2.210938 1.21875 2.46875 1.160156 2.625 1.046875 C 2.789062 0.929688 2.921875 0.726562 3.015625 0.4375 L 3.078125 0.25 Z M 0.140625 -6.5625 "/>
</symbol>
<symbol overflow="visible" id="glyph4-17">
<path style="stroke:none;" d="M 1.015625 -9.125 L 3.109375 -9.125 L 3.109375 0 L 1.015625 0 Z M 1.015625 -9.125 "/>
</symbol>
</g>
<clipPath id="clip1">
  <path d="M 33.140625 23.304688 L 895 23.304688 L 895 485 L 33.140625 485 Z M 33.140625 23.304688 "/>
</clipPath>
<clipPath id="clip2">
  <path d="M 33.140625 450 L 895 450 L 895 452 L 33.140625 452 Z M 33.140625 450 "/>
</clipPath>
<clipPath id="clip3">
  <path d="M 33.140625 375 L 895 375 L 895 376 L 33.140625 376 Z M 33.140625 375 "/>
</clipPath>
<clipPath id="clip4">
  <path d="M 33.140625 299 L 895 299 L 895 301 L 33.140625 301 Z M 33.140625 299 "/>
</clipPath>
<clipPath id="clip5">
  <path d="M 33.140625 224 L 895 224 L 895 225 L 33.140625 225 Z M 33.140625 224 "/>
</clipPath>
<clipPath id="clip6">
  <path d="M 33.140625 148 L 895 148 L 895 150 L 33.140625 150 Z M 33.140625 148 "/>
</clipPath>
<clipPath id="clip7">
  <path d="M 33.140625 73 L 895 73 L 895 74 L 33.140625 74 Z M 33.140625 73 "/>
</clipPath>
<clipPath id="clip8">
  <path d="M 33.140625 412 L 895.519531 412 L 895.519531 414 L 33.140625 414 Z M 33.140625 412 "/>
</clipPath>
<clipPath id="clip9">
  <path d="M 33.140625 337 L 895.519531 337 L 895.519531 339 L 33.140625 339 Z M 33.140625 337 "/>
</clipPath>
<clipPath id="clip10">
  <path d="M 33.140625 261 L 895.519531 261 L 895.519531 263 L 33.140625 263 Z M 33.140625 261 "/>
</clipPath>
<clipPath id="clip11">
  <path d="M 33.140625 186 L 895.519531 186 L 895.519531 188 L 33.140625 188 Z M 33.140625 186 "/>
</clipPath>
<clipPath id="clip12">
  <path d="M 33.140625 110 L 895.519531 110 L 895.519531 112 L 33.140625 112 Z M 33.140625 110 "/>
</clipPath>
<clipPath id="clip13">
  <path d="M 33.140625 35 L 895.519531 35 L 895.519531 37 L 33.140625 37 Z M 33.140625 35 "/>
</clipPath>
<clipPath id="clip14">
  <path d="M 74 23.304688 L 77 23.304688 L 77 485.859375 L 74 485.859375 Z M 74 23.304688 "/>
</clipPath>
<clipPath id="clip15">
  <path d="M 145 23.304688 L 147 23.304688 L 147 485.859375 L 145 485.859375 Z M 145 23.304688 "/>
</clipPath>
<clipPath id="clip16">
  <path d="M 216 23.304688 L 218 23.304688 L 218 485.859375 L 216 485.859375 Z M 216 23.304688 "/>
</clipPath>
<clipPath id="clip17">
  <path d="M 286 23.304688 L 288 23.304688 L 288 485.859375 L 286 485.859375 Z M 286 23.304688 "/>
</clipPath>
<clipPath id="clip18">
  <path d="M 357 23.304688 L 359 23.304688 L 359 485.859375 L 357 485.859375 Z M 357 23.304688 "/>
</clipPath>
<clipPath id="clip19">
  <path d="M 427 23.304688 L 430 23.304688 L 430 485.859375 L 427 485.859375 Z M 427 23.304688 "/>
</clipPath>
<clipPath id="clip20">
  <path d="M 498 23.304688 L 500 23.304688 L 500 485.859375 L 498 485.859375 Z M 498 23.304688 "/>
</clipPath>
<clipPath id="clip21">
  <path d="M 569 23.304688 L 571 23.304688 L 571 485.859375 L 569 485.859375 Z M 569 23.304688 "/>
</clipPath>
<clipPath id="clip22">
  <path d="M 639 23.304688 L 641 23.304688 L 641 485.859375 L 639 485.859375 Z M 639 23.304688 "/>
</clipPath>
<clipPath id="clip23">
  <path d="M 710 23.304688 L 712 23.304688 L 712 485.859375 L 710 485.859375 Z M 710 23.304688 "/>
</clipPath>
<clipPath id="clip24">
  <path d="M 781 23.304688 L 783 23.304688 L 783 485.859375 L 781 485.859375 Z M 781 23.304688 "/>
</clipPath>
<clipPath id="clip25">
  <path d="M 851 23.304688 L 853 23.304688 L 853 485.859375 L 851 485.859375 Z M 851 23.304688 "/>
</clipPath>
</defs>
<g id="surface6810">
<rect x="0" y="0" width="900" height="521" style="fill:rgb(100%,100%,100%);fill-opacity:1;stroke:none;"/>
<rect x="0" y="0" width="900" height="521" style="fill:rgb(100%,100%,100%);fill-opacity:1;stroke:none;"/>
<path style="fill:none;stroke-width:1.066978;stroke-linecap:round;stroke-linejoin:round;stroke:rgb(100%,100%,100%);stroke-opacity:1;stroke-miterlimit:10;" d="M 0 521 L 900 521 L 900 0 L 0 0 Z M 0 521 "/>
<g clip-path="url(#clip1)" clip-rule="nonzero">
<path style=" stroke:none;fill-rule:nonzero;fill:rgb(92.156863%,92.156863%,92.156863%);fill-opacity:1;" d="M 33.140625 484.859375 L 894.519531 484.859375 L 894.519531 23.304688 L 33.140625 23.304688 Z M 33.140625 484.859375 "/>
</g>
<g clip-path="url(#clip2)" clip-rule="nonzero">
<path style="fill:none;stroke-width:0.533489;stroke-linecap:butt;stroke-linejoin:round;stroke:rgb(100%,100%,100%);stroke-opacity:1;stroke-miterlimit:10;" d="M 33.140625 450.753906 L 894.519531 450.753906 "/>
</g>
<g clip-path="url(#clip3)" clip-rule="nonzero">
<path style="fill:none;stroke-width:0.533489;stroke-linecap:butt;stroke-linejoin:round;stroke:rgb(100%,100%,100%);stroke-opacity:1;stroke-miterlimit:10;" d="M 33.140625 375.3125 L 894.519531 375.3125 "/>
</g>
<g clip-path="url(#clip4)" clip-rule="nonzero">
<path style="fill:none;stroke-width:0.533489;stroke-linecap:butt;stroke-linejoin:round;stroke:rgb(100%,100%,100%);stroke-opacity:1;stroke-miterlimit:10;" d="M 33.140625 299.875 L 894.519531 299.875 "/>
</g>
<g clip-path="url(#clip5)" clip-rule="nonzero">
<path style="fill:none;stroke-width:0.533489;stroke-linecap:butt;stroke-linejoin:round;stroke:rgb(100%,100%,100%);stroke-opacity:1;stroke-miterlimit:10;" d="M 33.140625 224.433594 L 894.519531 224.433594 "/>
</g>
<g clip-path="url(#clip6)" clip-rule="nonzero">
<path style="fill:none;stroke-width:0.533489;stroke-linecap:butt;stroke-linejoin:round;stroke:rgb(100%,100%,100%);stroke-opacity:1;stroke-miterlimit:10;" d="M 33.140625 148.996094 L 894.519531 148.996094 "/>
</g>
<g clip-path="url(#clip7)" clip-rule="nonzero">
<path style="fill:none;stroke-width:0.533489;stroke-linecap:butt;stroke-linejoin:round;stroke:rgb(100%,100%,100%);stroke-opacity:1;stroke-miterlimit:10;" d="M 33.140625 73.554688 L 894.519531 73.554688 "/>
</g>
<g clip-path="url(#clip8)" clip-rule="nonzero">
<path style="fill:none;stroke-width:1.066978;stroke-linecap:butt;stroke-linejoin:round;stroke:rgb(100%,100%,100%);stroke-opacity:1;stroke-miterlimit:10;" d="M 33.140625 413.035156 L 894.519531 413.035156 "/>
</g>
<g clip-path="url(#clip9)" clip-rule="nonzero">
<path style="fill:none;stroke-width:1.066978;stroke-linecap:butt;stroke-linejoin:round;stroke:rgb(100%,100%,100%);stroke-opacity:1;stroke-miterlimit:10;" d="M 33.140625 337.59375 L 894.519531 337.59375 "/>
</g>
<g clip-path="url(#clip10)" clip-rule="nonzero">
<path style="fill:none;stroke-width:1.066978;stroke-linecap:butt;stroke-linejoin:round;stroke:rgb(100%,100%,100%);stroke-opacity:1;stroke-miterlimit:10;" d="M 33.140625 262.152344 L 894.519531 262.152344 "/>
</g>
<g clip-path="url(#clip11)" clip-rule="nonzero">
<path style="fill:none;stroke-width:1.066978;stroke-linecap:butt;stroke-linejoin:round;stroke:rgb(100%,100%,100%);stroke-opacity:1;stroke-miterlimit:10;" d="M 33.140625 186.714844 L 894.519531 186.714844 "/>
</g>
<g clip-path="url(#clip12)" clip-rule="nonzero">
<path style="fill:none;stroke-width:1.066978;stroke-linecap:butt;stroke-linejoin:round;stroke:rgb(100%,100%,100%);stroke-opacity:1;stroke-miterlimit:10;" d="M 33.140625 111.273438 L 894.519531 111.273438 "/>
</g>
<g clip-path="url(#clip13)" clip-rule="nonzero">
<path style="fill:none;stroke-width:1.066978;stroke-linecap:butt;stroke-linejoin:round;stroke:rgb(100%,100%,100%);stroke-opacity:1;stroke-miterlimit:10;" d="M 33.140625 35.835938 L 894.519531 35.835938 "/>
</g>
<g clip-path="url(#clip14)" clip-rule="nonzero">
<path style="fill:none;stroke-width:1.066978;stroke-linecap:butt;stroke-linejoin:round;stroke:rgb(100%,100%,100%);stroke-opacity:1;stroke-miterlimit:10;" d="M 75.503906 484.859375 L 75.503906 23.304688 "/>
</g>
<g clip-path="url(#clip15)" clip-rule="nonzero">
<path style="fill:none;stroke-width:1.066978;stroke-linecap:butt;stroke-linejoin:round;stroke:rgb(100%,100%,100%);stroke-opacity:1;stroke-miterlimit:10;" d="M 146.109375 484.859375 L 146.109375 23.304688 "/>
</g>
<g clip-path="url(#clip16)" clip-rule="nonzero">
<path style="fill:none;stroke-width:1.066978;stroke-linecap:butt;stroke-linejoin:round;stroke:rgb(100%,100%,100%);stroke-opacity:1;stroke-miterlimit:10;" d="M 216.714844 484.859375 L 216.714844 23.304688 "/>
</g>
<g clip-path="url(#clip17)" clip-rule="nonzero">
<path style="fill:none;stroke-width:1.066978;stroke-linecap:butt;stroke-linejoin:round;stroke:rgb(100%,100%,100%);stroke-opacity:1;stroke-miterlimit:10;" d="M 287.316406 484.859375 L 287.316406 23.304688 "/>
</g>
<g clip-path="url(#clip18)" clip-rule="nonzero">
<path style="fill:none;stroke-width:1.066978;stroke-linecap:butt;stroke-linejoin:round;stroke:rgb(100%,100%,100%);stroke-opacity:1;stroke-miterlimit:10;" d="M 357.921875 484.859375 L 357.921875 23.304688 "/>
</g>
<g clip-path="url(#clip19)" clip-rule="nonzero">
<path style="fill:none;stroke-width:1.066978;stroke-linecap:butt;stroke-linejoin:round;stroke:rgb(100%,100%,100%);stroke-opacity:1;stroke-miterlimit:10;" d="M 428.527344 484.859375 L 428.527344 23.304688 "/>
</g>
<g clip-path="url(#clip20)" clip-rule="nonzero">
<path style="fill:none;stroke-width:1.066978;stroke-linecap:butt;stroke-linejoin:round;stroke:rgb(100%,100%,100%);stroke-opacity:1;stroke-miterlimit:10;" d="M 499.132812 484.859375 L 499.132812 23.304688 "/>
</g>
<g clip-path="url(#clip21)" clip-rule="nonzero">
<path style="fill:none;stroke-width:1.066978;stroke-linecap:butt;stroke-linejoin:round;stroke:rgb(100%,100%,100%);stroke-opacity:1;stroke-miterlimit:10;" d="M 569.738281 484.859375 L 569.738281 23.304688 "/>
</g>
<g clip-path="url(#clip22)" clip-rule="nonzero">
<path style="fill:none;stroke-width:1.066978;stroke-linecap:butt;stroke-linejoin:round;stroke:rgb(100%,100%,100%);stroke-opacity:1;stroke-miterlimit:10;" d="M 640.34375 484.859375 L 640.34375 23.304688 "/>
</g>
<g clip-path="url(#clip23)" clip-rule="nonzero">
<path style="fill:none;stroke-width:1.066978;stroke-linecap:butt;stroke-linejoin:round;stroke:rgb(100%,100%,100%);stroke-opacity:1;stroke-miterlimit:10;" d="M 710.949219 484.859375 L 710.949219 23.304688 "/>
</g>
<g clip-path="url(#clip24)" clip-rule="nonzero">
<path style="fill:none;stroke-width:1.066978;stroke-linecap:butt;stroke-linejoin:round;stroke:rgb(100%,100%,100%);stroke-opacity:1;stroke-miterlimit:10;" d="M 781.550781 484.859375 L 781.550781 23.304688 "/>
</g>
<g clip-path="url(#clip25)" clip-rule="nonzero">
<path style="fill:none;stroke-width:1.066978;stroke-linecap:butt;stroke-linejoin:round;stroke:rgb(100%,100%,100%);stroke-opacity:1;stroke-miterlimit:10;" d="M 852.15625 484.859375 L 852.15625 23.304688 "/>
</g>
<path style="fill-rule:nonzero;fill:rgb(20%,20%,20%);fill-opacity:0.301961;stroke-width:0.708661;stroke-linecap:round;stroke-linejoin:round;stroke:rgb(20%,20%,20%);stroke-opacity:0.301961;stroke-miterlimit:10;" d="M 77.457031 355.398438 C 77.457031 358.003906 73.546875 358.003906 73.546875 355.398438 C 73.546875 352.792969 77.457031 352.792969 77.457031 355.398438 "/>
<path style="fill-rule:nonzero;fill:rgb(20%,20%,20%);fill-opacity:0.301961;stroke-width:0.708661;stroke-linecap:round;stroke-linejoin:round;stroke:rgb(20%,20%,20%);stroke-opacity:0.301961;stroke-miterlimit:10;" d="M 77.457031 362.789062 C 77.457031 365.398438 73.546875 365.398438 73.546875 362.789062 C 73.546875 360.183594 77.457031 360.183594 77.457031 362.789062 "/>
<path style="fill-rule:nonzero;fill:rgb(20%,20%,20%);fill-opacity:0.301961;stroke-width:0.708661;stroke-linecap:round;stroke-linejoin:round;stroke:rgb(20%,20%,20%);stroke-opacity:0.301961;stroke-miterlimit:10;" d="M 77.457031 340.6875 C 77.457031 343.292969 73.546875 343.292969 73.546875 340.6875 C 73.546875 338.082031 77.457031 338.082031 77.457031 340.6875 "/>
<path style="fill-rule:nonzero;fill:rgb(20%,20%,20%);fill-opacity:0.301961;stroke-width:0.708661;stroke-linecap:round;stroke-linejoin:round;stroke:rgb(20%,20%,20%);stroke-opacity:0.301961;stroke-miterlimit:10;" d="M 77.457031 336.539062 C 77.457031 339.144531 73.546875 339.144531 73.546875 336.539062 C 73.546875 333.929688 77.457031 333.929688 77.457031 336.539062 "/>
<path style="fill-rule:nonzero;fill:rgb(20%,20%,20%);fill-opacity:0.301961;stroke-width:0.708661;stroke-linecap:round;stroke-linejoin:round;stroke:rgb(20%,20%,20%);stroke-opacity:0.301961;stroke-miterlimit:10;" d="M 77.457031 463.878906 C 77.457031 466.484375 73.546875 466.484375 73.546875 463.878906 C 73.546875 461.273438 77.457031 461.273438 77.457031 463.878906 "/>
<path style="fill-rule:nonzero;fill:rgb(20%,20%,20%);fill-opacity:0.301961;stroke-width:0.708661;stroke-linecap:round;stroke-linejoin:round;stroke:rgb(20%,20%,20%);stroke-opacity:0.301961;stroke-miterlimit:10;" d="M 77.457031 366.488281 C 77.457031 369.09375 73.546875 369.09375 73.546875 366.488281 C 73.546875 363.878906 77.457031 363.878906 77.457031 366.488281 "/>
<path style="fill-rule:nonzero;fill:rgb(20%,20%,20%);fill-opacity:0.301961;stroke-width:0.708661;stroke-linecap:round;stroke-linejoin:round;stroke:rgb(20%,20%,20%);stroke-opacity:0.301961;stroke-miterlimit:10;" d="M 77.457031 221.566406 C 77.457031 224.175781 73.546875 224.175781 73.546875 221.566406 C 73.546875 218.960938 77.457031 218.960938 77.457031 221.566406 "/>
<path style="fill-rule:nonzero;fill:rgb(20%,20%,20%);fill-opacity:0.301961;stroke-width:0.708661;stroke-linecap:round;stroke-linejoin:round;stroke:rgb(20%,20%,20%);stroke-opacity:0.301961;stroke-miterlimit:10;" d="M 77.457031 358.792969 C 77.457031 361.398438 73.546875 361.398438 73.546875 358.792969 C 73.546875 356.1875 77.457031 356.1875 77.457031 358.792969 "/>
<path style="fill:none;stroke-width:1.066978;stroke-linecap:butt;stroke-linejoin:round;stroke:rgb(20%,20%,20%);stroke-opacity:1;stroke-miterlimit:10;" d="M 75.503906 401.492188 L 75.503906 381.273438 "/>
<path style="fill:none;stroke-width:1.066978;stroke-linecap:butt;stroke-linejoin:round;stroke:rgb(20%,20%,20%);stroke-opacity:1;stroke-miterlimit:10;" d="M 75.503906 420.390625 L 75.503906 440.945312 "/>
<path style="fill-rule:nonzero;fill:rgb(33.72549%,69.411765%,96.862745%);fill-opacity:0.301961;stroke-width:1.066978;stroke-linecap:round;stroke-linejoin:round;stroke:rgb(20%,20%,20%);stroke-opacity:1;stroke-miterlimit:10;" d="M 49.027344 401.492188 L 49.027344 420.390625 L 101.980469 420.390625 L 101.980469 401.492188 Z M 49.027344 401.492188 "/>
<path style="fill:none;stroke-width:2.133957;stroke-linecap:butt;stroke-linejoin:round;stroke:rgb(20%,20%,20%);stroke-opacity:1;stroke-miterlimit:10;" d="M 49.027344 411.75 L 101.980469 411.75 "/>
<path style="fill-rule:nonzero;fill:rgb(20%,20%,20%);fill-opacity:0.301961;stroke-width:0.708661;stroke-linecap:round;stroke-linejoin:round;stroke:rgb(20%,20%,20%);stroke-opacity:0.301961;stroke-miterlimit:10;" d="M 148.0625 123.722656 C 148.0625 126.328125 144.152344 126.328125 144.152344 123.722656 C 144.152344 121.117188 148.0625 121.117188 148.0625 123.722656 "/>
<path style="fill-rule:nonzero;fill:rgb(20%,20%,20%);fill-opacity:0.301961;stroke-width:0.708661;stroke-linecap:round;stroke-linejoin:round;stroke:rgb(20%,20%,20%);stroke-opacity:0.301961;stroke-miterlimit:10;" d="M 148.0625 304.324219 C 148.0625 306.929688 144.152344 306.929688 144.152344 304.324219 C 144.152344 301.71875 148.0625 301.71875 148.0625 304.324219 "/>
<path style="fill-rule:nonzero;fill:rgb(20%,20%,20%);fill-opacity:0.301961;stroke-width:0.708661;stroke-linecap:round;stroke-linejoin:round;stroke:rgb(20%,20%,20%);stroke-opacity:0.301961;stroke-miterlimit:10;" d="M 148.0625 274.828125 C 148.0625 277.433594 144.152344 277.433594 144.152344 274.828125 C 144.152344 272.222656 148.0625 272.222656 148.0625 274.828125 "/>
<path style="fill:none;stroke-width:1.066978;stroke-linecap:butt;stroke-linejoin:round;stroke:rgb(20%,20%,20%);stroke-opacity:1;stroke-miterlimit:10;" d="M 146.109375 372.824219 L 146.109375 310.8125 "/>
<path style="fill:none;stroke-width:1.066978;stroke-linecap:butt;stroke-linejoin:round;stroke:rgb(20%,20%,20%);stroke-opacity:1;stroke-miterlimit:10;" d="M 146.109375 415.75 L 146.109375 456.863281 "/>
<path style="fill-rule:nonzero;fill:rgb(25.882353%,54.117647%,76.078431%);fill-opacity:0.301961;stroke-width:1.066978;stroke-linecap:round;stroke-linejoin:round;stroke:rgb(20%,20%,20%);stroke-opacity:1;stroke-miterlimit:10;" d="M 119.632812 372.824219 L 119.632812 415.75 L 172.585938 415.75 L 172.585938 372.824219 Z M 119.632812 372.824219 "/>
<path style="fill:none;stroke-width:2.133957;stroke-linecap:butt;stroke-linejoin:round;stroke:rgb(20%,20%,20%);stroke-opacity:1;stroke-miterlimit:10;" d="M 119.632812 397.492188 L 172.585938 397.492188 "/>
<path style="fill-rule:nonzero;fill:rgb(20%,20%,20%);fill-opacity:0.301961;stroke-width:0.708661;stroke-linecap:round;stroke-linejoin:round;stroke:rgb(20%,20%,20%);stroke-opacity:0.301961;stroke-miterlimit:10;" d="M 218.667969 285.3125 C 218.667969 287.921875 214.757812 287.921875 214.757812 285.3125 C 214.757812 282.707031 218.667969 282.707031 218.667969 285.3125 "/>
<path style="fill:none;stroke-width:1.066978;stroke-linecap:butt;stroke-linejoin:round;stroke:rgb(20%,20%,20%);stroke-opacity:1;stroke-miterlimit:10;" d="M 216.714844 357.433594 L 216.714844 297.460938 "/>
<path style="fill:none;stroke-width:1.066978;stroke-linecap:butt;stroke-linejoin:round;stroke:rgb(20%,20%,20%);stroke-opacity:1;stroke-miterlimit:10;" d="M 216.714844 404.828125 L 216.714844 436.570312 "/>
<path style="fill-rule:nonzero;fill:rgb(30.980392%,64.313725%,89.803922%);fill-opacity:0.301961;stroke-width:1.066978;stroke-linecap:round;stroke-linejoin:round;stroke:rgb(20%,20%,20%);stroke-opacity:1;stroke-miterlimit:10;" d="M 190.238281 357.433594 L 190.238281 404.828125 L 243.191406 404.828125 L 243.191406 357.433594 Z M 190.238281 357.433594 "/>
<path style="fill:none;stroke-width:2.133957;stroke-linecap:butt;stroke-linejoin:round;stroke:rgb(20%,20%,20%);stroke-opacity:1;stroke-miterlimit:10;" d="M 190.238281 385.273438 L 243.191406 385.273438 "/>
<path style="fill-rule:nonzero;fill:rgb(20%,20%,20%);fill-opacity:0.301961;stroke-width:0.708661;stroke-linecap:round;stroke-linejoin:round;stroke:rgb(20%,20%,20%);stroke-opacity:0.301961;stroke-miterlimit:10;" d="M 289.273438 259.289062 C 289.273438 261.894531 285.363281 261.894531 285.363281 259.289062 C 285.363281 256.679688 289.273438 256.679688 289.273438 259.289062 "/>
<path style="fill-rule:nonzero;fill:rgb(20%,20%,20%);fill-opacity:0.301961;stroke-width:0.708661;stroke-linecap:round;stroke-linejoin:round;stroke:rgb(20%,20%,20%);stroke-opacity:0.301961;stroke-miterlimit:10;" d="M 289.273438 288.484375 C 289.273438 291.089844 285.363281 291.089844 285.363281 288.484375 C 285.363281 285.875 289.273438 285.875 289.273438 288.484375 "/>
<path style="fill-rule:nonzero;fill:rgb(20%,20%,20%);fill-opacity:0.301961;stroke-width:0.708661;stroke-linecap:round;stroke-linejoin:round;stroke:rgb(20%,20%,20%);stroke-opacity:0.301961;stroke-miterlimit:10;" d="M 289.273438 298.96875 C 289.273438 301.574219 285.363281 301.574219 285.363281 298.96875 C 285.363281 296.363281 289.273438 296.363281 289.273438 298.96875 "/>
<path style="fill-rule:nonzero;fill:rgb(20%,20%,20%);fill-opacity:0.301961;stroke-width:0.708661;stroke-linecap:round;stroke-linejoin:round;stroke:rgb(20%,20%,20%);stroke-opacity:0.301961;stroke-miterlimit:10;" d="M 289.273438 248.953125 C 289.273438 251.558594 285.363281 251.558594 285.363281 248.953125 C 285.363281 246.347656 289.273438 246.347656 289.273438 248.953125 "/>
<path style="fill:none;stroke-width:1.066978;stroke-linecap:butt;stroke-linejoin:round;stroke:rgb(20%,20%,20%);stroke-opacity:1;stroke-miterlimit:10;" d="M 287.316406 367.316406 L 287.316406 322.054688 "/>
<path style="fill:none;stroke-width:1.066978;stroke-linecap:butt;stroke-linejoin:round;stroke:rgb(20%,20%,20%);stroke-opacity:1;stroke-miterlimit:10;" d="M 287.316406 407.226562 L 287.316406 443.210938 "/>
<path style="fill-rule:nonzero;fill:rgb(21.176471%,43.921569%,62.745098%);fill-opacity:0.301961;stroke-width:1.066978;stroke-linecap:round;stroke-linejoin:round;stroke:rgb(20%,20%,20%);stroke-opacity:1;stroke-miterlimit:10;" d="M 260.839844 367.316406 L 260.839844 407.226562 L 313.796875 407.226562 L 313.796875 367.316406 Z M 260.839844 367.316406 "/>
<path style="fill:none;stroke-width:2.133957;stroke-linecap:butt;stroke-linejoin:round;stroke:rgb(20%,20%,20%);stroke-opacity:1;stroke-miterlimit:10;" d="M 260.839844 382.480469 L 313.796875 382.480469 "/>
<path style="fill-rule:nonzero;fill:rgb(20%,20%,20%);fill-opacity:0.301961;stroke-width:0.708661;stroke-linecap:round;stroke-linejoin:round;stroke:rgb(20%,20%,20%);stroke-opacity:0.301961;stroke-miterlimit:10;" d="M 359.878906 184.375 C 359.878906 186.980469 355.96875 186.980469 355.96875 184.375 C 355.96875 181.769531 359.878906 181.769531 359.878906 184.375 "/>
<path style="fill-rule:nonzero;fill:rgb(20%,20%,20%);fill-opacity:0.301961;stroke-width:0.708661;stroke-linecap:round;stroke-linejoin:round;stroke:rgb(20%,20%,20%);stroke-opacity:0.301961;stroke-miterlimit:10;" d="M 359.878906 256.949219 C 359.878906 259.554688 355.96875 259.554688 355.96875 256.949219 C 355.96875 254.34375 359.878906 254.34375 359.878906 256.949219 "/>
<path style="fill-rule:nonzero;fill:rgb(20%,20%,20%);fill-opacity:0.301961;stroke-width:0.708661;stroke-linecap:round;stroke-linejoin:round;stroke:rgb(20%,20%,20%);stroke-opacity:0.301961;stroke-miterlimit:10;" d="M 359.878906 229.414062 C 359.878906 232.019531 355.96875 232.019531 355.96875 229.414062 C 355.96875 226.808594 359.878906 226.808594 359.878906 229.414062 "/>
<path style="fill-rule:nonzero;fill:rgb(20%,20%,20%);fill-opacity:0.301961;stroke-width:0.708661;stroke-linecap:round;stroke-linejoin:round;stroke:rgb(20%,20%,20%);stroke-opacity:0.301961;stroke-miterlimit:10;" d="M 359.878906 259.515625 C 359.878906 262.121094 355.96875 262.121094 355.96875 259.515625 C 355.96875 256.90625 359.878906 256.90625 359.878906 259.515625 "/>
<path style="fill-rule:nonzero;fill:rgb(20%,20%,20%);fill-opacity:0.301961;stroke-width:0.708661;stroke-linecap:round;stroke-linejoin:round;stroke:rgb(20%,20%,20%);stroke-opacity:0.301961;stroke-miterlimit:10;" d="M 359.878906 217.871094 C 359.878906 220.476562 355.96875 220.476562 355.96875 217.871094 C 355.96875 215.265625 359.878906 215.265625 359.878906 217.871094 "/>
<path style="fill:none;stroke-width:1.066978;stroke-linecap:butt;stroke-linejoin:round;stroke:rgb(20%,20%,20%);stroke-opacity:1;stroke-miterlimit:10;" d="M 357.921875 357.398438 L 357.921875 276.335938 "/>
<path style="fill:none;stroke-width:1.066978;stroke-linecap:butt;stroke-linejoin:round;stroke:rgb(20%,20%,20%);stroke-opacity:1;stroke-miterlimit:10;" d="M 357.921875 412.957031 L 357.921875 443.359375 "/>
<path style="fill-rule:nonzero;fill:rgb(16.470588%,34.509804%,50.196078%);fill-opacity:0.301961;stroke-width:1.066978;stroke-linecap:round;stroke-linejoin:round;stroke:rgb(20%,20%,20%);stroke-opacity:1;stroke-miterlimit:10;" d="M 331.445312 357.398438 L 331.445312 412.957031 L 384.398438 412.957031 L 384.398438 357.398438 Z M 331.445312 357.398438 "/>
<path style="fill:none;stroke-width:2.133957;stroke-linecap:butt;stroke-linejoin:round;stroke:rgb(20%,20%,20%);stroke-opacity:1;stroke-miterlimit:10;" d="M 331.445312 397.644531 L 384.398438 397.644531 "/>
<path style="fill-rule:nonzero;fill:rgb(20%,20%,20%);fill-opacity:0.301961;stroke-width:0.708661;stroke-linecap:round;stroke-linejoin:round;stroke:rgb(20%,20%,20%);stroke-opacity:0.301961;stroke-miterlimit:10;" d="M 430.484375 44.285156 C 430.484375 46.890625 426.574219 46.890625 426.574219 44.285156 C 426.574219 41.679688 430.484375 41.679688 430.484375 44.285156 "/>
<path style="fill-rule:nonzero;fill:rgb(20%,20%,20%);fill-opacity:0.301961;stroke-width:0.708661;stroke-linecap:round;stroke-linejoin:round;stroke:rgb(20%,20%,20%);stroke-opacity:0.301961;stroke-miterlimit:10;" d="M 430.484375 201.726562 C 430.484375 204.332031 426.574219 204.332031 426.574219 201.726562 C 426.574219 199.121094 430.484375 199.121094 430.484375 201.726562 "/>
<path style="fill-rule:nonzero;fill:rgb(20%,20%,20%);fill-opacity:0.301961;stroke-width:0.708661;stroke-linecap:round;stroke-linejoin:round;stroke:rgb(20%,20%,20%);stroke-opacity:0.301961;stroke-miterlimit:10;" d="M 430.484375 167.855469 C 430.484375 170.460938 426.574219 170.460938 426.574219 167.855469 C 426.574219 165.25 430.484375 165.25 430.484375 167.855469 "/>
<path style="fill-rule:nonzero;fill:rgb(20%,20%,20%);fill-opacity:0.301961;stroke-width:0.708661;stroke-linecap:round;stroke-linejoin:round;stroke:rgb(20%,20%,20%);stroke-opacity:0.301961;stroke-miterlimit:10;" d="M 430.484375 201.953125 C 430.484375 204.558594 426.574219 204.558594 426.574219 201.953125 C 426.574219 199.347656 430.484375 199.347656 430.484375 201.953125 "/>
<path style="fill-rule:nonzero;fill:rgb(20%,20%,20%);fill-opacity:0.301961;stroke-width:0.708661;stroke-linecap:round;stroke-linejoin:round;stroke:rgb(20%,20%,20%);stroke-opacity:0.301961;stroke-miterlimit:10;" d="M 430.484375 210.628906 C 430.484375 213.234375 426.574219 213.234375 426.574219 210.628906 C 426.574219 208.023438 430.484375 208.023438 430.484375 210.628906 "/>
<path style="fill:none;stroke-width:1.066978;stroke-linecap:butt;stroke-linejoin:round;stroke:rgb(20%,20%,20%);stroke-opacity:1;stroke-miterlimit:10;" d="M 428.527344 358.1875 L 428.527344 299.347656 "/>
<path style="fill:none;stroke-width:1.066978;stroke-linecap:butt;stroke-linejoin:round;stroke:rgb(20%,20%,20%);stroke-opacity:1;stroke-miterlimit:10;" d="M 428.527344 410.769531 L 428.527344 444.191406 "/>
<path style="fill-rule:nonzero;fill:rgb(14.117647%,29.803922%,43.921569%);fill-opacity:0.301961;stroke-width:1.066978;stroke-linecap:round;stroke-linejoin:round;stroke:rgb(20%,20%,20%);stroke-opacity:1;stroke-miterlimit:10;" d="M 402.050781 358.1875 L 402.050781 410.769531 L 455.003906 410.769531 L 455.003906 358.1875 Z M 402.050781 358.1875 "/>
<path style="fill:none;stroke-width:2.133957;stroke-linecap:butt;stroke-linejoin:round;stroke:rgb(20%,20%,20%);stroke-opacity:1;stroke-miterlimit:10;" d="M 402.050781 393.269531 L 455.003906 393.269531 "/>
<path style="fill-rule:nonzero;fill:rgb(20%,20%,20%);fill-opacity:0.301961;stroke-width:0.708661;stroke-linecap:round;stroke-linejoin:round;stroke:rgb(20%,20%,20%);stroke-opacity:0.301961;stroke-miterlimit:10;" d="M 501.085938 245.105469 C 501.085938 247.710938 497.179688 247.710938 497.179688 245.105469 C 497.179688 242.5 501.085938 242.5 501.085938 245.105469 "/>
<path style="fill-rule:nonzero;fill:rgb(20%,20%,20%);fill-opacity:0.301961;stroke-width:0.708661;stroke-linecap:round;stroke-linejoin:round;stroke:rgb(20%,20%,20%);stroke-opacity:0.301961;stroke-miterlimit:10;" d="M 501.085938 259.289062 C 501.085938 261.894531 497.179688 261.894531 497.179688 259.289062 C 497.179688 256.679688 501.085938 256.679688 501.085938 259.289062 "/>
<path style="fill-rule:nonzero;fill:rgb(20%,20%,20%);fill-opacity:0.301961;stroke-width:0.708661;stroke-linecap:round;stroke-linejoin:round;stroke:rgb(20%,20%,20%);stroke-opacity:0.301961;stroke-miterlimit:10;" d="M 501.085938 132.625 C 501.085938 135.230469 497.179688 135.230469 497.179688 132.625 C 497.179688 130.019531 501.085938 130.019531 501.085938 132.625 "/>
<path style="fill-rule:nonzero;fill:rgb(20%,20%,20%);fill-opacity:0.301961;stroke-width:0.708661;stroke-linecap:round;stroke-linejoin:round;stroke:rgb(20%,20%,20%);stroke-opacity:0.301961;stroke-miterlimit:10;" d="M 501.085938 228.886719 C 501.085938 231.492188 497.179688 231.492188 497.179688 228.886719 C 497.179688 226.277344 501.085938 226.277344 501.085938 228.886719 "/>
<path style="fill-rule:nonzero;fill:rgb(20%,20%,20%);fill-opacity:0.301961;stroke-width:0.708661;stroke-linecap:round;stroke-linejoin:round;stroke:rgb(20%,20%,20%);stroke-opacity:0.301961;stroke-miterlimit:10;" d="M 501.085938 215.457031 C 501.085938 218.0625 497.179688 218.0625 497.179688 215.457031 C 497.179688 212.851562 501.085938 212.851562 501.085938 215.457031 "/>
<path style="fill-rule:nonzero;fill:rgb(20%,20%,20%);fill-opacity:0.301961;stroke-width:0.708661;stroke-linecap:round;stroke-linejoin:round;stroke:rgb(20%,20%,20%);stroke-opacity:0.301961;stroke-miterlimit:10;" d="M 501.085938 86.679688 C 501.085938 89.289062 497.179688 89.289062 497.179688 86.679688 C 497.179688 84.074219 501.085938 84.074219 501.085938 86.679688 "/>
<path style="fill-rule:nonzero;fill:rgb(20%,20%,20%);fill-opacity:0.301961;stroke-width:0.708661;stroke-linecap:round;stroke-linejoin:round;stroke:rgb(20%,20%,20%);stroke-opacity:0.301961;stroke-miterlimit:10;" d="M 501.085938 257.929688 C 501.085938 260.535156 497.179688 260.535156 497.179688 257.929688 C 497.179688 255.324219 501.085938 255.324219 501.085938 257.929688 "/>
<path style="fill:none;stroke-width:1.066978;stroke-linecap:butt;stroke-linejoin:round;stroke:rgb(20%,20%,20%);stroke-opacity:1;stroke-miterlimit:10;" d="M 499.132812 352.757812 L 499.132812 277.542969 "/>
<path style="fill:none;stroke-width:1.066978;stroke-linecap:butt;stroke-linejoin:round;stroke:rgb(20%,20%,20%);stroke-opacity:1;stroke-miterlimit:10;" d="M 499.132812 411.296875 L 499.132812 453.847656 "/>
<path style="fill-rule:nonzero;fill:rgb(11.764706%,25.490196%,37.647059%);fill-opacity:0.301961;stroke-width:1.066978;stroke-linecap:round;stroke-linejoin:round;stroke:rgb(20%,20%,20%);stroke-opacity:1;stroke-miterlimit:10;" d="M 472.65625 352.757812 L 472.65625 411.296875 L 525.609375 411.296875 L 525.609375 352.757812 Z M 472.65625 352.757812 "/>
<path style="fill:none;stroke-width:2.133957;stroke-linecap:butt;stroke-linejoin:round;stroke:rgb(20%,20%,20%);stroke-opacity:1;stroke-miterlimit:10;" d="M 472.65625 397.417969 L 525.609375 397.417969 "/>
<path style="fill-rule:nonzero;fill:rgb(20%,20%,20%);fill-opacity:0.301961;stroke-width:0.708661;stroke-linecap:round;stroke-linejoin:round;stroke:rgb(20%,20%,20%);stroke-opacity:0.301961;stroke-miterlimit:10;" d="M 571.691406 139.640625 C 571.691406 142.246094 567.78125 142.246094 567.78125 139.640625 C 567.78125 137.035156 571.691406 137.035156 571.691406 139.640625 "/>
<path style="fill-rule:nonzero;fill:rgb(20%,20%,20%);fill-opacity:0.301961;stroke-width:0.708661;stroke-linecap:round;stroke-linejoin:round;stroke:rgb(20%,20%,20%);stroke-opacity:0.301961;stroke-miterlimit:10;" d="M 571.691406 220.585938 C 571.691406 223.195312 567.78125 223.195312 567.78125 220.585938 C 567.78125 217.980469 571.691406 217.980469 571.691406 220.585938 "/>
<path style="fill:none;stroke-width:1.066978;stroke-linecap:butt;stroke-linejoin:round;stroke:rgb(20%,20%,20%);stroke-opacity:1;stroke-miterlimit:10;" d="M 569.738281 344.535156 L 569.738281 252.574219 "/>
<path style="fill:none;stroke-width:1.066978;stroke-linecap:butt;stroke-linejoin:round;stroke:rgb(20%,20%,20%);stroke-opacity:1;stroke-miterlimit:10;" d="M 569.738281 413.109375 L 569.738281 463.351562 "/>
<path style="fill-rule:nonzero;fill:rgb(28.627451%,58.823529%,82.745098%);fill-opacity:0.301961;stroke-width:1.066978;stroke-linecap:round;stroke-linejoin:round;stroke:rgb(20%,20%,20%);stroke-opacity:1;stroke-miterlimit:10;" d="M 543.261719 344.535156 L 543.261719 413.109375 L 596.214844 413.109375 L 596.214844 344.535156 Z M 543.261719 344.535156 "/>
<path style="fill:none;stroke-width:2.133957;stroke-linecap:butt;stroke-linejoin:round;stroke:rgb(20%,20%,20%);stroke-opacity:1;stroke-miterlimit:10;" d="M 543.261719 393.644531 L 596.214844 393.644531 "/>
<path style="fill-rule:nonzero;fill:rgb(20%,20%,20%);fill-opacity:0.301961;stroke-width:0.708661;stroke-linecap:round;stroke-linejoin:round;stroke:rgb(20%,20%,20%);stroke-opacity:0.301961;stroke-miterlimit:10;" d="M 642.296875 276.1875 C 642.296875 278.792969 638.386719 278.792969 638.386719 276.1875 C 638.386719 273.578125 642.296875 273.578125 642.296875 276.1875 "/>
<path style="fill-rule:nonzero;fill:rgb(20%,20%,20%);fill-opacity:0.301961;stroke-width:0.708661;stroke-linecap:round;stroke-linejoin:round;stroke:rgb(20%,20%,20%);stroke-opacity:0.301961;stroke-miterlimit:10;" d="M 642.296875 272.867188 C 642.296875 275.472656 638.386719 275.472656 638.386719 272.867188 C 638.386719 270.261719 642.296875 270.261719 642.296875 272.867188 "/>
<path style="fill-rule:nonzero;fill:rgb(20%,20%,20%);fill-opacity:0.301961;stroke-width:0.708661;stroke-linecap:round;stroke-linejoin:round;stroke:rgb(20%,20%,20%);stroke-opacity:0.301961;stroke-miterlimit:10;" d="M 642.296875 119.574219 C 642.296875 122.179688 638.386719 122.179688 638.386719 119.574219 C 638.386719 116.96875 642.296875 116.96875 642.296875 119.574219 "/>
<path style="fill-rule:nonzero;fill:rgb(20%,20%,20%);fill-opacity:0.301961;stroke-width:0.708661;stroke-linecap:round;stroke-linejoin:round;stroke:rgb(20%,20%,20%);stroke-opacity:0.301961;stroke-miterlimit:10;" d="M 642.296875 174.117188 C 642.296875 176.722656 638.386719 176.722656 638.386719 174.117188 C 638.386719 171.511719 642.296875 171.511719 642.296875 174.117188 "/>
<path style="fill-rule:nonzero;fill:rgb(20%,20%,20%);fill-opacity:0.301961;stroke-width:0.708661;stroke-linecap:round;stroke-linejoin:round;stroke:rgb(20%,20%,20%);stroke-opacity:0.301961;stroke-miterlimit:10;" d="M 642.296875 280.183594 C 642.296875 282.789062 638.386719 282.789062 638.386719 280.183594 C 638.386719 277.578125 642.296875 277.578125 642.296875 280.183594 "/>
<path style="fill-rule:nonzero;fill:rgb(20%,20%,20%);fill-opacity:0.301961;stroke-width:0.708661;stroke-linecap:round;stroke-linejoin:round;stroke:rgb(20%,20%,20%);stroke-opacity:0.301961;stroke-miterlimit:10;" d="M 642.296875 279.582031 C 642.296875 282.1875 638.386719 282.1875 638.386719 279.582031 C 638.386719 276.972656 642.296875 276.972656 642.296875 279.582031 "/>
<path style="fill:none;stroke-width:1.066978;stroke-linecap:butt;stroke-linejoin:round;stroke:rgb(20%,20%,20%);stroke-opacity:1;stroke-miterlimit:10;" d="M 640.34375 358.378906 L 640.34375 296.027344 "/>
<path style="fill:none;stroke-width:1.066978;stroke-linecap:butt;stroke-linejoin:round;stroke:rgb(20%,20%,20%);stroke-opacity:1;stroke-miterlimit:10;" d="M 640.34375 406.546875 L 640.34375 449.320312 "/>
<path style="fill-rule:nonzero;fill:rgb(9.411765%,21.176471%,32.156863%);fill-opacity:0.301961;stroke-width:1.066978;stroke-linecap:round;stroke-linejoin:round;stroke:rgb(20%,20%,20%);stroke-opacity:1;stroke-miterlimit:10;" d="M 613.867188 358.378906 L 613.867188 406.546875 L 666.820312 406.546875 L 666.820312 358.378906 Z M 613.867188 358.378906 "/>
<path style="fill:none;stroke-width:2.133957;stroke-linecap:butt;stroke-linejoin:round;stroke:rgb(20%,20%,20%);stroke-opacity:1;stroke-miterlimit:10;" d="M 613.867188 388.289062 L 666.820312 388.289062 "/>
<path style="fill-rule:nonzero;fill:rgb(20%,20%,20%);fill-opacity:0.301961;stroke-width:0.708661;stroke-linecap:round;stroke-linejoin:round;stroke:rgb(20%,20%,20%);stroke-opacity:0.301961;stroke-miterlimit:10;" d="M 712.902344 249.101562 C 712.902344 251.710938 708.992188 251.710938 708.992188 249.101562 C 708.992188 246.496094 712.902344 246.496094 712.902344 249.101562 "/>
<path style="fill:none;stroke-width:1.066978;stroke-linecap:butt;stroke-linejoin:round;stroke:rgb(20%,20%,20%);stroke-opacity:1;stroke-miterlimit:10;" d="M 710.949219 345.589844 L 710.949219 251.066406 "/>
<path style="fill:none;stroke-width:1.066978;stroke-linecap:butt;stroke-linejoin:round;stroke:rgb(20%,20%,20%);stroke-opacity:1;stroke-miterlimit:10;" d="M 710.949219 408.65625 L 710.949219 449.394531 "/>
<path style="fill-rule:nonzero;fill:rgb(23.529412%,49.019608%,69.411765%);fill-opacity:0.301961;stroke-width:1.066978;stroke-linecap:round;stroke-linejoin:round;stroke:rgb(20%,20%,20%);stroke-opacity:1;stroke-miterlimit:10;" d="M 684.472656 345.589844 L 684.472656 408.65625 L 737.425781 408.65625 L 737.425781 345.589844 Z M 684.472656 345.589844 "/>
<path style="fill:none;stroke-width:2.133957;stroke-linecap:butt;stroke-linejoin:round;stroke:rgb(20%,20%,20%);stroke-opacity:1;stroke-miterlimit:10;" d="M 684.472656 389.570312 L 737.425781 389.570312 "/>
<path style="fill-rule:nonzero;fill:rgb(20%,20%,20%);fill-opacity:0.301961;stroke-width:0.708661;stroke-linecap:round;stroke-linejoin:round;stroke:rgb(20%,20%,20%);stroke-opacity:0.301961;stroke-miterlimit:10;" d="M 783.507812 154.726562 C 783.507812 157.335938 779.597656 157.335938 779.597656 154.726562 C 779.597656 152.121094 783.507812 152.121094 783.507812 154.726562 "/>
<path style="fill-rule:nonzero;fill:rgb(20%,20%,20%);fill-opacity:0.301961;stroke-width:0.708661;stroke-linecap:round;stroke-linejoin:round;stroke:rgb(20%,20%,20%);stroke-opacity:0.301961;stroke-miterlimit:10;" d="M 783.507812 187.542969 C 783.507812 190.152344 779.597656 190.152344 779.597656 187.542969 C 779.597656 184.9375 783.507812 184.9375 783.507812 187.542969 "/>
<path style="fill-rule:nonzero;fill:rgb(20%,20%,20%);fill-opacity:0.301961;stroke-width:0.708661;stroke-linecap:round;stroke-linejoin:round;stroke:rgb(20%,20%,20%);stroke-opacity:0.301961;stroke-miterlimit:10;" d="M 783.507812 110.445312 C 783.507812 113.050781 779.597656 113.050781 779.597656 110.445312 C 779.597656 107.839844 783.507812 107.839844 783.507812 110.445312 "/>
<path style="fill:none;stroke-width:1.066978;stroke-linecap:butt;stroke-linejoin:round;stroke:rgb(20%,20%,20%);stroke-opacity:1;stroke-miterlimit:10;" d="M 781.550781 329.410156 L 781.550781 220.132812 "/>
<path style="fill:none;stroke-width:1.066978;stroke-linecap:butt;stroke-linejoin:round;stroke:rgb(20%,20%,20%);stroke-opacity:1;stroke-miterlimit:10;" d="M 781.550781 411.941406 L 781.550781 428.875 "/>
<path style="fill-rule:nonzero;fill:rgb(18.823529%,39.215686%,56.470588%);fill-opacity:0.301961;stroke-width:1.066978;stroke-linecap:round;stroke-linejoin:round;stroke:rgb(20%,20%,20%);stroke-opacity:1;stroke-miterlimit:10;" d="M 755.074219 329.410156 L 755.074219 411.941406 L 808.03125 411.941406 L 808.03125 329.410156 Z M 755.074219 329.410156 "/>
<path style="fill:none;stroke-width:2.133957;stroke-linecap:butt;stroke-linejoin:round;stroke:rgb(20%,20%,20%);stroke-opacity:1;stroke-miterlimit:10;" d="M 755.074219 392.0625 L 808.03125 392.0625 "/>
<path style="fill-rule:nonzero;fill:rgb(20%,20%,20%);fill-opacity:0.301961;stroke-width:0.708661;stroke-linecap:round;stroke-linejoin:round;stroke:rgb(20%,20%,20%);stroke-opacity:0.301961;stroke-miterlimit:10;" d="M 854.113281 155.257812 C 854.113281 157.863281 850.203125 157.863281 850.203125 155.257812 C 850.203125 152.648438 854.113281 152.648438 854.113281 155.257812 "/>
<path style="fill:none;stroke-width:1.066978;stroke-linecap:butt;stroke-linejoin:round;stroke:rgb(20%,20%,20%);stroke-opacity:1;stroke-miterlimit:10;" d="M 852.15625 311.738281 L 852.15625 215.609375 "/>
<path style="fill:none;stroke-width:1.066978;stroke-linecap:butt;stroke-linejoin:round;stroke:rgb(20%,20%,20%);stroke-opacity:1;stroke-miterlimit:10;" d="M 852.15625 395.210938 L 852.15625 450.828125 "/>
<path style="fill-rule:nonzero;fill:rgb(7.45098%,16.862745%,26.27451%);fill-opacity:0.301961;stroke-width:1.066978;stroke-linecap:round;stroke-linejoin:round;stroke:rgb(20%,20%,20%);stroke-opacity:1;stroke-miterlimit:10;" d="M 825.679688 311.738281 L 825.679688 395.210938 L 878.632812 395.210938 L 878.632812 311.738281 Z M 825.679688 311.738281 "/>
<path style="fill:none;stroke-width:2.133957;stroke-linecap:butt;stroke-linejoin:round;stroke:rgb(20%,20%,20%);stroke-opacity:1;stroke-miterlimit:10;" d="M 825.679688 372.597656 L 878.632812 372.597656 "/>
<g style="fill:rgb(30.196078%,30.196078%,30.196078%);fill-opacity:1;">
  <use xlink:href="#glyph0-1" x="22.207031" y="415.703125"/>
</g>
<g style="fill:rgb(30.196078%,30.196078%,30.196078%);fill-opacity:1;">
  <use xlink:href="#glyph0-2" x="22.207031" y="340.261719"/>
</g>
<g style="fill:rgb(30.196078%,30.196078%,30.196078%);fill-opacity:1;">
  <use xlink:href="#glyph0-3" x="22.207031" y="264.820312"/>
</g>
<g style="fill:rgb(30.196078%,30.196078%,30.196078%);fill-opacity:1;">
  <use xlink:href="#glyph0-4" x="22.207031" y="189.382812"/>
</g>
<g style="fill:rgb(30.196078%,30.196078%,30.196078%);fill-opacity:1;">
  <use xlink:href="#glyph0-5" x="22.207031" y="113.941406"/>
</g>
<g style="fill:rgb(30.196078%,30.196078%,30.196078%);fill-opacity:1;">
  <use xlink:href="#glyph0-6" x="22.207031" y="38.503906"/>
</g>
<path style="fill:none;stroke-width:1.066978;stroke-linecap:butt;stroke-linejoin:round;stroke:rgb(20%,20%,20%);stroke-opacity:1;stroke-miterlimit:10;" d="M 30.402344 413.035156 L 33.140625 413.035156 "/>
<path style="fill:none;stroke-width:1.066978;stroke-linecap:butt;stroke-linejoin:round;stroke:rgb(20%,20%,20%);stroke-opacity:1;stroke-miterlimit:10;" d="M 30.402344 337.59375 L 33.140625 337.59375 "/>
<path style="fill:none;stroke-width:1.066978;stroke-linecap:butt;stroke-linejoin:round;stroke:rgb(20%,20%,20%);stroke-opacity:1;stroke-miterlimit:10;" d="M 30.402344 262.152344 L 33.140625 262.152344 "/>
<path style="fill:none;stroke-width:1.066978;stroke-linecap:butt;stroke-linejoin:round;stroke:rgb(20%,20%,20%);stroke-opacity:1;stroke-miterlimit:10;" d="M 30.402344 186.714844 L 33.140625 186.714844 "/>
<path style="fill:none;stroke-width:1.066978;stroke-linecap:butt;stroke-linejoin:round;stroke:rgb(20%,20%,20%);stroke-opacity:1;stroke-miterlimit:10;" d="M 30.402344 111.273438 L 33.140625 111.273438 "/>
<path style="fill:none;stroke-width:1.066978;stroke-linecap:butt;stroke-linejoin:round;stroke:rgb(20%,20%,20%);stroke-opacity:1;stroke-miterlimit:10;" d="M 30.402344 35.835938 L 33.140625 35.835938 "/>
<path style="fill:none;stroke-width:1.066978;stroke-linecap:butt;stroke-linejoin:round;stroke:rgb(20%,20%,20%);stroke-opacity:1;stroke-miterlimit:10;" d="M 75.503906 487.597656 L 75.503906 484.859375 "/>
<path style="fill:none;stroke-width:1.066978;stroke-linecap:butt;stroke-linejoin:round;stroke:rgb(20%,20%,20%);stroke-opacity:1;stroke-miterlimit:10;" d="M 146.109375 487.597656 L 146.109375 484.859375 "/>
<path style="fill:none;stroke-width:1.066978;stroke-linecap:butt;stroke-linejoin:round;stroke:rgb(20%,20%,20%);stroke-opacity:1;stroke-miterlimit:10;" d="M 216.714844 487.597656 L 216.714844 484.859375 "/>
<path style="fill:none;stroke-width:1.066978;stroke-linecap:butt;stroke-linejoin:round;stroke:rgb(20%,20%,20%);stroke-opacity:1;stroke-miterlimit:10;" d="M 287.316406 487.597656 L 287.316406 484.859375 "/>
<path style="fill:none;stroke-width:1.066978;stroke-linecap:butt;stroke-linejoin:round;stroke:rgb(20%,20%,20%);stroke-opacity:1;stroke-miterlimit:10;" d="M 357.921875 487.597656 L 357.921875 484.859375 "/>
<path style="fill:none;stroke-width:1.066978;stroke-linecap:butt;stroke-linejoin:round;stroke:rgb(20%,20%,20%);stroke-opacity:1;stroke-miterlimit:10;" d="M 428.527344 487.597656 L 428.527344 484.859375 "/>
<path style="fill:none;stroke-width:1.066978;stroke-linecap:butt;stroke-linejoin:round;stroke:rgb(20%,20%,20%);stroke-opacity:1;stroke-miterlimit:10;" d="M 499.132812 487.597656 L 499.132812 484.859375 "/>
<path style="fill:none;stroke-width:1.066978;stroke-linecap:butt;stroke-linejoin:round;stroke:rgb(20%,20%,20%);stroke-opacity:1;stroke-miterlimit:10;" d="M 569.738281 487.597656 L 569.738281 484.859375 "/>
<path style="fill:none;stroke-width:1.066978;stroke-linecap:butt;stroke-linejoin:round;stroke:rgb(20%,20%,20%);stroke-opacity:1;stroke-miterlimit:10;" d="M 640.34375 487.597656 L 640.34375 484.859375 "/>
<path style="fill:none;stroke-width:1.066978;stroke-linecap:butt;stroke-linejoin:round;stroke:rgb(20%,20%,20%);stroke-opacity:1;stroke-miterlimit:10;" d="M 710.949219 487.597656 L 710.949219 484.859375 "/>
<path style="fill:none;stroke-width:1.066978;stroke-linecap:butt;stroke-linejoin:round;stroke:rgb(20%,20%,20%);stroke-opacity:1;stroke-miterlimit:10;" d="M 781.550781 487.597656 L 781.550781 484.859375 "/>
<path style="fill:none;stroke-width:1.066978;stroke-linecap:butt;stroke-linejoin:round;stroke:rgb(20%,20%,20%);stroke-opacity:1;stroke-miterlimit:10;" d="M 852.15625 487.597656 L 852.15625 484.859375 "/>
<g style="fill:rgb(30.196078%,30.196078%,30.196078%);fill-opacity:1;">
  <use xlink:href="#glyph1-1" x="68.503906" y="498.003906"/>
  <use xlink:href="#glyph1-1" x="75.50293" y="498.003906"/>
</g>
<g style="fill:rgb(30.196078%,30.196078%,30.196078%);fill-opacity:1;">
  <use xlink:href="#glyph1-2" x="142.609375" y="498.003906"/>
</g>
<g style="fill:rgb(30.196078%,30.196078%,30.196078%);fill-opacity:1;">
  <use xlink:href="#glyph1-1" x="209.714844" y="498.003906"/>
  <use xlink:href="#glyph1-3" x="216.713867" y="498.003906"/>
</g>
<g style="fill:rgb(30.196078%,30.196078%,30.196078%);fill-opacity:1;">
  <use xlink:href="#glyph1-4" x="283.816406" y="498.003906"/>
</g>
<g style="fill:rgb(30.196078%,30.196078%,30.196078%);fill-opacity:1;">
  <use xlink:href="#glyph1-5" x="354.421875" y="498.003906"/>
</g>
<g style="fill:rgb(30.196078%,30.196078%,30.196078%);fill-opacity:1;">
  <use xlink:href="#glyph1-6" x="425.027344" y="498.003906"/>
</g>
<g style="fill:rgb(30.196078%,30.196078%,30.196078%);fill-opacity:1;">
  <use xlink:href="#glyph1-7" x="495.632812" y="498.003906"/>
</g>
<g style="fill:rgb(30.196078%,30.196078%,30.196078%);fill-opacity:1;">
  <use xlink:href="#glyph1-8" x="566.238281" y="498.003906"/>
</g>
<g style="fill:rgb(30.196078%,30.196078%,30.196078%);fill-opacity:1;">
  <use xlink:href="#glyph1-1" x="636.84375" y="498.003906"/>
</g>
<g style="fill:rgb(30.196078%,30.196078%,30.196078%);fill-opacity:1;">
  <use xlink:href="#glyph1-9" x="707.449219" y="498.003906"/>
</g>
<g style="fill:rgb(30.196078%,30.196078%,30.196078%);fill-opacity:1;">
  <use xlink:href="#glyph1-10" x="778.050781" y="498.003906"/>
</g>
<g style="fill:rgb(30.196078%,30.196078%,30.196078%);fill-opacity:1;">
  <use xlink:href="#glyph1-3" x="848.65625" y="498.003906"/>
</g>
<g style="fill:rgb(0%,0%,0%);fill-opacity:1;">
  <use xlink:href="#glyph2-1" x="396.832031" y="512.480469"/>
  <use xlink:href="#glyph2-2" x="406.183594" y="512.480469"/>
  <use xlink:href="#glyph2-3" x="411.608398" y="512.480469"/>
  <use xlink:href="#glyph2-4" x="416.867188" y="512.480469"/>
  <use xlink:href="#glyph2-5" x="424.698242" y="512.480469"/>
  <use xlink:href="#glyph2-6" x="432.255859" y="512.480469"/>
  <use xlink:href="#glyph2-5" x="436.026367" y="512.480469"/>
  <use xlink:href="#glyph2-7" x="443.583984" y="512.480469"/>
  <use xlink:href="#glyph2-8" x="451.458008" y="512.480469"/>
  <use xlink:href="#glyph2-9" x="458.005859" y="512.480469"/>
  <use xlink:href="#glyph2-10" x="461.835938" y="512.480469"/>
  <use xlink:href="#glyph2-11" x="469.709961" y="512.480469"/>
  <use xlink:href="#glyph2-2" x="477.170898" y="512.480469"/>
  <use xlink:href="#glyph2-9" x="482.595703" y="512.480469"/>
  <use xlink:href="#glyph2-6" x="486.425781" y="512.480469"/>
  <use xlink:href="#glyph2-12" x="490.196289" y="512.480469"/>
  <use xlink:href="#glyph2-13" x="498.027344" y="512.480469"/>
  <use xlink:href="#glyph2-14" x="504.547852" y="512.480469"/>
  <use xlink:href="#glyph2-15" x="513.018555" y="512.480469"/>
  <use xlink:href="#glyph2-16" x="522.224609" y="512.480469"/>
</g>
<g style="fill:rgb(0%,0%,0%);fill-opacity:1;">
  <use xlink:href="#glyph3-1" x="13.691406" y="275.582031"/>
  <use xlink:href="#glyph3-2" x="13.691406" y="267.519531"/>
  <use xlink:href="#glyph3-3" x="13.691406" y="259.688477"/>
  <use xlink:href="#glyph3-4" x="13.691406" y="252.517578"/>
  <use xlink:href="#glyph3-5" x="13.691406" y="248.74707"/>
  <use xlink:href="#glyph3-6" x="13.691406" y="241.189453"/>
</g>
<g style="fill:rgb(0%,0%,0%);fill-opacity:1;">
  <use xlink:href="#glyph4-1" x="33.140625" y="13.619141"/>
  <use xlink:href="#glyph4-2" x="41.730469" y="13.619141"/>
  <use xlink:href="#glyph4-3" x="47.648438" y="13.619141"/>
  <use xlink:href="#glyph4-4" x="55.892578" y="13.619141"/>
  <use xlink:href="#glyph4-5" x="63.005859" y="13.619141"/>
  <use xlink:href="#glyph4-6" x="71.144531" y="13.619141"/>
  <use xlink:href="#glyph4-6" x="78.287109" y="13.619141"/>
  <use xlink:href="#glyph4-5" x="85.429688" y="13.619141"/>
  <use xlink:href="#glyph4-7" x="93.568359" y="13.619141"/>
  <use xlink:href="#glyph4-8" x="102.158203" y="13.619141"/>
  <use xlink:href="#glyph4-9" x="108.158203" y="13.619141"/>
  <use xlink:href="#glyph4-2" x="113.894531" y="13.619141"/>
  <use xlink:href="#glyph4-10" x="119.8125" y="13.619141"/>
  <use xlink:href="#glyph4-11" x="127.910156" y="13.619141"/>
  <use xlink:href="#glyph4-6" x="136.453125" y="13.619141"/>
  <use xlink:href="#glyph4-4" x="143.595703" y="13.619141"/>
  <use xlink:href="#glyph4-2" x="150.708984" y="13.619141"/>
  <use xlink:href="#glyph4-12" x="156.626953" y="13.619141"/>
  <use xlink:href="#glyph4-1" x="160.740234" y="13.619141"/>
  <use xlink:href="#glyph4-9" x="169.330078" y="13.619141"/>
  <use xlink:href="#glyph4-13" x="175.066406" y="13.619141"/>
  <use xlink:href="#glyph4-14" x="179.865234" y="13.619141"/>
  <use xlink:href="#glyph4-15" x="188.660156" y="13.619141"/>
  <use xlink:href="#glyph4-16" x="197.203125" y="13.619141"/>
  <use xlink:href="#glyph4-17" x="205.025391" y="13.619141"/>
  <use xlink:href="#glyph4-3" x="209.138672" y="13.619141"/>
  <use xlink:href="#glyph4-1" x="217.382812" y="13.619141"/>
</g>
</g>
</svg>
