<?xml version='1.0' encoding='utf-8'?>
<svg xmlns:xlink="http://www.w3.org/1999/xlink" xmlns="http://www.w3.org/2000/svg" id="chart-bd1e67fd-cea2-4aac-addb-88ca56fd6181" class="pygal-chart" viewBox="0 0 800 600"><!--Generated with pygal 2.3.0 (lxml) ©Kozea 2012-2016 on 2017-05-23--><!--http://pygal.org--><!--http://github.com/Kozea/pygal--><defs><style type="text/css">#chart-bd1e67fd-cea2-4aac-addb-88ca56fd6181{-webkit-user-select:none;-webkit-font-smoothing:antialiased;font-family:Consolas,"Liberation Mono",Menlo,Courier,monospace}#chart-bd1e67fd-cea2-4aac-addb-88ca56fd6181 .title{font-family:Consolas,"Liberation Mono",Menlo,Courier,monospace;font-size:16px}#chart-bd1e67fd-cea2-4aac-addb-88ca56fd6181 .legends .legend text{font-family:Consolas,"Liberation Mono",Menlo,Courier,monospace;font-size:14px}#chart-bd1e67fd-cea2-4aac-addb-88ca56fd6181 .axis text{font-family:Consolas,"Liberation Mono",Menlo,Courier,monospace;font-size:10px}#chart-bd1e67fd-cea2-4aac-addb-88ca56fd6181 .axis text.major{font-family:Consolas,"Liberation Mono",Menlo,Courier,monospace;font-size:10px}#chart-bd1e67fd-cea2-4aac-addb-88ca56fd6181 .text-overlay text.value{font-family:Consolas,"Liberation Mono",Menlo,Courier,monospace;font-size:16px}#chart-bd1e67fd-cea2-4aac-addb-88ca56fd6181 .text-overlay text.label{font-family:Consolas,"Liberation Mono",Menlo,Courier,monospace;font-size:10px}#chart-bd1e67fd-cea2-4aac-addb-88ca56fd6181 .tooltip{font-family:Consolas,"Liberation Mono",Menlo,Courier,monospace;font-size:14px}#chart-bd1e67fd-cea2-4aac-addb-88ca56fd6181 text.no_data{font-family:Consolas,"Liberation Mono",Menlo,Courier,monospace;font-size:64px}
#chart-bd1e67fd-cea2-4aac-addb-88ca56fd6181{background-color:rgba(249,249,249,1)}#chart-bd1e67fd-cea2-4aac-addb-88ca56fd6181 path,#chart-bd1e67fd-cea2-4aac-addb-88ca56fd6181 line,#chart-bd1e67fd-cea2-4aac-addb-88ca56fd6181 rect,#chart-bd1e67fd-cea2-4aac-addb-88ca56fd6181 circle{-webkit-transition:150ms;-moz-transition:150ms;transition:150ms}#chart-bd1e67fd-cea2-4aac-addb-88ca56fd6181 .graph &gt; .background{fill:rgba(249,249,249,1)}#chart-bd1e67fd-cea2-4aac-addb-88ca56fd6181 .plot &gt; .background{fill:rgba(255,255,255,1)}#chart-bd1e67fd-cea2-4aac-addb-88ca56fd6181 .graph{fill:rgba(0,0,0,.87)}#chart-bd1e67fd-cea2-4aac-addb-88ca56fd6181 text.no_data{fill:rgba(0,0,0,1)}#chart-bd1e67fd-cea2-4aac-addb-88ca56fd6181 .title{fill:rgba(0,0,0,1)}#chart-bd1e67fd-cea2-4aac-addb-88ca56fd6181 .legends .legend text{fill:rgba(0,0,0,.87)}#chart-bd1e67fd-cea2-4aac-addb-88ca56fd6181 .legends .legend:hover text{fill:rgba(0,0,0,1)}#chart-bd1e67fd-cea2-4aac-addb-88ca56fd6181 .axis .line{stroke:rgba(0,0,0,1)}#chart-bd1e67fd-cea2-4aac-addb-88ca56fd6181 .axis .guide.line{stroke:rgba(0,0,0,.54)}#chart-bd1e67fd-cea2-4aac-addb-88ca56fd6181 .axis .major.line{stroke:rgba(0,0,0,.87)}#chart-bd1e67fd-cea2-4aac-addb-88ca56fd6181 .axis text.major{fill:rgba(0,0,0,1)}#chart-bd1e67fd-cea2-4aac-addb-88ca56fd6181 .axis.y .guides:hover .guide.line,#chart-bd1e67fd-cea2-4aac-addb-88ca56fd6181 .line-graph .axis.x .guides:hover .guide.line,#chart-bd1e67fd-cea2-4aac-addb-88ca56fd6181 .stackedline-graph .axis.x .guides:hover .guide.line,#chart-bd1e67fd-cea2-4aac-addb-88ca56fd6181 .xy-graph .axis.x .guides:hover .guide.line{stroke:rgba(0,0,0,1)}#chart-bd1e67fd-cea2-4aac-addb-88ca56fd6181 .axis .guides:hover text{fill:rgba(0,0,0,1)}#chart-bd1e67fd-cea2-4aac-addb-88ca56fd6181 .reactive{fill-opacity:.7;stroke-opacity:.8}#chart-bd1e67fd-cea2-4aac-addb-88ca56fd6181 .ci{stroke:rgba(0,0,0,.87)}#chart-bd1e67fd-cea2-4aac-addb-88ca56fd6181 .reactive.active,#chart-bd1e67fd-cea2-4aac-addb-88ca56fd6181 .active .reactive{fill-opacity:.8;stroke-opacity:.9;stroke-width:4}#chart-bd1e67fd-cea2-4aac-addb-88ca56fd6181 .ci .reactive.active{stroke-width:1.5}#chart-bd1e67fd-cea2-4aac-addb-88ca56fd6181 .series text{fill:rgba(0,0,0,1)}#chart-bd1e67fd-cea2-4aac-addb-88ca56fd6181 .tooltip rect{fill:rgba(255,255,255,1);stroke:rgba(0,0,0,1);-webkit-transition:opacity 150ms;-moz-transition:opacity 150ms;transition:opacity 150ms}#chart-bd1e67fd-cea2-4aac-addb-88ca56fd6181 .tooltip .label{fill:rgba(0,0,0,.87)}#chart-bd1e67fd-cea2-4aac-addb-88ca56fd6181 .tooltip .label{fill:rgba(0,0,0,.87)}#chart-bd1e67fd-cea2-4aac-addb-88ca56fd6181 .tooltip .legend{font-size:.8em;fill:rgba(0,0,0,.54)}#chart-bd1e67fd-cea2-4aac-addb-88ca56fd6181 .tooltip .x_label{font-size:.6em;fill:rgba(0,0,0,1)}#chart-bd1e67fd-cea2-4aac-addb-88ca56fd6181 .tooltip .xlink{font-size:.5em;text-decoration:underline}#chart-bd1e67fd-cea2-4aac-addb-88ca56fd6181 .tooltip .value{font-size:1.5em}#chart-bd1e67fd-cea2-4aac-addb-88ca56fd6181 .bound{font-size:.5em}#chart-bd1e67fd-cea2-4aac-addb-88ca56fd6181 .max-value{font-size:.75em;fill:rgba(0,0,0,.54)}#chart-bd1e67fd-cea2-4aac-addb-88ca56fd6181 .map-element{fill:rgba(255,255,255,1);stroke:rgba(0,0,0,.54) !important}#chart-bd1e67fd-cea2-4aac-addb-88ca56fd6181 .map-element .reactive{fill-opacity:inherit;stroke-opacity:inherit}#chart-bd1e67fd-cea2-4aac-addb-88ca56fd6181 .color-0,#chart-bd1e67fd-cea2-4aac-addb-88ca56fd6181 .color-0 a:visited{stroke:#F44336;fill:#F44336}#chart-bd1e67fd-cea2-4aac-addb-88ca56fd6181 .color-1,#chart-bd1e67fd-cea2-4aac-addb-88ca56fd6181 .color-1 a:visited{stroke:#3F51B5;fill:#3F51B5}#chart-bd1e67fd-cea2-4aac-addb-88ca56fd6181 .color-2,#chart-bd1e67fd-cea2-4aac-addb-88ca56fd6181 .color-2 a:visited{stroke:#009688;fill:#009688}#chart-bd1e67fd-cea2-4aac-addb-88ca56fd6181 .color-3,#chart-bd1e67fd-cea2-4aac-addb-88ca56fd6181 .color-3 a:visited{stroke:#FFC107;fill:#FFC107}#chart-bd1e67fd-cea2-4aac-addb-88ca56fd6181 .color-4,#chart-bd1e67fd-cea2-4aac-addb-88ca56fd6181 .color-4 a:visited{stroke:#FF5722;fill:#FF5722}#chart-bd1e67fd-cea2-4aac-addb-88ca56fd6181 .color-5,#chart-bd1e67fd-cea2-4aac-addb-88ca56fd6181 .color-5 a:visited{stroke:#9C27B0;fill:#9C27B0}#chart-bd1e67fd-cea2-4aac-addb-88ca56fd6181 .color-6,#chart-bd1e67fd-cea2-4aac-addb-88ca56fd6181 .color-6 a:visited{stroke:#03A9F4;fill:#03A9F4}#chart-bd1e67fd-cea2-4aac-addb-88ca56fd6181 .color-7,#chart-bd1e67fd-cea2-4aac-addb-88ca56fd6181 .color-7 a:visited{stroke:#8BC34A;fill:#8BC34A}#chart-bd1e67fd-cea2-4aac-addb-88ca56fd6181 .color-8,#chart-bd1e67fd-cea2-4aac-addb-88ca56fd6181 .color-8 a:visited{stroke:#FF9800;fill:#FF9800}#chart-bd1e67fd-cea2-4aac-addb-88ca56fd6181 .color-9,#chart-bd1e67fd-cea2-4aac-addb-88ca56fd6181 .color-9 a:visited{stroke:#E91E63;fill:#E91E63}#chart-bd1e67fd-cea2-4aac-addb-88ca56fd6181 .color-10,#chart-bd1e67fd-cea2-4aac-addb-88ca56fd6181 .color-10 a:visited{stroke:#2196F3;fill:#2196F3}#chart-bd1e67fd-cea2-4aac-addb-88ca56fd6181 .color-11,#chart-bd1e67fd-cea2-4aac-addb-88ca56fd6181 .color-11 a:visited{stroke:#4CAF50;fill:#4CAF50}#chart-bd1e67fd-cea2-4aac-addb-88ca56fd6181 .text-overlay .color-0 text{fill:black}#chart-bd1e67fd-cea2-4aac-addb-88ca56fd6181 .text-overlay .color-1 text{fill:black}#chart-bd1e67fd-cea2-4aac-addb-88ca56fd6181 .text-overlay .color-2 text{fill:black}#chart-bd1e67fd-cea2-4aac-addb-88ca56fd6181 .text-overlay .color-3 text{fill:black}#chart-bd1e67fd-cea2-4aac-addb-88ca56fd6181 .text-overlay .color-4 text{fill:black}#chart-bd1e67fd-cea2-4aac-addb-88ca56fd6181 .text-overlay .color-5 text{fill:black}#chart-bd1e67fd-cea2-4aac-addb-88ca56fd6181 .text-overlay .color-6 text{fill:black}#chart-bd1e67fd-cea2-4aac-addb-88ca56fd6181 .text-overlay .color-7 text{fill:black}#chart-bd1e67fd-cea2-4aac-addb-88ca56fd6181 .text-overlay .color-8 text{fill:black}#chart-bd1e67fd-cea2-4aac-addb-88ca56fd6181 .text-overlay .color-9 text{fill:black}#chart-bd1e67fd-cea2-4aac-addb-88ca56fd6181 .text-overlay .color-10 text{fill:black}#chart-bd1e67fd-cea2-4aac-addb-88ca56fd6181 .text-overlay .color-11 text{fill:black}
#chart-bd1e67fd-cea2-4aac-addb-88ca56fd6181 text.no_data{text-anchor:middle}#chart-bd1e67fd-cea2-4aac-addb-88ca56fd6181 .guide.line{fill:none}#chart-bd1e67fd-cea2-4aac-addb-88ca56fd6181 .centered{text-anchor:middle}#chart-bd1e67fd-cea2-4aac-addb-88ca56fd6181 .title{text-anchor:middle}#chart-bd1e67fd-cea2-4aac-addb-88ca56fd6181 .legends .legend text{fill-opacity:1}#chart-bd1e67fd-cea2-4aac-addb-88ca56fd6181 .axis.x text{text-anchor:middle}#chart-bd1e67fd-cea2-4aac-addb-88ca56fd6181 .axis.x:not(.web) text[transform]{text-anchor:start}#chart-bd1e67fd-cea2-4aac-addb-88ca56fd6181 .axis.x:not(.web) text[transform].backwards{text-anchor:end}#chart-bd1e67fd-cea2-4aac-addb-88ca56fd6181 .axis.y text{text-anchor:end}#chart-bd1e67fd-cea2-4aac-addb-88ca56fd6181 .axis.y text[transform].backwards{text-anchor:start}#chart-bd1e67fd-cea2-4aac-addb-88ca56fd6181 .axis.y2 text{text-anchor:start}#chart-bd1e67fd-cea2-4aac-addb-88ca56fd6181 .axis.y2 text[transform].backwards{text-anchor:end}#chart-bd1e67fd-cea2-4aac-addb-88ca56fd6181 .axis .guide.line{stroke-dasharray:4,4}#chart-bd1e67fd-cea2-4aac-addb-88ca56fd6181 .axis .major.guide.line{stroke-dasharray:6,6}#chart-bd1e67fd-cea2-4aac-addb-88ca56fd6181 .horizontal .axis.y .guide.line,#chart-bd1e67fd-cea2-4aac-addb-88ca56fd6181 .horizontal .axis.y2 .guide.line,#chart-bd1e67fd-cea2-4aac-addb-88ca56fd6181 .vertical .axis.x .guide.line{opacity:0}#chart-bd1e67fd-cea2-4aac-addb-88ca56fd6181 .horizontal .axis.always_show .guide.line,#chart-bd1e67fd-cea2-4aac-addb-88ca56fd6181 .vertical .axis.always_show .guide.line{opacity:1 !important}#chart-bd1e67fd-cea2-4aac-addb-88ca56fd6181 .axis.y .guides:hover .guide.line,#chart-bd1e67fd-cea2-4aac-addb-88ca56fd6181 .axis.y2 .guides:hover .guide.line,#chart-bd1e67fd-cea2-4aac-addb-88ca56fd6181 .axis.x .guides:hover .guide.line{opacity:1}#chart-bd1e67fd-cea2-4aac-addb-88ca56fd6181 .axis .guides:hover text{opacity:1}#chart-bd1e67fd-cea2-4aac-addb-88ca56fd6181 .nofill{fill:none}#chart-bd1e67fd-cea2-4aac-addb-88ca56fd6181 .subtle-fill{fill-opacity:.2}#chart-bd1e67fd-cea2-4aac-addb-88ca56fd6181 .dot{stroke-width:1px;fill-opacity:1}#chart-bd1e67fd-cea2-4aac-addb-88ca56fd6181 .dot.active{stroke-width:5px}#chart-bd1e67fd-cea2-4aac-addb-88ca56fd6181 .dot.negative{fill:transparent}#chart-bd1e67fd-cea2-4aac-addb-88ca56fd6181 text,#chart-bd1e67fd-cea2-4aac-addb-88ca56fd6181 tspan{stroke:none !important}#chart-bd1e67fd-cea2-4aac-addb-88ca56fd6181 .series text.active{opacity:1}#chart-bd1e67fd-cea2-4aac-addb-88ca56fd6181 .tooltip rect{fill-opacity:.95;stroke-width:.5}#chart-bd1e67fd-cea2-4aac-addb-88ca56fd6181 .tooltip text{fill-opacity:1}#chart-bd1e67fd-cea2-4aac-addb-88ca56fd6181 .showable{visibility:hidden}#chart-bd1e67fd-cea2-4aac-addb-88ca56fd6181 .showable.shown{visibility:visible}#chart-bd1e67fd-cea2-4aac-addb-88ca56fd6181 .gauge-background{fill:rgba(229,229,229,1);stroke:none}#chart-bd1e67fd-cea2-4aac-addb-88ca56fd6181 .bg-lines{stroke:rgba(249,249,249,1);stroke-width:2px}</style><script type="text/javascript">window.pygal = window.pygal || {};window.pygal.config = window.pygal.config || {};window.pygal.config['bd1e67fd-cea2-4aac-addb-88ca56fd6181'] = {"dynamic_print_values": false, "truncate_label": null, "inner_radius": 0, "print_values": false, "xrange": null, "box_mode": "extremes", "title": "Human lncRNA genes, which shared across species(percents)", "legend_at_bottom_columns": null, "height": 600, "legend_at_bottom": false, "show_legend": true, "show_dots": true, "explicit_size": false, "y_labels_major": null, "show_minor_x_labels": true, "width": 800, "force_uri_protocol": "https", "half_pie": false, "style": {"major_label_font_family": "Consolas, \"Liberation Mono\", Menlo, Courier, monospace", "title_font_family": "Consolas, \"Liberation Mono\", Menlo, Courier, monospace", "stroke_opacity": ".8", "legend_font_family": "Consolas, \"Liberation Mono\", Menlo, Courier, monospace", "colors": ["#F44336", "#3F51B5", "#009688", "#FFC107", "#FF5722", "#9C27B0", "#03A9F4", "#8BC34A", "#FF9800", "#E91E63", "#2196F3", "#4CAF50", "#FFEB3B", "#673AB7", "#00BCD4", "#CDDC39", "#9E9E9E", "#607D8B"], "legend_font_size": 14, "no_data_font_family": "Consolas, \"Liberation Mono\", Menlo, Courier, monospace", "major_label_font_size": 10, "value_background": "rgba(229, 229, 229, 1)", "ci_colors": [], "label_font_family": "Consolas, \"Liberation Mono\", Menlo, Courier, monospace", "label_font_size": 10, "tooltip_font_size": 14, "value_font_size": 16, "font_family": "Consolas, \"Liberation Mono\", Menlo, Courier, monospace", "opacity": ".7", "foreground": "rgba(0, 0, 0, .87)", "plot_background": "rgba(255, 255, 255, 1)", "value_label_font_size": 10, "value_label_font_family": "Consolas, \"Liberation Mono\", Menlo, Courier, monospace", "background": "rgba(249, 249, 249, 1)", "no_data_font_size": 64, "value_colors": [], "guide_stroke_dasharray": "4,4", "transition": "150ms", "foreground_subtle": "rgba(0, 0, 0, .54)", "value_font_family": "Consolas, \"Liberation Mono\", Menlo, Courier, monospace", "tooltip_font_family": "Consolas, \"Liberation Mono\", Menlo, Courier, monospace", "title_font_size": 16, "stroke_opacity_hover": ".9", "major_guide_stroke_dasharray": "6,6", "opacity_hover": ".8", "foreground_strong": "rgba(0, 0, 0, 1)"}, "x_label_rotation": 0, "fill": false, "missing_value_fill_truncation": "x", "zero": 0, "margin_right": null, "interpolation_parameters": {}, "x_labels_major": null, "rounded_bars": null, "show_y_labels": true, "dots_size": 2.5, "show_y_guides": true, "show_minor_y_labels": true, "x_labels": null, "y_title": null, "order_min": null, "formatter": null, "disable_xml_declaration": false, "strict": false, "css": ["file://style.css", "file://graph.css"], "tooltip_fancy_mode": true, "defs": [], "show_only_major_dots": false, "y_label_rotation": 0, "show_x_labels": true, "min_scale": 4, "show_x_guides": false, "spacing": 10, "x_labels_major_count": null, "pretty_print": false, "tooltip_border_radius": 0, "interpolate": null, "js": ["//kozea.github.io/pygal.js/2.0.x/pygal-tooltips.min.js"], "y_labels": null, "stroke_style": null, "print_labels": false, "interpolation_precision": 250, "x_title": null, "y_labels_major_every": null, "logarithmic": false, "legends": ["\"Conserved in all species\"", "\"NonConserved\"", "\"Conserved in 1 species\"", "\"Conserved in 2\"", "\"Conserved in 3\"", "\"Conserved in 4\"", "\"Conserved in 5\"", "\"Conserved in 6\"", "\"Conserved in 7\"", "\"Conserved in 8\"", "\"Conserved in 9\"", "\"Conserved in 10\""], "max_scale": 16, "print_zeroes": true, "no_data_text": "No data", "truncate_legend": null, "x_labels_major_every": null, "secondary_range": null, "legend_box_size": 12, "no_prefix": false, "stroke": true, "stack_from_top": false, "include_x_axis": false, "range": null, "classes": ["pygal-chart"], "margin_top": null, "margin_left": null, "y_labels_major_count": null, "margin_bottom": null, "inverse_y_axis": false, "margin": 20, "allow_interruptions": false, "print_values_position": "center"}</script><script type="text/javascript" xlink:href="https://kozea.github.io/pygal.js/2.0.x/pygal-tooltips.min.js"/></defs><title>Human lncRNA genes, which shared across species(percents)</title><g class="graph pie-graph vertical"><rect class="background" height="600" width="800" x="0" y="0"/><g class="plot" transform="translate(168, 46)"><rect class="background" height="534" width="612.0" x="0" y="0"/><g class="series serie-0 color-0"><g class="slices"><g class="slice"><path class="slice reactive tooltip-trigger" d="M306.000000 26.700000 A240.300000 240.300000 0 0 1 373.627888 36.412579 L306.000000 267.000000 A0.000000 0.000000 0 0 0 306.000000 267.000000 z"/><desc class="value">4.54</desc><desc class="x centered">323.080444723</desc><desc class="y centered">148.070269032</desc></g></g></g><g class="series serie-1 color-1"><g class="slices"><g class="slice"><path class="slice reactive tooltip-trigger" d="M373.627888 36.412579 A240.300000 240.300000 0 0 1 486.065331 107.875625 L306.000000 267.000000 A0.000000 0.000000 0 0 0 306.000000 267.000000 z"/><desc class="value">8.94</desc><desc class="x centered">370.449058296</desc><desc class="y centered">165.598119422</desc></g></g></g><g class="series serie-2 color-2"><g class="slices"><g class="slice"><path class="slice reactive tooltip-trigger" d="M486.065331 107.875625 A240.300000 240.300000 0 0 1 543.358609 304.483071 L306.000000 267.000000 A0.000000 0.000000 0 0 0 306.000000 267.000000 z"/><desc class="value">14.01</desc><desc class="x centered">421.35197047</desc><desc class="y centered">233.385339377</desc></g></g></g><g class="series serie-3 color-3"><g class="slices"><g class="slice"><path class="slice reactive tooltip-trigger" d="M543.358609 304.483071 A240.300000 240.300000 0 0 1 423.030951 476.875788 L306.000000 267.000000 A0.000000 0.000000 0 0 0 306.000000 267.000000 z"/><desc class="value">14.41</desc><desc class="x centered">404.523857932</desc><desc class="y centered">335.768247893</desc></g></g></g><g class="series serie-4 color-4"><g class="slices"><g class="slice"><path class="slice reactive tooltip-trigger" d="M423.030951 476.875788 A240.300000 240.300000 0 0 1 230.803205 495.231313 L306.000000 267.000000 A0.000000 0.000000 0 0 0 306.000000 267.000000 z"/><desc class="value">13.16</desc><desc class="x centered">317.420983603</desc><desc class="y centered">386.605951497</desc></g></g></g><g class="series serie-5 color-5"><g class="slices"><g class="slice"><path class="slice reactive tooltip-trigger" d="M230.803205 495.231313 A240.300000 240.300000 0 0 1 105.933464 400.106991 L306.000000 267.000000 A0.000000 0.000000 0 0 0 306.000000 267.000000 z"/><desc class="value">10.59</desc><desc class="x centered">233.190944146</desc><desc class="y centered">362.576481865</desc></g></g></g><g class="series serie-6 color-6"><g class="slices"><g class="slice"><path class="slice reactive tooltip-trigger" d="M105.933464 400.106991 A240.300000 240.300000 0 0 1 66.308224 284.086325 L306.000000 267.000000 A0.000000 0.000000 0 0 0 306.000000 267.000000 z"/><desc class="value">8.21</desc><desc class="x centered">192.298590535</desc><desc class="y centered">305.833130002</desc></g></g></g><g class="series serie-7 color-7"><g class="slices"><g class="slice"><path class="slice reactive tooltip-trigger" d="M66.308224 284.086325 A240.300000 240.300000 0 0 1 78.113634 190.764221 L306.000000 267.000000 A0.000000 0.000000 0 0 0 306.000000 267.000000 z"/><desc class="value">6.27</desc><desc class="x centered">186.799975271</desc><desc class="y centered">251.92098794</desc></g></g></g><g class="series serie-8 color-8"><g class="slices"><g class="slice"><path class="slice reactive tooltip-trigger" d="M78.113634 190.764221 A240.300000 240.300000 0 0 1 116.483084 119.258914 L306.000000 267.000000 A0.000000 0.000000 0 0 0 306.000000 267.000000 z"/><desc class="value">5.4</desc><desc class="x centered">200.129055765</desc><desc class="y centered">210.190091826</desc></g></g></g><g class="series serie-9 color-9"><g class="slices"><g class="slice"><path class="slice reactive tooltip-trigger" d="M116.483084 119.258914 A240.300000 240.300000 0 0 1 172.296442 67.331654 L306.000000 267.000000 A0.000000 0.000000 0 0 0 306.000000 267.000000 z"/><desc class="value">5.07</desc><desc class="x centered">224.158722326</desc><desc class="y centered">179.033939677</desc></g></g></g><g class="series serie-10 color-10"><g class="slices"><g class="slice"><path class="slice reactive tooltip-trigger" d="M172.296442 67.331654 A240.300000 240.300000 0 0 1 246.819179 34.101480 L306.000000 267.000000 A0.000000 0.000000 0 0 0 306.000000 267.000000 z"/><desc class="value">5.43</desc><desc class="x centered">257.068524721</desc><desc class="y centered">157.265168579</desc></g></g></g><g class="series serie-11 color-11"><g class="slices"><g class="slice"><path class="slice reactive tooltip-trigger" d="M246.819179 34.101480 A240.300000 240.300000 0 0 1 306.000000 26.700000 L306.000000 267.000000 A0.000000 0.000000 0 0 0 306.000000 267.000000 z"/><desc class="value">3.96</desc><desc class="x centered">291.089534874</desc><desc class="y centered">147.778774836</desc></g></g></g></g><g class="titles"><text class="title plot_title" x="400.0" y="26">Human lncRNA genes, which shared across species(percents)</text></g><g class="plot overlay" transform="translate(168, 46)"><g class="series serie-0 color-0"/><g class="series serie-1 color-1"/><g class="series serie-2 color-2"/><g class="series serie-3 color-3"/><g class="series serie-4 color-4"/><g class="series serie-5 color-5"/><g class="series serie-6 color-6"/><g class="series serie-7 color-7"/><g class="series serie-8 color-8"/><g class="series serie-9 color-9"/><g class="series serie-10 color-10"/><g class="series serie-11 color-11"/></g><g class="plot text-overlay" transform="translate(168, 46)"><g class="series serie-0 color-0"/><g class="series serie-1 color-1"/><g class="series serie-2 color-2"/><g class="series serie-3 color-3"/><g class="series serie-4 color-4"/><g class="series serie-5 color-5"/><g class="series serie-6 color-6"/><g class="series serie-7 color-7"/><g class="series serie-8 color-8"/><g class="series serie-9 color-9"/><g class="series serie-10 color-10"/><g class="series serie-11 color-11"/></g><g class="plot tooltip-overlay" transform="translate(168, 46)"><g class="tooltip" style="opacity: 0" transform="translate(0 0)"><rect class="tooltip-box" height="0" rx="0" ry="0" width="0"/><g class="text"/></g></g><g class="legends" transform="translate(10, 56)"><g class="legend reactive activate-serie" id="activate-serie-0"><rect class="color-0 reactive" height="12" width="12" x="0.0" y="1.0"/><text x="17.0" y="11.2">"Conserved in …</text><title>"Conserved in all species"</title></g><g class="legend reactive activate-serie" id="activate-serie-1"><rect class="color-1 reactive" height="12" width="12" x="0.0" y="22.0"/><text x="17.0" y="32.2">"NonConserved"</text></g><g class="legend reactive activate-serie" id="activate-serie-2"><rect class="color-2 reactive" height="12" width="12" x="0.0" y="43.0"/><text x="17.0" y="53.2">"Conserved in …</text><title>"Conserved in 1 species"</title></g><g class="legend reactive activate-serie" id="activate-serie-3"><rect class="color-3 reactive" height="12" width="12" x="0.0" y="64.0"/><text x="17.0" y="74.2">"Conserved in …</text><title>"Conserved in 2"</title></g><g class="legend reactive activate-serie" id="activate-serie-4"><rect class="color-4 reactive" height="12" width="12" x="0.0" y="85.0"/><text x="17.0" y="95.2">"Conserved in …</text><title>"Conserved in 3"</title></g><g class="legend reactive activate-serie" id="activate-serie-5"><rect class="color-5 reactive" height="12" width="12" x="0.0" y="106.0"/><text x="17.0" y="116.2">"Conserved in …</text><title>"Conserved in 4"</title></g><g class="legend reactive activate-serie" id="activate-serie-6"><rect class="color-6 reactive" height="12" width="12" x="0.0" y="127.0"/><text x="17.0" y="137.2">"Conserved in …</text><title>"Conserved in 5"</title></g><g class="legend reactive activate-serie" id="activate-serie-7"><rect class="color-7 reactive" height="12" width="12" x="0.0" y="148.0"/><text x="17.0" y="158.2">"Conserved in …</text><title>"Conserved in 6"</title></g><g class="legend reactive activate-serie" id="activate-serie-8"><rect class="color-8 reactive" height="12" width="12" x="0.0" y="169.0"/><text x="17.0" y="179.2">"Conserved in …</text><title>"Conserved in 7"</title></g><g class="legend reactive activate-serie" id="activate-serie-9"><rect class="color-9 reactive" height="12" width="12" x="0.0" y="190.0"/><text x="17.0" y="200.2">"Conserved in …</text><title>"Conserved in 8"</title></g><g class="legend reactive activate-serie" id="activate-serie-10"><rect class="color-10 reactive" height="12" width="12" x="0.0" y="211.0"/><text x="17.0" y="221.2">"Conserved in …</text><title>"Conserved in 9"</title></g><g class="legend reactive activate-serie" id="activate-serie-11"><rect class="color-11 reactive" height="12" width="12" x="0.0" y="232.0"/><text x="17.0" y="242.2">"Conserved in …</text><title>"Conserved in 10"</title></g></g><g class="legends" transform="translate(790, 56)"/></g></svg>