<?xml version='1.0' encoding='utf-8'?>
<svg xmlns:xlink="http://www.w3.org/1999/xlink" xmlns="http://www.w3.org/2000/svg" id="chart-d99b193c-07b8-4a72-b850-968241ef489d" class="pygal-chart" viewBox="0 0 800 600"><!--Generated with pygal 2.3.0 (lxml) ©Kozea 2012-2016 on 2017-05-23--><!--http://pygal.org--><!--http://github.com/Kozea/pygal--><defs><style type="text/css">#chart-d99b193c-07b8-4a72-b850-968241ef489d{-webkit-user-select:none;-webkit-font-smoothing:antialiased;font-family:Consolas,"Liberation Mono",Menlo,Courier,monospace}#chart-d99b193c-07b8-4a72-b850-968241ef489d .title{font-family:Consolas,"Liberation Mono",Menlo,Courier,monospace;font-size:16px}#chart-d99b193c-07b8-4a72-b850-968241ef489d .legends .legend text{font-family:Consolas,"Liberation Mono",Menlo,Courier,monospace;font-size:14px}#chart-d99b193c-07b8-4a72-b850-968241ef489d .axis text{font-family:Consolas,"Liberation Mono",Menlo,Courier,monospace;font-size:10px}#chart-d99b193c-07b8-4a72-b850-968241ef489d .axis text.major{font-family:Consolas,"Liberation Mono",Menlo,Courier,monospace;font-size:10px}#chart-d99b193c-07b8-4a72-b850-968241ef489d .text-overlay text.value{font-family:Consolas,"Liberation Mono",Menlo,Courier,monospace;font-size:16px}#chart-d99b193c-07b8-4a72-b850-968241ef489d .text-overlay text.label{font-family:Consolas,"Liberation Mono",Menlo,Courier,monospace;font-size:10px}#chart-d99b193c-07b8-4a72-b850-968241ef489d .tooltip{font-family:Consolas,"Liberation Mono",Menlo,Courier,monospace;font-size:14px}#chart-d99b193c-07b8-4a72-b850-968241ef489d text.no_data{font-family:Consolas,"Liberation Mono",Menlo,Courier,monospace;font-size:64px}
#chart-d99b193c-07b8-4a72-b850-968241ef489d{background-color:rgba(249,249,249,1)}#chart-d99b193c-07b8-4a72-b850-968241ef489d path,#chart-d99b193c-07b8-4a72-b850-968241ef489d line,#chart-d99b193c-07b8-4a72-b850-968241ef489d rect,#chart-d99b193c-07b8-4a72-b850-968241ef489d circle{-webkit-transition:150ms;-moz-transition:150ms;transition:150ms}#chart-d99b193c-07b8-4a72-b850-968241ef489d .graph &gt; .background{fill:rgba(249,249,249,1)}#chart-d99b193c-07b8-4a72-b850-968241ef489d .plot &gt; .background{fill:rgba(255,255,255,1)}#chart-d99b193c-07b8-4a72-b850-968241ef489d .graph{fill:rgba(0,0,0,.87)}#chart-d99b193c-07b8-4a72-b850-968241ef489d text.no_data{fill:rgba(0,0,0,1)}#chart-d99b193c-07b8-4a72-b850-968241ef489d .title{fill:rgba(0,0,0,1)}#chart-d99b193c-07b8-4a72-b850-968241ef489d .legends .legend text{fill:rgba(0,0,0,.87)}#chart-d99b193c-07b8-4a72-b850-968241ef489d .legends .legend:hover text{fill:rgba(0,0,0,1)}#chart-d99b193c-07b8-4a72-b850-968241ef489d .axis .line{stroke:rgba(0,0,0,1)}#chart-d99b193c-07b8-4a72-b850-968241ef489d .axis .guide.line{stroke:rgba(0,0,0,.54)}#chart-d99b193c-07b8-4a72-b850-968241ef489d .axis .major.line{stroke:rgba(0,0,0,.87)}#chart-d99b193c-07b8-4a72-b850-968241ef489d .axis text.major{fill:rgba(0,0,0,1)}#chart-d99b193c-07b8-4a72-b850-968241ef489d .axis.y .guides:hover .guide.line,#chart-d99b193c-07b8-4a72-b850-968241ef489d .line-graph .axis.x .guides:hover .guide.line,#chart-d99b193c-07b8-4a72-b850-968241ef489d .stackedline-graph .axis.x .guides:hover .guide.line,#chart-d99b193c-07b8-4a72-b850-968241ef489d .xy-graph .axis.x .guides:hover .guide.line{stroke:rgba(0,0,0,1)}#chart-d99b193c-07b8-4a72-b850-968241ef489d .axis .guides:hover text{fill:rgba(0,0,0,1)}#chart-d99b193c-07b8-4a72-b850-968241ef489d .reactive{fill-opacity:.7;stroke-opacity:.8}#chart-d99b193c-07b8-4a72-b850-968241ef489d .ci{stroke:rgba(0,0,0,.87)}#chart-d99b193c-07b8-4a72-b850-968241ef489d .reactive.active,#chart-d99b193c-07b8-4a72-b850-968241ef489d .active .reactive{fill-opacity:.8;stroke-opacity:.9;stroke-width:4}#chart-d99b193c-07b8-4a72-b850-968241ef489d .ci .reactive.active{stroke-width:1.5}#chart-d99b193c-07b8-4a72-b850-968241ef489d .series text{fill:rgba(0,0,0,1)}#chart-d99b193c-07b8-4a72-b850-968241ef489d .tooltip rect{fill:rgba(255,255,255,1);stroke:rgba(0,0,0,1);-webkit-transition:opacity 150ms;-moz-transition:opacity 150ms;transition:opacity 150ms}#chart-d99b193c-07b8-4a72-b850-968241ef489d .tooltip .label{fill:rgba(0,0,0,.87)}#chart-d99b193c-07b8-4a72-b850-968241ef489d .tooltip .label{fill:rgba(0,0,0,.87)}#chart-d99b193c-07b8-4a72-b850-968241ef489d .tooltip .legend{font-size:.8em;fill:rgba(0,0,0,.54)}#chart-d99b193c-07b8-4a72-b850-968241ef489d .tooltip .x_label{font-size:.6em;fill:rgba(0,0,0,1)}#chart-d99b193c-07b8-4a72-b850-968241ef489d .tooltip .xlink{font-size:.5em;text-decoration:underline}#chart-d99b193c-07b8-4a72-b850-968241ef489d .tooltip .value{font-size:1.5em}#chart-d99b193c-07b8-4a72-b850-968241ef489d .bound{font-size:.5em}#chart-d99b193c-07b8-4a72-b850-968241ef489d .max-value{font-size:.75em;fill:rgba(0,0,0,.54)}#chart-d99b193c-07b8-4a72-b850-968241ef489d .map-element{fill:rgba(255,255,255,1);stroke:rgba(0,0,0,.54) !important}#chart-d99b193c-07b8-4a72-b850-968241ef489d .map-element .reactive{fill-opacity:inherit;stroke-opacity:inherit}#chart-d99b193c-07b8-4a72-b850-968241ef489d .color-0,#chart-d99b193c-07b8-4a72-b850-968241ef489d .color-0 a:visited{stroke:#F44336;fill:#F44336}#chart-d99b193c-07b8-4a72-b850-968241ef489d .color-1,#chart-d99b193c-07b8-4a72-b850-968241ef489d .color-1 a:visited{stroke:#3F51B5;fill:#3F51B5}#chart-d99b193c-07b8-4a72-b850-968241ef489d .color-2,#chart-d99b193c-07b8-4a72-b850-968241ef489d .color-2 a:visited{stroke:#009688;fill:#009688}#chart-d99b193c-07b8-4a72-b850-968241ef489d .color-3,#chart-d99b193c-07b8-4a72-b850-968241ef489d .color-3 a:visited{stroke:#FFC107;fill:#FFC107}#chart-d99b193c-07b8-4a72-b850-968241ef489d .color-4,#chart-d99b193c-07b8-4a72-b850-968241ef489d .color-4 a:visited{stroke:#FF5722;fill:#FF5722}#chart-d99b193c-07b8-4a72-b850-968241ef489d .color-5,#chart-d99b193c-07b8-4a72-b850-968241ef489d .color-5 a:visited{stroke:#9C27B0;fill:#9C27B0}#chart-d99b193c-07b8-4a72-b850-968241ef489d .color-6,#chart-d99b193c-07b8-4a72-b850-968241ef489d .color-6 a:visited{stroke:#03A9F4;fill:#03A9F4}#chart-d99b193c-07b8-4a72-b850-968241ef489d .color-7,#chart-d99b193c-07b8-4a72-b850-968241ef489d .color-7 a:visited{stroke:#8BC34A;fill:#8BC34A}#chart-d99b193c-07b8-4a72-b850-968241ef489d .color-8,#chart-d99b193c-07b8-4a72-b850-968241ef489d .color-8 a:visited{stroke:#FF9800;fill:#FF9800}#chart-d99b193c-07b8-4a72-b850-968241ef489d .color-9,#chart-d99b193c-07b8-4a72-b850-968241ef489d .color-9 a:visited{stroke:#E91E63;fill:#E91E63}#chart-d99b193c-07b8-4a72-b850-968241ef489d .color-10,#chart-d99b193c-07b8-4a72-b850-968241ef489d .color-10 a:visited{stroke:#2196F3;fill:#2196F3}#chart-d99b193c-07b8-4a72-b850-968241ef489d .color-11,#chart-d99b193c-07b8-4a72-b850-968241ef489d .color-11 a:visited{stroke:#4CAF50;fill:#4CAF50}#chart-d99b193c-07b8-4a72-b850-968241ef489d .text-overlay .color-0 text{fill:black}#chart-d99b193c-07b8-4a72-b850-968241ef489d .text-overlay .color-1 text{fill:black}#chart-d99b193c-07b8-4a72-b850-968241ef489d .text-overlay .color-2 text{fill:black}#chart-d99b193c-07b8-4a72-b850-968241ef489d .text-overlay .color-3 text{fill:black}#chart-d99b193c-07b8-4a72-b850-968241ef489d .text-overlay .color-4 text{fill:black}#chart-d99b193c-07b8-4a72-b850-968241ef489d .text-overlay .color-5 text{fill:black}#chart-d99b193c-07b8-4a72-b850-968241ef489d .text-overlay .color-6 text{fill:black}#chart-d99b193c-07b8-4a72-b850-968241ef489d .text-overlay .color-7 text{fill:black}#chart-d99b193c-07b8-4a72-b850-968241ef489d .text-overlay .color-8 text{fill:black}#chart-d99b193c-07b8-4a72-b850-968241ef489d .text-overlay .color-9 text{fill:black}#chart-d99b193c-07b8-4a72-b850-968241ef489d .text-overlay .color-10 text{fill:black}#chart-d99b193c-07b8-4a72-b850-968241ef489d .text-overlay .color-11 text{fill:black}
#chart-d99b193c-07b8-4a72-b850-968241ef489d text.no_data{text-anchor:middle}#chart-d99b193c-07b8-4a72-b850-968241ef489d .guide.line{fill:none}#chart-d99b193c-07b8-4a72-b850-968241ef489d .centered{text-anchor:middle}#chart-d99b193c-07b8-4a72-b850-968241ef489d .title{text-anchor:middle}#chart-d99b193c-07b8-4a72-b850-968241ef489d .legends .legend text{fill-opacity:1}#chart-d99b193c-07b8-4a72-b850-968241ef489d .axis.x text{text-anchor:middle}#chart-d99b193c-07b8-4a72-b850-968241ef489d .axis.x:not(.web) text[transform]{text-anchor:start}#chart-d99b193c-07b8-4a72-b850-968241ef489d .axis.x:not(.web) text[transform].backwards{text-anchor:end}#chart-d99b193c-07b8-4a72-b850-968241ef489d .axis.y text{text-anchor:end}#chart-d99b193c-07b8-4a72-b850-968241ef489d .axis.y text[transform].backwards{text-anchor:start}#chart-d99b193c-07b8-4a72-b850-968241ef489d .axis.y2 text{text-anchor:start}#chart-d99b193c-07b8-4a72-b850-968241ef489d .axis.y2 text[transform].backwards{text-anchor:end}#chart-d99b193c-07b8-4a72-b850-968241ef489d .axis .guide.line{stroke-dasharray:4,4}#chart-d99b193c-07b8-4a72-b850-968241ef489d .axis .major.guide.line{stroke-dasharray:6,6}#chart-d99b193c-07b8-4a72-b850-968241ef489d .horizontal .axis.y .guide.line,#chart-d99b193c-07b8-4a72-b850-968241ef489d .horizontal .axis.y2 .guide.line,#chart-d99b193c-07b8-4a72-b850-968241ef489d .vertical .axis.x .guide.line{opacity:0}#chart-d99b193c-07b8-4a72-b850-968241ef489d .horizontal .axis.always_show .guide.line,#chart-d99b193c-07b8-4a72-b850-968241ef489d .vertical .axis.always_show .guide.line{opacity:1 !important}#chart-d99b193c-07b8-4a72-b850-968241ef489d .axis.y .guides:hover .guide.line,#chart-d99b193c-07b8-4a72-b850-968241ef489d .axis.y2 .guides:hover .guide.line,#chart-d99b193c-07b8-4a72-b850-968241ef489d .axis.x .guides:hover .guide.line{opacity:1}#chart-d99b193c-07b8-4a72-b850-968241ef489d .axis .guides:hover text{opacity:1}#chart-d99b193c-07b8-4a72-b850-968241ef489d .nofill{fill:none}#chart-d99b193c-07b8-4a72-b850-968241ef489d .subtle-fill{fill-opacity:.2}#chart-d99b193c-07b8-4a72-b850-968241ef489d .dot{stroke-width:1px;fill-opacity:1}#chart-d99b193c-07b8-4a72-b850-968241ef489d .dot.active{stroke-width:5px}#chart-d99b193c-07b8-4a72-b850-968241ef489d .dot.negative{fill:transparent}#chart-d99b193c-07b8-4a72-b850-968241ef489d text,#chart-d99b193c-07b8-4a72-b850-968241ef489d tspan{stroke:none !important}#chart-d99b193c-07b8-4a72-b850-968241ef489d .series text.active{opacity:1}#chart-d99b193c-07b8-4a72-b850-968241ef489d .tooltip rect{fill-opacity:.95;stroke-width:.5}#chart-d99b193c-07b8-4a72-b850-968241ef489d .tooltip text{fill-opacity:1}#chart-d99b193c-07b8-4a72-b850-968241ef489d .showable{visibility:hidden}#chart-d99b193c-07b8-4a72-b850-968241ef489d .showable.shown{visibility:visible}#chart-d99b193c-07b8-4a72-b850-968241ef489d .gauge-background{fill:rgba(229,229,229,1);stroke:none}#chart-d99b193c-07b8-4a72-b850-968241ef489d .bg-lines{stroke:rgba(249,249,249,1);stroke-width:2px}</style><script type="text/javascript">window.pygal = window.pygal || {};window.pygal.config = window.pygal.config || {};window.pygal.config['d99b193c-07b8-4a72-b850-968241ef489d'] = {"dynamic_print_values": false, "truncate_label": null, "inner_radius": 0, "print_values": false, "xrange": null, "box_mode": "extremes", "title": "Shared lncRNAs across species", "legend_at_bottom_columns": null, "height": 600, "legend_at_bottom": false, "show_legend": true, "show_dots": true, "explicit_size": false, "y_labels_major": null, "show_minor_x_labels": true, "width": 800, "force_uri_protocol": "https", "half_pie": false, "style": {"major_label_font_family": "Consolas, \"Liberation Mono\", Menlo, Courier, monospace", "title_font_family": "Consolas, \"Liberation Mono\", Menlo, Courier, monospace", "stroke_opacity": ".8", "legend_font_family": "Consolas, \"Liberation Mono\", Menlo, Courier, monospace", "colors": ["#F44336", "#3F51B5", "#009688", "#FFC107", "#FF5722", "#9C27B0", "#03A9F4", "#8BC34A", "#FF9800", "#E91E63", "#2196F3", "#4CAF50", "#FFEB3B", "#673AB7", "#00BCD4", "#CDDC39", "#9E9E9E", "#607D8B"], "legend_font_size": 14, "no_data_font_family": "Consolas, \"Liberation Mono\", Menlo, Courier, monospace", "major_label_font_size": 10, "value_background": "rgba(229, 229, 229, 1)", "ci_colors": [], "label_font_family": "Consolas, \"Liberation Mono\", Menlo, Courier, monospace", "label_font_size": 10, "tooltip_font_size": 14, "value_font_size": 16, "font_family": "Consolas, \"Liberation Mono\", Menlo, Courier, monospace", "opacity": ".7", "foreground": "rgba(0, 0, 0, .87)", "plot_background": "rgba(255, 255, 255, 1)", "value_label_font_size": 10, "value_label_font_family": "Consolas, \"Liberation Mono\", Menlo, Courier, monospace", "background": "rgba(249, 249, 249, 1)", "no_data_font_size": 64, "value_colors": [], "guide_stroke_dasharray": "4,4", "transition": "150ms", "foreground_subtle": "rgba(0, 0, 0, .54)", "value_font_family": "Consolas, \"Liberation Mono\", Menlo, Courier, monospace", "tooltip_font_family": "Consolas, \"Liberation Mono\", Menlo, Courier, monospace", "title_font_size": 16, "stroke_opacity_hover": ".9", "major_guide_stroke_dasharray": "6,6", "opacity_hover": ".8", "foreground_strong": "rgba(0, 0, 0, 1)"}, "x_label_rotation": 0, "fill": false, "missing_value_fill_truncation": "x", "zero": 0, "margin_right": null, "interpolation_parameters": {}, "x_labels_major": null, "rounded_bars": null, "show_y_labels": true, "dots_size": 2.5, "show_y_guides": true, "show_minor_y_labels": true, "x_labels": null, "y_title": null, "order_min": null, "formatter": null, "disable_xml_declaration": false, "strict": false, "css": ["file://style.css", "file://graph.css"], "tooltip_fancy_mode": true, "defs": [], "show_only_major_dots": false, "y_label_rotation": 0, "show_x_labels": true, "min_scale": 4, "show_x_guides": false, "spacing": 10, "x_labels_major_count": null, "pretty_print": false, "tooltip_border_radius": 0, "interpolate": null, "js": ["//kozea.github.io/pygal.js/2.0.x/pygal-tooltips.min.js"], "y_labels": null, "stroke_style": null, "print_labels": false, "interpolation_precision": 250, "x_title": null, "y_labels_major_every": null, "logarithmic": false, "legends": ["Conserved in all species", "NonConserved", "Conserved in 1 species", "Conserved in 2", "Conserved in 3", "Conserved in 4", "Conserved in 5", "Conserved in 6", "Conserved in 7", "Conserved in 8", "Conserved in 9", "Conserved in 10"], "max_scale": 16, "print_zeroes": true, "no_data_text": "No data", "truncate_legend": null, "x_labels_major_every": null, "secondary_range": null, "legend_box_size": 12, "no_prefix": false, "stroke": true, "stack_from_top": false, "include_x_axis": false, "range": null, "classes": ["pygal-chart"], "margin_top": null, "margin_left": null, "y_labels_major_count": null, "margin_bottom": null, "inverse_y_axis": false, "margin": 20, "allow_interruptions": false, "print_values_position": "center"}</script><script type="text/javascript" xlink:href="https://kozea.github.io/pygal.js/2.0.x/pygal-tooltips.min.js"/></defs><title>Shared lncRNAs across species</title><g class="graph bar-graph vertical"><rect class="background" height="600" width="800" x="0" y="0"/><g class="plot" transform="translate(196, 46)"><rect class="background" height="534" width="584.0" x="0" y="0"/><g class="axis y"><g class="guides"><path class="axis major line" d="M0.000000 523.730769 h584.000000"/><text class="major" x="-5" y="527.230769231">0</text><title>0</title></g><g class="guides"><path class="guide line" d="M0.000000 458.981521 h584.000000"/><text class="" x="-5" y="462.481521001">100</text><title>100</title></g><g class="guides"><path class="guide line" d="M0.000000 394.232273 h584.000000"/><text class="" x="-5" y="397.732272771">200</text><title>200</title></g><g class="guides"><path class="guide line" d="M0.000000 329.483025 h584.000000"/><text class="" x="-5" y="332.983024542">300</text><title>300</title></g><g class="guides"><path class="guide line" d="M0.000000 264.733776 h584.000000"/><text class="" x="-5" y="268.233776312">400</text><title>400</title></g><g class="guides"><path class="major guide line" d="M0.000000 199.984528 h584.000000"/><text class="major" x="-5" y="203.484528082">500</text><title>500</title></g><g class="guides"><path class="guide line" d="M0.000000 135.235280 h584.000000"/><text class="" x="-5" y="138.735279853">600</text><title>600</title></g><g class="guides"><path class="guide line" d="M0.000000 70.486032 h584.000000"/><text class="" x="-5" y="73.9860316229">700</text><title>700</title></g></g><g class="series serie-0 color-0"><g class="bars"><g class="bar"><rect class="rect reactive tooltip-trigger" height="161.873120574" rx="0" ry="0" width="36.2379487179" x="47.3938461538" y="361.857648657"/><desc class="value">250</desc><desc class="x centered">65.5128205128</desc><desc class="y centered">442.794208944</desc></g></g></g><g class="series serie-1 color-1"><g class="bars"><g class="bar"><rect class="rect reactive tooltip-trigger" height="318.56630129" rx="0" ry="0" width="36.2379487179" x="88.5733333333" y="205.164467941"/><desc class="value">492</desc><desc class="x centered">106.692307692</desc><desc class="y centered">364.447618586</desc></g></g></g><g class="series serie-2 color-2"><g class="bars"><g class="bar"><rect class="rect reactive tooltip-trigger" height="499.216703851" rx="0" ry="0" width="36.2379487179" x="129.752820513" y="24.5140653798"/><desc class="value">771</desc><desc class="x centered">147.871794872</desc><desc class="y centered">274.122417305</desc></g></g></g><g class="series serie-3 color-3"><g class="bars"><g class="bar"><rect class="rect reactive tooltip-trigger" height="513.461538462" rx="0" ry="0" width="36.2379487179" x="170.932307692" y="10.2692307692"/><desc class="value">793</desc><desc class="x centered">189.051282051</desc><desc class="y centered">267.0</desc></g></g></g><g class="series serie-4 color-4"><g class="bars"><g class="bar"><rect class="rect reactive tooltip-trigger" height="468.784557183" rx="0" ry="0" width="36.2379487179" x="212.111794872" y="54.9462120477"/><desc class="value">724</desc><desc class="x centered">230.230769231</desc><desc class="y centered">289.338490639</desc></g></g></g><g class="series serie-5 color-5"><g class="bars"><g class="bar"><rect class="rect reactive tooltip-trigger" height="377.488117179" rx="0" ry="0" width="36.2379487179" x="253.291282051" y="146.242652052"/><desc class="value">583</desc><desc class="x centered">271.41025641</desc><desc class="y centered">334.986710641</desc></g></g></g><g class="series serie-6 color-6"><g class="bars"><g class="bar"><rect class="rect reactive tooltip-trigger" height="292.666601998" rx="0" ry="0" width="36.2379487179" x="294.470769231" y="231.064167233"/><desc class="value">452</desc><desc class="x centered">312.58974359</desc><desc class="y centered">377.397468232</desc></g></g></g><g class="series serie-7 color-7"><g class="bars"><g class="bar"><rect class="rect reactive tooltip-trigger" height="223.384906392" rx="0" ry="0" width="36.2379487179" x="335.65025641" y="300.345862838"/><desc class="value">345</desc><desc class="x centered">353.769230769</desc><desc class="y centered">412.038316035</desc></g></g></g><g class="series serie-8 color-8"><g class="bars"><g class="bar"><rect class="rect reactive tooltip-trigger" height="192.305267242" rx="0" ry="0" width="36.2379487179" x="376.82974359" y="331.425501989"/><desc class="value">297</desc><desc class="x centered">394.948717949</desc><desc class="y centered">427.57813561</desc></g></g></g><g class="series serie-9 color-9"><g class="bars"><g class="bar"><rect class="rect reactive tooltip-trigger" height="180.650402561" rx="0" ry="0" width="36.2379487179" x="418.009230769" y="343.08036667"/><desc class="value">279</desc><desc class="x centered">436.128205128</desc><desc class="y centered">433.40556795</desc></g></g></g><g class="series serie-10 color-10"><g class="bars"><g class="bar"><rect class="rect reactive tooltip-trigger" height="193.600252207" rx="0" ry="0" width="36.2379487179" x="459.188717949" y="330.130517024"/><desc class="value">299</desc><desc class="x centered">477.307692308</desc><desc class="y centered">426.930643127</desc></g></g></g><g class="series serie-11 color-11"><g class="bars"><g class="bar"><rect class="rect reactive tooltip-trigger" height="141.153361141" rx="0" ry="0" width="36.2379487179" x="500.368205128" y="382.57740809"/><desc class="value">218</desc><desc class="x centered">518.487179487</desc><desc class="y centered">453.15408866</desc></g></g></g></g><g class="titles"><text class="title plot_title" x="400.0" y="26">Shared lncRNAs across species</text></g><g class="plot overlay" transform="translate(196, 46)"><g class="series serie-0 color-0"/><g class="series serie-1 color-1"/><g class="series serie-2 color-2"/><g class="series serie-3 color-3"/><g class="series serie-4 color-4"/><g class="series serie-5 color-5"/><g class="series serie-6 color-6"/><g class="series serie-7 color-7"/><g class="series serie-8 color-8"/><g class="series serie-9 color-9"/><g class="series serie-10 color-10"/><g class="series serie-11 color-11"/></g><g class="plot text-overlay" transform="translate(196, 46)"><g class="series serie-0 color-0"/><g class="series serie-1 color-1"/><g class="series serie-2 color-2"/><g class="series serie-3 color-3"/><g class="series serie-4 color-4"/><g class="series serie-5 color-5"/><g class="series serie-6 color-6"/><g class="series serie-7 color-7"/><g class="series serie-8 color-8"/><g class="series serie-9 color-9"/><g class="series serie-10 color-10"/><g class="series serie-11 color-11"/></g><g class="plot tooltip-overlay" transform="translate(196, 46)"><g class="tooltip" style="opacity: 0" transform="translate(0 0)"><rect class="tooltip-box" height="0" rx="0" ry="0" width="0"/><g class="text"/></g></g><g class="legends" transform="translate(10, 56)"><g class="legend reactive activate-serie" id="activate-serie-0"><rect class="color-0 reactive" height="12" width="12" x="0.0" y="1.0"/><text x="17.0" y="11.2">Conserved in a…</text><title>Conserved in all species</title></g><g class="legend reactive activate-serie" id="activate-serie-1"><rect class="color-1 reactive" height="12" width="12" x="0.0" y="22.0"/><text x="17.0" y="32.2">NonConserved</text></g><g class="legend reactive activate-serie" id="activate-serie-2"><rect class="color-2 reactive" height="12" width="12" x="0.0" y="43.0"/><text x="17.0" y="53.2">Conserved in 1…</text><title>Conserved in 1 species</title></g><g class="legend reactive activate-serie" id="activate-serie-3"><rect class="color-3 reactive" height="12" width="12" x="0.0" y="64.0"/><text x="17.0" y="74.2">Conserved in 2</text></g><g class="legend reactive activate-serie" id="activate-serie-4"><rect class="color-4 reactive" height="12" width="12" x="0.0" y="85.0"/><text x="17.0" y="95.2">Conserved in 3</text></g><g class="legend reactive activate-serie" id="activate-serie-5"><rect class="color-5 reactive" height="12" width="12" x="0.0" y="106.0"/><text x="17.0" y="116.2">Conserved in 4</text></g><g class="legend reactive activate-serie" id="activate-serie-6"><rect class="color-6 reactive" height="12" width="12" x="0.0" y="127.0"/><text x="17.0" y="137.2">Conserved in 5</text></g><g class="legend reactive activate-serie" id="activate-serie-7"><rect class="color-7 reactive" height="12" width="12" x="0.0" y="148.0"/><text x="17.0" y="158.2">Conserved in 6</text></g><g class="legend reactive activate-serie" id="activate-serie-8"><rect class="color-8 reactive" height="12" width="12" x="0.0" y="169.0"/><text x="17.0" y="179.2">Conserved in 7</text></g><g class="legend reactive activate-serie" id="activate-serie-9"><rect class="color-9 reactive" height="12" width="12" x="0.0" y="190.0"/><text x="17.0" y="200.2">Conserved in 8</text></g><g class="legend reactive activate-serie" id="activate-serie-10"><rect class="color-10 reactive" height="12" width="12" x="0.0" y="211.0"/><text x="17.0" y="221.2">Conserved in 9</text></g><g class="legend reactive activate-serie" id="activate-serie-11"><rect class="color-11 reactive" height="12" width="12" x="0.0" y="232.0"/><text x="17.0" y="242.2">Conserved in 10</text></g></g><g class="legends" transform="translate(790, 56)"/></g></svg>